0.004277118016034365 CrossValid 42.24382019042969 CrossValidLossesBy500 72.76899719238281 58.94842529296875 54.70942687988281 53.4375 52.773956298828125 52.061248779296875 51.18931579589844 50.23014831542969 49.279998779296875 48.40663146972656 47.63838195800781 46.95368957519531 46.36878967285156 45.845306396484375 45.38902282714844 44.99107360839844 44.63189697265625 44.320343017578125 44.04669189453125 43.79991149902344 43.58113098144531 43.38446044921875 43.213043212890625 43.051910400390625 42.91590881347656 42.79005432128906 42.681365966796875 42.57286071777344 42.485198974609375 42.404998779296875 42.339111328125 42.30010986328125 42.26567077636719 42.24382019042969
17000 LossesBy500 0.02246841974556446 0.01343082357198 0.00990417692810297 0.00846181996166706 0.00772074842825532 0.007209680508822203 0.006773584987968206 0.006383469793945551 0.006038695573806763 0.005743422079831362 0.005498188082128763 0.005292454734444618 0.0051207770593464375 0.0049779098480939865 0.004862337838858366 0.004762263502925634 0.004678672179579735 0.0046113766729831696 0.0045537096448242664 0.004506601020693779 0.004465904086828232 0.004430633969604969 0.004402272868901491 0.0043775783851742744 0.004355771467089653 0.004339952953159809 0.004326667170971632 0.004314302932471037 0.004301062319427729 0.004293583333492279 0.004288196098059416 0.0042815315537154675 0.004278093576431274 0.004277118016034365
log_motor_var 	 [3.8293964862823486]
sigma_logit 	 [-4.056334972381592, -5.376804828643799]
mixture_logit 	 [-4.080697059631348]
prior 	 [0.0, 0.0, 0.0, 0.0, 0.0, 0.0, 0.0, 0.0, 0.0, 0.0, 0.0, 0.0, 0.0, 0.0, 0.0, 0.0, 0.0, 0.0, 0.0, 0.0, 0.0, 0.0, 0.0, 0.0, 0.0, 0.0, 0.0, 0.0, 0.0, 0.0, 0.0, 0.0, 0.0, 0.0, 0.0, 0.0, 0.0, 0.0, 0.0, 0.0, 0.0, 0.0, 0.0, 0.0, 0.0, 0.0, 0.0, 0.0, 0.0, 0.0, 0.0, 0.0, 0.0, 0.0, 0.0, 0.0, 0.0, 0.0, 0.0, 0.0, 0.0, 0.0, 0.0, 0.0, 0.0, 0.0, 0.0, 0.0, 0.0, 0.0, 0.0, 0.0, 0.0, 0.0, 0.0, 0.0, 0.0, 0.0, 0.0, 0.0, 0.0, 0.0, 0.0, 0.0, 0.0, 0.0, 0.0, 0.0, 0.0, 0.0, 0.0, 0.0, 0.0, 0.0, 0.0, 0.0, 0.0, 0.0, 0.0, 0.0, 0.0, 0.0, 0.0, 0.0, 0.0, 0.0, 0.0, 0.0, 0.0, 0.0, 0.0, 0.0, 0.0, 0.0, 0.0, 0.0, 0.0, 0.0, 0.0, 0.0, 0.0, 0.0, 0.0, 0.0, 0.0, 0.0, 0.0, 0.0, 0.0, 0.0, 0.0, 0.0, 0.0, 0.0, 0.0, 0.0, 0.0, 0.0, 0.0, 0.0, 0.0, 0.0, 0.0, 0.0, 0.0, 0.0, 0.0, 0.0, 0.0, 0.0, 0.0, 0.0, 0.0, 0.0, 0.0, 0.0, 0.0, 0.0, 0.0, 0.0, 0.0, 0.0, 0.0, 0.0, 0.0, 0.0, 0.0, 0.0, 0.0, 0.0, 0.0, 0.0, 0.0, 0.0, 0.0, 0.0, 0.0, 0.0, 0.0, 0.0]
volume 	 [0.3128984272480011, 0.2553824484348297, 0.201207235455513, 0.15623585879802704, 0.10598649829626083, 0.05631029233336449, 0.006408053450286388, -0.044616177678108215, -0.09347525238990784, -0.13250967860221863, -0.15838822722434998, -0.17369107902050018, -0.17488928139209747, -0.1576683670282364, -0.12011852860450745, -0.07405205070972443, -0.020370863378047943, 0.04105526581406593, 0.11361774802207947, 0.19697698950767517, 0.2863013446331024, 0.3765188157558441, 0.46595972776412964, 0.5487475991249084, 0.6355690360069275, 0.7137560844421387, 0.7817816734313965, 0.8330945372581482, 0.8673399090766907, 0.879581093788147, 0.8659653663635254, 0.8316406011581421, 0.7729555368423462, 0.7022449970245361, 0.628723680973053, 0.5423163771629333, 0.45077502727508545, 0.35809165239334106, 0.25844451785087585, 0.16394071280956268, 0.08419578522443771, 0.010307693853974342, -0.06184472143650055, -0.12861832976341248, -0.17950403690338135, -0.21695749461650848, -0.24752463400363922, -0.27385231852531433, -0.2960721254348755, -0.30952295660972595, -0.3177592158317566, -0.32808858156204224, -0.34401366114616394, -0.36704522371292114, -0.3904515504837036, -0.40960273146629333, -0.42275112867355347, -0.4235011637210846, -0.41278183460235596, -0.39625459909439087, -0.37338435649871826, -0.3462850749492645, -0.3126019835472107, -0.26878809928894043, -0.20942562818527222, -0.15209949016571045, -0.09620668739080429, -0.04672661051154137, -0.0015884307213127613, 0.03132025897502899, 0.06868606805801392, 0.11376932263374329, 0.17417803406715393, 0.23371554911136627, 0.2877930998802185, 0.33022186160087585, 0.3601042926311493, 0.38467440009117126, 0.3965618312358856, 0.39170461893081665, 0.3751077950000763, 0.35187438130378723, 0.31959548592567444, 0.27345219254493713, 0.2072702944278717, 0.1336485892534256, 0.05628345534205437, -0.023226143792271614, -0.09836921095848083, -0.17917177081108093, -0.25782331824302673, -0.3322930932044983, -0.4043789207935333, -0.4701862633228302, -0.5310829877853394, -0.593539834022522, -0.6540210247039795, -0.7017430663108826, -0.7366431951522827, -0.7603272795677185, -0.7685144543647766, -0.7662187218666077, -0.7501032948493958, -0.7249158024787903, -0.6861373782157898, -0.6366787552833557, -0.5760797262191772, -0.5077083110809326, -0.43373873829841614, -0.3592606484889984, -0.2885179817676544, -0.226650670170784, -0.16175240278244019, -0.09043003618717194, -0.009885941632091999, 0.06891527771949768, 0.14352360367774963, 0.19918964803218842, 0.23554003238677979, 0.2492121011018753, 0.24374689161777496, 0.22526782751083374, 0.20034466683864594, 0.16781680285930634, 0.12462913990020752, 0.06358060240745544, -0.009134722873568535, -0.09335263073444366, -0.1722540706396103, -0.24558493494987488, -0.31256788969039917, -0.37263861298561096, -0.4220506250858307, -0.4596330523490906, -0.4846939444541931, -0.4911196231842041, -0.4843411445617676, -0.46867597103118896, -0.44427937269210815, -0.405638724565506, -0.3606172204017639, -0.32010170817375183, -0.27926117181777954, -0.23853275179862976, -0.20031185448169708, -0.16681736707687378, -0.13251887261867523, -0.10631831735372543, -0.08051922917366028, -0.04948469251394272, -0.012241418473422527, 0.01905452273786068, 0.045332908630371094, 0.06531628221273422, 0.08194823563098907, 0.09790465235710144, 0.1051979511976242, 0.10741735249757767, 0.10891727358102798, 0.11505521833896637, 0.12763279676437378, 0.143631249666214, 0.1618335098028183, 0.1775665432214737, 0.1932913064956665, 0.20993539690971375, 0.23194007575511932, 0.27122724056243896, 0.3272448480129242, 0.3982415199279785, 0.46737736463546753, 0.5189685225486755, 0.549751341342926, 0.567148745059967, 0.5754863619804382, 0.5694864988327026, 0.5423104166984558, 0.5038756132125854, 0.4504100978374481, 0.3756178021430969]
