-0.029567262157797813 CrossValid -7.2212677001953125 CrossValidLossesBy500 54.68731689453125 29.503021240234375 19.631622314453125 15.4791259765625 13.296478271484375 11.81829833984375 10.613662719726562 9.6031494140625 8.67132568359375 7.9339141845703125 7.2209014892578125 6.612213134765625 6.048431396484375 5.5416259765625 5.0517578125 4.6332855224609375 4.1887054443359375 3.778717041015625 3.432586669921875 3.089599609375 2.732757568359375 2.4055328369140625 2.09930419921875 1.82000732421875 1.527862548828125 1.252044677734375 0.9913177490234375 0.741912841796875 0.50042724609375 0.2640228271484375 0.024444580078125 -0.191619873046875 -0.4048919677734375 -0.6226806640625 -0.85443115234375 -1.0439910888671875 -1.2406158447265625 -1.4259033203125 -1.618072509765625 -1.778411865234375 -1.95849609375 -2.1190185546875 -2.2894134521484375 -2.4558563232421875 -2.6094818115234375 -2.7539215087890625 -2.85064697265625 -3.012847900390625 -3.16845703125 -3.31036376953125 -3.4472503662109375 -3.57965087890625 -3.712249755859375 -3.8160247802734375 -3.9463958740234375 -4.0588226318359375 -4.141326904296875 -4.1878662109375 -4.34423828125 -4.4765625 -4.60247802734375 -4.709686279296875 -4.80316162109375 -4.9082183837890625 -5.006439208984375 -5.09051513671875 -5.191070556640625 -5.284454345703125 -5.3638458251953125 -5.45501708984375 -5.551971435546875 -5.6260528564453125 -5.6928863525390625 -5.785614013671875 -5.871826171875 -5.927581787109375 -5.969635009765625 -6.05584716796875 -6.152679443359375 -6.240814208984375 -6.319610595703125 -6.38848876953125 -6.460968017578125 -6.533050537109375 -6.6050872802734375 -6.677001953125 -6.7281951904296875 -6.8033447265625 -6.8626708984375 -6.92529296875 -6.97186279296875 -7.0201568603515625 -7.070098876953125 -7.1150360107421875 -7.1571044921875 -7.1798553466796875 -7.20379638671875 -7.2212677001953125
49000 LossesBy500 0.011866542510688305 -0.004393128678202629 -0.0120738809928298 -0.016011467203497887 -0.018328065052628517 -0.01987946592271328 -0.021004680544137955 -0.02187683992087841 -0.02258203737437725 -0.023166343569755554 -0.023655012249946594 -0.024062970653176308 -0.024423910304903984 -0.024746309965848923 -0.02502145990729332 -0.02527422085404396 -0.025514882057905197 -0.02571807987987995 -0.02591276541352272 -0.0260829646140337 -0.026251008734107018 -0.02639828249812126 -0.026546720415353775 -0.026678143069148064 -0.026813529431819916 -0.02692175656557083 -0.027036886662244797 -0.02713174745440483 -0.02723836712539196 -0.02733572944998741 -0.027426453307271004 -0.02750871330499649 -0.027590900659561157 -0.02767218090593815 -0.027750305831432343 -0.027820030227303505 -0.02788926474750042 -0.027955591678619385 -0.028017312288284302 -0.02807704173028469 -0.02813427709043026 -0.02819269336760044 -0.028250113129615784 -0.02829682268202305 -0.028348635882139206 -0.02839784324169159 -0.028442353010177612 -0.028488559648394585 -0.028530003502964973 -0.028575550764799118 -0.028611212968826294 -0.028653249144554138 -0.028691260144114494 -0.028727352619171143 -0.028762100264430046 -0.02879590541124344 -0.02882588654756546 -0.028854595497250557 -0.02888631820678711 -0.028918994590640068 -0.02894311025738716 -0.028975069522857666 -0.028996383771300316 -0.029026180505752563 -0.029050102457404137 -0.02907921001315117 -0.029100600630044937 -0.029124386608600616 -0.029141997918486595 -0.029168711975216866 -0.029186474159359932 -0.029211368411779404 -0.029229916632175446 -0.029249949380755424 -0.029271554201841354 -0.029286019504070282 -0.02930336259305477 -0.02932356484234333 -0.029340244829654694 -0.029357504099607468 -0.029369553551077843 -0.029389986768364906 -0.029403218999505043 -0.02941938117146492 -0.029430262744426727 -0.0294461902230978 -0.02946242317557335 -0.029473740607500076 -0.029491713270545006 -0.029498763382434845 -0.029510434716939926 -0.02952166646718979 -0.029532238841056824 -0.0295389574021101 -0.029548725113272667 -0.029553599655628204 -0.029558435082435608 -0.029567262157797813
log_motor_var 	 [4.375647068023682]
sigma_logit 	 [-3.8035213947296143, -4.750468730926514]
mixture_logit 	 [-4.059159755706787]
prior 	 [-0.27364104986190796, -0.28238508105278015, -0.29084059596061707, -0.2993622422218323, -0.3082342743873596, -0.3174772262573242, -0.3267326056957245, -0.33529430627822876, -0.34223228693008423, -0.3464975953102112, -0.34713131189346313, -0.3433670103549957, -0.3347146809101105, -0.3210437595844269, -0.302581787109375, -0.2798897325992584, -0.25385919213294983, -0.2255530208349228, -0.1961180716753006, -0.16659015417099, -0.13778267800807953, -0.11026138812303543, -0.0844564437866211, -0.060861483216285706, -0.04009627550840378, -0.0225832499563694, -0.0078071230091154575, 0.006320408079773188, 0.023235363885760307, 0.04647202417254448, 0.07826768606901169, 0.11889860033988953, 0.16699644923210144, 0.22051644325256348, 0.2777532935142517, 0.3380219340324402, 0.4016779959201813, 0.4694458246231079, 0.5414523482322693, 0.6165714263916016, 0.6922537088394165, 0.7650943398475647, 0.831558883190155, 0.888719916343689, 0.9348765015602112, 0.9697168469429016, 0.9941175580024719, 1.0099067687988281, 1.0192159414291382, 1.0242955684661865, 1.027007818222046, 1.0287971496582031, 1.030575156211853, 1.0328069925308228, 1.0356210470199585, 1.0389362573623657, 1.0425559282302856, 1.0462349653244019, 1.0497246980667114, 1.0527846813201904, 1.0551893711090088, 1.0567446947097778, 1.0572967529296875, 1.0567398071289062, 1.0550037622451782, 1.052014708518982, 1.047631859779358, 1.0417048931121826, 1.0341126918792725, 1.02463960647583, 1.0132373571395874, 0.9999756217002869, 0.9849861860275269, 0.9683751463890076, 0.9498590230941772, 0.9286375641822815, 0.9033080339431763, 0.8720929622650146, 0.8333168029785156, 0.7858628630638123, 0.7294613718986511, 0.6647921800613403, 0.5932092666625977, 0.5163982510566711, 0.4360698163509369, 0.35383349657058716, 0.2712351083755493, 0.18964321911334991, 0.1102382019162178, 0.03388696908950806, -0.03889339789748192, -0.10793424397706985, -0.1733538657426834, -0.23546747863292694, -0.2946895360946655, -0.35142266750335693, -0.40602025389671326, -0.45871293544769287, -0.5095717906951904, -0.5585497617721558, -0.6054717898368835, -0.650084376335144, -0.6921247243881226, -0.7312732338905334, -0.7672314643859863, -0.7997565865516663, -0.828714907169342, -0.8540955781936646, -0.876091480255127, -0.8951480388641357, -0.9119884967803955, -0.9275221824645996, -0.9427237510681152, -0.9582668542861938, -0.9742948412895203, -0.990359902381897, -1.0054811239242554, -1.018534541130066, -1.0285009145736694, -1.034894585609436, -1.0379784107208252, -1.0383405685424805, -1.0368211269378662, -1.0339332818984985, -1.0298210382461548, -1.0240424871444702, -1.0158737897872925, -1.0043864250183105, -0.9888249039649963, -0.9686595797538757, -0.9438138604164124, -0.9145697951316833, -0.8814576268196106, -0.8451363444328308, -0.8062804937362671, -0.7654812932014465, -0.7231547236442566, -0.6795849800109863, -0.6349056959152222, -0.5890622138977051, -0.541872501373291, -0.49306821823120117, -0.442336767911911, -0.389397531747818, -0.33400142192840576, -0.2760111689567566, -0.2154514342546463, -0.15259699523448944, -0.08806974440813065, -0.02286558970808983, 0.04159193113446236, 0.10342305898666382, 0.16036517918109894, 0.21005462110042572, 0.25040963292121887, 0.2800074815750122, 0.29830971360206604, 0.3057219088077545, 0.3034311532974243, 0.2931193709373474, 0.2765040993690491, 0.25498121976852417, 0.22936426103115082, 0.19980522990226746, 0.16596636176109314, 0.1273733228445053, 0.08391448110342026, 0.03630023077130318, -0.01369245070964098, -0.06330547481775284, -0.10923701524734497, -0.1484147310256958, -0.17894431948661804, -0.2007959932088852, -0.21576419472694397, -0.2266012281179428, -0.23588569462299347, -0.24515804648399353, -0.25477135181427, -0.2643944025039673]
volume 	 [0.25408652424812317, 0.20366860926151276, 0.15869787335395813, 0.1235761046409607, 0.08237338811159134, 0.039833761751651764, -0.005154662299901247, -0.0539761483669281, -0.10266140848398209, -0.1437796652317047, -0.173675999045372, -0.19429154694080353, -0.20171037316322327, -0.19150981307029724, -0.1617182046175003, -0.12376396358013153, -0.07813741266727448, -0.024191683158278465, 0.0413224920630455, 0.11784365028142929, 0.20046889781951904, 0.28339436650276184, 0.36550238728523254, 0.4405107796192169, 0.5210272073745728, 0.5952543020248413, 0.6627488732337952, 0.7149279713630676, 0.7522841095924377, 0.7659342288970947, 0.7556607127189636, 0.728401780128479, 0.6836106181144714, 0.6370638608932495, 0.5957191586494446, 0.5431684255599976, 0.48363742232322693, 0.4151076078414917, 0.3322731852531433, 0.24777773022651672, 0.17463871836662292, 0.10407847166061401, 0.03344884142279625, -0.03501047194004059, -0.08964701741933823, -0.13541094958782196, -0.18029680848121643, -0.22783231735229492, -0.27641141414642334, -0.32093268632888794, -0.3632429242134094, -0.40823885798454285, -0.45546895265579224, -0.5049959421157837, -0.5487664937973022, -0.5829622149467468, -0.6051878929138184, -0.6098203659057617, -0.5980629324913025, -0.573830246925354, -0.5369571447372437, -0.4891066551208496, -0.42977723479270935, -0.3564065396785736, -0.2660394608974457, -0.1763087511062622, -0.0909438207745552, -0.01625659316778183, 0.04720747098326683, 0.09259786456823349, 0.13603796064853668, 0.18156355619430542, 0.2333422750234604, 0.27488139271736145, 0.3014878034591675, 0.3111405372619629, 0.3073548674583435, 0.3038859963417053, 0.2951296269893646, 0.2773094177246094, 0.25323858857154846, 0.2271145135164261, 0.19608710706233978, 0.15642836689949036, 0.10138855129480362, 0.04156709834933281, -0.021342167630791664, -0.08779061585664749, -0.1527349352836609, -0.22671625018119812, -0.30418774485588074, -0.3834814131259918, -0.46437692642211914, -0.5407467484474182, -0.6112675070762634, -0.6794888377189636, -0.7416296601295471, -0.7862333655357361, -0.8125097155570984, -0.8209273219108582, -0.8079097270965576, -0.776361346244812, -0.7253880500793457, -0.6596654653549194, -0.5780125856399536, -0.4842534363269806, -0.3817938566207886, -0.2761731445789337, -0.1738203912973404, -0.08064068853855133, -0.0027633518911898136, 0.05597439035773277, 0.11080100387334824, 0.17262104153633118, 0.24430398643016815, 0.31190750002861023, 0.3680189847946167, 0.39893093705177307, 0.4118276834487915, 0.40757301449775696, 0.38964593410491943, 0.36427658796310425, 0.337907075881958, 0.3091702163219452, 0.2755895256996155, 0.22758691012859344, 0.17010176181793213, 0.0976945012807846, 0.027512945234775543, -0.042046185582876205, -0.10863395780324936, -0.17301996052265167, -0.22982822358608246, -0.2787822186946869, -0.3168509304523468, -0.3369455933570862, -0.34431809186935425, -0.3424738645553589, -0.3294566571712494, -0.2997523546218872, -0.2615301012992859, -0.22706452012062073, -0.19213059544563293, -0.15967558324337006, -0.1327013224363327, -0.11421281844377518, -0.09818010032176971, -0.09356129914522171, -0.08967664837837219, -0.08061885833740234, -0.06492482125759125, -0.053148504346609116, -0.043698687106370926, -0.0376422293484211, -0.030258243903517723, -0.018511420115828514, -0.009667993523180485, -0.001714425510726869, 0.0070259785279631615, 0.01989571377635002, 0.03734740614891052, 0.05681642144918442, 0.07726390659809113, 0.09603552520275116, 0.1151544451713562, 0.13583660125732422, 0.16127033531665802, 0.2048148363828659, 0.2655419707298279, 0.34175655245780945, 0.414216011762619, 0.4661845266819, 0.4911442697048187, 0.49886149168014526, 0.4984765946865082, 0.48739492893218994, 0.45861881971359253, 0.4234994649887085, 0.37746360898017883, 0.31247538328170776]
