0.00712363887578249 CrossValid 31.8045654296875 CrossValidLossesBy500 96.58502197265625 91.00251770019531 86.69847106933594 82.77455139160156 79.20683288574219 76.03266906738281 73.21910095214844 70.71763610839844 68.54620361328125 66.64089965820312 64.95596313476562 63.44134521484375 62.096588134765625 60.878570556640625 59.7911376953125 58.80567932128906 57.907562255859375 57.06861877441406 56.319610595703125 55.60502624511719 54.94256591796875 54.31163024902344 53.73687744140625 53.2098388671875 52.6572265625 52.192230224609375 51.721710205078125 51.24192810058594 50.82281494140625 50.409027099609375 49.97015380859375 49.58697509765625 49.200469970703125 48.811737060546875 48.44317626953125 48.08906555175781 47.70951843261719 47.353912353515625 47.013916015625 46.66590881347656 46.32884216308594 45.984375 45.658111572265625 45.317596435546875 44.983551025390625 44.66546630859375 44.34483337402344 44.027618408203125 43.717987060546875 43.405975341796875 43.09904479980469 42.815948486328125 42.516571044921875 42.22721862792969 41.95228576660156 41.674163818359375 41.40110778808594 41.14263916015625 40.88737487792969 40.62992858886719 40.36940002441406 40.13035583496094 39.89198303222656 39.66230773925781 39.427276611328125 39.208648681640625 38.98077392578125 38.77534484863281 38.56427001953125 38.351165771484375 38.1494140625 37.95951843261719 37.76148986816406 37.56358337402344 37.37664794921875 37.197418212890625 37.030914306640625 36.85467529296875 36.68574523925781 36.51777648925781 36.34135437011719 36.18830871582031 36.030426025390625 35.8782958984375 35.72322082519531 35.572967529296875 35.43243408203125 35.29290771484375 35.15313720703125 35.0162353515625 34.88468933105469 34.752777099609375 34.6180419921875 34.494049072265625 34.37394714355469 34.25001525878906 34.13008117675781 34.015045166015625 33.897674560546875 33.78485107421875 33.6768798828125 33.56773376464844 33.46037292480469 33.35931396484375 33.250946044921875 33.15478515625 33.05133056640625 32.95582580566406 32.861297607421875 32.76435852050781 32.669677734375 32.58270263671875 32.49589538574219 32.40606689453125 32.31980895996094 32.229888916015625 32.14521789550781 32.082061767578125 32.02168273925781 31.950942993164062 31.89947509765625 31.86212158203125 31.829071044921875 31.8045654296875
62000 LossesBy500 0.03102332353591919 0.028008397668600082 0.025922974571585655 0.024113673716783524 0.02251405082643032 0.021116776391863823 0.019900867715477943 0.018839813768863678 0.017926767468452454 0.01714341901242733 0.01645307056605816 0.015851732343435287 0.015330641530454159 0.01486891508102417 0.014449328184127808 0.014076449908316135 0.013744762167334557 0.013441930525004864 0.013170994818210602 0.012920841574668884 0.012701927684247494 0.012487389147281647 0.012298144400119781 0.012102208100259304 0.011947007849812508 0.011770440265536308 0.011633752845227718 0.01148910727351904 0.011352330446243286 0.011222541332244873 0.011101653799414635 0.01098445151001215 0.010874055325984955 0.010758375748991966 0.010650591924786568 0.010552799329161644 0.01045459695160389 0.010343736037611961 0.010261980816721916 0.010174654424190521 0.010080060921609402 0.009992662817239761 0.009908536449074745 0.009823414497077465 0.00974218174815178 0.009664937853813171 0.009586523286998272 0.0095115527510643 0.00943906418979168 0.009365996345877647 0.009293666109442711 0.009226823225617409 0.0091636274009943 0.009097632020711899 0.00903207529336214 0.008977701887488365 0.008918849751353264 0.00886080414056778 0.008798317983746529 0.008747727610170841 0.008694637566804886 0.008639879524707794 0.008589268662035465 0.008546417579054832 0.008496558293700218 0.008448042906820774 0.008406009525060654 0.00836385041475296 0.008320501074194908 0.008280589245259762 0.008240900002419949 0.008197454735636711 0.008165332488715649 0.008126349188387394 0.008089741691946983 0.008055373094975948 0.008024293929338455 0.007992610335350037 0.00795652624219656 0.007924962788820267 0.007897963747382164 0.007863001897931099 0.007833989337086678 0.007809426635503769 0.007783330511301756 0.007752127014100552 0.0077309696935117245 0.007704590447247028 0.007677700370550156 0.0076538873836398125 0.007630141917616129 0.007606125436723232 0.007586376741528511 0.007563146762549877 0.007540130987763405 0.007522090338170528 0.007498381193727255 0.007478071376681328 0.007458728738129139 0.0074409968219697475 0.0074231792241334915 0.007402876392006874 0.007388582918792963 0.007369176484644413 0.0073519302532076836 0.007336434442549944 0.007319251075387001 0.007304830476641655 0.007287244312465191 0.0072731380350887775 0.007259132340550423 0.007243636529892683 0.007229423150420189 0.007214265875518322 0.007202892564237118 0.007186581380665302 0.007177215069532394 0.007165922783315182 0.007155518047511578 0.007145762909203768 0.007137678563594818 0.007131469901651144 0.0071277739480137825 0.00712363887578249
log_motor_var 	 [4.016534328460693]
sigma_logit 	 [-3.731174945831299, -4.811956405639648]
mixture_logit 	 [-4.016915798187256]
prior 	 [-0.33106446266174316, -0.2937067151069641, -0.25178617238998413, -0.20708602666854858, -0.16132645308971405, -0.11608842760324478, -0.07275348901748657, -0.0324825793504715, 0.003781400853767991, 0.03529113158583641, 0.061455972492694855, 0.08181937038898468, 0.09607549011707306, 0.10412178933620453, 0.10611969977617264, 0.10249912738800049, 0.09388487040996552, 0.08094010502099991, 0.06424456089735031, 0.04424111545085907, 0.021336248144507408, -0.00392278702929616, -0.030682273209095, -0.05773065611720085, -0.0835951417684555, -0.10673020780086517, -0.1257181316614151, -0.13937132060527802, -0.14672806859016418, -0.14699214696884155, -0.13943612575531006, -0.12336347252130508, -0.09813910722732544, -0.06325285136699677, -0.01841258630156517, 0.03639211878180504, 0.10086120665073395, 0.17438983917236328, 0.2561103105545044, 0.3449394106864929, 0.43964266777038574, 0.5388821363449097, 0.6412919163703918, 0.7454895377159119, 0.850072979927063, 0.9537042379379272, 1.0550668239593506, 1.152895212173462, 1.2460112571716309, 1.3332178592681885, 1.413364052772522, 1.4852993488311768, 1.5478386878967285, 1.5998769998550415, 1.6404492855072021, 1.6688594818115234, 1.6846779584884644, 1.6877694129943848, 1.678376317024231, 1.6569675207138062, 1.6243046522140503, 1.5813641548156738, 1.5295168161392212, 1.4702661037445068, 1.4053360223770142, 1.3365929126739502, 1.2659320831298828, 1.1950888633728027, 1.1256368160247803, 1.0589327812194824, 0.9959640502929688, 0.9374235272407532, 0.8836989998817444, 0.8350344300270081, 0.7914777398109436, 0.7530596852302551, 0.719759464263916, 0.6914418935775757, 0.6678875684738159, 0.6486620903015137, 0.6331445574760437, 0.6205950975418091, 0.6102336645126343, 0.6012773513793945, 0.5930495262145996, 0.5850025415420532, 0.576642632484436, 0.5673851370811462, 0.5565053820610046, 0.5430570840835571, 0.5257879495620728, 0.5031721591949463, 0.47352612018585205, 0.435028612613678, 0.38594695925712585, 0.32485562562942505, 0.25077158212661743, 0.1633255034685135, 0.06283365190029144, -0.04972079023718834, -0.172757089138031, -0.30419471859931946, -0.44159308075904846, -0.5822665691375732, -0.7234516739845276, -0.862474262714386, -0.9967997074127197, -1.1242903470993042, -1.2431985139846802, -1.3521586656570435, -1.4501997232437134, -1.5368363857269287, -1.611979603767395, -1.6758167743682861, -1.728773832321167, -1.771484613418579, -1.8045591115951538, -1.8284831047058105, -1.843591332435608, -1.8500816822052002, -1.847912073135376, -1.8370004892349243, -1.8171740770339966, -1.788383960723877, -1.7506717443466187, -1.70420503616333, -1.6493771076202393, -1.5866860151290894, -1.516843318939209, -1.440796971321106, -1.3595733642578125, -1.2743399143218994, -1.1863504648208618, -1.0968607664108276, -1.0070130825042725, -0.9178749918937683, -0.8304412364959717, -0.7455630898475647, -0.6638633012771606, -0.5857850313186646, -0.5114719271659851, -0.44078993797302246, -0.3733706474304199, -0.3087520897388458, -0.24651513993740082, -0.1864091455936432, -0.12844891846179962, -0.0728924423456192, -0.020150499418377876, 0.029323212802410126, 0.0751364454627037, 0.11699362844228745, 0.15466295182704926, 0.1878839135169983, 0.216317817568779, 0.23949888348579407, 0.25684356689453125, 0.2676573693752289, 0.27120441198349, 0.2667021155357361, 0.25342226028442383, 0.23086687922477722, 0.19897739589214325, 0.158314049243927, 0.11014137417078018, 0.05629747360944748, -0.0010740607976913452, -0.059832919389009476, -0.11807668209075928, -0.1742241084575653, -0.22694675624370575, -0.2750248610973358, -0.31721559166908264, -0.352230429649353, -0.3788047134876251, -0.39584603905677795, -0.4026374816894531, -0.39895954728126526, -0.38515135645866394, -0.36208316683769226]
volume 	 [0.0, 0.0, 0.0, 0.0, 0.0, 0.0, 0.0, 0.0, 0.0, 0.0, 0.0, 0.0, 0.0, 0.0, 0.0, 0.0, 0.0, 0.0, 0.0, 0.0, 0.0, 0.0, 0.0, 0.0, 0.0, 0.0, 0.0, 0.0, 0.0, 0.0, 0.0, 0.0, 0.0, 0.0, 0.0, 0.0, 0.0, 0.0, 0.0, 0.0, 0.0, 0.0, 0.0, 0.0, 0.0, 0.0, 0.0, 0.0, 0.0, 0.0, 0.0, 0.0, 0.0, 0.0, 0.0, 0.0, 0.0, 0.0, 0.0, 0.0, 0.0, 0.0, 0.0, 0.0, 0.0, 0.0, 0.0, 0.0, 0.0, 0.0, 0.0, 0.0, 0.0, 0.0, 0.0, 0.0, 0.0, 0.0, 0.0, 0.0, 0.0, 0.0, 0.0, 0.0, 0.0, 0.0, 0.0, 0.0, 0.0, 0.0, 0.0, 0.0, 0.0, 0.0, 0.0, 0.0, 0.0, 0.0, 0.0, 0.0, 0.0, 0.0, 0.0, 0.0, 0.0, 0.0, 0.0, 0.0, 0.0, 0.0, 0.0, 0.0, 0.0, 0.0, 0.0, 0.0, 0.0, 0.0, 0.0, 0.0, 0.0, 0.0, 0.0, 0.0, 0.0, 0.0, 0.0, 0.0, 0.0, 0.0, 0.0, 0.0, 0.0, 0.0, 0.0, 0.0, 0.0, 0.0, 0.0, 0.0, 0.0, 0.0, 0.0, 0.0, 0.0, 0.0, 0.0, 0.0, 0.0, 0.0, 0.0, 0.0, 0.0, 0.0, 0.0, 0.0, 0.0, 0.0, 0.0, 0.0, 0.0, 0.0, 0.0, 0.0, 0.0, 0.0, 0.0, 0.0, 0.0, 0.0, 0.0, 0.0, 0.0, 0.0, 0.0, 0.0, 0.0, 0.0, 0.0, 0.0]
