-0.012895935215055943 CrossValid 33.558990478515625 CrossValidLossesBy500 67.59333801269531 45.02616882324219 39.4769287109375 37.267364501953125 36.14863586425781 35.4564208984375 34.926666259765625 34.514007568359375 34.21199035644531 33.999908447265625 33.85882568359375 33.7615966796875 33.68731689453125 33.64060974121094 33.604705810546875 33.58265686035156 33.57371520996094 33.56214904785156 33.558990478515625
9500 LossesBy500 0.000801119371317327 -0.00793398916721344 -0.009902064688503742 -0.010947289876639843 -0.011719221249222755 -0.012214047834277153 -0.012495536357164383 -0.012655138038098812 -0.01274962816387415 -0.012805004604160786 -0.01283816248178482 -0.012860054150223732 -0.012872454710304737 -0.012883584946393967 -0.012887137942016125 -0.012892195954918861 -0.012894289568066597 -0.012895067222416401 -0.012895935215055943
log_motor_var 	 [3.8412067890167236]
sigma_logit 	 [-3.9326751232147217, -5.191725730895996]
mixture_logit 	 [-4.11655855178833]
prior 	 [0.0, 0.0, 0.0, 0.0, 0.0, 0.0, 0.0, 0.0, 0.0, 0.0, 0.0, 0.0, 0.0, 0.0, 0.0, 0.0, 0.0, 0.0, 0.0, 0.0, 0.0, 0.0, 0.0, 0.0, 0.0, 0.0, 0.0, 0.0, 0.0, 0.0, 0.0, 0.0, 0.0, 0.0, 0.0, 0.0, 0.0, 0.0, 0.0, 0.0, 0.0, 0.0, 0.0, 0.0, 0.0, 0.0, 0.0, 0.0, 0.0, 0.0, 0.0, 0.0, 0.0, 0.0, 0.0, 0.0, 0.0, 0.0, 0.0, 0.0, 0.0, 0.0, 0.0, 0.0, 0.0, 0.0, 0.0, 0.0, 0.0, 0.0, 0.0, 0.0, 0.0, 0.0, 0.0, 0.0, 0.0, 0.0, 0.0, 0.0, 0.0, 0.0, 0.0, 0.0, 0.0, 0.0, 0.0, 0.0, 0.0, 0.0, 0.0, 0.0, 0.0, 0.0, 0.0, 0.0, 0.0, 0.0, 0.0, 0.0, 0.0, 0.0, 0.0, 0.0, 0.0, 0.0, 0.0, 0.0, 0.0, 0.0, 0.0, 0.0, 0.0, 0.0, 0.0, 0.0, 0.0, 0.0, 0.0, 0.0, 0.0, 0.0, 0.0, 0.0, 0.0, 0.0, 0.0, 0.0, 0.0, 0.0, 0.0, 0.0, 0.0, 0.0, 0.0, 0.0, 0.0, 0.0, 0.0, 0.0, 0.0, 0.0, 0.0, 0.0, 0.0, 0.0, 0.0, 0.0, 0.0, 0.0, 0.0, 0.0, 0.0, 0.0, 0.0, 0.0, 0.0, 0.0, 0.0, 0.0, 0.0, 0.0, 0.0, 0.0, 0.0, 0.0, 0.0, 0.0, 0.0, 0.0, 0.0, 0.0, 0.0, 0.0, 0.0, 0.0, 0.0, 0.0, 0.0, 0.0]
volume 	 [0.3400363028049469, 0.3052303194999695, 0.27316269278526306, 0.24544480443000793, 0.21085906028747559, 0.175667867064476, 0.14323845505714417, 0.11208272725343704, 0.08782406896352768, 0.0655842199921608, 0.04552822932600975, 0.026207027956843376, 0.014650503173470497, 0.01647120714187622, 0.030383441597223282, 0.04429999366402626, 0.061839669942855835, 0.0838332399725914, 0.12066991627216339, 0.16765698790550232, 0.21864329278469086, 0.271529883146286, 0.32456934452056885, 0.3675674498081207, 0.4028307795524597, 0.4358169734477997, 0.46497219800949097, 0.4927932322025299, 0.5109812021255493, 0.5150703191757202, 0.5053123831748962, 0.48766928911209106, 0.4621051251888275, 0.4389875829219818, 0.41397368907928467, 0.37313011288642883, 0.3239098787307739, 0.2690527141094208, 0.20456629991531372, 0.13636501133441925, 0.07330372929573059, 0.008100012317299843, -0.05752565711736679, -0.11856307834386826, -0.16512562334537506, -0.20184326171875, -0.23358333110809326, -0.2646745443344116, -0.2946639358997345, -0.3193141222000122, -0.3396773636341095, -0.3628161549568176, -0.3891800045967102, -0.4225230813026428, -0.45466816425323486, -0.48510614037513733, -0.5070664286613464, -0.5150380730628967, -0.5094485878944397, -0.4941745400428772, -0.4709828794002533, -0.4429081082344055, -0.4080190360546112, -0.36460915207862854, -0.3135576546192169, -0.26933249831199646, -0.23423157632350922, -0.20661349594593048, -0.18634656071662903, -0.17797884345054626, -0.16903217136859894, -0.16020314395427704, -0.14620943367481232, -0.13309502601623535, -0.125945582985878, -0.12341289967298508, -0.1272117644548416, -0.12414088100194931, -0.1180044487118721, -0.11698464304208755, -0.11944128572940826, -0.1183764711022377, -0.11813315749168396, -0.12395535409450531, -0.13976937532424927, -0.16257719695568085, -0.19138093292713165, -0.22296935319900513, -0.25252699851989746, -0.2893117070198059, -0.3266712725162506, -0.3665224015712738, -0.407780259847641, -0.444857656955719, -0.47704756259918213, -0.5079362392425537, -0.5342915654182434, -0.5457651019096375, -0.5439774394035339, -0.5297138690948486, -0.49852341413497925, -0.45222216844558716, -0.3920498788356781, -0.32256343960762024, -0.243154376745224, -0.16042377054691315, -0.07503530383110046, 0.007893053814768791, 0.0806223526597023, 0.13673053681850433, 0.1768709421157837, 0.20645388960838318, 0.23670955002307892, 0.27441099286079407, 0.3200944662094116, 0.36229413747787476, 0.39452874660491943, 0.4055323600769043, 0.4088570773601532, 0.40789666771888733, 0.4045749008655548, 0.40025031566619873, 0.40386471152305603, 0.40800824761390686, 0.40372487902641296, 0.37763744592666626, 0.33376848697662354, 0.27462440729141235, 0.21467727422714233, 0.15786170959472656, 0.10032981634140015, 0.04164775833487511, -0.007484404370188713, -0.04790531098842621, -0.0803292766213417, -0.09914105385541916, -0.11374987661838531, -0.12777674198150635, -0.13562119007110596, -0.12997648119926453, -0.11716242134571075, -0.10728452354669571, -0.09683865308761597, -0.08770611882209778, -0.08541027456521988, -0.08835446089506149, -0.08903266489505768, -0.09465838968753815, -0.09977695345878601, -0.0995672345161438, -0.09184969216585159, -0.08289764076471329, -0.0749158263206482, -0.07219758629798889, -0.06969941407442093, -0.06609773635864258, -0.06658471375703812, -0.07611458748579025, -0.08617721498012543, -0.09133431315422058, -0.09107937663793564, -0.08761264383792877, -0.08306635916233063, -0.0767270177602768, -0.06284604966640472, -0.03844287618994713, -0.0020920652896165848, 0.05577646195888519, 0.13447651267051697, 0.23146836459636688, 0.32999855279922485, 0.4077504277229309, 0.4582493305206299, 0.48693546652793884, 0.49792152643203735, 0.49649500846862793, 0.4783574938774109, 0.45433199405670166, 0.4261811077594757, 0.378534734249115]
