-0.010771773755550385 CrossValid 2.9245758056640625 CrossValidLossesBy500 50.67747497558594 24.495452880859375 16.009735107421875 12.878387451171875 11.325149536132812 10.2186279296875 9.261489868164062 8.38482666015625 7.570770263671875 6.8651580810546875 6.233673095703125 5.698760986328125 5.238555908203125 4.847808837890625 4.5189208984375 4.2318572998046875 3.9967193603515625 3.7862701416015625 3.614898681640625 3.4559173583984375 3.331573486328125 3.21466064453125 3.111724853515625 3.0418548583984375 2.9906463623046875 2.9561309814453125 2.9245758056640625
13500 LossesBy500 0.00942990742623806 -0.0029175514355301857 -0.006597066763788462 -0.007838700897991657 -0.00842667743563652 -0.008844652213156223 -0.00919511541724205 -0.009506327100098133 -0.009761074557900429 -0.00997139047831297 -0.010138575918972492 -0.010274742729961872 -0.010377874597907066 -0.010462428443133831 -0.010532239452004433 -0.010585549287497997 -0.010626416653394699 -0.010661805048584938 -0.010689286515116692 -0.010708875954151154 -0.010726488195359707 -0.01074246782809496 -0.010751680471003056 -0.01076156459748745 -0.010764937847852707 -0.010770288296043873 -0.010771773755550385
log_motor_var 	 [3.8721232414245605]
sigma_logit 	 [-3.949118137359619, -5.231475353240967]
mixture_logit 	 [-4.159045696258545]
prior 	 [0.0, 0.0, 0.0, 0.0, 0.0, 0.0, 0.0, 0.0, 0.0, 0.0, 0.0, 0.0, 0.0, 0.0, 0.0, 0.0, 0.0, 0.0, 0.0, 0.0, 0.0, 0.0, 0.0, 0.0, 0.0, 0.0, 0.0, 0.0, 0.0, 0.0, 0.0, 0.0, 0.0, 0.0, 0.0, 0.0, 0.0, 0.0, 0.0, 0.0, 0.0, 0.0, 0.0, 0.0, 0.0, 0.0, 0.0, 0.0, 0.0, 0.0, 0.0, 0.0, 0.0, 0.0, 0.0, 0.0, 0.0, 0.0, 0.0, 0.0, 0.0, 0.0, 0.0, 0.0, 0.0, 0.0, 0.0, 0.0, 0.0, 0.0, 0.0, 0.0, 0.0, 0.0, 0.0, 0.0, 0.0, 0.0, 0.0, 0.0, 0.0, 0.0, 0.0, 0.0, 0.0, 0.0, 0.0, 0.0, 0.0, 0.0, 0.0, 0.0, 0.0, 0.0, 0.0, 0.0, 0.0, 0.0, 0.0, 0.0, 0.0, 0.0, 0.0, 0.0, 0.0, 0.0, 0.0, 0.0, 0.0, 0.0, 0.0, 0.0, 0.0, 0.0, 0.0, 0.0, 0.0, 0.0, 0.0, 0.0, 0.0, 0.0, 0.0, 0.0, 0.0, 0.0, 0.0, 0.0, 0.0, 0.0, 0.0, 0.0, 0.0, 0.0, 0.0, 0.0, 0.0, 0.0, 0.0, 0.0, 0.0, 0.0, 0.0, 0.0, 0.0, 0.0, 0.0, 0.0, 0.0, 0.0, 0.0, 0.0, 0.0, 0.0, 0.0, 0.0, 0.0, 0.0, 0.0, 0.0, 0.0, 0.0, 0.0, 0.0, 0.0, 0.0, 0.0, 0.0, 0.0, 0.0, 0.0, 0.0, 0.0, 0.0, 0.0, 0.0, 0.0, 0.0, 0.0, 0.0]
volume 	 [0.44486087560653687, 0.4010774791240692, 0.35553815960884094, 0.3106095492839813, 0.25662389397621155, 0.20191912353038788, 0.15070931613445282, 0.09963864088058472, 0.0542030893266201, 0.01641159877181053, -0.010588699020445347, -0.0320654958486557, -0.045778725296258926, -0.044209256768226624, -0.02508741430938244, 0.0017125450540333986, 0.0342072993516922, 0.07257773727178574, 0.12532354891300201, 0.18876014649868011, 0.2631080150604248, 0.3427753448486328, 0.42355504631996155, 0.49768856167793274, 0.5670857429504395, 0.6322185397148132, 0.6900304555892944, 0.7401782274246216, 0.7758824825286865, 0.7858659625053406, 0.7675525546073914, 0.7391406893730164, 0.6980707049369812, 0.6552432775497437, 0.6155278086662292, 0.565436840057373, 0.5050428509712219, 0.43264076113700867, 0.34594303369522095, 0.25682950019836426, 0.1751050055027008, 0.09111744910478592, 0.00540385814383626, -0.07670129090547562, -0.14536431431770325, -0.20374912023544312, -0.25447791814804077, -0.3023344576358795, -0.3463529050350189, -0.38430872559547424, -0.4169049561023712, -0.44891804456710815, -0.48173829913139343, -0.5180513262748718, -0.5507831573486328, -0.579625129699707, -0.5987748503684998, -0.6026102900505066, -0.5928502678871155, -0.5716085433959961, -0.5392733812332153, -0.49779218435287476, -0.4477481245994568, -0.38910070061683655, -0.32113996148109436, -0.2594621181488037, -0.20496828854084015, -0.1604996621608734, -0.12604354321956635, -0.10694455355405807, -0.08690372109413147, -0.06714126467704773, -0.04696326702833176, -0.03215440735220909, -0.024123916402459145, -0.022970346733927727, -0.030725719407200813, -0.03672001510858536, -0.043409544974565506, -0.057156018912792206, -0.07622608542442322, -0.09369738399982452, -0.1129622608423233, -0.1331472098827362, -0.15982304513454437, -0.18968267738819122, -0.22451162338256836, -0.2615814208984375, -0.296146035194397, -0.34156739711761475, -0.3921135663986206, -0.4487413465976715, -0.5077970623970032, -0.5596871376037598, -0.6047552227973938, -0.6455548405647278, -0.6790193319320679, -0.6970487236976624, -0.6992960572242737, -0.6863611936569214, -0.6531667709350586, -0.604193925857544, -0.5398332476615906, -0.4693446755409241, -0.38876673579216003, -0.3028477728366852, -0.2145209163427353, -0.12653574347496033, -0.04458322748541832, 0.02640780247747898, 0.08265798538923264, 0.13003338873386383, 0.1780623346567154, 0.23546282947063446, 0.3024580776691437, 0.36436226963996887, 0.4158170521259308, 0.43898260593414307, 0.4491939842700958, 0.448259562253952, 0.44595521688461304, 0.4325811266899109, 0.42144179344177246, 0.40929433703422546, 0.39273396134376526, 0.35435760021209717, 0.3061341345310211, 0.24132876098155975, 0.1764887422323227, 0.11641854047775269, 0.052786070853471756, -0.01600094698369503, -0.07968893647193909, -0.1383444219827652, -0.19044354557991028, -0.2250983566045761, -0.24768294394016266, -0.26155227422714233, -0.2644721269607544, -0.2535339891910553, -0.23877295851707458, -0.22581076622009277, -0.20912416279315948, -0.1914154589176178, -0.17748679220676422, -0.16934597492218018, -0.1636170893907547, -0.16461460292339325, -0.16612088680267334, -0.16287285089492798, -0.15578028559684753, -0.1504513919353485, -0.14523155987262726, -0.1444779485464096, -0.14158906042575836, -0.13537737727165222, -0.13078439235687256, -0.12863369286060333, -0.12505559623241425, -0.11585646122694016, -0.10236502438783646, -0.08301036804914474, -0.05990033224225044, -0.03264463692903519, 0.001725601265206933, 0.040804050862789154, 0.08785799145698547, 0.15209782123565674, 0.2332880049943924, 0.3304387032985687, 0.42790037393569946, 0.506560742855072, 0.5599629282951355, 0.5923328995704651, 0.6105769872665405, 0.6179344058036804, 0.6019673943519592, 0.5774409770965576, 0.5445671677589417, 0.49252453446388245]
