-0.014182736165821552 CrossValid 28.473220825195312 CrossValidLossesBy500 39.5909423828125 29.47802734375 28.999526977539062 28.3421630859375 27.318038940429688 26.436721801757812 25.886871337890625 25.633544921875 25.586334228515625 25.667526245117188 25.814682006835938 26.006973266601562 26.21856689453125 26.4356689453125 26.658554077148438 26.868545532226562 27.077041625976562 27.269973754882812 27.452056884765625 27.628829956054688 27.78424072265625 27.934799194335938 28.071395874023438 28.205398559570312 28.29840087890625 28.374664306640625 28.425460815429688 28.473220825195312
14000 LossesBy500 0.0013995281187817454 -0.00783619936555624 -0.009794575162231922 -0.010710748843848705 -0.011431642808020115 -0.01202669832855463 -0.012499134056270123 -0.012866497039794922 -0.013151292689144611 -0.013371113687753677 -0.013543108478188515 -0.013676097616553307 -0.013782509602606297 -0.01386924646794796 -0.013934108428657055 -0.013988204300403595 -0.014031508937478065 -0.014065398834645748 -0.01409377995878458 -0.014117039740085602 -0.014135236851871014 -0.014148262329399586 -0.014161260798573494 -0.014170719310641289 -0.014173967763781548 -0.014179403893649578 -0.014181949198246002 -0.014182736165821552
log_motor_var 	 [3.7209980487823486]
sigma_logit 	 [-4.099708080291748, -5.516972064971924]
mixture_logit 	 [-4.106681823730469]
prior 	 [0.0, 0.0, 0.0, 0.0, 0.0, 0.0, 0.0, 0.0, 0.0, 0.0, 0.0, 0.0, 0.0, 0.0, 0.0, 0.0, 0.0, 0.0, 0.0, 0.0, 0.0, 0.0, 0.0, 0.0, 0.0, 0.0, 0.0, 0.0, 0.0, 0.0, 0.0, 0.0, 0.0, 0.0, 0.0, 0.0, 0.0, 0.0, 0.0, 0.0, 0.0, 0.0, 0.0, 0.0, 0.0, 0.0, 0.0, 0.0, 0.0, 0.0, 0.0, 0.0, 0.0, 0.0, 0.0, 0.0, 0.0, 0.0, 0.0, 0.0, 0.0, 0.0, 0.0, 0.0, 0.0, 0.0, 0.0, 0.0, 0.0, 0.0, 0.0, 0.0, 0.0, 0.0, 0.0, 0.0, 0.0, 0.0, 0.0, 0.0, 0.0, 0.0, 0.0, 0.0, 0.0, 0.0, 0.0, 0.0, 0.0, 0.0, 0.0, 0.0, 0.0, 0.0, 0.0, 0.0, 0.0, 0.0, 0.0, 0.0, 0.0, 0.0, 0.0, 0.0, 0.0, 0.0, 0.0, 0.0, 0.0, 0.0, 0.0, 0.0, 0.0, 0.0, 0.0, 0.0, 0.0, 0.0, 0.0, 0.0, 0.0, 0.0, 0.0, 0.0, 0.0, 0.0, 0.0, 0.0, 0.0, 0.0, 0.0, 0.0, 0.0, 0.0, 0.0, 0.0, 0.0, 0.0, 0.0, 0.0, 0.0, 0.0, 0.0, 0.0, 0.0, 0.0, 0.0, 0.0, 0.0, 0.0, 0.0, 0.0, 0.0, 0.0, 0.0, 0.0, 0.0, 0.0, 0.0, 0.0, 0.0, 0.0, 0.0, 0.0, 0.0, 0.0, 0.0, 0.0, 0.0, 0.0, 0.0, 0.0, 0.0, 0.0, 0.0, 0.0, 0.0, 0.0, 0.0, 0.0]
volume 	 [0.3963642120361328, 0.3652745485305786, 0.33749714493751526, 0.3177253007888794, 0.2900204658508301, 0.25914785265922546, 0.22320343554019928, 0.18055681884288788, 0.1356181502342224, 0.09616412967443466, 0.06578686833381653, 0.042006392031908035, 0.02975650317966938, 0.03449195250868797, 0.057745642960071564, 0.0863354504108429, 0.11891967058181763, 0.15624934434890747, 0.20199625194072723, 0.25563839077949524, 0.31246548891067505, 0.3696824312210083, 0.4271521270275116, 0.4790257215499878, 0.5344949960708618, 0.5840327143669128, 0.6271643042564392, 0.6598728895187378, 0.6826786994934082, 0.6918819546699524, 0.6860354542732239, 0.6730555891990662, 0.6507352590560913, 0.6273281574249268, 0.6071078777313232, 0.5741033554077148, 0.5268281102180481, 0.46134957671165466, 0.3726740777492523, 0.27358129620552063, 0.17984820902347565, 0.08688806742429733, -0.005084543954581022, -0.09155093878507614, -0.16008849442005157, -0.21490442752838135, -0.2629837691783905, -0.30774590373039246, -0.3480580747127533, -0.3802483379840851, -0.40728744864463806, -0.435819149017334, -0.4671885073184967, -0.5034221410751343, -0.5377250909805298, -0.5669748783111572, -0.5892081260681152, -0.5985811352729797, -0.5956723093986511, -0.5850269198417664, -0.5660008788108826, -0.5402622818946838, -0.5071957111358643, -0.4642038643360138, -0.4089009463787079, -0.3572813868522644, -0.3108556270599365, -0.27401208877563477, -0.24591323733329773, -0.23207718133926392, -0.22034478187561035, -0.207479789853096, -0.1888628900051117, -0.17480617761611938, -0.16728073358535767, -0.16616782546043396, -0.1691449135541916, -0.16784299910068512, -0.16614297032356262, -0.16701443493366241, -0.16853384673595428, -0.16895122826099396, -0.16989293694496155, -0.17692416906356812, -0.1962401270866394, -0.22159841656684875, -0.2522672414779663, -0.2883286774158478, -0.3245103061199188, -0.36965030431747437, -0.41687220335006714, -0.4653361737728119, -0.5140223503112793, -0.5576220154762268, -0.5948541760444641, -0.6313978433609009, -0.6638299822807312, -0.6804701685905457, -0.6812738180160522, -0.6676735877990723, -0.6349217295646667, -0.587567925453186, -0.5247780084609985, -0.4527072608470917, -0.3689078092575073, -0.27820074558258057, -0.18254080414772034, -0.0860661044716835, 0.005533517338335514, 0.0868208035826683, 0.1518106311559677, 0.19619569182395935, 0.23845478892326355, 0.2860445976257324, 0.34215280413627625, 0.3921540081501007, 0.4342665374279022, 0.45534563064575195, 0.4613903760910034, 0.4542686641216278, 0.43947434425354004, 0.4232203960418701, 0.4120961129665375, 0.40381956100463867, 0.3931921124458313, 0.3663390278816223, 0.32754188776016235, 0.2742924690246582, 0.2221497744321823, 0.16922852396965027, 0.11458859592676163, 0.05738705396652222, 0.0034067637752741575, -0.04485528916120529, -0.08540468662977219, -0.1093544140458107, -0.12408683449029922, -0.1333824098110199, -0.13628478348255157, -0.12531249225139618, -0.10946306586265564, -0.1015193909406662, -0.09532792121171951, -0.09217475354671478, -0.09418410807847977, -0.10275188088417053, -0.11017638444900513, -0.12452101707458496, -0.13605664670467377, -0.13962239027023315, -0.13453195989131927, -0.13131655752658844, -0.12951624393463135, -0.1306474804878235, -0.13173532485961914, -0.12988276779651642, -0.13144107162952423, -0.13370464742183685, -0.1342698186635971, -0.1291089802980423, -0.11708340048789978, -0.09942176938056946, -0.0757991299033165, -0.04778867959976196, -0.013825305737555027, 0.026076948270201683, 0.07352157682180405, 0.13885225355625153, 0.22018791735172272, 0.31493818759918213, 0.4042299687862396, 0.47231999039649963, 0.5137244462966919, 0.5379716753959656, 0.5508677363395691, 0.5513920783996582, 0.5357626080513, 0.5139186382293701, 0.4825344681739807, 0.4338490962982178]
