0.015722503885626793 CrossValid 5.739288330078125 CrossValidLossesBy500 47.750946044921875 43.85124206542969 41.3851318359375 39.1275634765625 36.95416259765625 34.8770751953125 32.90650939941406 31.031570434570312 29.288314819335938 27.652786254882812 26.139862060546875 24.706130981445312 23.410018920898438 22.187713623046875 21.063705444335938 20.040740966796875 19.0538330078125 18.167709350585938 17.347976684570312 16.59185791015625 15.8480224609375 15.252838134765625 14.608596801757812 14.02703857421875 13.517868041992188 13.016769409179688 12.555496215820312 12.121780395507812 11.73028564453125 11.330093383789062 10.989974975585938 10.611541748046875 10.3458251953125 10.020156860351562 9.75555419921875 9.508132934570312 9.288482666015625 9.02862548828125 8.81988525390625 8.589065551757812 8.423263549804688 8.264541625976562 8.098403930664062 7.9315032958984375 7.791046142578125 7.605224609375 7.4939727783203125 7.3641204833984375 7.23297119140625 7.1128387451171875 7.017120361328125 6.91571044921875 6.8157958984375 6.70916748046875 6.6458587646484375 6.53448486328125 6.473663330078125 6.375885009765625 6.2939453125 6.2164459228515625 6.1894683837890625 6.095123291015625 6.0597991943359375 6.006378173828125 6.02001953125 5.947052001953125 5.916839599609375 5.889801025390625 5.84356689453125 5.8373870849609375 5.8058013916015625 5.773040771484375 5.7663116455078125 5.779144287109375 5.739288330078125
37500 LossesBy500 0.03495723381638527 0.03301003575325012 0.03181342035531998 0.030730927363038063 0.02969752997159958 0.028718333691358566 0.027788441628217697 0.026915110647678375 0.02608358860015869 0.025324717164039612 0.024622075259685516 0.023966044187545776 0.023373791947960854 0.022808551788330078 0.022295543923974037 0.021826650947332382 0.021394215524196625 0.02099832147359848 0.020627425983548164 0.02027420699596405 0.019972622394561768 0.019680652767419815 0.01941462978720665 0.01916622743010521 0.018922915682196617 0.01870870403945446 0.01849145069718361 0.018320392817258835 0.018144983798265457 0.0179965328425169 0.017842302098870277 0.017705729231238365 0.0175479706376791 0.01743067242205143 0.017316563054919243 0.017209703102707863 0.017110852524638176 0.017040787264704704 0.016943980008363724 0.016848452389240265 0.016788698732852936 0.0167210903018713 0.01662464439868927 0.016562970355153084 0.016502244397997856 0.016452394425868988 0.016395168378949165 0.016338404268026352 0.016296643763780594 0.01624596305191517 0.01619342900812626 0.016153255477547646 0.016128109768033028 0.016079740598797798 0.016048923134803772 0.016014767810702324 0.015977909788489342 0.0159519761800766 0.015942180529236794 0.015916846692562103 0.015879062935709953 0.015861129388213158 0.015855779871344566 0.01584189012646675 0.015811501070857048 0.01578667387366295 0.015791183337569237 0.015787318348884583 0.01576605625450611 0.01575496420264244 0.015747040510177612 0.01573740690946579 0.015729397535324097 0.015741633251309395 0.015722503885626793
log_motor_var 	 [5.93159294128418]
sigma_logit 	 [-3.423236846923828, -4.16309118270874]
mixture_logit 	 [-4.032599449157715]
prior 	 [0.03129728138446808, -0.005081558600068092, -0.04186548665165901, -0.0775206908583641, -0.11087479442358017, -0.14116546511650085, -0.1680394411087036, -0.1915251910686493, -0.21193721890449524, -0.22978749871253967, -0.24567440152168274, -0.26015418767929077, -0.2736645042896271, -0.2863716185092926, -0.29826030135154724, -0.3090640902519226, -0.3183414340019226, -0.3255276083946228, -0.32996970415115356, -0.33096858859062195, -0.3278155028820038, -0.3198544979095459, -0.30643802881240845, -0.28701019287109375, -0.2611013650894165, -0.22840285301208496, -0.18881630897521973, -0.14255143702030182, -0.09012291580438614, -0.03237913176417351, 0.02956680953502655, 0.09443071484565735, 0.16087354719638824, 0.2275993824005127, 0.29344940185546875, 0.3574809432029724, 0.41898444294929504, 0.4775066375732422, 0.5328993797302246, 0.5852276682853699, 0.6346407532691956, 0.6813162565231323, 0.7252957224845886, 0.766527533531189, 0.8047785758972168, 0.8397577404975891, 0.8711917996406555, 0.8989529013633728, 0.9230180978775024, 0.9434508681297302, 0.960487425327301, 0.9743584394454956, 0.9854265451431274, 0.9940662384033203, 1.0005748271942139, 1.0052807331085205, 1.008358120918274, 1.0098650455474854, 1.0099279880523682, 1.008598804473877, 1.0058653354644775, 1.0018247365951538, 0.9964132905006409, 0.989608645439148, 0.9813032150268555, 0.971329927444458, 0.9594556093215942, 0.9453402161598206, 0.9287305474281311, 0.9093782901763916, 0.8872514963150024, 0.8625081777572632, 0.8354467153549194, 0.8065434694290161, 0.7763859033584595, 0.7455431222915649, 0.7146893739700317, 0.6844049692153931, 0.6551859378814697, 0.6274245977401733, 0.601239025592804, 0.5765531659126282, 0.5529643297195435, 0.5297993421554565, 0.5062103867530823, 0.48111486434936523, 0.453478068113327, 0.42237094044685364, 0.3871304988861084, 0.3474702835083008, 0.3034515678882599, 0.2553962469100952, 0.20377595722675323, 0.14909054338932037, 0.09183043241500854, 0.03245190158486366, -0.028600508347153664, -0.0909164547920227, -0.15418373048305511, -0.21826136112213135, -0.28321489691734314, -0.3492852747440338, -0.41678911447525024, -0.48599907755851746, -0.5570616722106934, -0.6299369931221008, -0.7044185996055603, -0.7802147269248962, -0.8568258285522461, -0.9337463974952698, -1.010136365890503, -1.0850439071655273, -1.1570758819580078, -1.2247449159622192, -1.2864123582839966, -1.340386152267456, -1.3853687047958374, -1.4202957153320312, -1.4445891380310059, -1.4580925703048706, -1.4608346223831177, -1.453084945678711, -1.4351640939712524, -1.4074815511703491, -1.3704129457473755, -1.3244413137435913, -1.270197868347168, -1.2084890604019165, -1.1403453350067139, -1.0667800903320312, -0.9889280200004578, -0.9079135656356812, -0.8248205184936523, -0.7407301664352417, -0.6567614674568176, -0.5741087794303894, -0.49407535791397095, -0.417924702167511, -0.3468429148197174, -0.28178268671035767, -0.22332975268363953, -0.17172054946422577, -0.1268472820520401, -0.0883602574467659, -0.055810656398534775, -0.028772253543138504, -0.006891291588544846, 0.01012488454580307, 0.022552719339728355, 0.030688494443893433, 0.034851767122745514, 0.03536480665206909, 0.032541390508413315, 0.026714622974395752, 0.018306057900190353, 0.007904374971985817, -0.00368497334420681, -0.015456494875252247, -0.0262913815677166, -0.03508957475423813, -0.04091129079461098, -0.043077316135168076, -0.041215699166059494, -0.03524157404899597, -0.0252922922372818, -0.011661968193948269, 0.005243874154984951, 0.024900559335947037, 0.04660802707076073, 0.06941573321819305, 0.09206893295049667, 0.11303526163101196, 0.1306014060974121, 0.1430792510509491, 0.14900514483451843, 0.14735497534275055, 0.13768784701824188, 0.12020175904035568, 0.09569563716650009, 0.06549939513206482]
volume 	 [0.0, 0.0, 0.0, 0.0, 0.0, 0.0, 0.0, 0.0, 0.0, 0.0, 0.0, 0.0, 0.0, 0.0, 0.0, 0.0, 0.0, 0.0, 0.0, 0.0, 0.0, 0.0, 0.0, 0.0, 0.0, 0.0, 0.0, 0.0, 0.0, 0.0, 0.0, 0.0, 0.0, 0.0, 0.0, 0.0, 0.0, 0.0, 0.0, 0.0, 0.0, 0.0, 0.0, 0.0, 0.0, 0.0, 0.0, 0.0, 0.0, 0.0, 0.0, 0.0, 0.0, 0.0, 0.0, 0.0, 0.0, 0.0, 0.0, 0.0, 0.0, 0.0, 0.0, 0.0, 0.0, 0.0, 0.0, 0.0, 0.0, 0.0, 0.0, 0.0, 0.0, 0.0, 0.0, 0.0, 0.0, 0.0, 0.0, 0.0, 0.0, 0.0, 0.0, 0.0, 0.0, 0.0, 0.0, 0.0, 0.0, 0.0, 0.0, 0.0, 0.0, 0.0, 0.0, 0.0, 0.0, 0.0, 0.0, 0.0, 0.0, 0.0, 0.0, 0.0, 0.0, 0.0, 0.0, 0.0, 0.0, 0.0, 0.0, 0.0, 0.0, 0.0, 0.0, 0.0, 0.0, 0.0, 0.0, 0.0, 0.0, 0.0, 0.0, 0.0, 0.0, 0.0, 0.0, 0.0, 0.0, 0.0, 0.0, 0.0, 0.0, 0.0, 0.0, 0.0, 0.0, 0.0, 0.0, 0.0, 0.0, 0.0, 0.0, 0.0, 0.0, 0.0, 0.0, 0.0, 0.0, 0.0, 0.0, 0.0, 0.0, 0.0, 0.0, 0.0, 0.0, 0.0, 0.0, 0.0, 0.0, 0.0, 0.0, 0.0, 0.0, 0.0, 0.0, 0.0, 0.0, 0.0, 0.0, 0.0, 0.0, 0.0, 0.0, 0.0, 0.0, 0.0, 0.0, 0.0]
