-0.009878573939204216 CrossValid -21.460311889648438 CrossValidLossesBy500 -3.13018798828125 -15.972793579101562 -17.99481201171875 -19.191879272460938 -20.272659301757812 -20.95086669921875 -21.258270263671875 -21.381500244140625 -21.420562744140625 -21.437454223632812 -21.441238403320312 -21.446517944335938 -21.44940185546875 -21.450668334960938 -21.455429077148438 -21.451644897460938 -21.456787109375 -21.460311889648438
9000 LossesBy500 0.004196283873170614 -0.004863847978413105 -0.00687850546091795 -0.007914765737950802 -0.008671652525663376 -0.00917113572359085 -0.009462381713092327 -0.009631235152482986 -0.009729811921715736 -0.009785789065063 -0.009822892025113106 -0.009843091480433941 -0.009860369376838207 -0.009868433699011803 -0.009872112423181534 -0.009875758551061153 -0.009878916665911674 -0.009878573939204216
log_motor_var 	 [3.8398566246032715]
sigma_logit 	 [-3.913557291030884, -5.163275241851807]
mixture_logit 	 [-4.138521194458008]
prior 	 [0.0, 0.0, 0.0, 0.0, 0.0, 0.0, 0.0, 0.0, 0.0, 0.0, 0.0, 0.0, 0.0, 0.0, 0.0, 0.0, 0.0, 0.0, 0.0, 0.0, 0.0, 0.0, 0.0, 0.0, 0.0, 0.0, 0.0, 0.0, 0.0, 0.0, 0.0, 0.0, 0.0, 0.0, 0.0, 0.0, 0.0, 0.0, 0.0, 0.0, 0.0, 0.0, 0.0, 0.0, 0.0, 0.0, 0.0, 0.0, 0.0, 0.0, 0.0, 0.0, 0.0, 0.0, 0.0, 0.0, 0.0, 0.0, 0.0, 0.0, 0.0, 0.0, 0.0, 0.0, 0.0, 0.0, 0.0, 0.0, 0.0, 0.0, 0.0, 0.0, 0.0, 0.0, 0.0, 0.0, 0.0, 0.0, 0.0, 0.0, 0.0, 0.0, 0.0, 0.0, 0.0, 0.0, 0.0, 0.0, 0.0, 0.0, 0.0, 0.0, 0.0, 0.0, 0.0, 0.0, 0.0, 0.0, 0.0, 0.0, 0.0, 0.0, 0.0, 0.0, 0.0, 0.0, 0.0, 0.0, 0.0, 0.0, 0.0, 0.0, 0.0, 0.0, 0.0, 0.0, 0.0, 0.0, 0.0, 0.0, 0.0, 0.0, 0.0, 0.0, 0.0, 0.0, 0.0, 0.0, 0.0, 0.0, 0.0, 0.0, 0.0, 0.0, 0.0, 0.0, 0.0, 0.0, 0.0, 0.0, 0.0, 0.0, 0.0, 0.0, 0.0, 0.0, 0.0, 0.0, 0.0, 0.0, 0.0, 0.0, 0.0, 0.0, 0.0, 0.0, 0.0, 0.0, 0.0, 0.0, 0.0, 0.0, 0.0, 0.0, 0.0, 0.0, 0.0, 0.0, 0.0, 0.0, 0.0, 0.0, 0.0, 0.0, 0.0, 0.0, 0.0, 0.0, 0.0, 0.0]
volume 	 [0.3401147723197937, 0.30628305673599243, 0.274154394865036, 0.24822431802749634, 0.21833962202072144, 0.18797792494297028, 0.15684370696544647, 0.12184042483568192, 0.08716444671154022, 0.06075652316212654, 0.04138919338583946, 0.0245851818472147, 0.015226546674966812, 0.017809676006436348, 0.03298003599047661, 0.051502473652362823, 0.07329206168651581, 0.09712070971727371, 0.1326761096715927, 0.1765560805797577, 0.22123971581459045, 0.2608563005924225, 0.2979688048362732, 0.33042868971824646, 0.3636307120323181, 0.39756855368614197, 0.42943915724754333, 0.46167999505996704, 0.4891758859157562, 0.4991941452026367, 0.4942721426486969, 0.482878714799881, 0.4606458842754364, 0.43653178215026855, 0.4099482297897339, 0.3683028221130371, 0.3203192949295044, 0.2643730342388153, 0.1977074146270752, 0.12819057703018188, 0.06513050943613052, 0.0014463482657447457, -0.06376679986715317, -0.12551356852054596, -0.17290198802947998, -0.2118215709924698, -0.24556535482406616, -0.2775162160396576, -0.3062211871147156, -0.33246922492980957, -0.3565784692764282, -0.3843146562576294, -0.41243791580200195, -0.44437187910079956, -0.47560665011405945, -0.504540205001831, -0.527172863483429, -0.5376644730567932, -0.5355660319328308, -0.5213053226470947, -0.4967212975025177, -0.4645049273967743, -0.42468804121017456, -0.37692657113075256, -0.3218172490596771, -0.2757968604564667, -0.23907341063022614, -0.21064789593219757, -0.19216616451740265, -0.1864328533411026, -0.180489644408226, -0.17068131268024445, -0.15479324758052826, -0.13862662017345428, -0.12670372426509857, -0.11832696199417114, -0.11404993385076523, -0.1066618487238884, -0.0974126011133194, -0.09595184028148651, -0.09851013869047165, -0.09933539479970932, -0.10239558666944504, -0.11342140287160873, -0.13534218072891235, -0.1617375761270523, -0.19311697781085968, -0.22870603203773499, -0.26235055923461914, -0.30439963936805725, -0.3461190164089203, -0.38910171389579773, -0.4332370460033417, -0.46846190094947815, -0.49665752053260803, -0.5231660604476929, -0.5447992086410522, -0.5520539283752441, -0.5451393127441406, -0.5283668041229248, -0.49432286620140076, -0.44628024101257324, -0.3842116892337799, -0.31616535782814026, -0.23891803622245789, -0.16039441525936127, -0.08116352558135986, -0.0022015024442225695, 0.07226790487766266, 0.13014620542526245, 0.17328958213329315, 0.20774735510349274, 0.24418047070503235, 0.28673267364501953, 0.3373279571533203, 0.3818998336791992, 0.41824907064437866, 0.43243226408958435, 0.43663984537124634, 0.4339977204799652, 0.4278889000415802, 0.4164726734161377, 0.4074438512325287, 0.40444424748420715, 0.4001673758029938, 0.3796984553337097, 0.34352338314056396, 0.29173827171325684, 0.24046720564365387, 0.18949802219867706, 0.13327234983444214, 0.06946370750665665, 0.009344923309981823, -0.04350775480270386, -0.08687238395214081, -0.11341503262519836, -0.1314207911491394, -0.14135509729385376, -0.1440611332654953, -0.13327525556087494, -0.11746490746736526, -0.1038830503821373, -0.08831032365560532, -0.07620613276958466, -0.07107031345367432, -0.07317934185266495, -0.07377626746892929, -0.07967808842658997, -0.0850752517580986, -0.08246249705553055, -0.07131729274988174, -0.06063554063439369, -0.05231669172644615, -0.05101701244711876, -0.04977838695049286, -0.0474577397108078, -0.05155792087316513, -0.06067230924963951, -0.0712602436542511, -0.0798758938908577, -0.08772966265678406, -0.09011951833963394, -0.08694873005151749, -0.07499129325151443, -0.05082014575600624, -0.021057790145277977, 0.01802341267466545, 0.07652558386325836, 0.15338531136512756, 0.2449420988559723, 0.33740657567977905, 0.409563809633255, 0.4546275734901428, 0.4826357066631317, 0.49584415555000305, 0.4980407655239105, 0.4815772771835327, 0.4576509892940521, 0.4272001087665558, 0.3789285123348236]
