-0.012336255051195621 CrossValid 29.932586669921875 CrossValidLossesBy500 50.108184814453125 32.46220397949219 30.317733764648438 31.0382080078125 31.661865234375 31.759307861328125 31.446304321289062 31.01861572265625 30.60198974609375 30.250244140625 30.021591186523438 29.854949951171875 29.750961303710938 29.692825317382812 29.661727905273438 29.65985107421875 29.660659790039062 29.679229736328125 29.702590942382812 29.725494384765625 29.752593994140625 29.783950805664062 29.812515258789062 29.845474243164062 29.866287231445312 29.891448974609375 29.906494140625 29.922103881835938 29.932586669921875
14500 LossesBy500 0.008848347701132298 -0.004007046576589346 -0.007832310162484646 -0.009137678891420364 -0.009762745350599289 -0.01021190918982029 -0.010597864165902138 -0.010929374024271965 -0.011215783655643463 -0.011451030150055885 -0.011636435985565186 -0.01178059820085764 -0.011899206787347794 -0.011991128325462341 -0.012064137496054173 -0.012121511623263359 -0.012167518958449364 -0.012203549966216087 -0.012233853340148926 -0.012257713824510574 -0.012276600115001202 -0.012292714789509773 -0.012304014526307583 -0.012315178290009499 -0.01232342328876257 -0.012327751144766808 -0.012331299483776093 -0.01233490277081728 -0.012336255051195621
log_motor_var 	 [3.870177984237671]
sigma_logit 	 [-3.967386484146118, -5.289306163787842]
mixture_logit 	 [-4.137601375579834]
prior 	 [0.0, 0.0, 0.0, 0.0, 0.0, 0.0, 0.0, 0.0, 0.0, 0.0, 0.0, 0.0, 0.0, 0.0, 0.0, 0.0, 0.0, 0.0, 0.0, 0.0, 0.0, 0.0, 0.0, 0.0, 0.0, 0.0, 0.0, 0.0, 0.0, 0.0, 0.0, 0.0, 0.0, 0.0, 0.0, 0.0, 0.0, 0.0, 0.0, 0.0, 0.0, 0.0, 0.0, 0.0, 0.0, 0.0, 0.0, 0.0, 0.0, 0.0, 0.0, 0.0, 0.0, 0.0, 0.0, 0.0, 0.0, 0.0, 0.0, 0.0, 0.0, 0.0, 0.0, 0.0, 0.0, 0.0, 0.0, 0.0, 0.0, 0.0, 0.0, 0.0, 0.0, 0.0, 0.0, 0.0, 0.0, 0.0, 0.0, 0.0, 0.0, 0.0, 0.0, 0.0, 0.0, 0.0, 0.0, 0.0, 0.0, 0.0, 0.0, 0.0, 0.0, 0.0, 0.0, 0.0, 0.0, 0.0, 0.0, 0.0, 0.0, 0.0, 0.0, 0.0, 0.0, 0.0, 0.0, 0.0, 0.0, 0.0, 0.0, 0.0, 0.0, 0.0, 0.0, 0.0, 0.0, 0.0, 0.0, 0.0, 0.0, 0.0, 0.0, 0.0, 0.0, 0.0, 0.0, 0.0, 0.0, 0.0, 0.0, 0.0, 0.0, 0.0, 0.0, 0.0, 0.0, 0.0, 0.0, 0.0, 0.0, 0.0, 0.0, 0.0, 0.0, 0.0, 0.0, 0.0, 0.0, 0.0, 0.0, 0.0, 0.0, 0.0, 0.0, 0.0, 0.0, 0.0, 0.0, 0.0, 0.0, 0.0, 0.0, 0.0, 0.0, 0.0, 0.0, 0.0, 0.0, 0.0, 0.0, 0.0, 0.0, 0.0, 0.0, 0.0, 0.0, 0.0, 0.0, 0.0]
volume 	 [0.41222983598709106, 0.3675847053527832, 0.3270912170410156, 0.29548728466033936, 0.2563067078590393, 0.21524900197982788, 0.17095190286636353, 0.12178851664066315, 0.07158708572387695, 0.028164982795715332, -0.005060931202024221, -0.03030966781079769, -0.04314825311303139, -0.03847465664148331, -0.014301818795502186, 0.016954224556684494, 0.05449877679347992, 0.09912199527025223, 0.15450818836688995, 0.22049176692962646, 0.2927686870098114, 0.3679237961769104, 0.445120632648468, 0.5182714462280273, 0.5971631407737732, 0.6701366305351257, 0.7355102300643921, 0.786571741104126, 0.8225274682044983, 0.8370638489723206, 0.826987087726593, 0.8006000518798828, 0.7573079466819763, 0.7099484801292419, 0.6659401059150696, 0.6107913851737976, 0.5458585619926453, 0.46942004561424255, 0.3755704462528229, 0.27679625153541565, 0.1869380623102188, 0.09932664781808853, 0.012313703075051308, -0.07033978402614594, -0.13677147030830383, -0.19137859344482422, -0.24112215638160706, -0.28958263993263245, -0.3355458378791809, -0.37475118041038513, -0.4095649719238281, -0.44603046774864197, -0.48487645387649536, -0.5272560119628906, -0.5661511421203613, -0.597899317741394, -0.6203647255897522, -0.6279842853546143, -0.6211684346199036, -0.6041486859321594, -0.5766572952270508, -0.5404558181762695, -0.4953356385231018, -0.4392685890197754, -0.37048235535621643, -0.3056911528110504, -0.24714261293411255, -0.19965538382530212, -0.16230754554271698, -0.14091207087039948, -0.12274882197380066, -0.10487797111272812, -0.08274051547050476, -0.06769051402807236, -0.061449017375707626, -0.06354756653308868, -0.07081819325685501, -0.07490352541208267, -0.0801420584321022, -0.08982129395008087, -0.10169524699449539, -0.11325769126415253, -0.1251789778470993, -0.1419672667980194, -0.16945701837539673, -0.2017553150653839, -0.23830483853816986, -0.2790709435939789, -0.3193667232990265, -0.3678828477859497, -0.4179239869117737, -0.46867263317108154, -0.5194640755653381, -0.5653793215751648, -0.6054048538208008, -0.6451611518859863, -0.6809713244438171, -0.7014862895011902, -0.7064266204833984, -0.6970692873001099, -0.6683449745178223, -0.6246342062950134, -0.5648505091667175, -0.49501165747642517, -0.4123591184616089, -0.32179996371269226, -0.2252207100391388, -0.1274920254945755, -0.03441353514790535, 0.04795476049184799, 0.11383622884750366, 0.15991000831127167, 0.20498819649219513, 0.2568454444408417, 0.3188660144805908, 0.3766327500343323, 0.42809873819351196, 0.45843273401260376, 0.4717409610748291, 0.46847498416900635, 0.4530438482761383, 0.43314576148986816, 0.41653165221214294, 0.4013161361217499, 0.38160330057144165, 0.3439730107784271, 0.2937430441379547, 0.2283667027950287, 0.1650245189666748, 0.10187986493110657, 0.0388188436627388, -0.024739202111959457, -0.0833263099193573, -0.1353953331708908, -0.17896048724651337, -0.20534290373325348, -0.22102048993110657, -0.2300938069820404, -0.2314763218164444, -0.2183171957731247, -0.19967301189899445, -0.18791796267032623, -0.17787736654281616, -0.17042987048625946, -0.16786621510982513, -0.17196603119373322, -0.17601017653942108, -0.18779322504997253, -0.19812658429145813, -0.20149075984954834, -0.19643418490886688, -0.19281740486621857, -0.189857617020607, -0.1883782595396042, -0.18560640513896942, -0.17812210321426392, -0.17202763259410858, -0.16462469100952148, -0.1540442854166031, -0.13648469746112823, -0.11172714829444885, -0.08162590116262436, -0.046724285930395126, -0.008840254507958889, 0.03316551074385643, 0.07873041182756424, 0.12999555468559265, 0.19861119985580444, 0.2831689119338989, 0.3811091482639313, 0.4729567766189575, 0.5418419241905212, 0.5832196474075317, 0.606932520866394, 0.6194636225700378, 0.6180208921432495, 0.5972486734390259, 0.5674715638160706, 0.5256155729293823, 0.46440234780311584]
