-0.028603188693523407 CrossValid -29.580078125 CrossValidLossesBy500 39.826446533203125 10.969345092773438 -2.035369873046875 -8.305816650390625 -11.8424072265625 -14.101852416992188 -15.70159912109375 -16.914642333984375 -17.853607177734375 -18.6480712890625 -19.263534545898438 -19.799270629882812 -20.2744140625 -20.664657592773438 -21.020751953125 -21.321426391601562 -21.62213134765625 -21.901519775390625 -22.14599609375 -22.374008178710938 -22.595947265625 -22.799453735351562 -22.972824096679688 -23.135101318359375 -23.337234497070312 -23.505538940429688 -23.672515869140625 -23.800872802734375 -23.974929809570312 -24.105911254882812 -24.261383056640625 -24.396636962890625 -24.542724609375 -24.674758911132812 -24.785598754882812 -24.905670166015625 -24.997650146484375 -25.134124755859375 -25.256744384765625 -25.366653442382812 -25.471450805664062 -25.592529296875 -25.687881469726562 -25.797103881835938 -25.90826416015625 -25.987777709960938 -26.07684326171875 -26.181549072265625 -26.2852783203125 -26.3900146484375 -26.475982666015625 -26.5382080078125 -26.642440795898438 -26.7376708984375 -26.827545166015625 -26.917434692382812 -27.006271362304688 -27.078399658203125 -27.168197631835938 -27.246353149414062 -27.325851440429688 -27.410964965820312 -27.47637939453125 -27.5555419921875 -27.619033813476562 -27.707931518554688 -27.765411376953125 -27.844497680664062 -27.912216186523438 -27.988784790039062 -28.053329467773438 -28.131118774414062 -28.193161010742188 -28.257049560546875 -28.325775146484375 -28.38787841796875 -28.438262939453125 -28.492401123046875 -28.554107666015625 -28.609848022460938 -28.666656494140625 -28.728073120117188 -28.784912109375 -28.83551025390625 -28.881668090820312 -28.9375 -28.990371704101562 -29.017547607421875 -29.039764404296875 -29.081512451171875 -29.145599365234375 -29.189056396484375 -29.254928588867188 -29.294296264648438 -29.339813232421875 -29.390838623046875 -29.428680419921875 -29.456451416015625 -29.484481811523438 -29.512710571289062 -29.532913208007812 -29.549667358398438 -29.5682373046875 -29.580078125
52000 LossesBy500 0.012895672582089901 -0.0031062825582921505 -0.01072621624916792 -0.014666035771369934 -0.0169780645519495 -0.01854569837450981 -0.019688226282596588 -0.020575450733304024 -0.0212880726903677 -0.021866008639335632 -0.022368166595697403 -0.022796450182795525 -0.023161154240369797 -0.023486753925681114 -0.023781534284353256 -0.024033397436141968 -0.02427942492067814 -0.02449759468436241 -0.024695372208952904 -0.024875719100236893 -0.025049811229109764 -0.02521464042365551 -0.025355031713843346 -0.025500424206256866 -0.025623049587011337 -0.025748003274202347 -0.02586161345243454 -0.025970594957470894 -0.02607102505862713 -0.026177991181612015 -0.026268789544701576 -0.02636132761836052 -0.02643975242972374 -0.026522692292928696 -0.026608968153595924 -0.02668706327676773 -0.026748571544885635 -0.026816854253411293 -0.026876462623476982 -0.02694322168827057 -0.027008909732103348 -0.027068601921200752 -0.027128666639328003 -0.02716900035738945 -0.027227913960814476 -0.027279004454612732 -0.027326038107275963 -0.027366405352950096 -0.027415040880441666 -0.027466055005788803 -0.027510540559887886 -0.027541298419237137 -0.027582868933677673 -0.027620680630207062 -0.027654629200696945 -0.027691122144460678 -0.027723975479602814 -0.027761317789554596 -0.027792194858193398 -0.027821699157357216 -0.027856161817908287 -0.027888018637895584 -0.027918880805373192 -0.027938643470406532 -0.027971038594841957 -0.027997853234410286 -0.0280293058604002 -0.02804710902273655 -0.028078017756342888 -0.028101563453674316 -0.028120866045355797 -0.028144393116235733 -0.028170408681035042 -0.028186945244669914 -0.028212018311023712 -0.028229214251041412 -0.028254281729459763 -0.028271034359931946 -0.028289519250392914 -0.028310131281614304 -0.028328994289040565 -0.028346318751573563 -0.028363242745399475 -0.02837919443845749 -0.028392024338245392 -0.028411865234375 -0.028427453711628914 -0.028439830988645554 -0.028454434126615524 -0.028470532968640327 -0.028483450412750244 -0.028499562293291092 -0.02851330302655697 -0.028526050969958305 -0.028537089005112648 -0.028553415089845657 -0.028560860082507133 -0.02857033535838127 -0.02858305722475052 -0.02858581766486168 -0.0285910964012146 -0.028598109260201454 -0.028598874807357788 -0.028603188693523407
log_motor_var 	 [4.542820453643799]
sigma_logit 	 [-3.747044086456299, -4.626992702484131]
mixture_logit 	 [-4.065675735473633]
prior 	 [-0.2383544147014618, -0.24043957889080048, -0.24459703266620636, -0.25176361203193665, -0.2623690068721771, -0.27616462111473083, -0.29218554496765137, -0.3088991343975067, -0.3244844377040863, -0.3371127247810364, -0.3451821208000183, -0.3475069999694824, -0.34339624643325806, -0.3326719403266907, -0.3156515955924988, -0.2931346595287323, -0.26628491282463074, -0.23649267852306366, -0.2051572948694229, -0.173515185713768, -0.14246994256973267, -0.11257065087556839, -0.08407621085643768, -0.05718466266989708, -0.03217215836048126, -0.009192180819809437, 0.012326585128903389, 0.034283872693777084, 0.05978840962052345, 0.09205606579780579, 0.1329982578754425, 0.18247632682323456, 0.23888446390628815, 0.30027636885643005, 0.36516645550727844, 0.43271321058273315, 0.5024780035018921, 0.5739257335662842, 0.6460061073303223, 0.7170597314834595, 0.7848291397094727, 0.8469445705413818, 0.9013817310333252, 0.9467709064483643, 0.9826962351799011, 1.0095804929733276, 1.0285990238189697, 1.0413204431533813, 1.0494040250778198, 1.0544719696044922, 1.0578782558441162, 1.0606316328048706, 1.0634583234786987, 1.066778540611267, 1.0708649158477783, 1.075798749923706, 1.0815856456756592, 1.0881884098052979, 1.0955653190612793, 1.1036062240600586, 1.1121221780776978, 1.120811939239502, 1.1293097734451294, 1.1371492147445679, 1.143699049949646, 1.148230791091919, 1.1498562097549438, 1.147745966911316, 1.141025185585022, 1.129084825515747, 1.1115481853485107, 1.088604211807251, 1.060623288154602, 1.0281165838241577, 0.9915302395820618, 0.9509690999984741, 0.9063081741333008, 0.8574492931365967, 0.8043180704116821, 0.7470292448997498, 0.6857480406761169, 0.6206430792808533, 0.5518600940704346, 0.47947579622268677, 0.40369266271591187, 0.3251205086708069, 0.24487049877643585, 0.16445329785346985, 0.08547131717205048, 0.00933659914880991, -0.06296112388372421, -0.1309175044298172, -0.1944851130247116, -0.25394484400749207, -0.3097759783267975, -0.3625531792640686, -0.41281503438949585, -0.46101129055023193, -0.5074681043624878, -0.5523165464401245, -0.5956082344055176, -0.6372822523117065, -0.6771419644355774, -0.7149796485900879, -0.7505002617835999, -0.7834418416023254, -0.8135706782341003, -0.8407328724861145, -0.8649110198020935, -0.8862635493278503, -0.9051575660705566, -0.9221863746643066, -0.9379724264144897, -0.9530237317085266, -0.9676170349121094, -0.9816662073135376, -0.9948463439941406, -1.0066992044448853, -1.0168243646621704, -1.0248602628707886, -1.0308958292007446, -1.0350838899612427, -1.0378336906433105, -1.0391854047775269, -1.0389840602874756, -1.0365697145462036, -1.0309929847717285, -1.0213165283203125, -1.0068144798278809, -0.9872047305107117, -0.9626819491386414, -0.9337956309318542, -0.9013311266899109, -0.8661278486251831, -0.8289604187011719, -0.7904425859451294, -0.7509820461273193, -0.710761308670044, -0.669803261756897, -0.6280081272125244, -0.5851536393165588, -0.5409451127052307, -0.4952193796634674, -0.44786280393600464, -0.3988927900791168, -0.34846723079681396, -0.2968943417072296, -0.24463631212711334, -0.19232316315174103, -0.140726700425148, -0.09071584790945053, -0.043271180242300034, 0.0005439717206172645, 0.039724331349134445, 0.07345008850097656, 0.10120873898267746, 0.12281355261802673, 0.1383635252714157, 0.14816796779632568, 0.1526757776737213, 0.15233826637268066, 0.1474759429693222, 0.13818825781345367, 0.12431546300649643, 0.1055276170372963, 0.08148526400327682, 0.05208848416805267, 0.017747756093740463, -0.02042575366795063, -0.060576315969228745, -0.10025665909051895, -0.13679690659046173, -0.16790245473384857, -0.19224338233470917, -0.20977900922298431, -0.22151541709899902, -0.22891895473003387, -0.23335576057434082, -0.23582814633846283, -0.23718519508838654]
volume 	 [0.2724968492984772, 0.22256238758563995, 0.17721553146839142, 0.1348833441734314, 0.08516018837690353, 0.030987760052084923, -0.021296709775924683, -0.0719994455575943, -0.11705422401428223, -0.15415170788764954, -0.182170569896698, -0.20233288407325745, -0.21071402728557587, -0.20154577493667603, -0.1746096909046173, -0.1425275206565857, -0.10250416398048401, -0.05484548956155777, 0.007440235931426287, 0.08590847998857498, 0.17180977761745453, 0.25308042764663696, 0.3344164788722992, 0.40774473547935486, 0.47541576623916626, 0.540905237197876, 0.6000208258628845, 0.6524969339370728, 0.6961970329284668, 0.7109005451202393, 0.7093347907066345, 0.6881350874900818, 0.6497251391410828, 0.6136271357536316, 0.577358603477478, 0.5227741599082947, 0.463016539812088, 0.3925265073776245, 0.3105236291885376, 0.22827821969985962, 0.1570216417312622, 0.08824464678764343, 0.018917152658104897, -0.046063054352998734, -0.09668900817632675, -0.14110763370990753, -0.18361090123653412, -0.23113448917865753, -0.27740800380706787, -0.32139620184898376, -0.3626377582550049, -0.4057391881942749, -0.45028015971183777, -0.4999690651893616, -0.5444610714912415, -0.5787285566329956, -0.5985660552978516, -0.5985104441642761, -0.5794015526771545, -0.5444009900093079, -0.49556639790534973, -0.436858206987381, -0.3675912320613861, -0.28663375973701477, -0.19381724298000336, -0.10509038716554642, -0.024713031947612762, 0.04644535481929779, 0.10267279297113419, 0.1393950879573822, 0.1747925877571106, 0.21350383758544922, 0.25707802176475525, 0.2943160831928253, 0.31634435057640076, 0.3263263404369354, 0.32448431849479675, 0.3219308853149414, 0.3122608959674835, 0.2934049069881439, 0.26743289828300476, 0.24334688484668732, 0.2146138697862625, 0.17867815494537354, 0.12530766427516937, 0.06284238398075104, -0.00468459352850914, -0.07354764640331268, -0.14022433757781982, -0.21723882853984833, -0.2989761233329773, -0.3821069002151489, -0.46589961647987366, -0.5431926250457764, -0.6136075258255005, -0.6797475218772888, -0.7394759058952332, -0.7799181938171387, -0.8020206093788147, -0.8060943484306335, -0.7883709073066711, -0.7511320114135742, -0.6954451203346252, -0.6257020831108093, -0.5416659116744995, -0.44885173439979553, -0.3501857817173004, -0.25035130977630615, -0.15868110954761505, -0.07535958290100098, -0.0036958337295800447, 0.054983507841825485, 0.10850172489881516, 0.16718584299087524, 0.23535484075546265, 0.30206140875816345, 0.35603174567222595, 0.38849425315856934, 0.4057263135910034, 0.4059452414512634, 0.3921366333961487, 0.366267591714859, 0.34041455388069153, 0.3078272044658661, 0.26657262444496155, 0.2157108336687088, 0.15980523824691772, 0.09252836555242538, 0.028164515271782875, -0.033639632165431976, -0.0935027226805687, -0.15699338912963867, -0.2126023769378662, -0.2607547640800476, -0.29934561252593994, -0.32076913118362427, -0.3318336009979248, -0.3355783224105835, -0.3299390375614166, -0.3079357445240021, -0.2760479748249054, -0.2458176463842392, -0.2152319848537445, -0.18495967984199524, -0.1587916761636734, -0.13707657158374786, -0.11532188206911087, -0.10150008648633957, -0.08951176702976227, -0.07278994470834732, -0.05116863548755646, -0.03475280851125717, -0.021807463839650154, -0.01548617985099554, -0.00859277043491602, 0.0012234902242198586, 0.00933950487524271, 0.012674368917942047, 0.016594605520367622, 0.02489914558827877, 0.035944316536188126, 0.047767654061317444, 0.05415649339556694, 0.05740419030189514, 0.06345845758914948, 0.07442755997180939, 0.09526395797729492, 0.134510338306427, 0.1982426792383194, 0.2840576767921448, 0.3757646083831787, 0.4475333094596863, 0.4861008822917938, 0.501865029335022, 0.507809579372406, 0.502173125743866, 0.47416600584983826, 0.43746277689933777, 0.393341064453125, 0.3301143944263458]
