-0.013566674664616585 CrossValid 34.28291320800781 CrossValidLossesBy500 75.0074462890625 48.53703308105469 40.99359130859375 38.185028076171875 36.757476806640625 35.91053771972656 35.345947265625 34.960418701171875 34.68644714355469 34.49491882324219 34.358917236328125 34.27435302734375 34.2166748046875 34.18382263183594 34.17030334472656 34.16233825683594 34.16778564453125 34.17738342285156 34.192840576171875 34.206817626953125 34.22369384765625 34.240234375 34.25483703613281 34.26409912109375 34.277679443359375 34.28291320800781
13000 LossesBy500 0.003882497316226363 -0.006410352420061827 -0.00897271279245615 -0.01003639679402113 -0.010805818252265453 -0.01143031008541584 -0.011931790970265865 -0.012317974120378494 -0.012612452730536461 -0.012837585061788559 -0.013005092740058899 -0.013133998960256577 -0.01323341391980648 -0.013310234993696213 -0.013370003551244736 -0.013416043482720852 -0.013454731553792953 -0.01348182000219822 -0.013504878617823124 -0.013522868044674397 -0.013537907972931862 -0.013547786511480808 -0.013554802164435387 -0.013561179861426353 -0.013564393855631351 -0.013566674664616585
log_motor_var 	 [3.7227563858032227]
sigma_logit 	 [-4.05401086807251, -5.563777923583984]
mixture_logit 	 [-4.134926795959473]
prior 	 [0.0, 0.0, 0.0, 0.0, 0.0, 0.0, 0.0, 0.0, 0.0, 0.0, 0.0, 0.0, 0.0, 0.0, 0.0, 0.0, 0.0, 0.0, 0.0, 0.0, 0.0, 0.0, 0.0, 0.0, 0.0, 0.0, 0.0, 0.0, 0.0, 0.0, 0.0, 0.0, 0.0, 0.0, 0.0, 0.0, 0.0, 0.0, 0.0, 0.0, 0.0, 0.0, 0.0, 0.0, 0.0, 0.0, 0.0, 0.0, 0.0, 0.0, 0.0, 0.0, 0.0, 0.0, 0.0, 0.0, 0.0, 0.0, 0.0, 0.0, 0.0, 0.0, 0.0, 0.0, 0.0, 0.0, 0.0, 0.0, 0.0, 0.0, 0.0, 0.0, 0.0, 0.0, 0.0, 0.0, 0.0, 0.0, 0.0, 0.0, 0.0, 0.0, 0.0, 0.0, 0.0, 0.0, 0.0, 0.0, 0.0, 0.0, 0.0, 0.0, 0.0, 0.0, 0.0, 0.0, 0.0, 0.0, 0.0, 0.0, 0.0, 0.0, 0.0, 0.0, 0.0, 0.0, 0.0, 0.0, 0.0, 0.0, 0.0, 0.0, 0.0, 0.0, 0.0, 0.0, 0.0, 0.0, 0.0, 0.0, 0.0, 0.0, 0.0, 0.0, 0.0, 0.0, 0.0, 0.0, 0.0, 0.0, 0.0, 0.0, 0.0, 0.0, 0.0, 0.0, 0.0, 0.0, 0.0, 0.0, 0.0, 0.0, 0.0, 0.0, 0.0, 0.0, 0.0, 0.0, 0.0, 0.0, 0.0, 0.0, 0.0, 0.0, 0.0, 0.0, 0.0, 0.0, 0.0, 0.0, 0.0, 0.0, 0.0, 0.0, 0.0, 0.0, 0.0, 0.0, 0.0, 0.0, 0.0, 0.0, 0.0, 0.0, 0.0, 0.0, 0.0, 0.0, 0.0, 0.0]
volume 	 [0.4253841042518616, 0.3856925666332245, 0.3476068675518036, 0.3120434284210205, 0.26743924617767334, 0.22092528641223907, 0.1769949197769165, 0.13548339903354645, 0.1027408242225647, 0.07403302192687988, 0.048974957317113876, 0.026070842519402504, 0.011963581666350365, 0.012038232758641243, 0.025498636066913605, 0.0413871668279171, 0.06425274163484573, 0.09508733451366425, 0.14450737833976746, 0.20796339213848114, 0.27858400344848633, 0.35290008783340454, 0.4270898103713989, 0.489346981048584, 0.5418751239776611, 0.591614305973053, 0.635897696018219, 0.6762980222702026, 0.7007943987846375, 0.7052904367446899, 0.6900847554206848, 0.6638286709785461, 0.6285195350646973, 0.5968685150146484, 0.5657284259796143, 0.5202070474624634, 0.466628760099411, 0.40616312623023987, 0.3316017687320709, 0.24874936044216156, 0.16634303331375122, 0.07862444221973419, -0.010843701660633087, -0.09451906383037567, -0.16124658286571503, -0.215410515666008, -0.2622600197792053, -0.306564599275589, -0.3481130003929138, -0.3827907145023346, -0.41177552938461304, -0.44207513332366943, -0.47412794828414917, -0.5113771557807922, -0.5460970997810364, -0.5774765610694885, -0.5992738604545593, -0.6062378287315369, -0.5986703634262085, -0.5804293751716614, -0.5532970428466797, -0.5203743577003479, -0.47997036576271057, -0.4306630492210388, -0.3734463155269623, -0.3232632875442505, -0.28227871656417847, -0.24874719977378845, -0.22237156331539154, -0.2080198973417282, -0.19252634048461914, -0.17724232375621796, -0.15661823749542236, -0.13786162436008453, -0.12666301429271698, -0.1221633106470108, -0.1261456310749054, -0.12502571940422058, -0.12308099865913391, -0.12874671816825867, -0.13971193134784698, -0.14761567115783691, -0.1561460793018341, -0.16958507895469666, -0.19177775084972382, -0.2194993644952774, -0.2524763345718384, -0.28753596544265747, -0.320618599653244, -0.3613215982913971, -0.4031023383140564, -0.4480852484703064, -0.4950656294822693, -0.5382921099662781, -0.5766512155532837, -0.612576961517334, -0.6422387361526489, -0.6556645035743713, -0.6544151902198792, -0.6389027237892151, -0.6044132709503174, -0.5532465577125549, -0.48677411675453186, -0.4097185432910919, -0.3216385245323181, -0.2293730229139328, -0.13353776931762695, -0.03956940770149231, 0.04505757987499237, 0.11250387132167816, 0.1645810306072235, 0.2059437483549118, 0.24768921732902527, 0.29542121291160583, 0.34936532378196716, 0.3977755010128021, 0.43345052003860474, 0.4454129636287689, 0.44695693254470825, 0.4414340853691101, 0.4321185350418091, 0.4227673411369324, 0.42391249537467957, 0.42826902866363525, 0.4258681833744049, 0.4017881155014038, 0.35830169916152954, 0.2975039780139923, 0.23300741612911224, 0.16919325292110443, 0.10264244675636292, 0.03422669693827629, -0.024482985958456993, -0.07378233224153519, -0.11431179195642471, -0.14028190076351166, -0.1609448492527008, -0.1800287365913391, -0.19231313467025757, -0.19043603539466858, -0.180679053068161, -0.17317631840705872, -0.1647781878709793, -0.156960129737854, -0.1550726741552353, -0.15791627764701843, -0.1584300547838211, -0.1638486385345459, -0.16896699368953705, -0.1691564917564392, -0.1621675193309784, -0.15439853072166443, -0.14755770564079285, -0.14510728418827057, -0.1418667584657669, -0.13589437305927277, -0.13192935287952423, -0.1341266930103302, -0.1342400759458542, -0.1272943764925003, -0.11365026980638504, -0.0960649624466896, -0.07717548310756683, -0.056253399699926376, -0.02747519314289093, 0.01155704166740179, 0.06236490234732628, 0.13457882404327393, 0.22699163854122162, 0.3354278802871704, 0.44082483649253845, 0.518322229385376, 0.5646026730537415, 0.5889039635658264, 0.5967241525650024, 0.5931645035743713, 0.5737654566764832, 0.5488629937171936, 0.5192323923110962, 0.4684777855873108]
