-0.02701786532998085 CrossValid -57.6641845703125 CrossValidLossesBy500 29.923934936523438 -2.6724853515625 -18.341049194335938 -26.50421142578125 -31.37109375 -34.64961242675781 -37.04442596435547 -38.916900634765625 -40.46141052246094 -41.719635009765625 -42.79290771484375 -43.67878723144531 -44.465599060058594 -45.158538818359375 -45.78423309326172 -46.331947326660156 -46.830413818359375 -47.28009796142578 -47.677223205566406 -48.07868194580078 -48.43116760253906 -48.737518310546875 -49.045806884765625 -49.32582092285156 -49.58692932128906 -49.84098815917969 -50.1007080078125 -50.322608947753906 -50.55400085449219 -50.78472900390625 -50.98747253417969 -51.158424377441406 -51.34996032714844 -51.53223419189453 -51.702903747558594 -51.86143493652344 -52.03828430175781 -52.2142333984375 -52.35832977294922 -52.48408508300781 -52.63817596435547 -52.785972595214844 -52.897727966308594 -53.042152404785156 -53.16191101074219 -53.299591064453125 -53.39665222167969 -53.50755310058594 -53.64353942871094 -53.76410675048828 -53.84983825683594 -53.9779052734375 -54.107452392578125 -54.21917724609375 -54.33988952636719 -54.40879821777344 -54.53009796142578 -54.61238098144531 -54.71049499511719 -54.82929992675781 -54.931610107421875 -54.99041748046875 -55.091087341308594 -55.17669677734375 -55.27599334716797 -55.37091064453125 -55.45054626464844 -55.53485870361328 -55.62342834472656 -55.70817565917969 -55.784080505371094 -55.872413635253906 -55.94915008544922 -56.026878356933594 -56.09666442871094 -56.176544189453125 -56.26383972167969 -56.327880859375 -56.404014587402344 -56.484519958496094 -56.55194091796875 -56.62286376953125 -56.69636535644531 -56.762107849121094 -56.823097229003906 -56.88835144042969 -56.95213317871094 -57.011878967285156 -57.07878112792969 -57.140464782714844 -57.19920349121094 -57.26282501220703 -57.32513427734375 -57.3907470703125 -57.451446533203125 -57.48945617675781 -57.545166015625 -57.575836181640625 -57.620269775390625 -57.63795471191406 -57.6510009765625 -57.6641845703125
51000 LossesBy500 0.013595848344266415 -0.002116189105436206 -0.009552624076604843 -0.013393735513091087 -0.015652114525437355 -0.017176466062664986 -0.018305538222193718 -0.019169354811310768 -0.01986600086092949 -0.02044466696679592 -0.020935405045747757 -0.02135438658297062 -0.021713072434067726 -0.022039754316210747 -0.02232133224606514 -0.022577714174985886 -0.02281145006418228 -0.023030167445540428 -0.023219214752316475 -0.02340823970735073 -0.023572713136672974 -0.023729167878627777 -0.023871196433901787 -0.02399800345301628 -0.02412603609263897 -0.024249376729130745 -0.02437029965221882 -0.02447677217423916 -0.024569090455770493 -0.024665694683790207 -0.024754533544182777 -0.024848908185958862 -0.024929314851760864 -0.025011973455548286 -0.025077182799577713 -0.025159725919365883 -0.0252245981246233 -0.025290317833423615 -0.025352666154503822 -0.025419075042009354 -0.025475695729255676 -0.02553398907184601 -0.025594539940357208 -0.02564200945198536 -0.025689197704195976 -0.025736063718795776 -0.025781167671084404 -0.025826333090662956 -0.025877617299556732 -0.025915799662470818 -0.02595812827348709 -0.025994092226028442 -0.026034485548734665 -0.0260717011988163 -0.02610473893582821 -0.02613614685833454 -0.0261836014688015 -0.02620721235871315 -0.02624618075788021 -0.02627158910036087 -0.026306038722395897 -0.02631979249417782 -0.02635031007230282 -0.02637842483818531 -0.026411499828100204 -0.02643691934645176 -0.026463644579052925 -0.02648794651031494 -0.026508677750825882 -0.026534361764788628 -0.026555528864264488 -0.0265825092792511 -0.026600638404488564 -0.026626573875546455 -0.02663937211036682 -0.026662638410925865 -0.0266833808273077 -0.026704514399170876 -0.02671698108315468 -0.02673855982720852 -0.026752909645438194 -0.026776209473609924 -0.026791725307703018 -0.026806462556123734 -0.026825200766324997 -0.026839038357138634 -0.026855185627937317 -0.02687305584549904 -0.026885848492383957 -0.02690022811293602 -0.026913631707429886 -0.026925373822450638 -0.02693890780210495 -0.026956211775541306 -0.026968706399202347 -0.02697809226810932 -0.02699390985071659 -0.02699923701584339 -0.027006514370441437 -0.02701292186975479 -0.02701568976044655 -0.02701786532998085
log_motor_var 	 [4.5970025062561035]
sigma_logit 	 [-3.7188427448272705, -4.60255765914917]
mixture_logit 	 [-4.0695343017578125]
prior 	 [-0.2105892449617386, -0.21837981045246124, -0.225971519947052, -0.23407143354415894, -0.24341095983982086, -0.2544063925743103, -0.2669062316417694, -0.28018492460250854, -0.29308152198791504, -0.30429184436798096, -0.3125728368759155, -0.3169693648815155, -0.3168923258781433, -0.3121243119239807, -0.30278486013412476, -0.2892885208129883, -0.2722104787826538, -0.25219595432281494, -0.22975210845470428, -0.2051512449979782, -0.1783730387687683, -0.1491716206073761, -0.11733455210924149, -0.0830581784248352, -0.04728790745139122, -0.011625777930021286, 0.022368837147951126, 0.054213959723711014, 0.08505334705114365, 0.11714086681604385, 0.15267489850521088, 0.19299814105033875, 0.2387942671775818, 0.2906065285205841, 0.34895357489585876, 0.41409116983413696, 0.48566776514053345, 0.5625116229057312, 0.6426206231117249, 0.7232145071029663, 0.8009005188941956, 0.8721576929092407, 0.9338289499282837, 0.9837064146995544, 1.0209037065505981, 1.0459206104278564, 1.060356855392456, 1.0665459632873535, 1.067146897315979, 1.064576506614685, 1.0608460903167725, 1.0574650764465332, 1.055330753326416, 1.0548440217971802, 1.0559879541397095, 1.0584889650344849, 1.0619293451309204, 1.0658224821090698, 1.0696847438812256, 1.0730758905410767, 1.0755910873413086, 1.0769037008285522, 1.0767961740493774, 1.0751618146896362, 1.0720163583755493, 1.067468285560608, 1.0616352558135986, 1.0546165704727173, 1.046563744544983, 1.0374846458435059, 1.027275562286377, 1.0156197547912598, 1.0020251274108887, 0.9856806993484497, 0.9654978513717651, 0.9401382803916931, 0.9082951545715332, 0.8689456582069397, 0.8216115832328796, 0.7664573788642883, 0.7042475938796997, 0.6362346410751343, 0.5638471245765686, 0.48844656348228455, 0.4112633168697357, 0.3333674371242523, 0.2557680904865265, 0.17944882810115814, 0.10528791695833206, 0.03397678583860397, -0.03407609835267067, -0.09875670075416565, -0.16021309792995453, -0.21876902878284454, -0.2748255729675293, -0.328770250082016, -0.3809521496295929, -0.4315818250179291, -0.48076456785202026, -0.528481662273407, -0.5746045708656311, -0.6189118027687073, -0.6611601710319519, -0.7010493278503418, -0.7382556200027466, -0.7725220322608948, -0.8036134243011475, -0.8314119577407837, -0.855932891368866, -0.8773652911186218, -0.8961244821548462, -0.9128119945526123, -0.928070068359375, -0.9424588084220886, -0.9562232494354248, -0.9692732095718384, -0.9812228083610535, -0.9914768934249878, -0.9994739294052124, -1.0049279928207397, -1.0079238414764404, -1.0089085102081299, -1.0086381435394287, -1.0076872110366821, -1.0061877965927124, -1.0037729740142822, -0.9996430277824402, -0.9928219318389893, -0.9825101494789124, -0.968230128288269, -0.9498655796051025, -0.9275916814804077, -0.9017455577850342, -0.8727379441261292, -0.8409554362297058, -0.8066864609718323, -0.7701634764671326, -0.731592059135437, -0.6911516785621643, -0.6489806771278381, -0.6051719188690186, -0.5598518252372742, -0.5131273865699768, -0.4650973081588745, -0.41578105092048645, -0.3651605546474457, -0.31319352984428406, -0.25986093282699585, -0.2053278237581253, -0.15001064538955688, -0.09468484669923782, -0.04055321589112282, 0.010724361054599285, 0.057204388082027435, 0.09691262245178223, 0.1281736046075821, 0.1498594731092453, 0.16152089834213257, 0.16345247626304626, 0.1566135734319687, 0.1424180120229721, 0.12246862053871155, 0.09832297265529633, 0.07132567465305328, 0.04254915565252304, 0.012816921807825565, -0.01719803549349308, -0.0468197725713253, -0.07522891461849213, -0.10140801221132278, -0.12420282512903214, -0.14256422221660614, -0.15595585107803345, -0.16475333273410797, -0.1703304648399353, -0.17465953528881073, -0.17955699563026428, -0.1859915554523468, -0.19383937120437622, -0.202304869890213]
volume 	 [0.2653447389602661, 0.21592025458812714, 0.17230428755283356, 0.1367948055267334, 0.09512122720479965, 0.051500916481018066, 0.005133423022925854, -0.04500935599207878, -0.09540311992168427, -0.13838371634483337, -0.1756698340177536, -0.20689380168914795, -0.22564195096492767, -0.22683720290660858, -0.20652858912944794, -0.1770707219839096, -0.1387442946434021, -0.09368860721588135, -0.02977161854505539, 0.049186091870069504, 0.13845665752887726, 0.22722718119621277, 0.31441691517829895, 0.3897953927516937, 0.4584658741950989, 0.5222720503807068, 0.5807138085365295, 0.6335406303405762, 0.6787725687026978, 0.7001768350601196, 0.7005689740180969, 0.68629390001297, 0.6541237831115723, 0.6145756840705872, 0.5714969635009766, 0.510923445224762, 0.4491318464279175, 0.38622185587882996, 0.316663920879364, 0.24696962535381317, 0.1847255527973175, 0.11910627037286758, 0.051983363926410675, -0.014744163490831852, -0.07063238322734833, -0.1195216178894043, -0.1669686883687973, -0.2147320955991745, -0.2608404755592346, -0.3033667802810669, -0.34382811188697815, -0.38721150159835815, -0.4319850504398346, -0.4793608784675598, -0.521975040435791, -0.5559961795806885, -0.5793354511260986, -0.5863085389137268, -0.5762625336647034, -0.5510507822036743, -0.5124326348304749, -0.46059098839759827, -0.3964616656303406, -0.31885644793510437, -0.22892673313617706, -0.14211177825927734, -0.06088725104928017, 0.009838973172008991, 0.06719906628131866, 0.10609344393014908, 0.14753349125385284, 0.19059796631336212, 0.23640042543411255, 0.27478399872779846, 0.2975521385669708, 0.30965134501457214, 0.31037506461143494, 0.3121156394481659, 0.30757325887680054, 0.2955974042415619, 0.2741745710372925, 0.2487003356218338, 0.21517223119735718, 0.17196637392044067, 0.11397107690572739, 0.05118679255247116, -0.01657239720225334, -0.0824132189154625, -0.14425629377365112, -0.21576552093029022, -0.2916143238544464, -0.37244564294815063, -0.4570882022380829, -0.5354118943214417, -0.6044058799743652, -0.6669332385063171, -0.7200863361358643, -0.7559464573860168, -0.7756457328796387, -0.7769238352775574, -0.757307231426239, -0.719513475894928, -0.6657778024673462, -0.5999876260757446, -0.520288348197937, -0.4308090806007385, -0.3362266719341278, -0.24078254401683807, -0.14852271974086761, -0.06406950205564499, 0.006995368283241987, 0.06415966898202896, 0.11670441180467606, 0.17338332533836365, 0.23802322149276733, 0.3019109070301056, 0.3601420819759369, 0.3937889337539673, 0.40678712725639343, 0.4017329514026642, 0.38883960247039795, 0.3707209527492523, 0.3552117645740509, 0.33616966009140015, 0.30856814980506897, 0.2601965367794037, 0.19735775887966156, 0.12143920361995697, 0.0526428259909153, -0.015489371493458748, -0.0828615352511406, -0.15288133919239044, -0.2138783186674118, -0.2668329179286957, -0.30859899520874023, -0.3318328261375427, -0.3404065668582916, -0.34251078963279724, -0.3356422781944275, -0.3138577938079834, -0.2835574746131897, -0.2526994049549103, -0.2173406332731247, -0.18149837851524353, -0.1491340547800064, -0.12067922204732895, -0.09240067005157471, -0.07473953068256378, -0.06360864639282227, -0.05190411955118179, -0.03564191237092018, -0.023379163816571236, -0.013220109045505524, -0.008387859910726547, -0.003332871478050947, 0.006182855926454067, 0.011024481616914272, 0.00995785091072321, 0.008597606793045998, 0.012090006843209267, 0.020817885175347328, 0.03272133320569992, 0.04031837731599808, 0.04813948646187782, 0.06060778722167015, 0.07770577818155289, 0.10458996146917343, 0.1501954197883606, 0.2141314297914505, 0.2930077910423279, 0.3689378798007965, 0.4221578538417816, 0.4506934583187103, 0.462597519159317, 0.4664989113807678, 0.46474188566207886, 0.4460044205188751, 0.4206171929836273, 0.3820434510707855, 0.3219895362854004]
