0.00606309249997139 CrossValid 8.026870727539062 CrossValidLossesBy500 55.56742858886719 33.50413513183594 23.617630004882812 19.192642211914062 17.001190185546875 15.693756103515625 14.7520751953125 13.983078002929688 13.319717407226562 12.726791381835938 12.178512573242188 11.687652587890625 11.251815795898438 10.861557006835938 10.51806640625 10.21063232421875 9.93560791015625 9.694091796875 9.48004150390625 9.28961181640625 9.12567138671875 8.975173950195312 8.8375244140625 8.71575927734375 8.611434936523438 8.512969970703125 8.4224853515625 8.338958740234375 8.268600463867188 8.200103759765625 8.145004272460938 8.100921630859375 8.068313598632812 8.039596557617188 8.026870727539062
17500 LossesBy500 0.023753857240080833 0.01527053490281105 0.01188278291374445 0.010455656796693802 0.00970412790775299 0.009167831391096115 0.008708002045750618 0.008295257575809956 0.007935388013720512 0.007622194942086935 0.007362084463238716 0.00714479573071003 0.006962059065699577 0.006810219492763281 0.0066834683530032635 0.006580216810107231 0.0064923763275146484 0.00641905702650547 0.006360433995723724 0.00630995724350214 0.006267676595598459 0.006229087710380554 0.0061987717635929585 0.006175648886710405 0.006154706701636314 0.0061369119212031364 0.00611973786726594 0.006107059307396412 0.0060965195298194885 0.0060858577489852905 0.006079312413930893 0.006075051613152027 0.006071256939321756 0.0060664815828204155 0.00606309249997139
log_motor_var 	 [3.790148973464966]
sigma_logit 	 [-4.062165260314941, -5.443241596221924]
mixture_logit 	 [-4.102614879608154]
prior 	 [0.0, 0.0, 0.0, 0.0, 0.0, 0.0, 0.0, 0.0, 0.0, 0.0, 0.0, 0.0, 0.0, 0.0, 0.0, 0.0, 0.0, 0.0, 0.0, 0.0, 0.0, 0.0, 0.0, 0.0, 0.0, 0.0, 0.0, 0.0, 0.0, 0.0, 0.0, 0.0, 0.0, 0.0, 0.0, 0.0, 0.0, 0.0, 0.0, 0.0, 0.0, 0.0, 0.0, 0.0, 0.0, 0.0, 0.0, 0.0, 0.0, 0.0, 0.0, 0.0, 0.0, 0.0, 0.0, 0.0, 0.0, 0.0, 0.0, 0.0, 0.0, 0.0, 0.0, 0.0, 0.0, 0.0, 0.0, 0.0, 0.0, 0.0, 0.0, 0.0, 0.0, 0.0, 0.0, 0.0, 0.0, 0.0, 0.0, 0.0, 0.0, 0.0, 0.0, 0.0, 0.0, 0.0, 0.0, 0.0, 0.0, 0.0, 0.0, 0.0, 0.0, 0.0, 0.0, 0.0, 0.0, 0.0, 0.0, 0.0, 0.0, 0.0, 0.0, 0.0, 0.0, 0.0, 0.0, 0.0, 0.0, 0.0, 0.0, 0.0, 0.0, 0.0, 0.0, 0.0, 0.0, 0.0, 0.0, 0.0, 0.0, 0.0, 0.0, 0.0, 0.0, 0.0, 0.0, 0.0, 0.0, 0.0, 0.0, 0.0, 0.0, 0.0, 0.0, 0.0, 0.0, 0.0, 0.0, 0.0, 0.0, 0.0, 0.0, 0.0, 0.0, 0.0, 0.0, 0.0, 0.0, 0.0, 0.0, 0.0, 0.0, 0.0, 0.0, 0.0, 0.0, 0.0, 0.0, 0.0, 0.0, 0.0, 0.0, 0.0, 0.0, 0.0, 0.0, 0.0, 0.0, 0.0, 0.0, 0.0, 0.0, 0.0, 0.0, 0.0, 0.0, 0.0, 0.0, 0.0]
volume 	 [0.3298076391220093, 0.2769114375114441, 0.2247929722070694, 0.1755695939064026, 0.11562134325504303, 0.052714861929416656, -0.008385906927287579, -0.06561058759689331, -0.11449794471263885, -0.15116146206855774, -0.17364244163036346, -0.18624188005924225, -0.18554826080799103, -0.16749055683612823, -0.13135027885437012, -0.09026670455932617, -0.044521499425172806, 0.007810134906321764, 0.07308972626924515, 0.1533314287662506, 0.24233269691467285, 0.33530887961387634, 0.43236303329467773, 0.5231128334999084, 0.6071445941925049, 0.685213029384613, 0.7520526647567749, 0.8049522042274475, 0.841299831867218, 0.8566044569015503, 0.8477378487586975, 0.8178883194923401, 0.7659637928009033, 0.7038455605506897, 0.6377383470535278, 0.5524479150772095, 0.4610153138637543, 0.3647535741329193, 0.25966402888298035, 0.15791943669319153, 0.07005968689918518, -0.010322718881070614, -0.08583152294158936, -0.152987539768219, -0.20170588791370392, -0.23566852509975433, -0.26137492060661316, -0.27981871366500854, -0.289974182844162, -0.29373693466186523, -0.29625651240348816, -0.3076976239681244, -0.3282717764377594, -0.3589833080768585, -0.3897957503795624, -0.41185879707336426, -0.4251629412174225, -0.4250389635562897, -0.4131840765476227, -0.3924380838871002, -0.36563652753829956, -0.3359375298023224, -0.3022005259990692, -0.25659462809562683, -0.19828471541404724, -0.1438026875257492, -0.09194660931825638, -0.04574498161673546, -0.0029080589301884174, 0.02857143059372902, 0.06509227305650711, 0.10782769322395325, 0.1637379229068756, 0.22787171602249146, 0.29246002435684204, 0.351493239402771, 0.3981831669807434, 0.43252456188201904, 0.45259812474250793, 0.45003262162208557, 0.4297531247138977, 0.40249642729759216, 0.3649393916130066, 0.3154747486114502, 0.2417948842048645, 0.16169428825378418, 0.07690645754337311, -0.0036224364303052425, -0.07906962931156158, -0.16194500029087067, -0.24064213037490845, -0.316358745098114, -0.38912826776504517, -0.45345374941825867, -0.5124443769454956, -0.5710799694061279, -0.6276448965072632, -0.6708618402481079, -0.7032687067985535, -0.7264031171798706, -0.7348731756210327, -0.7345883250236511, -0.7237740755081177, -0.7046812772750854, -0.6749966740608215, -0.636867344379425, -0.58774334192276, -0.5302377343177795, -0.4655196964740753, -0.3970130681991577, -0.3272988200187683, -0.2600657045841217, -0.1852921098470688, -0.09988468885421753, -0.005034204106777906, 0.08952973037958145, 0.1738860011100769, 0.23446232080459595, 0.2750795781612396, 0.29089024662971497, 0.2878879904747009, 0.2720000743865967, 0.246517151594162, 0.20992200076580048, 0.16324961185455322, 0.09349672496318817, 0.00967529695481062, -0.08325805515050888, -0.16885633766651154, -0.24550367891788483, -0.31796973943710327, -0.38507112860679626, -0.43718984723091125, -0.476470410823822, -0.501310408115387, -0.5073461532592773, -0.5029143691062927, -0.49228957295417786, -0.4760707914829254, -0.44707977771759033, -0.4096902906894684, -0.3712728023529053, -0.32904016971588135, -0.2820696532726288, -0.23311513662338257, -0.1859612762928009, -0.13963057100772858, -0.10486360639333725, -0.07649558782577515, -0.047539856284856796, -0.015467136166989803, 0.01115463674068451, 0.03448810800909996, 0.051108844578266144, 0.06696052849292755, 0.0825796127319336, 0.09188340604305267, 0.09343148022890091, 0.09368965774774551, 0.09754721820354462, 0.10860132426023483, 0.12330354005098343, 0.14015309512615204, 0.15502192080020905, 0.17386232316493988, 0.19418160617351532, 0.22067943215370178, 0.26466625928878784, 0.3274959623813629, 0.40424787998199463, 0.47909805178642273, 0.5351296663284302, 0.5644031763076782, 0.5749194622039795, 0.576805830001831, 0.5700016021728516, 0.5454968810081482, 0.5106092691421509, 0.46257176995277405, 0.38899847865104675]
