-0.027876781299710274 CrossValid -41.648590087890625 CrossValidLossesBy500 56.9034423828125 24.29779052734375 7.74029541015625 -1.44378662109375 -7.25726318359375 -11.289749145507812 -14.302383422851562 -16.682022094726562 -18.595535278320312 -20.193954467773438 -21.523040771484375 -22.697967529296875 -23.716201782226562 -24.6236572265625 -25.421356201171875 -26.14031982421875 -26.802978515625 -27.392745971679688 -27.9615478515625 -28.497528076171875 -28.9732666015625 -29.4415283203125 -29.886337280273438 -30.2816162109375 -30.6649169921875 -31.021652221679688 -31.37811279296875 -31.693649291992188 -32.00994873046875 -32.32902526855469 -32.59040832519531 -32.881011962890625 -33.15107727050781 -33.40185546875 -33.663482666015625 -33.90403747558594 -34.13587951660156 -34.35581970214844 -34.56207275390625 -34.769439697265625 -34.943695068359375 -35.157867431640625 -35.35075378417969 -35.53558349609375 -35.713836669921875 -35.8914794921875 -36.063507080078125 -36.22972106933594 -36.39691162109375 -36.553955078125 -36.71910095214844 -36.863128662109375 -37.01690673828125 -37.15373229980469 -37.298980712890625 -37.44764709472656 -37.581756591796875 -37.70732116699219 -37.84002685546875 -37.965675354003906 -38.090118408203125 -38.21953582763672 -38.33856964111328 -38.455101013183594 -38.55553436279297 -38.6826171875 -38.78868865966797 -38.888404846191406 -38.99461364746094 -39.10350036621094 -39.21669006347656 -39.316131591796875 -39.4024658203125 -39.49827575683594 -39.573455810546875 -39.667388916015625 -39.75712585449219 -39.834556579589844 -39.93260192871094 -40.01715850830078 -40.09700012207031 -40.17884063720703 -40.257896423339844 -40.33837127685547 -40.419044494628906 -40.49909973144531 -40.572654724121094 -40.64469909667969 -40.723724365234375 -40.80070495605469 -40.87443542480469 -40.94207763671875 -41.01075744628906 -41.0718994140625 -41.10565948486328 -41.163421630859375 -41.20763397216797 -41.27253723144531 -41.32814025878906 -41.395660400390625 -41.446197509765625 -41.500946044921875 -41.54438018798828 -41.58506774902344 -41.60974884033203 -41.635475158691406 -41.648590087890625
53500 LossesBy500 0.012064182199537754 -0.0035628615878522396 -0.010899955406785011 -0.014633044600486755 -0.01683346927165985 -0.01830613985657692 -0.01938975788652897 -0.02023419924080372 -0.020916549488902092 -0.021469637751579285 -0.02195173129439354 -0.022346291691064835 -0.02270023711025715 -0.0230153389275074 -0.02328275889158249 -0.02353150211274624 -0.023761983960866928 -0.023963918909430504 -0.024151142686605453 -0.024320149794220924 -0.024485113099217415 -0.024641411378979683 -0.024779383093118668 -0.024902259930968285 -0.025030434131622314 -0.025143606588244438 -0.025256577879190445 -0.025359898805618286 -0.02545735239982605 -0.02555007115006447 -0.025641286745667458 -0.025725435465574265 -0.02579602785408497 -0.025886576622724533 -0.025951717048883438 -0.02602262981235981 -0.026087164878845215 -0.02615753561258316 -0.026206618174910545 -0.026269782334566116 -0.026326065883040428 -0.026381459087133408 -0.0264358539134264 -0.026484884321689606 -0.026532838121056557 -0.026581984013319016 -0.02662525326013565 -0.026669109240174294 -0.02671833522617817 -0.026758937165141106 -0.026797223836183548 -0.026832232251763344 -0.02687058411538601 -0.02691252902150154 -0.026946451514959335 -0.02698129415512085 -0.02701019123196602 -0.027042919769883156 -0.02707567811012268 -0.02710704691708088 -0.02713453210890293 -0.027164438739418983 -0.027190078049898148 -0.027216948568820953 -0.027243461459875107 -0.02727144956588745 -0.027293913066387177 -0.027316397055983543 -0.027339454740285873 -0.02736072614789009 -0.027382569387555122 -0.027400920167565346 -0.02742636203765869 -0.027449334040284157 -0.027468182146549225 -0.027485812082886696 -0.02750305086374283 -0.027525166049599648 -0.027543768286705017 -0.027558300644159317 -0.027576234191656113 -0.02759372815489769 -0.0276104174554348 -0.027624735608696938 -0.027641557157039642 -0.027653343975543976 -0.027669712901115417 -0.02768549509346485 -0.027696700766682625 -0.027710165828466415 -0.027721455320715904 -0.027734266594052315 -0.027747103944420815 -0.027759328484535217 -0.02776976488530636 -0.027781054377555847 -0.027792800217866898 -0.02780420333147049 -0.02781638503074646 -0.027829160913825035 -0.027839014306664467 -0.027851827442646027 -0.027855852618813515 -0.027858929708600044 -0.027867939323186874 -0.02787083201110363 -0.027876781299710274
log_motor_var 	 [4.4631171226501465]
sigma_logit 	 [-3.7658281326293945, -4.659913539886475]
mixture_logit 	 [-4.083112716674805]
prior 	 [-0.19827835261821747, -0.2055138498544693, -0.21578580141067505, -0.2289007157087326, -0.24452124536037445, -0.26204216480255127, -0.2804899215698242, -0.2985745966434479, -0.3148614764213562, -0.3279632329940796, -0.33668118715286255, -0.3401956856250763, -0.33809801936149597, -0.33042335510253906, -0.31759557127952576, -0.3003391921520233, -0.2796253263950348, -0.2564805746078491, -0.231768399477005, -0.20605602860450745, -0.17948420345783234, -0.15181542932987213, -0.12261280417442322, -0.0916338637471199, -0.05916347727179527, -0.026001587510108948, 0.007103730924427509, 0.04028484225273132, 0.07493041455745697, 0.1131041944026947, 0.1563691645860672, 0.2050197571516037, 0.2583072781562805, 0.31524458527565, 0.37509945034980774, 0.4375300705432892, 0.5024427771568298, 0.5696626305580139, 0.6387138366699219, 0.7085092663764954, 0.7772080898284912, 0.8424252867698669, 0.9016408324241638, 0.9526301622390747, 0.9938961267471313, 1.0249180793762207, 1.0461453199386597, 1.0589194297790527, 1.0650193691253662, 1.0663868188858032, 1.0649839639663696, 1.0624221563339233, 1.0599496364593506, 1.0583891868591309, 1.0581631660461426, 1.0593990087509155, 1.0620051622390747, 1.0657459497451782, 1.0702900886535645, 1.0752092599868774, 1.0800471305847168, 1.084319829940796, 1.0875798463821411, 1.0894252061843872, 1.0894426107406616, 1.0873568058013916, 1.0829622745513916, 1.0760607719421387, 1.0664714574813843, 1.0541517734527588, 1.0390268564224243, 1.0211788415908813, 1.0006998777389526, 0.9776191711425781, 0.951728880405426, 0.9224677681922913, 0.888964831829071, 0.8501775860786438, 0.8052749037742615, 0.7538942694664001, 0.6962206959724426, 0.6330161690711975, 0.5652821063995361, 0.4940919578075409, 0.4204609990119934, 0.34533363580703735, 0.2697041928768158, 0.19458940625190735, 0.12093710899353027, 0.049519043415784836, -0.019211433827877045, -0.0851459950208664, -0.1484714299440384, -0.20955723524093628, -0.26882266998291016, -0.3266585171222687, -0.38330867886543274, -0.4388839602470398, -0.4932933449745178, -0.5463141798973083, -0.5975728631019592, -0.6466444730758667, -0.6929929852485657, -0.7361388802528381, -0.7756043076515198, -0.8109608888626099, -0.8418790698051453, -0.8681856393814087, -0.889965832233429, -0.9075838923454285, -0.9217078685760498, -0.9332796931266785, -0.9433109164237976, -0.952678382396698, -0.9619190096855164, -0.9711569547653198, -0.9800888299942017, -0.9881759881973267, -0.9948983788490295, -0.9999485015869141, -1.0033926963806152, -1.0056705474853516, -1.007326364517212, -1.0087610483169556, -1.010013222694397, -1.01041579246521, -1.0089571475982666, -1.0043601989746094, -0.9954621195793152, -0.9815295338630676, -0.9623204469680786, -0.9380416870117188, -0.9092060923576355, -0.8764886856079102, -0.8405622839927673, -0.802022397518158, -0.7613400220870972, -0.7188197374343872, -0.6745908260345459, -0.6286861896514893, -0.581061840057373, -0.5315993428230286, -0.4802350699901581, -0.4269738793373108, -0.37192925810813904, -0.31538912653923035, -0.25783634185791016, -0.19995617866516113, -0.14263920485973358, -0.08695072680711746, -0.03408561646938324, 0.014649007469415665, 0.0579184889793396, 0.09452610462903976, 0.12357138842344284, 0.14461886882781982, 0.15772826969623566, 0.16340360045433044, 0.16248540580272675, 0.155990332365036, 0.14489802718162537, 0.1299525648355484, 0.11153560131788254, 0.0896548330783844, 0.06404642015695572, 0.03443221375346184, 0.0008215517154894769, -0.03615635633468628, -0.07503299415111542, -0.11349983513355255, -0.1486377865076065, -0.1774454265832901, -0.19760073721408844, -0.20828618109226227, -0.21060490608215332, -0.20722955465316772, -0.2014905959367752, -0.19634202122688293, -0.1936703324317932, -0.194275364279747]
volume 	 [0.3076740503311157, 0.259363055229187, 0.2103583961725235, 0.1633290946483612, 0.10805644094944, 0.05112666264176369, -0.0036434170324355364, -0.05852220207452774, -0.10772135853767395, -0.14858126640319824, -0.1776919811964035, -0.1995801329612732, -0.2121410071849823, -0.2087000459432602, -0.1869877427816391, -0.15577496588230133, -0.11665726453065872, -0.06939009577035904, -0.0066841477528214455, 0.06728583574295044, 0.15180252492427826, 0.23884201049804688, 0.3238770365715027, 0.40009817481040955, 0.4712723195552826, 0.5387763977050781, 0.6000933647155762, 0.6545505523681641, 0.6962007880210876, 0.7095654010772705, 0.693874716758728, 0.667906641960144, 0.6293252110481262, 0.5905554890632629, 0.5564978718757629, 0.5129067301750183, 0.46217599511146545, 0.4005407691001892, 0.3243885934352875, 0.2463388592004776, 0.1769556999206543, 0.10507608950138092, 0.030838027596473694, -0.0415320098400116, -0.10241760313510895, -0.1542113870382309, -0.19998933374881744, -0.24473901093006134, -0.28814148902893066, -0.3279959559440613, -0.36460453271865845, -0.40245985984802246, -0.4421042501926422, -0.48539087176322937, -0.5238839387893677, -0.5562351942062378, -0.5761218667030334, -0.5778771042823792, -0.5641151666641235, -0.5365676879882812, -0.4955151379108429, -0.4430188238620758, -0.3791951835155487, -0.30330297350883484, -0.2142314463853836, -0.12847323715686798, -0.04847939312458038, 0.021163199096918106, 0.07854386419057846, 0.11826331168413162, 0.16046226024627686, 0.20417732000350952, 0.24844084680080414, 0.28483766317367554, 0.3093199133872986, 0.32077428698539734, 0.3159187138080597, 0.3110331594944, 0.3031226694583893, 0.28450822830200195, 0.25571200251579285, 0.22595112025737762, 0.18863148987293243, 0.14815863966941833, 0.09776575863361359, 0.044705506414175034, -0.012012243270874023, -0.07006944715976715, -0.12501230835914612, -0.19307932257652283, -0.2694767415523529, -0.3544946312904358, -0.443753719329834, -0.5263140797615051, -0.6017192006111145, -0.671165406703949, -0.7308247089385986, -0.7725234627723694, -0.795632541179657, -0.7999666929244995, -0.7816969156265259, -0.7440552711486816, -0.6873854398727417, -0.6193848252296448, -0.5380417108535767, -0.447439581155777, -0.35253435373306274, -0.25740212202072144, -0.16872960329055786, -0.08995002508163452, -0.024589380249381065, 0.03207924962043762, 0.08817657083272934, 0.1533338874578476, 0.22813110053539276, 0.2992754876613617, 0.35728898644447327, 0.3839069604873657, 0.3946475088596344, 0.3913848102092743, 0.38554614782333374, 0.3666868507862091, 0.3473246693611145, 0.3239511549472809, 0.296863317489624, 0.2503318190574646, 0.19576184451580048, 0.12407180666923523, 0.052348412573337555, -0.015047666616737843, -0.08285403251647949, -0.15224698185920715, -0.21320241689682007, -0.267095685005188, -0.31201639771461487, -0.3391439914703369, -0.35260438919067383, -0.3551567792892456, -0.34388241171836853, -0.3167610466480255, -0.28279873728752136, -0.24832572042942047, -0.20845292508602142, -0.16798140108585358, -0.13299553096294403, -0.10618475079536438, -0.0838923305273056, -0.0708208680152893, -0.05963597074151039, -0.04503935948014259, -0.027749627828598022, -0.014210172928869724, -0.0025039459578692913, 0.0017428561113774776, 0.006722796708345413, 0.013114409521222115, 0.016080204397439957, 0.013283636420965195, 0.0089431656524539, 0.007388457655906677, 0.00826707761734724, 0.013314998708665371, 0.01981576345860958, 0.028556371107697487, 0.04291592165827751, 0.061127953231334686, 0.08712439984083176, 0.13140453398227692, 0.19445131719112396, 0.27579087018966675, 0.3601665198802948, 0.42855507135391235, 0.4718269109725952, 0.4925217926502228, 0.5004432201385498, 0.5007750988006592, 0.47915908694267273, 0.45051413774490356, 0.41468513011932373, 0.36006247997283936]
