-0.026389803737401962 CrossValid -40.0634765625 CrossValidLossesBy500 47.15812683105469 18.7318115234375 7.882293701171875 2.3657989501953125 -1.3531494140625 -4.311279296875 -6.843353271484375 -9.08843994140625 -11.090774536132812 -12.895416259765625 -14.53125 -16.023025512695312 -17.368560791015625 -18.60430908203125 -19.751251220703125 -20.792495727539062 -21.76837158203125 -22.654586791992188 -23.494537353515625 -24.267013549804688 -24.99200439453125 -25.673141479492188 -26.305267333984375 -26.91314697265625 -27.46392822265625 -28.005615234375 -28.502761840820312 -28.967086791992188 -29.424835205078125 -29.843887329101562 -30.255508422851562 -30.634506225585938 -30.99810791015625 -31.345565795898438 -31.687850952148438 -32.00799560546875 -32.300750732421875 -32.59393310546875 -32.87297058105469 -33.135833740234375 -33.396087646484375 -33.63899230957031 -33.88194274902344 -34.10833740234375 -34.32603454589844 -34.529754638671875 -34.72991943359375 -34.9312744140625 -35.11067199707031 -35.296417236328125 -35.468963623046875 -35.642242431640625 -35.819671630859375 -35.97380065917969 -36.115692138671875 -36.26812744140625 -36.41026306152344 -36.54631805419922 -36.690757751464844 -36.812355041503906 -36.94232177734375 -37.06897735595703 -37.195953369140625 -37.313446044921875 -37.42683410644531 -37.53993225097656 -37.639678955078125 -37.740455627441406 -37.854766845703125 -37.94947814941406 -38.05232238769531 -38.15309143066406 -38.23756408691406 -38.33055114746094 -38.41358947753906 -38.512115478515625 -38.58638000488281 -38.67450714111328 -38.75810241699219 -38.83003234863281 -38.90962219238281 -38.982818603515625 -39.058685302734375 -39.13172912597656 -39.202980041503906 -39.26557922363281 -39.33912658691406 -39.399314880371094 -39.47270202636719 -39.53401184082031 -39.60284423828125 -39.65125274658203 -39.70649719238281 -39.76728820800781 -39.82805633544922 -39.871063232421875 -39.92565155029297 -39.96464538574219 -39.99921417236328 -40.03369140625 -40.04295349121094 -40.0634765625
51000 LossesBy500 0.007867753505706787 -0.005490082316100597 -0.010231075808405876 -0.012526830658316612 -0.014033428393304348 -0.015216254629194736 -0.016194989904761314 -0.017038339748978615 -0.017771214246749878 -0.018418289721012115 -0.01898377761244774 -0.01949531026184559 -0.019940832629799843 -0.020345909520983696 -0.02071816846728325 -0.021046165376901627 -0.021352946758270264 -0.0216287262737751 -0.02188386768102646 -0.022122297435998917 -0.022336704656481743 -0.022542648017406464 -0.02272876910865307 -0.022900093346834183 -0.023065481334924698 -0.02321244217455387 -0.023353585973381996 -0.02349301427602768 -0.023620257154107094 -0.02373361401259899 -0.023846574127674103 -0.023953378200531006 -0.02405405230820179 -0.024149835109710693 -0.02424052357673645 -0.024320997297763824 -0.02440246194601059 -0.02448326162993908 -0.024556366726756096 -0.024625485762953758 -0.02469155564904213 -0.02475939318537712 -0.024822760373353958 -0.02488359995186329 -0.0249370988458395 -0.02499433420598507 -0.02504863403737545 -0.0250951386988163 -0.025148235261440277 -0.025191791355609894 -0.02523806318640709 -0.02528153359889984 -0.025322124361991882 -0.02536149136722088 -0.025405285879969597 -0.025445498526096344 -0.025482960045337677 -0.0255122072994709 -0.025546222925186157 -0.025586560368537903 -0.025613736361265182 -0.025647930800914764 -0.025678414851427078 -0.02570861391723156 -0.025736890733242035 -0.02576902136206627 -0.025794576853513718 -0.02581878751516342 -0.025845030322670937 -0.025871900841593742 -0.02589704468846321 -0.02591657266020775 -0.025944553315639496 -0.025966573506593704 -0.02598687633872032 -0.02601030096411705 -0.026032045483589172 -0.026048367843031883 -0.026067791506648064 -0.026089657098054886 -0.026105474680662155 -0.026126522570848465 -0.026145825162529945 -0.02616235241293907 -0.026181548833847046 -0.026194429025053978 -0.026211151853203773 -0.026230351999402046 -0.026244545355439186 -0.026261691004037857 -0.0262761190533638 -0.02628810703754425 -0.026301411911845207 -0.02631995640695095 -0.026329588145017624 -0.0263407900929451 -0.026356574147939682 -0.026364799588918686 -0.02637369930744171 -0.026378517970442772 -0.026386210694909096 -0.026389803737401962
log_motor_var 	 [4.148641109466553]
sigma_logit 	 [-3.872225046157837, -4.89219331741333]
mixture_logit 	 [-4.096533298492432]
prior 	 [-0.030054429545998573, -0.0599634125828743, -0.09220704436302185, -0.12606395781040192, -0.1607222557067871, -0.19520486891269684, -0.22834116220474243, -0.2588382065296173, -0.2854362428188324, -0.3070237636566162, -0.32275861501693726, -0.33201920986175537, -0.3343539535999298, -0.3294064998626709, -0.316800981760025, -0.29618728160858154, -0.26728570461273193, -0.2300933301448822, -0.18502803146839142, -0.13308115303516388, -0.07585175335407257, -0.015322217717766762, 0.046541690826416016, 0.10828131437301636, 0.16915977001190186, 0.2289217710494995, 0.2873326241970062, 0.3439510762691498, 0.3983080983161926, 0.4502043128013611, 0.4995844066143036, 0.5462332963943481, 0.5898206233978271, 0.6303155422210693, 0.6682302355766296, 0.7045528292655945, 0.7402581572532654, 0.7757101058959961, 0.810174822807312, 0.8419895172119141, 0.869156002998352, 0.8899891376495361, 0.9035753011703491, 0.9098529815673828, 0.9094226360321045, 0.9032593369483948, 0.8924906849861145, 0.8781508207321167, 0.861113965511322, 0.8421406745910645, 0.8218904733657837, 0.8009907007217407, 0.7800651788711548, 0.7598509192466736, 0.7411021590232849, 0.7247260212898254, 0.7116167545318604, 0.7027503252029419, 0.698991596698761, 0.7011266946792603, 0.709674596786499, 0.7249186635017395, 0.7468206286430359, 0.7749747037887573, 0.8086156249046326, 0.8466150164604187, 0.8874896764755249, 0.929490327835083, 0.970759391784668, 1.0094339847564697, 1.043781042098999, 1.072111964225769, 1.0929611921310425, 1.1049829721450806, 1.1069390773773193, 1.0979158878326416, 1.077422857284546, 1.045190691947937, 1.001198410987854, 0.945560097694397, 0.8784106373786926, 0.8002022504806519, 0.7118391394615173, 0.6149067282676697, 0.5115256309509277, 0.40410593152046204, 0.2949846088886261, 0.18611232936382294, 0.07883917540311813, -0.02613007090985775, -0.1286279410123825, -0.2287994772195816, -0.3268679678440094, -0.42292270064353943, -0.5168347954750061, -0.6082731485366821, -0.6966748237609863, -0.7813758254051208, -0.8616615533828735, -0.9367805123329163, -1.0059943199157715, -1.068593978881836, -1.123936414718628, -1.1714460849761963, -1.2105693817138672, -1.2407704591751099, -1.2615605592727661, -1.2725237607955933, -1.2733954191207886, -1.2639846801757812, -1.2444556951522827, -1.2154933214187622, -1.1783080101013184, -1.134839653968811, -1.0876436233520508, -1.0398916006088257, -0.9949985146522522, -0.9560898542404175, -0.9254966378211975, -0.9043660759925842, -0.8926649689674377, -0.8894193768501282, -0.8930371403694153, -0.901583194732666, -0.9129678010940552, -0.9250903725624084, -0.9359345436096191, -0.9438040852546692, -0.947476863861084, -0.9463343620300293, -0.9402322769165039, -0.9293015003204346, -0.9138656258583069, -0.8942908644676208, -0.8708455562591553, -0.8437982797622681, -0.8132746815681458, -0.7793411612510681, -0.7420167922973633, -0.7012048959732056, -0.6568056344985962, -0.6087266206741333, -0.5569210052490234, -0.5014893412590027, -0.44267135858535767, -0.38100358843803406, -0.3172176778316498, -0.2522287368774414, -0.18703942000865936, -0.12258294224739075, -0.05968334525823593, 0.0009449156932532787, 0.058670978993177414, 0.11293705552816391, 0.16323216259479523, 0.20909234881401062, 0.2500785291194916, 0.2857482135295868, 0.31561076641082764, 0.3391300439834595, 0.3557421565055847, 0.36494454741477966, 0.36640477180480957, 0.3602161109447479, 0.3469814658164978, 0.3277919292449951, 0.30404284596443176, 0.27715450525283813, 0.24834786355495453, 0.21856389939785004, 0.18870079517364502, 0.15986521542072296, 0.13334926962852478, 0.11020462214946747, 0.09062913060188293, 0.07369410246610641, 0.05760224536061287, 0.04032132774591446, 0.020319249480962753, -0.0031368457712233067]
volume 	 [0.31916648149490356, 0.27451613545417786, 0.22971199452877045, 0.18725517392158508, 0.13730747997760773, 0.08678127825260162, 0.03919248282909393, -0.00869243685156107, -0.05139800161123276, -0.08662436157464981, -0.11104360222816467, -0.12973734736442566, -0.14058832824230194, -0.1364758014678955, -0.11522476375102997, -0.08665193617343903, -0.0527915321290493, -0.013547190465033054, 0.03913665562868118, 0.10157071799039841, 0.1743166446685791, 0.25168880820274353, 0.3302697241306305, 0.40312716364860535, 0.4723755717277527, 0.5383799076080322, 0.5978767275810242, 0.6507459878921509, 0.6914238929748535, 0.7070227265357971, 0.695253312587738, 0.6739388704299927, 0.6405606865882874, 0.6064098477363586, 0.5755526423454285, 0.5328834652900696, 0.4796259105205536, 0.41322293877601624, 0.3318294584751129, 0.2485654652118683, 0.1744351089000702, 0.09850943833589554, 0.02061970718204975, -0.05495959147810936, -0.11857061833143234, -0.17272964119911194, -0.22027882933616638, -0.26599442958831787, -0.3093656003475189, -0.3480130732059479, -0.382328599691391, -0.41698041558265686, -0.45294317603111267, -0.4925016462802887, -0.5276358127593994, -0.557341992855072, -0.5754334926605225, -0.576139509677887, -0.5621249675750732, -0.5352742671966553, -0.4960443377494812, -0.4466050863265991, -0.38716810941696167, -0.31699085235595703, -0.23489370942115784, -0.1571609228849411, -0.08544271439313889, -0.023539891466498375, 0.027434861287474632, 0.061741746962070465, 0.09857132285833359, 0.13672514259815216, 0.17580148577690125, 0.20781826972961426, 0.22922605276107788, 0.23836278915405273, 0.23215053975582123, 0.22490565478801727, 0.21462009847164154, 0.19483618438243866, 0.16742517054080963, 0.1417660117149353, 0.1123916283249855, 0.08210813254117966, 0.04320930317044258, 0.0010530545841902494, -0.04624617099761963, -0.09651830047369003, -0.14524297416210175, -0.2080722451210022, -0.2796251177787781, -0.35990315675735474, -0.4443506896495819, -0.5217828750610352, -0.5920732617378235, -0.65695720911026, -0.712691605091095, -0.750872015953064, -0.77112877368927, -0.773222804069519, -0.7528970241546631, -0.7136663794517517, -0.6559934616088867, -0.5880346298217773, -0.5072514414787292, -0.4176589250564575, -0.3239937126636505, -0.2299956977367401, -0.14297965168952942, -0.06735058128833771, -0.007935362868010998, 0.04003194719552994, 0.08480359613895416, 0.13603374361991882, 0.1951596885919571, 0.250873327255249, 0.29777637124061584, 0.31991779804229736, 0.33177557587623596, 0.33441659808158875, 0.3385007083415985, 0.33294546604156494, 0.3278232514858246, 0.31848782300949097, 0.3034248948097229, 0.2666935920715332, 0.22037817537784576, 0.15626277029514313, 0.09171856939792633, 0.03079189360141754, -0.032742153853178024, -0.1004277840256691, -0.1614246517419815, -0.21664609014987946, -0.2639491856098175, -0.2935217320919037, -0.3099393844604492, -0.316380113363266, -0.31014955043792725, -0.28907933831214905, -0.26275819540023804, -0.23746924102306366, -0.20765765011310577, -0.17737603187561035, -0.1522858440876007, -0.1345960944890976, -0.12015601992607117, -0.1135764941573143, -0.10739322751760483, -0.09637239575386047, -0.08117694407701492, -0.06806647777557373, -0.055295828729867935, -0.04837897792458534, -0.039648424834012985, -0.028395896777510643, -0.01924102008342743, -0.014305013231933117, -0.00972801260650158, -0.0016593086766079068, 0.009056120179593563, 0.023913994431495667, 0.04022607207298279, 0.05832841247320175, 0.08155295252799988, 0.10769560188055038, 0.1403447687625885, 0.18957622349262238, 0.2554752230644226, 0.3373165428638458, 0.41900885105133057, 0.4815647304058075, 0.5175455808639526, 0.5311988592147827, 0.5315988063812256, 0.5237216353416443, 0.4947264790534973, 0.4609043300151825, 0.42274296283721924, 0.36890357732772827]
