-0.030949555337429047 CrossValid 12.345809936523438 CrossValidLossesBy500 94.43215942382812 60.23408508300781 43.26426696777344 34.646575927734375 29.837265014648438 26.840805053710938 24.769805908203125 23.262771606445312 22.092315673828125 21.1568603515625 20.37628173828125 19.739059448242188 19.161041259765625 18.685134887695312 18.210647583007812 17.826126098632812 17.455947875976562 17.106475830078125 16.799407958984375 16.518722534179688 16.294357299804688 16.033645629882812 15.798828125 15.5999755859375 15.401168823242188 15.216766357421875 15.05718994140625 14.892562866210938 14.76031494140625 14.61810302734375 14.490371704101562 14.381393432617188 14.276290893554688 14.166183471679688 14.073760986328125 13.978073120117188 13.895584106445312 13.813934326171875 13.750595092773438 13.677032470703125 13.626800537109375 13.557098388671875 13.4913330078125 13.437164306640625 13.398284912109375 13.339920043945312 13.296356201171875 13.253036499023438 13.22686767578125 13.178558349609375 13.13385009765625 13.105560302734375 13.069747924804688 13.038467407226562 13.009185791015625 12.980682373046875 12.95623779296875 12.922393798828125 12.904144287109375 12.8699951171875 12.847518920898438 12.818740844726562 12.797927856445312 12.77764892578125 12.760025024414062 12.736236572265625 12.728179931640625 12.694091796875 12.682418823242188 12.666351318359375 12.65045166015625 12.633071899414062 12.622283935546875 12.600021362304688 12.58734130859375 12.57373046875 12.561737060546875 12.553207397460938 12.53350830078125 12.525909423828125 12.525253295898438 12.510955810546875 12.488739013671875 12.471878051757812 12.474761962890625 12.458389282226562 12.4488525390625 12.4468994140625 12.429824829101562 12.417694091796875 12.42059326171875 12.41363525390625 12.403839111328125 12.386688232421875 12.3865966796875 12.37457275390625 12.368087768554688 12.36566162109375 12.359573364257812 12.3587646484375 12.349136352539062 12.341400146484375 12.33746337890625 12.343978881835938 12.348831176757812 12.345809936523438
53000 LossesBy500 0.010091843083500862 -0.005499632563441992 -0.01292923279106617 -0.01678444631397724 -0.019068656489253044 -0.02061503380537033 -0.021753985434770584 -0.02263878472149372 -0.02333681657910347 -0.02392335794866085 -0.024422157555818558 -0.024847030639648438 -0.025206508114933968 -0.025533519685268402 -0.025830769911408424 -0.026096494868397713 -0.02634589746594429 -0.026563238352537155 -0.026763126254081726 -0.026952354237437248 -0.027111658826470375 -0.027280092239379883 -0.02743864431977272 -0.027578942477703094 -0.027719080448150635 -0.027849730104207993 -0.027972310781478882 -0.028087247163057327 -0.02819991484284401 -0.02830774337053299 -0.028405919671058655 -0.028503140434622765 -0.028596580028533936 -0.028680291026830673 -0.028763558715581894 -0.02884853631258011 -0.028926633298397064 -0.029002444818615913 -0.02907482720911503 -0.02914351597428322 -0.029203159734606743 -0.02927222102880478 -0.029331043362617493 -0.029386401176452637 -0.02944331243634224 -0.029497044160962105 -0.029550116509199142 -0.029603056609630585 -0.02964666113257408 -0.029697248712182045 -0.029740896075963974 -0.029783934354782104 -0.029825907200574875 -0.029869694262742996 -0.02990913763642311 -0.029950251802802086 -0.029988473281264305 -0.030022893100976944 -0.030053865164518356 -0.03008873760700226 -0.030120817944407463 -0.03015623427927494 -0.030182788148522377 -0.03021378070116043 -0.03024415113031864 -0.030274521559476852 -0.03029918298125267 -0.030323393642902374 -0.030356494709849358 -0.03037676401436329 -0.030401993542909622 -0.030429869890213013 -0.03045332431793213 -0.030472738668322563 -0.030493037775158882 -0.030519995838403702 -0.030539250001311302 -0.030557624995708466 -0.030583463609218597 -0.03059891052544117 -0.03061574697494507 -0.030640289187431335 -0.030657511204481125 -0.03067445009946823 -0.03069467842578888 -0.030711758881807327 -0.03072780929505825 -0.03073936328291893 -0.030759137123823166 -0.03077065572142601 -0.030789664015173912 -0.030801065266132355 -0.03081636317074299 -0.030830642208456993 -0.030845124274492264 -0.030859872698783875 -0.030875537544488907 -0.0308912992477417 -0.030897466465830803 -0.030907828360795975 -0.03092372976243496 -0.030928103253245354 -0.03093533217906952 -0.03093954734504223 -0.030948054045438766 -0.030949555337429047
log_motor_var 	 [4.257391452789307]
sigma_logit 	 [-3.841317892074585, -4.8520331382751465]
mixture_logit 	 [-4.079524040222168]
prior 	 [-0.22958730161190033, -0.23021170496940613, -0.23236846923828125, -0.2369147688150406, -0.24416954815387726, -0.25376150012016296, -0.2646092176437378, -0.27514469623565674, -0.28361010551452637, -0.2883538603782654, -0.2880436182022095, -0.2818860411643982, -0.26970309019088745, -0.2519175112247467, -0.22951917350292206, -0.20397841930389404, -0.17703594267368317, -0.1504470258951187, -0.1256663054227829, -0.1035505011677742, -0.08415936678647995, -0.06676902621984482, -0.05014451965689659, -0.03309620916843414, -0.015071460977196693, 0.0037010994274169207, 0.022801093757152557, 0.04260336607694626, 0.06484867632389069, 0.0922231525182724, 0.1271590292453766, 0.17074736952781677, 0.22243450582027435, 0.2805061340332031, 0.34286388754844666, 0.4078134298324585, 0.4744583070278168, 0.5424814224243164, 0.6115629076957703, 0.6809234619140625, 0.74893718957901, 0.8134317994117737, 0.8721859455108643, 0.9234088659286499, 0.9660883545875549, 1.0001671314239502, 1.0263460874557495, 1.0458694696426392, 1.060301423072815, 1.071162462234497, 1.0797988176345825, 1.087247371673584, 1.09419584274292, 1.1010102033615112, 1.1078020334243774, 1.1145269870758057, 1.1210570335388184, 1.1272392272949219, 1.132909893989563, 1.137898325920105, 1.1420221328735352, 1.1451025009155273, 1.1469407081604004, 1.1473203897476196, 1.1460546255111694, 1.1429373025894165, 1.1376500129699707, 1.1299093961715698, 1.1194252967834473, 1.1059526205062866, 1.0893648862838745, 1.0698401927947998, 1.0476839542388916, 1.023336410522461, 0.9969967603683472, 0.9683573246002197, 0.9365397095680237, 0.9002318978309631, 0.8581593632698059, 0.8092790842056274, 0.7530386447906494, 0.6894003748893738, 0.6188235282897949, 0.542127788066864, 0.46042945981025696, 0.3751815855503082, 0.288143515586853, 0.20119062066078186, 0.11608080565929413, 0.03423179313540459, -0.04346517473459244, -0.11667131632566452, -0.18553631007671356, -0.250560998916626, -0.3124403655529022, -0.37190353870391846, -0.429584801197052, -0.48596394062042236, -0.5413102507591248, -0.5956770777702332, -0.6489366292953491, -0.7007884979248047, -0.750816285610199, -0.7985286712646484, -0.8433303833007812, -0.884685218334198, -0.9220600128173828, -0.9549961686134338, -0.9832279086112976, -1.006780743598938, -1.0259720087051392, -1.0415724515914917, -1.0544127225875854, -1.0653059482574463, -1.0747138261795044, -1.082493782043457, -1.0881454944610596, -1.0909755229949951, -1.0905179977416992, -1.0870829820632935, -1.0817514657974243, -1.0758873224258423, -1.0706640481948853, -1.0663139820098877, -1.0623689889907837, -1.0576319694519043, -1.0507723093032837, -1.0406863689422607, -1.02676260471344, -1.0089248418807983, -0.9875221252441406, -0.9631559252738953, -0.9365170001983643, -0.9081487059593201, -0.8783698081970215, -0.8472737669944763, -0.8147003650665283, -0.7802868485450745, -0.7435234189033508, -0.7037950754165649, -0.660432755947113, -0.6128787994384766, -0.5607603192329407, -0.5039360523223877, -0.44259119033813477, -0.3772071897983551, -0.30864331126213074, -0.23805096745491028, -0.16686764359474182, -0.09675319492816925, -0.02951021119952202, 0.0329894945025444, 0.0888964906334877, 0.1365736871957779, 0.17481732368469238, 0.20305714011192322, 0.22141987085342407, 0.23066382110118866, 0.232019305229187, 0.2269814908504486, 0.21699906885623932, 0.2031681090593338, 0.1859895884990692, 0.1653119921684265, 0.14044389128684998, 0.11048705130815506, 0.07482429593801498, 0.03362402692437172, -0.011791427619755268, -0.05888388305902481, -0.10419593006372452, -0.14406423270702362, -0.17566785216331482, -0.19800221920013428, -0.21209843456745148, -0.22027596831321716, -0.2249079942703247, -0.22757560014724731, -0.22897522151470184, -0.22946886718273163]
volume 	 [0.2812245190143585, 0.22629521787166595, 0.17604844272136688, 0.13173902034759521, 0.08120836317539215, 0.030055521056056023, -0.018608514219522476, -0.06506525725126266, -0.10256365686655045, -0.13415007293224335, -0.15930373966693878, -0.17946377396583557, -0.1890861839056015, -0.1838802546262741, -0.16420529782772064, -0.13968919217586517, -0.10569491237401962, -0.061410777270793915, 0.0029169816989451647, 0.08298148214817047, 0.17182612419128418, 0.2640213966369629, 0.3554040789604187, 0.43344956636428833, 0.502056896686554, 0.5689623951911926, 0.6331449747085571, 0.6944671273231506, 0.7395229339599609, 0.7583198547363281, 0.7501493096351624, 0.7219040989875793, 0.6763564944267273, 0.6332144737243652, 0.5905528664588928, 0.5329306125640869, 0.4698031544685364, 0.4025697410106659, 0.324393630027771, 0.24335218966007233, 0.16878071427345276, 0.09237219393253326, 0.015196614898741245, -0.05755699798464775, -0.11619478464126587, -0.1647903472185135, -0.20896394550800323, -0.2534164488315582, -0.2982339859008789, -0.33855050802230835, -0.3749932646751404, -0.4140111207962036, -0.45521095395088196, -0.5006357431411743, -0.5412866473197937, -0.5758866667747498, -0.5975804328918457, -0.6009693145751953, -0.5860533118247986, -0.5559361577033997, -0.5123091340065002, -0.4584924280643463, -0.3926510512828827, -0.3132643401622772, -0.22123850882053375, -0.1339479386806488, -0.05559217557311058, 0.014086635783314705, 0.0724644660949707, 0.11559531837701797, 0.16072452068328857, 0.2054554969072342, 0.25588247179985046, 0.2998797297477722, 0.3282119929790497, 0.34185707569122314, 0.33753538131713867, 0.3362863063812256, 0.33194658160209656, 0.3137967884540558, 0.2845955193042755, 0.25769656896591187, 0.2259722650051117, 0.1861463487148285, 0.13274437189102173, 0.07187696546316147, 0.004859222564846277, -0.06409349292516708, -0.13061824440956116, -0.20579975843429565, -0.283424973487854, -0.3648699223995209, -0.44866472482681274, -0.5283424258232117, -0.6026248931884766, -0.6725431680679321, -0.7343906164169312, -0.7780501246452332, -0.8042484521865845, -0.8126271963119507, -0.8002130389213562, -0.7680760025978088, -0.7173817753791809, -0.6515578627586365, -0.5709701180458069, -0.48072901368141174, -0.38303810358047485, -0.2822628915309906, -0.18611305952072144, -0.10256899148225784, -0.03407737612724304, 0.023897403851151466, 0.08146125078201294, 0.14742453396320343, 0.22201566398143768, 0.2921608090400696, 0.346123069524765, 0.37093955278396606, 0.38135668635368347, 0.38119280338287354, 0.3735881745815277, 0.3607751727104187, 0.3519435524940491, 0.33882007002830505, 0.31473448872566223, 0.26828068494796753, 0.20444777607917786, 0.12353035062551498, 0.04190639778971672, -0.03696282580494881, -0.11411222070455551, -0.18884488940238953, -0.2506851553916931, -0.30088379979133606, -0.3391038477420807, -0.36066681146621704, -0.3728155791759491, -0.3789863586425781, -0.374504417181015, -0.35408052802085876, -0.32270359992980957, -0.29025763273239136, -0.2545822262763977, -0.2182270586490631, -0.18693983554840088, -0.16131806373596191, -0.13557636737823486, -0.1175992414355278, -0.10273848474025726, -0.08609434217214584, -0.0649074912071228, -0.045896660536527634, -0.030130429193377495, -0.021207133308053017, -0.012230075895786285, -0.0005745886592194438, 0.008972213603556156, 0.010548095218837261, 0.012839294038712978, 0.0209233146160841, 0.03422301262617111, 0.048520416021347046, 0.060142938047647476, 0.06841685622930527, 0.07995005697011948, 0.09873946756124496, 0.12740042805671692, 0.17787976562976837, 0.2501433789730072, 0.3413102924823761, 0.43326225876808167, 0.4995284974575043, 0.5346680283546448, 0.5464039444923401, 0.5407283902168274, 0.5237339735031128, 0.4888700842857361, 0.4498036205768585, 0.4062950313091278, 0.3416825532913208]
