-0.011108874343335629 CrossValid 2.017242431640625 CrossValidLossesBy500 34.572113037109375 15.11090087890625 10.604385375976562 8.24298095703125 6.3076629638671875 4.8167266845703125 3.784332275390625 3.1179351806640625 2.6969757080078125 2.437042236328125 2.2806396484375 2.176422119140625 2.108367919921875 2.0687255859375 2.041473388671875 2.0333404541015625 2.0188140869140625 2.017242431640625
9000 LossesBy500 0.002406212966889143 -0.006395353935658932 -0.008292850106954575 -0.009223856963217258 -0.009917434304952621 -0.010409249924123287 -0.010701630264520645 -0.010868995450437069 -0.01096888817846775 -0.011023269034922123 -0.011058413423597813 -0.011079560033977032 -0.011091496795415878 -0.01109811756759882 -0.011102529242634773 -0.011107837781310081 -0.011107088066637516 -0.011108874343335629
log_motor_var 	 [3.850832939147949]
sigma_logit 	 [-3.922053575515747, -5.141198635101318]
mixture_logit 	 [-4.1345062255859375]
prior 	 [0.0, 0.0, 0.0, 0.0, 0.0, 0.0, 0.0, 0.0, 0.0, 0.0, 0.0, 0.0, 0.0, 0.0, 0.0, 0.0, 0.0, 0.0, 0.0, 0.0, 0.0, 0.0, 0.0, 0.0, 0.0, 0.0, 0.0, 0.0, 0.0, 0.0, 0.0, 0.0, 0.0, 0.0, 0.0, 0.0, 0.0, 0.0, 0.0, 0.0, 0.0, 0.0, 0.0, 0.0, 0.0, 0.0, 0.0, 0.0, 0.0, 0.0, 0.0, 0.0, 0.0, 0.0, 0.0, 0.0, 0.0, 0.0, 0.0, 0.0, 0.0, 0.0, 0.0, 0.0, 0.0, 0.0, 0.0, 0.0, 0.0, 0.0, 0.0, 0.0, 0.0, 0.0, 0.0, 0.0, 0.0, 0.0, 0.0, 0.0, 0.0, 0.0, 0.0, 0.0, 0.0, 0.0, 0.0, 0.0, 0.0, 0.0, 0.0, 0.0, 0.0, 0.0, 0.0, 0.0, 0.0, 0.0, 0.0, 0.0, 0.0, 0.0, 0.0, 0.0, 0.0, 0.0, 0.0, 0.0, 0.0, 0.0, 0.0, 0.0, 0.0, 0.0, 0.0, 0.0, 0.0, 0.0, 0.0, 0.0, 0.0, 0.0, 0.0, 0.0, 0.0, 0.0, 0.0, 0.0, 0.0, 0.0, 0.0, 0.0, 0.0, 0.0, 0.0, 0.0, 0.0, 0.0, 0.0, 0.0, 0.0, 0.0, 0.0, 0.0, 0.0, 0.0, 0.0, 0.0, 0.0, 0.0, 0.0, 0.0, 0.0, 0.0, 0.0, 0.0, 0.0, 0.0, 0.0, 0.0, 0.0, 0.0, 0.0, 0.0, 0.0, 0.0, 0.0, 0.0, 0.0, 0.0, 0.0, 0.0, 0.0, 0.0, 0.0, 0.0, 0.0, 0.0, 0.0, 0.0]
volume 	 [0.35770389437675476, 0.3266385495662689, 0.2949844002723694, 0.2656319737434387, 0.229142963886261, 0.1927022784948349, 0.15927721560001373, 0.12404210865497589, 0.09178484976291656, 0.06392674148082733, 0.04405298829078674, 0.026629311963915825, 0.014436664059758186, 0.015519156120717525, 0.031762585043907166, 0.05216071382164955, 0.07389547675848007, 0.09763997048139572, 0.1317426562309265, 0.17196141183376312, 0.21910376846790314, 0.2690983712673187, 0.31953296065330505, 0.363850474357605, 0.4033993184566498, 0.4383338689804077, 0.4660675823688507, 0.48870033025741577, 0.503044068813324, 0.5009284615516663, 0.48227110505104065, 0.4614656865596771, 0.43420055508613586, 0.40666595101356506, 0.3805578649044037, 0.34443074464797974, 0.3009110689163208, 0.24841728806495667, 0.18623797595500946, 0.12319263815879822, 0.06841642409563065, 0.011293327435851097, -0.04831065237522125, -0.10665839910507202, -0.15428456664085388, -0.1946609914302826, -0.22979258000850677, -0.2641557455062866, -0.2963006794452667, -0.32386544346809387, -0.3472841680049896, -0.3714804947376251, -0.3979949951171875, -0.4300961196422577, -0.46034830808639526, -0.48875075578689575, -0.5090219378471375, -0.5153922438621521, -0.5100744962692261, -0.495368629693985, -0.4716057777404785, -0.44089195132255554, -0.40342196822166443, -0.3588877320289612, -0.30601680278778076, -0.25955280661582947, -0.2197592705488205, -0.18918512761592865, -0.16774332523345947, -0.1604282110929489, -0.15164993703365326, -0.1420157253742218, -0.1304829865694046, -0.12155554443597794, -0.11647119373083115, -0.11515270918607712, -0.11968090385198593, -0.12002871185541153, -0.1182335689663887, -0.12025880813598633, -0.12530748546123505, -0.12784022092819214, -0.13206219673156738, -0.13839152455329895, -0.15263253450393677, -0.17120128870010376, -0.19489094614982605, -0.22116181254386902, -0.24454908072948456, -0.2784687280654907, -0.31737056374549866, -0.36269500851631165, -0.41092026233673096, -0.4521767199039459, -0.48708948493003845, -0.5193580985069275, -0.5460758209228516, -0.5585517287254333, -0.5564523339271545, -0.5403411388397217, -0.5047311186790466, -0.4542939364910126, -0.3893594443798065, -0.3200310170650482, -0.24207532405853271, -0.16044043004512787, -0.07901924848556519, -0.0005563918966799974, 0.06805957853794098, 0.12332306802272797, 0.16129551827907562, 0.1894780397415161, 0.21768735349178314, 0.25557827949523926, 0.303934246301651, 0.3495347201824188, 0.3884982764720917, 0.40406930446624756, 0.411431223154068, 0.4123024344444275, 0.4155031740665436, 0.41000184416770935, 0.40700680017471313, 0.40278634428977966, 0.39410698413848877, 0.36422690749168396, 0.32541826367378235, 0.271051287651062, 0.21689973771572113, 0.1674288660287857, 0.11416726559400558, 0.05488893762230873, -0.0001630610931897536, -0.05087462440133095, -0.09567437320947647, -0.12355845421552658, -0.14038224518299103, -0.14949935674667358, -0.14843487739562988, -0.13447415828704834, -0.118445485830307, -0.1062118262052536, -0.09108986705541611, -0.07606329023838043, -0.06623750180006027, -0.06289388239383698, -0.06180042773485184, -0.06742057204246521, -0.0726146399974823, -0.0719827339053154, -0.06656704097986221, -0.06257364898920059, -0.05873129516839981, -0.06061446666717529, -0.061524648219347, -0.06106860935688019, -0.06443645060062408, -0.07292123883962631, -0.08223944157361984, -0.08772946894168854, -0.08973027765750885, -0.08605337888002396, -0.0782451182603836, -0.0658026710152626, -0.045942407101392746, -0.02037046104669571, 0.013590757735073566, 0.06437213718891144, 0.13167619705200195, 0.2159179449081421, 0.3034905791282654, 0.3780515789985657, 0.4311769902706146, 0.4648319184780121, 0.48418280482292175, 0.4931691586971283, 0.48148682713508606, 0.46204328536987305, 0.4359581172466278, 0.3929116427898407]
