0.013289544731378555 CrossValid 44.640777587890625 CrossValidLossesBy500 77.74476623535156 73.84326171875 71.58395385742188 69.56582641601562 67.70433044433594 65.92840576171875 64.27360534667969 62.69471740722656 61.24708557128906 59.86854553222656 58.66023254394531 57.50251770019531 56.49809265136719 55.55924987792969 54.712066650390625 53.92704772949219 53.24285888671875 52.5797119140625 51.99177551269531 51.45098876953125 51.00157165527344 50.534576416015625 50.11857604980469 49.735504150390625 49.372833251953125 49.07281494140625 48.765380859375 48.47178649902344 48.24131774902344 47.9991455078125 47.78704833984375 47.54936218261719 47.35758972167969 47.2056884765625 47.044097900390625 46.833251953125 46.69915771484375 46.603973388671875 46.466552734375 46.316497802734375 46.25274658203125 46.13763427734375 45.982208251953125 45.92567443847656 45.790985107421875 45.73931884765625 45.622955322265625 45.58782958984375 45.48536682128906 45.43873596191406 45.310150146484375 45.2906494140625 45.23638916015625 45.17451477050781 45.11543273925781 45.0531005859375 45.029205322265625 44.97166442871094 44.95654296875 44.887664794921875 44.921630859375 44.86811828613281 44.81280517578125 44.82501220703125 44.79435729980469 44.79402160644531 44.7783203125 44.74400329589844 44.676422119140625 44.6787109375 44.640289306640625 44.64460754394531 44.593109130859375 44.61811828613281 44.62577819824219 44.606689453125 44.640777587890625
38500 LossesBy500 0.03318628668785095 0.03112819418311119 0.029833851382136345 0.028686147183179855 0.02761220559477806 0.02661750465631485 0.025661444291472435 0.024723632261157036 0.023844951763749123 0.023039229214191437 0.02228822000324726 0.021589314565062523 0.020974300801753998 0.020390989258885384 0.019864864647388458 0.019382501021027565 0.018929945304989815 0.018520601093769073 0.0181491207331419 0.01781943254172802 0.017502104863524437 0.017207438126206398 0.016939524561166763 0.01667112484574318 0.01645640656352043 0.016236599534749985 0.01603582501411438 0.015869667753577232 0.015678536146879196 0.015525836497545242 0.015399574302136898 0.015241200104355812 0.01511033158749342 0.01500600017607212 0.014887184835970402 0.014795823022723198 0.01468982920050621 0.014614111743867397 0.01451795268803835 0.014425011351704597 0.014343618415296078 0.014285869896411896 0.014205781742930412 0.01414456032216549 0.014090769924223423 0.014059685170650482 0.013990199193358421 0.013946580700576305 0.013883937150239944 0.013836564496159554 0.013806064613163471 0.013766398653388023 0.013734247535467148 0.013694297522306442 0.013655639253556728 0.013620545156300068 0.013568166643381119 0.013556613586843014 0.01353179570287466 0.013518260791897774 0.013471700251102448 0.013442978262901306 0.013443300500512123 0.013430154882371426 0.013404647819697857 0.013391369953751564 0.013361258432269096 0.013354221358895302 0.013338872231543064 0.013333996757864952 0.013332095928490162 0.013313047587871552 0.013306429609656334 0.01329922117292881 0.013311885297298431 0.01330498419702053 0.013289544731378555
log_motor_var 	 [6.099213600158691]
sigma_logit 	 [-3.4225659370422363, -4.152657985687256]
mixture_logit 	 [-4.031508922576904]
prior 	 [0.0344139039516449, 0.008386204019188881, -0.019627973437309265, -0.048139769583940506, -0.07591589540243149, -0.10203470289707184, -0.12591703236103058, -0.1472996473312378, -0.1662050187587738, -0.18290913105010986, -0.19780194759368896, -0.21130484342575073, -0.2237393856048584, -0.2352333813905716, -0.245691180229187, -0.2548317015171051, -0.26222729682922363, -0.2674415111541748, -0.2700544595718384, -0.2696850299835205, -0.26602330803871155, -0.2587806284427643, -0.2476494461297989, -0.2322869449853897, -0.21226489543914795, -0.18717500567436218, -0.1567327380180359, -0.12084407359361649, -0.07971452921628952, -0.0338420644402504, 0.016021639108657837, 0.06895256042480469, 0.12396233528852463, 0.18008995056152344, 0.2364998161792755, 0.29253536462783813, 0.34776216745376587, 0.4020281732082367, 0.45534420013427734, 0.5078892707824707, 0.5598469972610474, 0.6112988591194153, 0.6621266603469849, 0.7119326591491699, 0.7601858377456665, 0.8061994314193726, 0.8493635058403015, 0.8891356587409973, 0.9251547455787659, 0.9572977423667908, 0.9855429530143738, 1.0101479291915894, 1.0313279628753662, 1.049415946006775, 1.0646400451660156, 1.0770785808563232, 1.0866498947143555, 1.093245267868042, 1.0966930389404297, 1.0968329906463623, 1.0937120914459229, 1.0873547792434692, 1.0778688192367554, 1.0653828382492065, 1.0498995780944824, 1.0314589738845825, 1.010036587715149, 0.9857256412506104, 0.9586046934127808, 0.9289905428886414, 0.8973149657249451, 0.8641319870948792, 0.8301175236701965, 0.7958515882492065, 0.7619426846504211, 0.7288318872451782, 0.6969900727272034, 0.6667717099189758, 0.6383861303329468, 0.6120072603225708, 0.587708592414856, 0.5653606653213501, 0.5446356534957886, 0.5250076055526733, 0.5057235956192017, 0.48576515913009644, 0.4640211760997772, 0.43935099244117737, 0.41075876355171204, 0.37754157185554504, 0.33931127190589905, 0.29591289162635803, 0.24736858904361725, 0.1937892735004425, 0.1353590190410614, 0.07236891239881516, 0.00530456705018878, -0.06518276035785675, -0.13837051391601562, -0.21360690891742706, -0.2903938591480255, -0.3684404492378235, -0.44753098487854004, -0.5274922847747803, -0.6080791354179382, -0.6890012621879578, -0.7698842287063599, -0.850364625453949, -0.9300627708435059, -1.0086452960968018, -1.085518479347229, -1.1599955558776855, -1.2309473752975464, -1.2969541549682617, -1.3563240766525269, -1.4074089527130127, -1.4487383365631104, -1.4791371822357178, -1.4981741905212402, -1.5057555437088013, -1.5021381378173828, -1.4879357814788818, -1.4638761281967163, -1.4306721687316895, -1.3890260457992554, -1.3396458625793457, -1.2832720279693604, -1.2206724882125854, -1.1526082754135132, -1.079893708229065, -1.0033122301101685, -0.9234651923179626, -0.8411043286323547, -0.7569375038146973, -0.6719046831130981, -0.5871663689613342, -0.5040696859359741, -0.42404529452323914, -0.3484345078468323, -0.27826768159866333, -0.2141847014427185, -0.1563279628753662, -0.10447612404823303, -0.05823008716106415, -0.017229221761226654, 0.01866595633327961, 0.04931379482150078, 0.07435538619756699, 0.09335733205080032, 0.10597991198301315, 0.11206886172294617, 0.11169639229774475, 0.10516735166311264, 0.09301308542490005, 0.07601691782474518, 0.0552377887070179, 0.031980112195014954, 0.007715502753853798, -0.016056187450885773, -0.03795913606882095, -0.056862689554691315, -0.07194922119379044, -0.0827103778719902, -0.08889090269804001, -0.09040144830942154, -0.08724511414766312, -0.07948217540979385, -0.06725431978702545, -0.05088513344526291, -0.030981533229351044, -0.008540716022253036, 0.0150368120521307, 0.038026113063097, 0.05854645371437073, 0.0747869610786438, 0.08522115647792816, 0.08879855275154114, 0.08504719287157059, 0.07413928210735321, 0.05684533715248108]
volume 	 [0.0, 0.0, 0.0, 0.0, 0.0, 0.0, 0.0, 0.0, 0.0, 0.0, 0.0, 0.0, 0.0, 0.0, 0.0, 0.0, 0.0, 0.0, 0.0, 0.0, 0.0, 0.0, 0.0, 0.0, 0.0, 0.0, 0.0, 0.0, 0.0, 0.0, 0.0, 0.0, 0.0, 0.0, 0.0, 0.0, 0.0, 0.0, 0.0, 0.0, 0.0, 0.0, 0.0, 0.0, 0.0, 0.0, 0.0, 0.0, 0.0, 0.0, 0.0, 0.0, 0.0, 0.0, 0.0, 0.0, 0.0, 0.0, 0.0, 0.0, 0.0, 0.0, 0.0, 0.0, 0.0, 0.0, 0.0, 0.0, 0.0, 0.0, 0.0, 0.0, 0.0, 0.0, 0.0, 0.0, 0.0, 0.0, 0.0, 0.0, 0.0, 0.0, 0.0, 0.0, 0.0, 0.0, 0.0, 0.0, 0.0, 0.0, 0.0, 0.0, 0.0, 0.0, 0.0, 0.0, 0.0, 0.0, 0.0, 0.0, 0.0, 0.0, 0.0, 0.0, 0.0, 0.0, 0.0, 0.0, 0.0, 0.0, 0.0, 0.0, 0.0, 0.0, 0.0, 0.0, 0.0, 0.0, 0.0, 0.0, 0.0, 0.0, 0.0, 0.0, 0.0, 0.0, 0.0, 0.0, 0.0, 0.0, 0.0, 0.0, 0.0, 0.0, 0.0, 0.0, 0.0, 0.0, 0.0, 0.0, 0.0, 0.0, 0.0, 0.0, 0.0, 0.0, 0.0, 0.0, 0.0, 0.0, 0.0, 0.0, 0.0, 0.0, 0.0, 0.0, 0.0, 0.0, 0.0, 0.0, 0.0, 0.0, 0.0, 0.0, 0.0, 0.0, 0.0, 0.0, 0.0, 0.0, 0.0, 0.0, 0.0, 0.0, 0.0, 0.0, 0.0, 0.0, 0.0, 0.0]
