-0.026356834918260574 CrossValid -44.473876953125 CrossValidLossesBy500 33.139678955078125 7.32794189453125 -2.112396240234375 -7.0575103759765625 -10.526260375976562 -13.330780029296875 -15.700897216796875 -17.747955322265625 -19.531997680664062 -21.115379333496094 -22.510047912597656 -23.77276611328125 -24.920516967773438 -25.951202392578125 -26.90898895263672 -27.778060913085938 -28.595001220703125 -29.338882446289062 -30.0352783203125 -30.691314697265625 -31.30620574951172 -31.872955322265625 -32.408111572265625 -32.92008972167969 -33.41064453125 -33.858428955078125 -34.283355712890625 -34.69635009765625 -35.0811767578125 -35.44261169433594 -35.79473876953125 -36.11944580078125 -36.44172668457031 -36.74604797363281 -37.03434753417969 -37.309051513671875 -37.571136474609375 -37.81837463378906 -38.066993713378906 -38.29180908203125 -38.526588439941406 -38.73701477050781 -38.94000244140625 -39.1351318359375 -39.331695556640625 -39.51591491699219 -39.68878173828125 -39.86021423339844 -40.02758026123047 -40.178802490234375 -40.33214569091797 -40.478302001953125 -40.622039794921875 -40.76251220703125 -40.8974609375 -41.024383544921875 -41.14411163330078 -41.268035888671875 -41.38148498535156 -41.491241455078125 -41.6038818359375 -41.71173095703125 -41.81465148925781 -41.912925720214844 -42.009925842285156 -42.10350036621094 -42.19462585449219 -42.281646728515625 -42.36366271972656 -42.44688415527344 -42.52958679199219 -42.60954284667969 -42.684478759765625 -42.75648498535156 -42.831298828125 -42.899658203125 -42.96464538574219 -43.03485107421875 -43.09599304199219 -43.157867431640625 -43.21917724609375 -43.279541015625 -43.336090087890625 -43.392730712890625 -43.44990539550781 -43.50178527832031 -43.55690002441406 -43.61228942871094 -43.66273498535156 -43.70817565917969 -43.756309509277344 -43.79963684082031 -43.84346008300781 -43.89015197753906 -43.93232727050781 -43.97035217285156 -44.00934600830078 -44.051788330078125 -44.09077453613281 -44.12968444824219 -44.16160583496094 -44.20600891113281 -44.233642578125 -44.269012451171875 -44.303985595703125 -44.33563232421875 -44.36919403076172 -44.39439392089844 -44.42204284667969 -44.43829345703125 -44.45661926269531 -44.47010803222656 -44.473876953125
56500 LossesBy500 0.008538722060620785 -0.0049226777628064156 -0.009697655215859413 -0.012029856443405151 -0.013579608872532845 -0.014788839034736156 -0.015803474932909012 -0.01667400263249874 -0.01742510125041008 -0.018089959397912025 -0.018671050667762756 -0.019185708835721016 -0.019646327942609787 -0.020058229565620422 -0.020431263372302055 -0.020768404006958008 -0.021078111603856087 -0.021355047821998596 -0.021611787378787994 -0.021852491423487663 -0.022074513137340546 -0.02227376215159893 -0.02246195450425148 -0.022639308124780655 -0.02280234731733799 -0.02295253984630108 -0.02309829369187355 -0.023234324529767036 -0.02336215227842331 -0.02348220720887184 -0.023590946570038795 -0.02369685098528862 -0.023801997303962708 -0.023894505575299263 -0.02398991398513317 -0.02407390996813774 -0.024152955040335655 -0.024236997589468956 -0.024309910833835602 -0.024383412674069405 -0.024447010830044746 -0.02451316826045513 -0.024578014388680458 -0.02464146912097931 -0.02469606325030327 -0.024754758924245834 -0.024808529764413834 -0.024860363453626633 -0.024911347776651382 -0.024958832189440727 -0.025006402283906937 -0.025052476674318314 -0.025095773860812187 -0.025137241929769516 -0.025175660848617554 -0.025217175483703613 -0.025254517793655396 -0.02529088594019413 -0.025329750031232834 -0.025364480912685394 -0.025396324694156647 -0.025431349873542786 -0.025461915880441666 -0.02549431473016739 -0.025526156648993492 -0.02555558830499649 -0.025583650916814804 -0.025609206408262253 -0.025636786594986916 -0.02566596306860447 -0.025691689923405647 -0.025714976713061333 -0.025739973410964012 -0.0257650725543499 -0.02578824572265148 -0.025811653584241867 -0.025834480300545692 -0.025857044383883476 -0.02587682008743286 -0.025897637009620667 -0.025917071849107742 -0.02593785896897316 -0.02595660090446472 -0.025975020602345467 -0.025994576513767242 -0.026012130081653595 -0.02602945826947689 -0.026046866551041603 -0.02606399729847908 -0.026081770658493042 -0.0260979812592268 -0.026112500578165054 -0.02612835168838501 -0.026143252849578857 -0.02615884318947792 -0.02617514692246914 -0.02618972584605217 -0.02620108239352703 -0.02621697075664997 -0.026228995993733406 -0.026242297142744064 -0.02625621110200882 -0.026268936693668365 -0.02628258988261223 -0.026292838156223297 -0.02630755491554737 -0.026317110285162926 -0.02632851153612137 -0.02633821964263916 -0.02634359523653984 -0.02635016106069088 -0.02635304629802704 -0.026356834918260574
log_motor_var 	 [4.088492393493652]
sigma_logit 	 [-3.8965749740600586, -4.991176128387451]
mixture_logit 	 [-4.066713809967041]
prior 	 [-0.12731771171092987, -0.15278440713882446, -0.17647728323936462, -0.19823198020458221, -0.2180991768836975, -0.23617371916770935, -0.2523401081562042, -0.2662021815776825, -0.2771152853965759, -0.2843755781650543, -0.287323921918869, -0.2854466736316681, -0.2783524990081787, -0.26566702127456665, -0.2469904124736786, -0.22185079753398895, -0.1898069679737091, -0.15061461925506592, -0.10441996157169342, -0.05198197439312935, 0.005230636335909367, 0.06519659608602524, 0.12577860057353973, 0.18524952232837677, 0.24260953068733215, 0.29744952917099, 0.34955137968063354, 0.39880141615867615, 0.4453582167625427, 0.48973143100738525, 0.5322943329811096, 0.5727812647819519, 0.6105455756187439, 0.6454340815544128, 0.6782271862030029, 0.7105472683906555, 0.7440345883369446, 0.779344379901886, 0.8156572580337524, 0.8510790467262268, 0.8833998441696167, 0.9109453558921814, 0.9327247142791748, 0.9484054446220398, 0.9579885005950928, 0.9616425633430481, 0.9596485495567322, 0.9523865580558777, 0.9403756856918335, 0.9243540167808533, 0.905215322971344, 0.8840230107307434, 0.8619243502616882, 0.8400388360023499, 0.8195368647575378, 0.8014875650405884, 0.7869022488594055, 0.776645302772522, 0.7714266777038574, 0.7717345952987671, 0.7778842449188232, 0.7899097204208374, 0.8076240420341492, 0.8306377530097961, 0.8583444356918335, 0.8898894786834717, 0.9241667985916138, 0.9598127603530884, 0.9952117204666138, 1.0286643505096436, 1.0583361387252808, 1.0825542211532593, 1.0998530387878418, 1.1091228723526, 1.1094589233398438, 1.100411057472229, 1.081592082977295, 1.0527204275131226, 1.0133899450302124, 0.9629592895507812, 0.9008957147598267, 0.8269988894462585, 0.7418058514595032, 0.6466185450553894, 0.5434259176254272, 0.434603214263916, 0.32261326909065247, 0.20966818928718567, 0.09750334918498993, -0.012706366367638111, -0.12029851227998734, -0.2249683439731598, -0.3266102969646454, -0.42517155408859253, -0.5205437541007996, -0.6124902367591858, -0.700702965259552, -0.784731388092041, -0.8640356063842773, -0.9380312561988831, -1.0061208009719849, -1.0677410364151, -1.1223241090774536, -1.169360876083374, -1.2083662748336792, -1.238919973373413, -1.260629415512085, -1.2731831073760986, -1.2764501571655273, -1.2704567909240723, -1.255444049835205, -1.2321385145187378, -1.2016491889953613, -1.1655781269073486, -1.1259714365005493, -1.0854002237319946, -1.0465669631958008, -1.012229084968567, -0.9845550656318665, -0.9649134874343872, -0.9536285996437073, -0.9501203298568726, -0.95311039686203, -0.9609214067459106, -0.9717391729354858, -0.9836149215698242, -0.9946849942207336, -1.0033419132232666, -1.008480429649353, -1.00944185256958, -1.0059751272201538, -0.9980673789978027, -0.985828697681427, -0.9693968296051025, -0.9488744139671326, -0.9243568778038025, -0.8959072828292847, -0.863612174987793, -0.8275209069252014, -0.7875720262527466, -0.743712306022644, -0.6958841681480408, -0.6440235376358032, -0.5882552862167358, -0.5288639068603516, -0.46634232997894287, -0.4014103412628174, -0.33487749099731445, -0.26757705211639404, -0.20018409192562103, -0.13320307433605194, -0.06702889502048492, -0.0020880508236587048, 0.061079319566488266, 0.12176818400621414, 0.17913539707660675, 0.2322440892457962, 0.2801125645637512, 0.3217872977256775, 0.3563520908355713, 0.3828752040863037, 0.4004807472229004, 0.4084151089191437, 0.4063281714916229, 0.3944312632083893, 0.3736754357814789, 0.3455868065357208, 0.3119644820690155, 0.27455660700798035, 0.2348530888557434, 0.1941561996936798, 0.153750941157341, 0.11486261337995529, 0.07838458567857742, 0.044626399874687195, 0.013299779035151005, -0.01627451553940773, -0.044851671904325485, -0.07291357219219208, -0.10051365941762924]
volume 	 [0.2980971038341522, 0.2561781406402588, 0.21736782789230347, 0.18220511078834534, 0.1353968381881714, 0.08343471586704254, 0.031155940145254135, -0.01986796408891678, -0.06478390097618103, -0.10032447427511215, -0.12430855631828308, -0.141511470079422, -0.1477617621421814, -0.13810452818870544, -0.11126349866390228, -0.08088767528533936, -0.04695446416735649, -0.007293000351637602, 0.04478010535240173, 0.11104827374219894, 0.18464134633541107, 0.26107868552207947, 0.34109407663345337, 0.41544079780578613, 0.48455703258514404, 0.5519048571586609, 0.6127878427505493, 0.6650421023368835, 0.7064191102981567, 0.728507399559021, 0.7279585003852844, 0.7097974419593811, 0.677096426486969, 0.6444264650344849, 0.6138446927070618, 0.5638694167137146, 0.503164529800415, 0.42812275886535645, 0.33603718876838684, 0.2419692724943161, 0.16036160290241241, 0.0826932042837143, 0.00563779566437006, -0.06926620006561279, -0.13046440482139587, -0.1813398152589798, -0.2276647388935089, -0.2697838246822357, -0.30669456720352173, -0.33942750096321106, -0.3709428906440735, -0.409579336643219, -0.4539586305618286, -0.5039290189743042, -0.5490955114364624, -0.5814458131790161, -0.5997812151908875, -0.6000528335571289, -0.5842635631561279, -0.5542935729026794, -0.513185977935791, -0.4640633165836334, -0.4072239100933075, -0.33713504672050476, -0.25591856241226196, -0.17943497002124786, -0.1091625839471817, -0.04794606566429138, 0.004161147866398096, 0.03970007225871086, 0.07367191463708878, 0.10837599635124207, 0.14900904893875122, 0.1909281313419342, 0.22622574865818024, 0.2519402801990509, 0.26417994499206543, 0.2669232487678528, 0.2601460814476013, 0.2382974773645401, 0.20582067966461182, 0.1731775850057602, 0.13843505084514618, 0.10040202736854553, 0.04702296108007431, -0.009380883537232876, -0.06985095143318176, -0.12860319018363953, -0.18527531623840332, -0.2522585988044739, -0.3205944001674652, -0.3906923532485962, -0.4611360430717468, -0.5249307155609131, -0.5836122035980225, -0.6397092342376709, -0.69078528881073, -0.7241140604019165, -0.7407604455947876, -0.7410327792167664, -0.720890462398529, -0.6855191588401794, -0.634340763092041, -0.5706209540367126, -0.49483075737953186, -0.4117065668106079, -0.32217198610305786, -0.23095494508743286, -0.14489705860614777, -0.06722954660654068, -0.0030508125200867653, 0.04749190807342529, 0.09544970095157623, 0.1513826996088028, 0.21477417647838593, 0.2774115800857544, 0.32873937487602234, 0.35765281319618225, 0.37297388911247253, 0.37387365102767944, 0.3676917552947998, 0.3592790961265564, 0.3499283790588379, 0.33557334542274475, 0.31683963537216187, 0.27624449133872986, 0.2211095243692398, 0.15224860608577728, 0.08716036379337311, 0.024680091068148613, -0.04131466895341873, -0.11124986410140991, -0.1713247001171112, -0.22355076670646667, -0.26482513546943665, -0.28850430250167847, -0.30265989899635315, -0.3108261227607727, -0.31219252943992615, -0.29973942041397095, -0.27806276082992554, -0.2560507357120514, -0.23151911795139313, -0.2061949521303177, -0.1831284910440445, -0.16558805108070374, -0.14984625577926636, -0.1443789005279541, -0.14102326333522797, -0.13336633145809174, -0.11824639141559601, -0.1042877808213234, -0.09048409014940262, -0.0807713195681572, -0.06922990083694458, -0.05518105998635292, -0.04369750991463661, -0.03686073422431946, -0.02994285710155964, -0.019311366602778435, -0.002288275631144643, 0.018618017435073853, 0.042319830507040024, 0.06635689735412598, 0.09583710879087448, 0.128151535987854, 0.16614480316638947, 0.22136333584785461, 0.29322007298469543, 0.37824270129203796, 0.4586504399776459, 0.5158316493034363, 0.5383250713348389, 0.5370814204216003, 0.5268862247467041, 0.5116057991981506, 0.4827267527580261, 0.4497537314891815, 0.41005566716194153, 0.3495207130908966]
