-0.019291577860713005 CrossValid -174.7709503173828 CrossValidLossesBy500 -76.92860412597656 -113.74960327148438 -129.01107788085938 -136.8926239013672 -141.79745483398438 -145.2637939453125 -147.9380645751953 -150.1129150390625 -151.96226501464844 -153.57595825195312 -155.02517700195312 -156.310546875 -157.46481323242188 -158.52691650390625 -159.4842071533203 -160.36297607421875 -161.16822814941406 -161.90638732910156 -162.6017303466797 -163.22470092773438 -163.82911682128906 -164.3778839111328 -164.8917236328125 -165.3601531982422 -165.80825805664062 -166.2300567626953 -166.61834716796875 -166.98690795898438 -167.33583068847656 -167.65884399414062 -167.9652099609375 -168.25634765625 -168.52877807617188 -168.79161071777344 -169.03567504882812 -169.26947021484375 -169.48629760742188 -169.70252990722656 -169.90151977539062 -170.09454345703125 -170.2769775390625 -170.4567413330078 -170.62620544433594 -170.78897094726562 -170.94192504882812 -171.07437133789062 -171.21090698242188 -171.33248901367188 -171.45901489257812 -171.58343505859375 -171.69183349609375 -171.8136749267578 -171.91619873046875 -172.02410888671875 -172.1175537109375 -172.218994140625 -172.31382751464844 -172.3965606689453 -172.48797607421875 -172.57192993164062 -172.648681640625 -172.72503662109375 -172.80007934570312 -172.87149047851562 -172.94729614257812 -173.0145263671875 -173.07876586914062 -173.13816833496094 -173.19888305664062 -173.25790405273438 -173.3226776123047 -173.3773651123047 -173.42843627929688 -173.4771728515625 -173.5342254638672 -173.58145141601562 -173.63107299804688 -173.6778106689453 -173.72369384765625 -173.76255798339844 -173.8050537109375 -173.85235595703125 -173.89463806152344 -173.92518615722656 -173.96763610839844 -174.01144409179688 -174.05068969726562 -174.0794677734375 -174.11900329589844 -174.14881896972656 -174.17822265625 -174.2088165283203 -174.239990234375 -174.27630615234375 -174.3025360107422 -174.3363800048828 -174.36721801757812 -174.3918914794922 -174.41708374023438 -174.44471740722656 -174.47128295898438 -174.4989776611328 -174.52484130859375 -174.54344177246094 -174.568359375 -174.59048461914062 -174.61126708984375 -174.63504028320312 -174.6608123779297 -174.6791534423828 -174.69833374023438 -174.71839904785156 -174.73410034179688 -174.74588012695312 -174.75228881835938 -174.76548767089844 -174.7709503173828
58500 LossesBy500 0.01508063729852438 0.002130841137841344 -0.0024844417348504066 -0.004759103059768677 -0.006273713894188404 -0.007478236686438322 -0.008483733981847763 -0.009347604587674141 -0.01010808814316988 -0.010769790038466454 -0.011351785622537136 -0.011875126510858536 -0.012340563349425793 -0.012755469419062138 -0.013132089748978615 -0.013475647196173668 -0.013788915239274502 -0.014078928157687187 -0.014338647946715355 -0.014584295451641083 -0.014804376289248466 -0.01501555647701025 -0.015212231315672398 -0.015393072739243507 -0.015557435341179371 -0.015720967203378677 -0.01586908847093582 -0.01600840874016285 -0.01613885723054409 -0.016263365745544434 -0.01638108491897583 -0.016490837559103966 -0.016597531735897064 -0.016695614904165268 -0.016790302470326424 -0.01688346639275551 -0.016968797892332077 -0.01705103926360607 -0.017128759995102882 -0.017203249037265778 -0.017275236546993256 -0.017344407737255096 -0.01741025038063526 -0.0174731332808733 -0.01753520965576172 -0.017594214528799057 -0.017648881301283836 -0.017705470323562622 -0.017758307978510857 -0.017808105796575546 -0.017856596037745476 -0.017904436215758324 -0.017948076128959656 -0.01799146458506584 -0.01803453452885151 -0.018077177926898003 -0.018113963305950165 -0.018154995515942574 -0.01819334179162979 -0.018226459622383118 -0.01826467737555504 -0.018297577276825905 -0.018332483246922493 -0.01836360991001129 -0.018395153805613518 -0.01842573471367359 -0.01845320500433445 -0.018482523038983345 -0.018510276451706886 -0.018537569791078568 -0.01856563612818718 -0.01859206333756447 -0.018615875393152237 -0.018641265109181404 -0.018666891381144524 -0.018690694123506546 -0.018711507320404053 -0.018734276294708252 -0.018756534904241562 -0.018776001408696175 -0.018797144293785095 -0.018819734454154968 -0.018839899450540543 -0.018859922885894775 -0.018875963985919952 -0.01889471895992756 -0.018913913518190384 -0.018932156264781952 -0.018949227407574654 -0.018966546282172203 -0.018981460481882095 -0.018997544422745705 -0.019016344100236893 -0.01903204433619976 -0.01904725655913353 -0.019059473648667336 -0.019073717296123505 -0.019089873880147934 -0.019103916361927986 -0.019116438925266266 -0.019131898880004883 -0.01914476975798607 -0.019158706068992615 -0.019169557839632034 -0.019183771684765816 -0.019194429740309715 -0.01920779049396515 -0.019218571484088898 -0.019230999052524567 -0.01924136094748974 -0.019250979647040367 -0.019261207431554794 -0.019269131124019623 -0.01927606202661991 -0.01928168162703514 -0.019287221133708954 -0.019291577860713005
log_motor_var 	 [4.065221786499023]
sigma_logit 	 [-3.892254114151001, -4.992293357849121]
mixture_logit 	 [-4.031425476074219]
prior 	 [-0.04082566127181053, -0.06760115921497345, -0.09483340382575989, -0.12194553017616272, -0.14846171438694, -0.17389613389968872, -0.19764664769172668, -0.21895024180412292, -0.23694650828838348, -0.25080108642578125, -0.25981414318084717, -0.2634679973125458, -0.26142311096191406, -0.2534114420413971, -0.23919250071048737, -0.2185055911540985, -0.1911260336637497, -0.1569681316614151, -0.1162402331829071, -0.06960584223270416, -0.018263380974531174, 0.036175504326820374, 0.0920153483748436, 0.14791761338710785, 0.20314767956733704, 0.2574476897716522, 0.31063541769981384, 0.3623298704624176, 0.4121135175228119, 0.4597606360912323, 0.5052319169044495, 0.5484922528266907, 0.5894550085067749, 0.6283649206161499, 0.6659730076789856, 0.7035163044929504, 0.7421722412109375, 0.7822821140289307, 0.8229196071624756, 0.8620562553405762, 0.8972334861755371, 0.9264249801635742, 0.9484217166900635, 0.9629442095756531, 0.9703280329704285, 0.9712989330291748, 0.9667601585388184, 0.9576558470726013, 0.9449031949043274, 0.9293774962425232, 0.9119317531585693, 0.893426239490509, 0.8746404051780701, 0.8563584089279175, 0.83936607837677, 0.82447350025177, 0.8125318884849548, 0.8043829798698425, 0.8008463382720947, 0.8025955557823181, 0.810132622718811, 0.8236715793609619, 0.8431188464164734, 0.8680303692817688, 0.8975949287414551, 0.9306291341781616, 0.9656147360801697, 1.000859022140503, 1.0346693992614746, 1.0654350519180298, 1.09184730052948, 1.1128711700439453, 1.1274855136871338, 1.1346741914749146, 1.1333411931991577, 1.122334599494934, 1.1007945537567139, 1.0680229663848877, 1.0235599279403687, 0.9671032428741455, 0.8984090685844421, 0.8176537156105042, 0.7256428003311157, 0.6239081621170044, 0.5146124958992004, 0.40038302540779114, 0.28392183780670166, 0.1675967425107956, 0.05314801260828972, -0.058446113020181656, -0.16687557101249695, -0.27227360010147095, -0.37494024634361267, -0.47506728768348694, -0.5726144909858704, -0.6672689914703369, -0.7584497928619385, -0.8453730344772339, -0.9271566271781921, -1.002892017364502, -1.0716989040374756, -1.132795810699463, -1.1855263710021973, -1.2293728590011597, -1.2639647722244263, -1.2891112565994263, -1.304749608039856, -1.3109210729599, -1.3078645467758179, -1.295926570892334, -1.2757436037063599, -1.248240351676941, -1.214608907699585, -1.1765953302383423, -1.1362271308898926, -1.096104383468628, -1.0589425563812256, -1.0273324251174927, -1.0031369924545288, -0.9872183799743652, -0.9793756008148193, -0.9785319566726685, -0.9831589460372925, -0.9915257692337036, -1.0018529891967773, -1.0124762058258057, -1.0218446254730225, -1.0286940336227417, -1.0321463346481323, -1.031711220741272, -1.027209997177124, -1.0186418294906616, -1.0060960054397583, -0.9896692633628845, -0.9694148898124695, -0.9453732967376709, -0.9175329804420471, -0.8858838081359863, -0.850379228591919, -0.810869574546814, -0.767185389995575, -0.7191703915596008, -0.6666829586029053, -0.6096718311309814, -0.548298716545105, -0.4829082787036896, -0.41412222385406494, -0.3427899479866028, -0.26993972063064575, -0.19660980999469757, -0.12370850890874863, -0.051972176879644394, 0.017976880073547363, 0.08557465672492981, 0.15018706023693085, 0.21102680265903473, 0.26707902550697327, 0.3170958459377289, 0.35973554849624634, 0.3937062621116638, 0.41787663102149963, 0.43146711587905884, 0.4341404438018799, 0.42622122168540955, 0.4087371826171875, 0.3833809494972229, 0.35228416323661804, 0.31762173771858215, 0.2812488377094269, 0.24455492198467255, 0.20859351754188538, 0.17438605427742004, 0.14304810762405396, 0.11544825881719589, 0.09166522324085236, 0.07073148339986801, 0.050960835069417953, 0.030659528449177742, 0.008731842041015625, -0.015178769826889038]
volume 	 [0.33535656332969666, 0.29157641530036926, 0.24951593577861786, 0.21111524105072021, 0.1631384640932083, 0.10952554643154144, 0.054561566561460495, -0.0014702209737151861, -0.05421086400747299, -0.0974823385477066, -0.12916775047779083, -0.1492612659931183, -0.157016783952713, -0.15046711266040802, -0.13023512065410614, -0.10399173200130463, -0.07115687429904938, -0.03080839291214943, 0.022303175181150436, 0.08623779565095901, 0.15949290990829468, 0.23522816598415375, 0.31465208530426025, 0.3900960087776184, 0.4587830901145935, 0.520601749420166, 0.5768321752548218, 0.6289112567901611, 0.6735219955444336, 0.695602297782898, 0.6964268088340759, 0.6859302520751953, 0.6661535501480103, 0.6419932246208191, 0.6108883023262024, 0.5581569671630859, 0.4950428307056427, 0.42082449793815613, 0.3353789150714874, 0.24662336707115173, 0.16792728006839752, 0.08870263397693634, 0.01073500793427229, -0.062090881168842316, -0.11974881589412689, -0.1663649082183838, -0.21009095013141632, -0.2526552379131317, -0.2917654812335968, -0.3261512815952301, -0.3593732714653015, -0.39499178528785706, -0.433039128780365, -0.4753207564353943, -0.5132429003715515, -0.5436535477638245, -0.5625181794166565, -0.5654006600379944, -0.5533758997917175, -0.5297676920890808, -0.4941563308238983, -0.449767142534256, -0.39616838097572327, -0.3301440179347992, -0.251316100358963, -0.17592231929302216, -0.10651294142007828, -0.046525049954652786, 0.0013943843077868223, 0.037231843918561935, 0.07736730575561523, 0.11936917901039124, 0.16562050580978394, 0.20429761707782745, 0.23233141005039215, 0.24796004593372345, 0.2520548701286316, 0.2516731321811676, 0.24418339133262634, 0.22177843749523163, 0.19080524146556854, 0.16422949731349945, 0.13638454675674438, 0.10614867508411407, 0.06398162245750427, 0.016712719574570656, -0.03426094725728035, -0.0888172835111618, -0.14352571964263916, -0.21057938039302826, -0.28201401233673096, -0.3605506122112274, -0.441582053899765, -0.5154082775115967, -0.5827082991600037, -0.6465436220169067, -0.7026932239532471, -0.7406662106513977, -0.7612258791923523, -0.7651529312133789, -0.7487902045249939, -0.7145459651947021, -0.6628494262695312, -0.5987227559089661, -0.521937370300293, -0.43561476469039917, -0.3417014181613922, -0.24803301692008972, -0.15560682117938995, -0.07153238356113434, -0.0011446310672909021, 0.05708901584148407, 0.11243033409118652, 0.17068792879581451, 0.23144814372062683, 0.2826847434043884, 0.31921371817588806, 0.33644431829452515, 0.34582626819610596, 0.3476831614971161, 0.3443296253681183, 0.3367650508880615, 0.3285244107246399, 0.319947212934494, 0.3009324371814728, 0.2566783130168915, 0.19983062148094177, 0.12408998608589172, 0.05173112452030182, -0.018404221162199974, -0.09194830060005188, -0.16589860618114471, -0.22592219710350037, -0.2748582065105438, -0.31205248832702637, -0.3285929560661316, -0.33124062418937683, -0.32834434509277344, -0.3181358277797699, -0.29411065578460693, -0.2644171416759491, -0.23905743658542633, -0.2134038805961609, -0.19049949944019318, -0.17237959802150726, -0.15916505455970764, -0.14425970613956451, -0.1364862471818924, -0.13021767139434814, -0.11938624829053879, -0.0999116599559784, -0.08175832033157349, -0.06520428508520126, -0.054298847913742065, -0.04524599760770798, -0.03562472015619278, -0.028464676812291145, -0.02710217610001564, -0.025800731033086777, -0.016276368871331215, 0.002865290967747569, 0.027654964476823807, 0.052602369338274, 0.0770704373717308, 0.10423704981803894, 0.13068974018096924, 0.16180194914340973, 0.20976370573043823, 0.27568989992141724, 0.35876545310020447, 0.44184163212776184, 0.502165675163269, 0.5353536009788513, 0.5536463260650635, 0.5607144236564636, 0.5541504621505737, 0.5264089107513428, 0.4910109341144562, 0.4468832314014435, 0.38735243678092957]
