-0.011403653770685196 CrossValid -5.5695037841796875 CrossValidLossesBy500 29.722915649414062 10.271438598632812 5.1659698486328125 2.717926025390625 0.9073028564453125 -0.5394744873046875 -1.6436309814453125 -2.481231689453125 -3.115447998046875 -3.60107421875 -3.9802703857421875 -4.279937744140625 -4.516571044921875 -4.7093505859375 -4.8703155517578125 -5.0007476806640625 -5.1102752685546875 -5.20294189453125 -5.28070068359375 -5.3476104736328125 -5.4004058837890625 -5.4488677978515625 -5.4936676025390625 -5.5251617431640625 -5.54608154296875 -5.5628662109375 -5.5695037841796875
13500 LossesBy500 0.006013909820467234 -0.004498303402215242 -0.00705658458173275 -0.008111344650387764 -0.008842885494232178 -0.009435511194169521 -0.009906168095767498 -0.010265124961733818 -0.010533427819609642 -0.010737958364188671 -0.01089122798293829 -0.01100933738052845 -0.01110079512000084 -0.011170674115419388 -0.011223096400499344 -0.011263329535722733 -0.01129897590726614 -0.01132146455347538 -0.011342356912791729 -0.011358322575688362 -0.011372450739145279 -0.011383986100554466 -0.01139052677899599 -0.011395473033189774 -0.011397885158658028 -0.011399855837225914 -0.011403653770685196
log_motor_var 	 [3.734434127807617]
sigma_logit 	 [-4.032075881958008, -5.522245407104492]
mixture_logit 	 [-4.122973918914795]
prior 	 [0.0, 0.0, 0.0, 0.0, 0.0, 0.0, 0.0, 0.0, 0.0, 0.0, 0.0, 0.0, 0.0, 0.0, 0.0, 0.0, 0.0, 0.0, 0.0, 0.0, 0.0, 0.0, 0.0, 0.0, 0.0, 0.0, 0.0, 0.0, 0.0, 0.0, 0.0, 0.0, 0.0, 0.0, 0.0, 0.0, 0.0, 0.0, 0.0, 0.0, 0.0, 0.0, 0.0, 0.0, 0.0, 0.0, 0.0, 0.0, 0.0, 0.0, 0.0, 0.0, 0.0, 0.0, 0.0, 0.0, 0.0, 0.0, 0.0, 0.0, 0.0, 0.0, 0.0, 0.0, 0.0, 0.0, 0.0, 0.0, 0.0, 0.0, 0.0, 0.0, 0.0, 0.0, 0.0, 0.0, 0.0, 0.0, 0.0, 0.0, 0.0, 0.0, 0.0, 0.0, 0.0, 0.0, 0.0, 0.0, 0.0, 0.0, 0.0, 0.0, 0.0, 0.0, 0.0, 0.0, 0.0, 0.0, 0.0, 0.0, 0.0, 0.0, 0.0, 0.0, 0.0, 0.0, 0.0, 0.0, 0.0, 0.0, 0.0, 0.0, 0.0, 0.0, 0.0, 0.0, 0.0, 0.0, 0.0, 0.0, 0.0, 0.0, 0.0, 0.0, 0.0, 0.0, 0.0, 0.0, 0.0, 0.0, 0.0, 0.0, 0.0, 0.0, 0.0, 0.0, 0.0, 0.0, 0.0, 0.0, 0.0, 0.0, 0.0, 0.0, 0.0, 0.0, 0.0, 0.0, 0.0, 0.0, 0.0, 0.0, 0.0, 0.0, 0.0, 0.0, 0.0, 0.0, 0.0, 0.0, 0.0, 0.0, 0.0, 0.0, 0.0, 0.0, 0.0, 0.0, 0.0, 0.0, 0.0, 0.0, 0.0, 0.0, 0.0, 0.0, 0.0, 0.0, 0.0, 0.0]
volume 	 [0.43044915795326233, 0.3987094759941101, 0.3674129247665405, 0.33709874749183655, 0.2927235960960388, 0.24149565398693085, 0.18850259482860565, 0.13554826378822327, 0.08789675682783127, 0.04905719310045242, 0.021150682121515274, -0.0005967214237898588, -0.011745825409889221, -0.006968404166400433, 0.014791577123105526, 0.03959737718105316, 0.0675017461180687, 0.10101086646318436, 0.14681300520896912, 0.20590002834796906, 0.27096185088157654, 0.33777278661727905, 0.4066370725631714, 0.46799299120903015, 0.5215682983398438, 0.5712490081787109, 0.6127732396125793, 0.6458885073661804, 0.6682344079017639, 0.6752465963363647, 0.665939211845398, 0.6468244791030884, 0.6194611191749573, 0.5937301516532898, 0.5707574486732483, 0.5307819247245789, 0.47955358028411865, 0.4121589958667755, 0.3248789310455322, 0.2310510128736496, 0.14509719610214233, 0.06065888702869415, -0.023567665368318558, -0.10429174453020096, -0.16964386403560638, -0.2239745855331421, -0.27235764265060425, -0.31516629457473755, -0.35074540972709656, -0.38063740730285645, -0.4076835811138153, -0.440457284450531, -0.47855767607688904, -0.5230008363723755, -0.5644183158874512, -0.5950995087623596, -0.6144624352455139, -0.6185586452484131, -0.6088657379150391, -0.5876981616020203, -0.5577354431152344, -0.5224791765213013, -0.48243483901023865, -0.4322805404663086, -0.37401726841926575, -0.3224945366382599, -0.27825161814689636, -0.24320361018180847, -0.21587355434894562, -0.20187245309352875, -0.18847456574440002, -0.17427052557468414, -0.15483245253562927, -0.13292330503463745, -0.11404991894960403, -0.09955859184265137, -0.09136324375867844, -0.0865425392985344, -0.08648431301116943, -0.09658976644277573, -0.11383096873760223, -0.13032914698123932, -0.14718568325042725, -0.16670578718185425, -0.19844000041484833, -0.2335619032382965, -0.2724113166332245, -0.30992889404296875, -0.34499481320381165, -0.3881453275680542, -0.43012264370918274, -0.47272810339927673, -0.51493901014328, -0.5505433678627014, -0.5806819200515747, -0.6091630458831787, -0.6337220668792725, -0.6417841911315918, -0.63539057970047, -0.6155867576599121, -0.5767849087715149, -0.5255125761032104, -0.46178457140922546, -0.3894091844558716, -0.3086022138595581, -0.22519923746585846, -0.13847048580646515, -0.05314214900135994, 0.02485164999961853, 0.09274445474147797, 0.14767733216285706, 0.1900307834148407, 0.23507767915725708, 0.2886676490306854, 0.3490135073661804, 0.4061930477619171, 0.4512288570404053, 0.4737705886363983, 0.48363909125328064, 0.47905486822128296, 0.4678446352481842, 0.4568319320678711, 0.4496695399284363, 0.4433346092700958, 0.4358307421207428, 0.40613609552383423, 0.36044180393218994, 0.30064964294433594, 0.24216940999031067, 0.1857791244983673, 0.1234213262796402, 0.05572899803519249, -0.0030209296382963657, -0.05498284846544266, -0.09795669466257095, -0.12450289726257324, -0.14501537382602692, -0.16256339848041534, -0.17653679847717285, -0.17796991765499115, -0.17157991230487823, -0.16644969582557678, -0.15970510244369507, -0.15191884338855743, -0.14575430750846863, -0.14374138414859772, -0.14207948744297028, -0.14920757710933685, -0.157245934009552, -0.160004660487175, -0.15520048141479492, -0.15114238858222961, -0.14712263643741608, -0.146820068359375, -0.14525644481182098, -0.14106015861034393, -0.1392720490694046, -0.1412959098815918, -0.1424955427646637, -0.13862130045890808, -0.12758144736289978, -0.11081536114215851, -0.0886436179280281, -0.0621049664914608, -0.0271086934953928, 0.014596470631659031, 0.0652863010764122, 0.13464105129241943, 0.2215462028980255, 0.3225739598274231, 0.42081326246261597, 0.497623085975647, 0.5418669581413269, 0.5633853077888489, 0.5746269226074219, 0.5784767866134644, 0.5676476955413818, 0.5493316054344177, 0.5212715268135071, 0.469763845205307]
