-0.010367108508944511 CrossValid -5.3182830810546875 CrossValidLossesBy500 35.79485321044922 11.854232788085938 4.7502593994140625 2.2345123291015625 0.8616943359375 -0.1952667236328125 -1.11895751953125 -1.9019317626953125 -2.544952392578125 -3.0615692138671875 -3.4779205322265625 -3.8071136474609375 -4.0815277099609375 -4.30047607421875 -4.481292724609375 -4.6316070556640625 -4.760986328125 -4.86456298828125 -4.9575042724609375 -5.030517578125 -5.095550537109375 -5.148345947265625 -5.19464111328125 -5.2427520751953125 -5.26873779296875 -5.2876129150390625 -5.3079681396484375 -5.3182830810546875
14000 LossesBy500 0.010158726945519447 -0.002301858738064766 -0.0060063255950808525 -0.00726672075688839 -0.007881894707679749 -0.008329231292009354 -0.008710160851478577 -0.00904555432498455 -0.009314515627920628 -0.009532030671834946 -0.009707806631922722 -0.009845050983130932 -0.009954272769391537 -0.010042848065495491 -0.010112970136106014 -0.010168055072426796 -0.010209357365965843 -0.010244805365800858 -0.010273072868585587 -0.010296382941305637 -0.010313134640455246 -0.01032697968184948 -0.01034114696085453 -0.010349618270993233 -0.010354907251894474 -0.010360297746956348 -0.01036150474101305 -0.010367108508944511
log_motor_var 	 [3.8569345474243164]
sigma_logit 	 [-3.951275110244751, -5.30227518081665]
mixture_logit 	 [-4.133574962615967]
prior 	 [0.0, 0.0, 0.0, 0.0, 0.0, 0.0, 0.0, 0.0, 0.0, 0.0, 0.0, 0.0, 0.0, 0.0, 0.0, 0.0, 0.0, 0.0, 0.0, 0.0, 0.0, 0.0, 0.0, 0.0, 0.0, 0.0, 0.0, 0.0, 0.0, 0.0, 0.0, 0.0, 0.0, 0.0, 0.0, 0.0, 0.0, 0.0, 0.0, 0.0, 0.0, 0.0, 0.0, 0.0, 0.0, 0.0, 0.0, 0.0, 0.0, 0.0, 0.0, 0.0, 0.0, 0.0, 0.0, 0.0, 0.0, 0.0, 0.0, 0.0, 0.0, 0.0, 0.0, 0.0, 0.0, 0.0, 0.0, 0.0, 0.0, 0.0, 0.0, 0.0, 0.0, 0.0, 0.0, 0.0, 0.0, 0.0, 0.0, 0.0, 0.0, 0.0, 0.0, 0.0, 0.0, 0.0, 0.0, 0.0, 0.0, 0.0, 0.0, 0.0, 0.0, 0.0, 0.0, 0.0, 0.0, 0.0, 0.0, 0.0, 0.0, 0.0, 0.0, 0.0, 0.0, 0.0, 0.0, 0.0, 0.0, 0.0, 0.0, 0.0, 0.0, 0.0, 0.0, 0.0, 0.0, 0.0, 0.0, 0.0, 0.0, 0.0, 0.0, 0.0, 0.0, 0.0, 0.0, 0.0, 0.0, 0.0, 0.0, 0.0, 0.0, 0.0, 0.0, 0.0, 0.0, 0.0, 0.0, 0.0, 0.0, 0.0, 0.0, 0.0, 0.0, 0.0, 0.0, 0.0, 0.0, 0.0, 0.0, 0.0, 0.0, 0.0, 0.0, 0.0, 0.0, 0.0, 0.0, 0.0, 0.0, 0.0, 0.0, 0.0, 0.0, 0.0, 0.0, 0.0, 0.0, 0.0, 0.0, 0.0, 0.0, 0.0, 0.0, 0.0, 0.0, 0.0, 0.0, 0.0]
volume 	 [0.42626655101776123, 0.38621050119400024, 0.34755876660346985, 0.31100958585739136, 0.26112836599349976, 0.20536287128925323, 0.14879167079925537, 0.0931520164012909, 0.04338151589035988, 0.002944275736808777, -0.026155253872275352, -0.04857192561030388, -0.05987764522433281, -0.0547538585960865, -0.03190404549241066, -0.004819381516426802, 0.02665034309029579, 0.06491675227880478, 0.11667507141828537, 0.18343578279018402, 0.25815579295158386, 0.33618009090423584, 0.41761288046836853, 0.49265334010124207, 0.561424732208252, 0.6276087760925293, 0.6863958835601807, 0.735557496547699, 0.7720074653625488, 0.7894321084022522, 0.7844784259796143, 0.7626885771751404, 0.7260248064994812, 0.687594473361969, 0.65120530128479, 0.597235918045044, 0.5330374836921692, 0.45442435145378113, 0.35730475187301636, 0.2559262812137604, 0.1647266447544098, 0.07714354246854782, -0.009000531397759914, -0.09100382030010223, -0.15757299959659576, -0.21315842866897583, -0.26318490505218506, -0.3082127869129181, -0.34661534428596497, -0.3798070549964905, -0.4105474054813385, -0.44700974225997925, -0.48836517333984375, -0.535126805305481, -0.577859103679657, -0.6089425683021545, -0.6275985836982727, -0.6299169063568115, -0.617198646068573, -0.591553270816803, -0.5557339787483215, -0.5133225917816162, -0.4650033414363861, -0.40573590993881226, -0.33788546919822693, -0.2765600085258484, -0.22266918420791626, -0.1783486157655716, -0.14253568649291992, -0.1213032677769661, -0.10183800011873245, -0.0828997790813446, -0.060067929327487946, -0.036450598388910294, -0.017513368278741837, -0.004242835100740194, 0.0018393801292404532, 0.0037367744371294975, -0.00027208938263356686, -0.01621599681675434, -0.04086116701364517, -0.06553134322166443, -0.09095493704080582, -0.11887285113334656, -0.15878619253635406, -0.2018677145242691, -0.24820639193058014, -0.2928740084171295, -0.3346485197544098, -0.38390055298805237, -0.4313822090625763, -0.4792558252811432, -0.5264955759048462, -0.5670937299728394, -0.6018890142440796, -0.6346744298934937, -0.6631796360015869, -0.6754680871963501, -0.6733455657958984, -0.6579200625419617, -0.6237414479255676, -0.5769763588905334, -0.517570972442627, -0.44924530386924744, -0.3719078600406647, -0.2908884584903717, -0.20542392134666443, -0.12003058195114136, -0.03992996737360954, 0.03171529620885849, 0.09166893362998962, 0.13974788784980774, 0.1908789724111557, 0.2517709732055664, 0.3207780718803406, 0.38725578784942627, 0.44105949997901917, 0.47044697403907776, 0.48463618755340576, 0.4819166958332062, 0.46997103095054626, 0.45598357915878296, 0.44388118386268616, 0.4304790794849396, 0.4141473174095154, 0.3745812773704529, 0.319204181432724, 0.25024548172950745, 0.18435479700565338, 0.1218411773443222, 0.0551547072827816, -0.015400683507323265, -0.07613688707351685, -0.12951591610908508, -0.17319205403327942, -0.20010778307914734, -0.21981792151927948, -0.23559243977069855, -0.24695274233818054, -0.24556194245815277, -0.23620493710041046, -0.22766001522541046, -0.21740490198135376, -0.20563967525959015, -0.19501598179340363, -0.18829795718193054, -0.18250466883182526, -0.18595461547374725, -0.19130177795886993, -0.19210676848888397, -0.1857876032590866, -0.18002386391162872, -0.173944890499115, -0.1709323525428772, -0.1663558930158615, -0.1587560474872589, -0.15332342684268951, -0.1514425426721573, -0.14860664308071136, -0.14039163291454315, -0.12487137317657471, -0.1034950464963913, -0.07691682130098343, -0.046139683574438095, -0.007174241356551647, 0.037897609174251556, 0.09153877943754196, 0.1640695184469223, 0.2546062171459198, 0.35949212312698364, 0.46120673418045044, 0.5401173830032349, 0.5846205949783325, 0.6045858263969421, 0.6131190061569214, 0.6128857731819153, 0.5957897901535034, 0.5702136754989624, 0.5343159437179565, 0.4747859537601471]
