-0.012931806035339832 CrossValid -1.648773193359375 CrossValidLossesBy500 28.951797485351562 12.264755249023438 8.695098876953125 6.5904541015625 4.819000244140625 3.348846435546875 2.1933135986328125 1.2954254150390625 0.608001708984375 0.077789306640625 -0.3397369384765625 -0.655731201171875 -0.9044189453125 -1.0983734130859375 -1.2501220703125 -1.3668212890625 -1.455718994140625 -1.5215301513671875 -1.571075439453125 -1.6048431396484375 -1.625457763671875 -1.6408538818359375 -1.6458740234375 -1.648773193359375
12000 LossesBy500 -0.00010289464262314141 -0.007876548916101456 -0.009457873180508614 -0.010265921242535114 -0.010898557491600513 -0.011404705233871937 -0.011789285577833652 -0.012075663544237614 -0.012289851903915405 -0.01245108898729086 -0.012574495747685432 -0.012669171206653118 -0.012743552215397358 -0.012797677889466286 -0.01283975224941969 -0.012869004160165787 -0.012893426232039928 -0.012909709475934505 -0.012921232730150223 -0.012928256765007973 -0.01293214038014412 -0.012931674718856812 -0.012930182740092278 -0.012931806035339832
log_motor_var 	 [3.751805305480957]
sigma_logit 	 [-4.063441276550293, -5.337390899658203]
mixture_logit 	 [-4.122358798980713]
prior 	 [0.0, 0.0, 0.0, 0.0, 0.0, 0.0, 0.0, 0.0, 0.0, 0.0, 0.0, 0.0, 0.0, 0.0, 0.0, 0.0, 0.0, 0.0, 0.0, 0.0, 0.0, 0.0, 0.0, 0.0, 0.0, 0.0, 0.0, 0.0, 0.0, 0.0, 0.0, 0.0, 0.0, 0.0, 0.0, 0.0, 0.0, 0.0, 0.0, 0.0, 0.0, 0.0, 0.0, 0.0, 0.0, 0.0, 0.0, 0.0, 0.0, 0.0, 0.0, 0.0, 0.0, 0.0, 0.0, 0.0, 0.0, 0.0, 0.0, 0.0, 0.0, 0.0, 0.0, 0.0, 0.0, 0.0, 0.0, 0.0, 0.0, 0.0, 0.0, 0.0, 0.0, 0.0, 0.0, 0.0, 0.0, 0.0, 0.0, 0.0, 0.0, 0.0, 0.0, 0.0, 0.0, 0.0, 0.0, 0.0, 0.0, 0.0, 0.0, 0.0, 0.0, 0.0, 0.0, 0.0, 0.0, 0.0, 0.0, 0.0, 0.0, 0.0, 0.0, 0.0, 0.0, 0.0, 0.0, 0.0, 0.0, 0.0, 0.0, 0.0, 0.0, 0.0, 0.0, 0.0, 0.0, 0.0, 0.0, 0.0, 0.0, 0.0, 0.0, 0.0, 0.0, 0.0, 0.0, 0.0, 0.0, 0.0, 0.0, 0.0, 0.0, 0.0, 0.0, 0.0, 0.0, 0.0, 0.0, 0.0, 0.0, 0.0, 0.0, 0.0, 0.0, 0.0, 0.0, 0.0, 0.0, 0.0, 0.0, 0.0, 0.0, 0.0, 0.0, 0.0, 0.0, 0.0, 0.0, 0.0, 0.0, 0.0, 0.0, 0.0, 0.0, 0.0, 0.0, 0.0, 0.0, 0.0, 0.0, 0.0, 0.0, 0.0, 0.0, 0.0, 0.0, 0.0, 0.0, 0.0]
volume 	 [0.3781040608882904, 0.34846600890159607, 0.3184771239757538, 0.29057419300079346, 0.25557494163513184, 0.2202598750591278, 0.18747064471244812, 0.15257547795772552, 0.12072011083364487, 0.0930570513010025, 0.0732443779706955, 0.05601110681891441, 0.04435938969254494, 0.04671875387430191, 0.06488700211048126, 0.08769936114549637, 0.11214341223239899, 0.13816161453723907, 0.17454400658607483, 0.21736426651477814, 0.2672044634819031, 0.3201565444469452, 0.3735588788986206, 0.4210115373134613, 0.4641498923301697, 0.5044102072715759, 0.539172887802124, 0.5711808204650879, 0.5963958501815796, 0.6066397428512573, 0.5989828109741211, 0.5885917544364929, 0.5717210173606873, 0.5554479360580444, 0.5414994955062866, 0.51358562707901, 0.46976280212402344, 0.406358927488327, 0.3235326409339905, 0.2338533252477646, 0.14985117316246033, 0.06372099369764328, -0.022678513079881668, -0.1040143370628357, -0.17043106257915497, -0.22549523413181305, -0.2718333899974823, -0.31425729393959045, -0.3517373204231262, -0.38231638073921204, -0.40681079030036926, -0.4301675856113434, -0.45419251918792725, -0.4823840856552124, -0.5079927444458008, -0.5315479636192322, -0.5472161173820496, -0.5494982600212097, -0.5408599972724915, -0.5237921476364136, -0.49875080585479736, -0.46783092617988586, -0.43113717436790466, -0.3880557417869568, -0.33704525232315063, -0.29243001341819763, -0.2541995644569397, -0.22464080154895782, -0.20368178188800812, -0.19634276628494263, -0.18708348274230957, -0.17642219364643097, -0.16334405541419983, -0.15233656764030457, -0.14494916796684265, -0.1412024050951004, -0.14352384209632874, -0.14156970381736755, -0.13748429715633392, -0.13725993037223816, -0.1400860697031021, -0.14059340953826904, -0.14335817098617554, -0.14932265877723694, -0.16468051075935364, -0.18633396923542023, -0.21499663591384888, -0.24823805689811707, -0.27983471751213074, -0.323041707277298, -0.3715344965457916, -0.4262588620185852, -0.4830257296562195, -0.5320248603820801, -0.5735689997673035, -0.6109247207641602, -0.641337513923645, -0.6568077802658081, -0.6570683717727661, -0.6429198384284973, -0.6094995141029358, -0.5613675713539124, -0.49872925877571106, -0.43065759539604187, -0.3529391884803772, -0.26964688301086426, -0.18365409970283508, -0.09696665406227112, -0.01546350959688425, 0.056415166705846786, 0.11434933543205261, 0.1631445437669754, 0.21147428452968597, 0.2674592435359955, 0.33024680614471436, 0.3847104609012604, 0.42447274923324585, 0.434222549200058, 0.432132363319397, 0.42269644141197205, 0.4176614284515381, 0.40783265233039856, 0.4050340950489044, 0.40375539660453796, 0.3997105062007904, 0.3743201494216919, 0.338360071182251, 0.28470081090927124, 0.22872932255268097, 0.17597956955432892, 0.11847206205129623, 0.054639607667922974, -0.004663369618356228, -0.05872519686818123, -0.10574270784854889, -0.1347748041152954, -0.15141043066978455, -0.1588718742132187, -0.1549205780029297, -0.1373542696237564, -0.11746690422296524, -0.10145974904298782, -0.08302260935306549, -0.06551646441221237, -0.054253432899713516, -0.050304118543863297, -0.04927150532603264, -0.055496323853731155, -0.06164718046784401, -0.06221748888492584, -0.05821848288178444, -0.05584397539496422, -0.05369313806295395, -0.05754123628139496, -0.06049475446343422, -0.062301091849803925, -0.0679788887500763, -0.0787820890545845, -0.09017922729253769, -0.09727898985147476, -0.10004443675279617, -0.09608951210975647, -0.08693035691976547, -0.07222819328308105, -0.04928005114197731, -0.01970379240810871, 0.019238442182540894, 0.07580172270536423, 0.14951768517494202, 0.2401379644870758, 0.33274564146995544, 0.40965262055397034, 0.4619937241077423, 0.49290040135383606, 0.5079671144485474, 0.5127472877502441, 0.4978860318660736, 0.4777914881706238, 0.45318007469177246, 0.4118371605873108]
