0.013390359468758106 CrossValid 44.71812438964844 CrossValidLossesBy500 77.93621826171875 74.16253662109375 71.98822021484375 70.05796813964844 68.21846008300781 66.50038146972656 64.87809753417969 63.363616943359375 61.938568115234375 60.63255310058594 59.4384765625 58.352630615234375 57.34922790527344 56.41978454589844 55.556182861328125 54.78309631347656 54.07965087890625 53.419830322265625 52.82002258300781 52.27540588378906 51.802642822265625 51.328887939453125 50.9244384765625 50.539642333984375 50.11822509765625 49.79417419433594 49.493408203125 49.244140625 48.921844482421875 48.70243835449219 48.459228515625 48.220428466796875 48.05589294433594 47.89306640625 47.67626953125 47.533782958984375 47.3587646484375 47.21815490722656 47.09468078613281 46.98797607421875 46.865325927734375 46.7303466796875 46.642333984375 46.519866943359375 46.409881591796875 46.38624572753906 46.276611328125 46.18989562988281 46.08479309082031 45.9903564453125 45.94645690917969 45.88136291503906 45.81317138671875 45.735076904296875 45.66990661621094 45.57991027832031 45.55592346191406 45.458404541015625 45.4010009765625 45.34104919433594 45.27891540527344 45.2772216796875 45.19305419921875 45.17231750488281 45.137420654296875 45.1412353515625 45.09593200683594 45.076873779296875 45.03169250488281 44.97894287109375 44.96331787109375 44.93693542480469 44.90788269042969 44.914154052734375 44.86279296875 44.861175537109375 44.809814453125 44.792022705078125 44.80104064941406 44.75425720214844 44.748748779296875 44.78497314453125 44.70555114746094 44.71223449707031 44.74391174316406 44.71343994140625 44.70088195800781 44.73338317871094 44.70518493652344 44.71946716308594 44.71104431152344 44.708984375 44.721832275390625 44.71812438964844
47000 LossesBy500 0.03329811990261078 0.03132658824324608 0.03009212017059326 0.0289689302444458 0.027900755405426025 0.02688838168978691 0.025928452610969543 0.02501942217350006 0.024165509268641472 0.02338479459285736 0.022653689607977867 0.02199220284819603 0.021369025111198425 0.02080063335597515 0.02027316391468048 0.019793923944234848 0.019351601600646973 0.018927691504359245 0.018544280901551247 0.01819576323032379 0.01788219064474106 0.017589332535862923 0.01733557879924774 0.01707339659333229 0.016836078837513924 0.01660034991800785 0.01638977602124214 0.016213929280638695 0.016020644456148148 0.01585758663713932 0.015704456716775894 0.015558779239654541 0.01542371790856123 0.01530051976442337 0.015177578665316105 0.015071756206452847 0.01497126929461956 0.014859008602797985 0.01476979162544012 0.014693914912641048 0.014610545709729195 0.014552325010299683 0.014475032687187195 0.014416019432246685 0.014357427135109901 0.014296203851699829 0.014209967106580734 0.014182810671627522 0.014133622869849205 0.014079858548939228 0.014036266133189201 0.014000693336129189 0.013934411108493805 0.013901340775191784 0.01385907456278801 0.013827148824930191 0.01380883064121008 0.013769008219242096 0.013736284337937832 0.013695617206394672 0.013693833723664284 0.013653866946697235 0.013636214658617973 0.013603383675217628 0.01358567550778389 0.013558149337768555 0.013563979417085648 0.013544704765081406 0.013533530756831169 0.01350688561797142 0.013482434675097466 0.013500349596142769 0.013489820063114166 0.013466733507812023 0.013439732603728771 0.013441519811749458 0.013422873802483082 0.013414883986115456 0.013401441276073456 0.013409248553216457 0.013413829728960991 0.013405885547399521 0.013402796350419521 0.01338728703558445 0.013402905315160751 0.013398797251284122 0.013388453051447868 0.013390753418207169 0.013375286012887955 0.013395777903497219 0.013381384313106537 0.013378426432609558 0.013373436406254768 0.013390359468758106
log_motor_var 	 [5.683924198150635]
sigma_logit 	 [-3.4455857276916504, -4.1902079582214355]
mixture_logit 	 [-4.026492595672607]
prior 	 [0.04419243335723877, 0.01233272161334753, -0.021693602204322815, -0.05631941184401512, -0.09021572023630142, -0.12235043942928314, -0.15200817584991455, -0.17879167199134827, -0.20260918140411377, -0.22358813881874084, -0.24200928211212158, -0.2582007050514221, -0.2724175751209259, -0.2848019301891327, -0.2953234612941742, -0.3037455976009369, -0.309749960899353, -0.31291043758392334, -0.31288331747055054, -0.3093595504760742, -0.302025705575943, -0.29062923789024353, -0.27485647797584534, -0.254401296377182, -0.2289886623620987, -0.1983405500650406, -0.16231517493724823, -0.12098019570112228, -0.07462050765752792, -0.023796511813998222, 0.030741874128580093, 0.08809777349233627, 0.14732544124126434, 0.20748218894004822, 0.2677551507949829, 0.32746994495391846, 0.38613104820251465, 0.443366140127182, 0.4990597665309906, 0.5531588196754456, 0.6056908369064331, 0.6565872430801392, 0.7057543992996216, 0.7529020309448242, 0.7976194620132446, 0.8394483327865601, 0.8779920339584351, 0.9130628108978271, 0.9444787502288818, 0.9722483158111572, 0.9966643452644348, 1.017977237701416, 1.0364489555358887, 1.0523887872695923, 1.066005825996399, 1.0773494243621826, 1.0863873958587646, 1.0930814743041992, 1.0972508192062378, 1.098835825920105, 1.0978477001190186, 1.0943748950958252, 1.0884150266647339, 1.079888105392456, 1.0687239170074463, 1.0547142028808594, 1.0378059148788452, 1.0179098844528198, 0.9949349761009216, 0.9689992666244507, 0.9404290914535522, 0.9097445011138916, 0.8774267435073853, 0.843981146812439, 0.8099538087844849, 0.7759035229682922, 0.7423130869865417, 0.7096337080001831, 0.6782169938087463, 0.6483067274093628, 0.6200655698776245, 0.5935039520263672, 0.5683242678642273, 0.5439707040786743, 0.5196934938430786, 0.494505912065506, 0.46740227937698364, 0.4373282492160797, 0.40343889594078064, 0.3651989996433258, 0.32236605882644653, 0.274966835975647, 0.2230978012084961, 0.1670403629541397, 0.10703357309103012, 0.04337117820978165, -0.02357679419219494, -0.09334465861320496, -0.1654435396194458, -0.23940607905387878, -0.314861536026001, -0.39156949520111084, -0.46928268671035767, -0.5478264093399048, -0.6269471645355225, -0.7064149379730225, -0.7858636975288391, -0.8650733828544617, -0.9436151385307312, -1.0211716890335083, -1.0970826148986816, -1.1707590818405151, -1.2409294843673706, -1.3061188459396362, -1.3648525476455688, -1.4155378341674805, -1.4567162990570068, -1.487276315689087, -1.5065889358520508, -1.5145412683486938, -1.5112745761871338, -1.4972655773162842, -1.4731910228729248, -1.4396710395812988, -1.3974087238311768, -1.3471579551696777, -1.2896106243133545, -1.2254717350006104, -1.1556371450424194, -1.081018090248108, -1.0024175643920898, -0.9207600355148315, -0.8368494510650635, -0.7516982555389404, -0.6663092970848083, -0.5819764733314514, -0.5000349283218384, -0.4217930734157562, -0.34844979643821716, -0.28096896409988403, -0.21986788511276245, -0.16528412699699402, -0.11699222028255463, -0.07464861869812012, -0.037893567234277725, -0.006548117846250534, 0.019393622875213623, 0.039809830486774445, 0.05456910654902458, 0.06365163624286652, 0.06720613688230515, 0.0655389279127121, 0.05910932645201683, 0.04851057752966881, 0.03447585552930832, 0.01790197379887104, -0.0001436118473066017, -0.01847994327545166, -0.03591082617640495, -0.05132808908820152, -0.06381724774837494, -0.07272668927907944, -0.077619269490242, -0.07830318063497543, -0.07469135522842407, -0.06680115312337875, -0.05471399426460266, -0.03862934932112694, -0.018947605043649673, 0.0036281610373407602, 0.02800770476460457, 0.05270730331540108, 0.07593107968568802, 0.09575499594211578, 0.11034109443426132, 0.11819779872894287, 0.11833696812391281, 0.11040722578763962, 0.09472552686929703, 0.072196364402771]
volume 	 [0.0, 0.0, 0.0, 0.0, 0.0, 0.0, 0.0, 0.0, 0.0, 0.0, 0.0, 0.0, 0.0, 0.0, 0.0, 0.0, 0.0, 0.0, 0.0, 0.0, 0.0, 0.0, 0.0, 0.0, 0.0, 0.0, 0.0, 0.0, 0.0, 0.0, 0.0, 0.0, 0.0, 0.0, 0.0, 0.0, 0.0, 0.0, 0.0, 0.0, 0.0, 0.0, 0.0, 0.0, 0.0, 0.0, 0.0, 0.0, 0.0, 0.0, 0.0, 0.0, 0.0, 0.0, 0.0, 0.0, 0.0, 0.0, 0.0, 0.0, 0.0, 0.0, 0.0, 0.0, 0.0, 0.0, 0.0, 0.0, 0.0, 0.0, 0.0, 0.0, 0.0, 0.0, 0.0, 0.0, 0.0, 0.0, 0.0, 0.0, 0.0, 0.0, 0.0, 0.0, 0.0, 0.0, 0.0, 0.0, 0.0, 0.0, 0.0, 0.0, 0.0, 0.0, 0.0, 0.0, 0.0, 0.0, 0.0, 0.0, 0.0, 0.0, 0.0, 0.0, 0.0, 0.0, 0.0, 0.0, 0.0, 0.0, 0.0, 0.0, 0.0, 0.0, 0.0, 0.0, 0.0, 0.0, 0.0, 0.0, 0.0, 0.0, 0.0, 0.0, 0.0, 0.0, 0.0, 0.0, 0.0, 0.0, 0.0, 0.0, 0.0, 0.0, 0.0, 0.0, 0.0, 0.0, 0.0, 0.0, 0.0, 0.0, 0.0, 0.0, 0.0, 0.0, 0.0, 0.0, 0.0, 0.0, 0.0, 0.0, 0.0, 0.0, 0.0, 0.0, 0.0, 0.0, 0.0, 0.0, 0.0, 0.0, 0.0, 0.0, 0.0, 0.0, 0.0, 0.0, 0.0, 0.0, 0.0, 0.0, 0.0, 0.0, 0.0, 0.0, 0.0, 0.0, 0.0, 0.0]
