-0.019024768844246864 CrossValid -12.244720458984375 CrossValidLossesBy500 14.760482788085938 2.757049560546875 1.2063446044921875 0.234466552734375 -0.7978668212890625 -1.611297607421875 -2.1805572509765625 -2.6398162841796875 -3.0323333740234375 -3.4217376708984375 -3.765167236328125 -4.1258544921875 -4.4544677734375 -4.7795867919921875 -5.0975189208984375 -5.395904541015625 -5.6923370361328125 -5.9713134765625 -6.2439727783203125 -6.516998291015625 -6.7677764892578125 -7.0198974609375 -7.2593231201171875 -7.492919921875 -7.71697998046875 -7.929351806640625 -8.136688232421875 -8.337509155273438 -8.518814086914062 -8.713165283203125 -8.883880615234375 -9.065582275390625 -9.225067138671875 -9.385360717773438 -9.540115356445312 -9.687149047851562 -9.82318115234375 -9.968215942382812 -10.110092163085938 -10.240829467773438 -10.358596801757812 -10.485137939453125 -10.592025756835938 -10.70013427734375 -10.810546875 -10.911209106445312 -11.025344848632812 -11.113739013671875 -11.2110595703125 -11.292312622070312 -11.391647338867188 -11.4725341796875 -11.560302734375 -11.635498046875 -11.71514892578125 -11.787200927734375 -11.857437133789062 -11.932815551757812 -11.990875244140625 -12.054595947265625 -12.123367309570312 -12.180923461914062 -12.241714477539062 -12.303863525390625 -12.352249145507812 -12.408889770507812 -12.459396362304688 -12.512100219726562 -12.55035400390625 -12.601364135742188 -12.652374267578125 -12.294281005859375 -12.224716186523438 -12.208709716796875 -12.215255737304688 -12.244720458984375
38000 LossesBy500 0.00027338785002939403 -0.0077621545642614365 -0.00946319941431284 -0.010281786322593689 -0.010920739732682705 -0.011373038403689861 -0.011727978475391865 -0.012043608352541924 -0.012330894358456135 -0.012599804438650608 -0.012849882245063782 -0.013093220070004463 -0.013322807848453522 -0.013550572097301483 -0.013761677779257298 -0.013969860039651394 -0.014164303429424763 -0.014359012246131897 -0.014540167525410652 -0.01471954770386219 -0.01489238627254963 -0.015053736977279186 -0.015218173153698444 -0.015372425317764282 -0.015522792004048824 -0.015667542815208435 -0.015799742192029953 -0.015937788411974907 -0.016065750271081924 -0.01619563065469265 -0.016315417364239693 -0.016427423804998398 -0.016543395817279816 -0.016656633466482162 -0.016757633537054062 -0.01686452515423298 -0.016958942636847496 -0.017057335004210472 -0.017152177169919014 -0.017242539674043655 -0.017330333590507507 -0.01741567626595497 -0.01749420538544655 -0.01757546328008175 -0.017650868743658066 -0.017727859318256378 -0.017798271030187607 -0.01786763407289982 -0.017937911674380302 -0.018001947551965714 -0.018066992983222008 -0.018129346892237663 -0.01818922720849514 -0.018247144296765327 -0.018305303528904915 -0.01836366578936577 -0.018416572362184525 -0.01846541091799736 -0.018520498648285866 -0.0185733363032341 -0.018620828166604042 -0.01866425946354866 -0.01871250383555889 -0.018753113225102425 -0.018795723095536232 -0.01884073205292225 -0.018879171460866928 -0.018920155242085457 -0.018958868458867073 -0.01899455301463604 -0.01902972348034382 -0.018947137519717216 -0.018959272652864456 -0.0189803596585989 -0.019004730507731438 -0.019024768844246864
log_motor_var 	 [4.332192420959473]
sigma_logit 	 [-3.699312686920166, -4.65607213973999]
mixture_logit 	 [-4.095544338226318]
prior 	 [0.2578333616256714, 0.23934142291545868, 0.22447112202644348, 0.21313823759555817, 0.2051151692867279, 0.19997982680797577, 0.19708696007728577, 0.1956590861082077, 0.19497144222259521, 0.19451139867305756, 0.1940261721611023, 0.19346240162849426, 0.1928832083940506, 0.19243866205215454, 0.19242194294929504, 0.19336047768592834, 0.19608139991760254, 0.20172306895256042, 0.21164701879024506, 0.22726063430309296, 0.24972622096538544, 0.27961549162864685, 0.31664663553237915, 0.3596632182598114, 0.4067186117172241, 0.4554545283317566, 0.5035387873649597, 0.5490199327468872, 0.5905228853225708, 0.6273021697998047, 0.6592242121696472, 0.686640202999115, 0.7101389169692993, 0.7301951050758362, 0.7469368577003479, 0.7601636648178101, 0.7696002125740051, 0.7752503752708435, 0.7775344252586365, 0.7771590352058411, 0.7748590111732483, 0.7711712121963501, 0.7663565874099731, 0.7604389190673828, 0.753277063369751, 0.7446420192718506, 0.7342904806137085, 0.7219862341880798, 0.7075142860412598, 0.6906487345695496, 0.6711592674255371, 0.6488409042358398, 0.6235315203666687, 0.5951780676841736, 0.563901960849762, 0.5300840139389038, 0.4944307804107666, 0.4580182135105133, 0.4222539961338043, 0.38877424597740173, 0.3592866063117981, 0.33539846539497375, 0.31842103600502014, 0.3092428743839264, 0.30818629264831543, 0.3149142861366272, 0.32835838198661804, 0.34686988592147827, 0.368435263633728, 0.39089077711105347, 0.41213712096214294, 0.4303571879863739, 0.4440351724624634, 0.45195427536964417, 0.453152060508728, 0.4470010995864868, 0.4332727789878845, 0.4121827185153961, 0.38432320952415466, 0.35056838393211365, 0.31195753812789917, 0.2695976495742798, 0.22455595433712006, 0.1777869611978531, 0.13008254766464233, 0.08202383667230606, 0.033940911293029785, -0.014077888801693916, -0.062127865850925446, -0.11041111499071121, -0.15918046236038208, -0.20873373746871948, -0.2594309449195862, -0.3117097318172455, -0.36606916785240173, -0.4230094850063324, -0.4829387962818146, -0.5460590720176697, -0.612244188785553, -0.6809968948364258, -0.7514232397079468, -0.8222756385803223, -0.8920188546180725, -0.9589583873748779, -1.0213654041290283, -1.0776374340057373, -1.1264411211013794, -1.166843295097351, -1.1983797550201416, -1.2210414409637451, -1.2351460456848145, -1.2411314249038696, -1.2394468784332275, -1.230430245399475, -1.2143832445144653, -1.1917576789855957, -1.1633614301681519, -1.1304179430007935, -1.0944077968597412, -1.0568331480026245, -1.0189952850341797, -0.9818291068077087, -0.945855975151062, -0.9112733602523804, -0.8779946565628052, -0.8457222580909729, -0.8139877915382385, -0.7822238206863403, -0.7498732209205627, -0.7165287137031555, -0.6820505857467651, -0.6466163992881775, -0.6107327938079834, -0.5751493573188782, -0.5407393574714661, -0.5083920359611511, -0.47888076305389404, -0.4528089165687561, -0.4305392801761627, -0.4121401011943817, -0.397371381521225, -0.3857264518737793, -0.3764946162700653, -0.3687953054904938, -0.3616316020488739, -0.3539400100708008, -0.3446419835090637, -0.33269092440605164, -0.31716492772102356, -0.2973095774650574, -0.27259862422943115, -0.2428293377161026, -0.20818762481212616, -0.16920848190784454, -0.12671135365962982, -0.08167286217212677, -0.035115618258714676, 0.012016480788588524, 0.058993954211473465, 0.10539805889129639, 0.15107521414756775, 0.19598855078220367, 0.2400425672531128, 0.2829440236091614, 0.32412177324295044, 0.36271369457244873, 0.3975978195667267, 0.42749086022377014, 0.4510471820831299, 0.46702152490615845, 0.47445040941238403, 0.47289907932281494, 0.46265992522239685, 0.44478148221969604, 0.4208928942680359, 0.39298099279403687, 0.3631612956523895, 0.33340907096862793, 0.3052982985973358, 0.27990347146987915]
volume 	 [0.29304996132850647, 0.2635742425918579, 0.23813845217227936, 0.21440893411636353, 0.18043369054794312, 0.13864704966545105, 0.09571576863527298, 0.0513387992978096, 0.010776184499263763, -0.022708866745233536, -0.04696410149335861, -0.06349693238735199, -0.0684094950556755, -0.05600045621395111, -0.027458639815449715, 0.0013071122812107205, 0.03194376081228256, 0.06328535825014114, 0.10194479674100876, 0.14849622547626495, 0.19396238029003143, 0.2299375981092453, 0.26466724276542664, 0.29398077726364136, 0.3208017647266388, 0.3485688865184784, 0.3757001459598541, 0.4029107391834259, 0.4285767674446106, 0.4362894296646118, 0.4353110194206238, 0.4243941009044647, 0.40198126435279846, 0.37840768694877625, 0.349059134721756, 0.3021372854709625, 0.2509833574295044, 0.19532695412635803, 0.13696467876434326, 0.0837223008275032, 0.043987300246953964, 0.0076170447282493114, -0.029795588925480843, -0.0646473690867424, -0.0865124985575676, -0.10324864834547043, -0.11882583051919937, -0.14063888788223267, -0.16225244104862213, -0.1832689493894577, -0.203804150223732, -0.22989767789840698, -0.2621133327484131, -0.3057912588119507, -0.3491079807281494, -0.38586485385894775, -0.41170868277549744, -0.41959214210510254, -0.41037142276763916, -0.38844016194343567, -0.3566228151321411, -0.31935080885887146, -0.2755644917488098, -0.22482316195964813, -0.16742970049381256, -0.11872419714927673, -0.08146145939826965, -0.05508293956518173, -0.0426483191549778, -0.04699310287833214, -0.05292452126741409, -0.05606973171234131, -0.05383917689323425, -0.052199192345142365, -0.05551808699965477, -0.06022699177265167, -0.06522969901561737, -0.06308705359697342, -0.057481762021780014, -0.04970405623316765, -0.03954681381583214, -0.023232538253068924, -0.00694336136803031, 0.0029145998414605856, -0.0037370342761278152, -0.022255610674619675, -0.04995334520936012, -0.08239030838012695, -0.11474166810512543, -0.15834051370620728, -0.2076788693666458, -0.2599571645259857, -0.31518861651420593, -0.36609429121017456, -0.4127827286720276, -0.4603728652000427, -0.5068678259849548, -0.5361868739128113, -0.550370454788208, -0.549662709236145, -0.5284864902496338, -0.4897148311138153, -0.43534189462661743, -0.3706270158290863, -0.2942170202732086, -0.21301741898059845, -0.129378542304039, -0.04698401689529419, 0.022660113871097565, 0.07981020957231522, 0.1189015582203865, 0.14005054533481598, 0.15260723233222961, 0.16956132650375366, 0.1964799165725708, 0.2255086600780487, 0.2491627186536789, 0.26182353496551514, 0.26824289560317993, 0.26634839177131653, 0.2602732479572296, 0.2519238293170929, 0.24966540932655334, 0.2436264455318451, 0.2293471246957779, 0.2035980075597763, 0.17110732197761536, 0.12628138065338135, 0.08406393975019455, 0.04367993399500847, 0.0033416554797440767, -0.04402869567275047, -0.08660121262073517, -0.12421205639839172, -0.15454667806625366, -0.1681467890739441, -0.1733504980802536, -0.17380109429359436, -0.16804569959640503, -0.14713798463344574, -0.11896495521068573, -0.0958455353975296, -0.07446975260972977, -0.05401461198925972, -0.03873804584145546, -0.028489502146840096, -0.01816902682185173, -0.015748854726552963, -0.014335340820252895, -0.007207969203591347, 0.005135235842317343, 0.011499407701194286, 0.012861199676990509, 0.005270537920296192, -0.003859204240143299, -0.012430120259523392, -0.023746207356452942, -0.04019077494740486, -0.05528046190738678, -0.06463684886693954, -0.06881950795650482, -0.06920863687992096, -0.0699957087635994, -0.0694648027420044, -0.06287167966365814, -0.04921894147992134, -0.024975869804620743, 0.01655295304954052, 0.08059916645288467, 0.16561691462993622, 0.2582099735736847, 0.3366273045539856, 0.3877635896205902, 0.4185120165348053, 0.43831443786621094, 0.44561201333999634, 0.43167439103126526, 0.40879660844802856, 0.37861114740371704, 0.33030036091804504]
