-0.025752682238817215 CrossValid -58.127281188964844 CrossValidLossesBy500 21.630264282226562 -6.3262176513671875 -16.63702392578125 -21.8265380859375 -25.357223510742188 -28.223739624023438 -30.668655395507812 -32.83830261230469 -34.744140625 -36.45379638671875 -37.967926025390625 -39.341552734375 -40.563262939453125 -41.67216491699219 -42.68443298339844 -43.597877502441406 -44.438751220703125 -45.218589782714844 -45.92308807373047 -46.572120666503906 -47.18292236328125 -47.741455078125 -48.261932373046875 -48.750518798828125 -49.19727325439453 -49.62895202636719 -50.02305603027344 -50.3994140625 -50.73876190185547 -51.062591552734375 -51.374664306640625 -51.67412567138672 -51.944183349609375 -52.20752716064453 -52.45423126220703 -52.685089111328125 -52.90275573730469 -53.11504364013672 -53.307769775390625 -53.4986572265625 -53.684303283691406 -53.86460876464844 -54.01946258544922 -54.18279266357422 -54.33692169189453 -54.48228454589844 -54.62456512451172 -54.75788116455078 -54.88282775878906 -54.999977111816406 -55.114234924316406 -55.231040954589844 -55.340972900390625 -55.453033447265625 -55.551246643066406 -55.65681457519531 -55.741180419921875 -55.83967590332031 -55.929290771484375 -56.01683807373047 -56.10108184814453 -56.17827606201172 -56.24702453613281 -56.32917785644531 -56.399070739746094 -56.47856140136719 -56.54774475097656 -56.60325622558594 -56.67652893066406 -56.730499267578125 -56.788818359375 -56.860137939453125 -56.91339874267578 -56.971107482910156 -57.02252197265625 -57.07762908935547 -57.13673400878906 -57.186317443847656 -57.236793518066406 -57.27851867675781 -57.33064270019531 -57.37238311767578 -57.42150115966797 -57.46398162841797 -57.515220642089844 -57.55741882324219 -57.59895324707031 -57.629600524902344 -57.66771697998047 -57.70475769042969 -57.754539489746094 -57.78868865966797 -57.82481384277344 -57.858154296875 -57.895477294921875 -57.92736053466797 -57.96477508544922 -57.98186492919922 -58.019775390625 -58.04670715332031 -58.061187744140625 -58.08306121826172 -58.09587097167969 -58.1055908203125 -58.12055969238281 -58.12298583984375 -58.127281188964844
53500 LossesBy500 0.009470390155911446 -0.00407159049063921 -0.00898050982505083 -0.01136750914156437 -0.012940277345478535 -0.01416236162185669 -0.015177533030509949 -0.016052475199103355 -0.016808532178401947 -0.017471402883529663 -0.018062133342027664 -0.018580935895442963 -0.019054610282182693 -0.019469792023301125 -0.019852586090564728 -0.020194970071315765 -0.020507492125034332 -0.020796693861484528 -0.02106170728802681 -0.021304750815033913 -0.021527564153075218 -0.02173249050974846 -0.021927066147327423 -0.022103790193796158 -0.02227754518389702 -0.02242676354944706 -0.022578313946723938 -0.022714287042617798 -0.022842664271593094 -0.022968336939811707 -0.023078639060258865 -0.023188820108771324 -0.023293660953640938 -0.023390041664242744 -0.023482512682676315 -0.02357500232756138 -0.02365570142865181 -0.02373741939663887 -0.023811861872673035 -0.023888621479272842 -0.023955216631293297 -0.024026595056056976 -0.024086380377411842 -0.02414971962571144 -0.024206670001149178 -0.02426561713218689 -0.024317599833011627 -0.02437213808298111 -0.024422015994787216 -0.024470677599310875 -0.024519499391317368 -0.024562055245041847 -0.02460547350347042 -0.024651329964399338 -0.024694139137864113 -0.02472902275621891 -0.02476654201745987 -0.024805264547467232 -0.02484358847141266 -0.02487824112176895 -0.02491270937025547 -0.02494148537516594 -0.02497553825378418 -0.025003917515277863 -0.025040196254849434 -0.025067824870347977 -0.02509382739663124 -0.025126667693257332 -0.02514837123453617 -0.025174234062433243 -0.025202006101608276 -0.02522629126906395 -0.02524847909808159 -0.02527446858584881 -0.025300074368715286 -0.025321897119283676 -0.025338539853692055 -0.025361083447933197 -0.02538289874792099 -0.025401433929800987 -0.025423571467399597 -0.025439409539103508 -0.025460872799158096 -0.025479545816779137 -0.025500865653157234 -0.02551265060901642 -0.025529785081744194 -0.02555272728204727 -0.02556421607732773 -0.025583604350686073 -0.02559715323150158 -0.02561313658952713 -0.02562636509537697 -0.025643734261393547 -0.025657188147306442 -0.025671832263469696 -0.025681495666503906 -0.02569495514035225 -0.025707658380270004 -0.025714721530675888 -0.02572260983288288 -0.025734426453709602 -0.025734232738614082 -0.02574203349649906 -0.025748299434781075 -0.025749029591679573 -0.025752682238817215
log_motor_var 	 [4.140875816345215]
sigma_logit 	 [-3.8635215759277344, -4.927494049072266]
mixture_logit 	 [-4.085205554962158]
prior 	 [-0.06492611020803452, -0.09676875174045563, -0.12835076451301575, -0.15899600088596344, -0.18818625807762146, -0.2155008614063263, -0.2405078113079071, -0.26274898648262024, -0.28170010447502136, -0.29686975479125977, -0.3078214228153229, -0.3141702711582184, -0.3155820071697235, -0.3116174340248108, -0.30171138048171997, -0.2852173447608948, -0.26147225499153137, -0.23000545799732208, -0.19073620438575745, -0.14413975179195404, -0.09134314954280853, -0.034003905951976776, 0.026066264137625694, 0.08735449612140656, 0.1488826423883438, 0.20999932289123535, 0.2699413001537323, 0.32768338918685913, 0.38236477971076965, 0.43374282121658325, 0.4821743965148926, 0.528200089931488, 0.5723793506622314, 0.6155164837837219, 0.658665120601654, 0.7028230428695679, 0.7484607100486755, 0.7950404286384583, 0.840857744216919, 0.883391261100769, 0.9200742244720459, 0.9489262104034424, 0.9690106511116028, 0.980361819267273, 0.9836603999137878, 0.9799473285675049, 0.970341145992279, 0.9558505415916443, 0.9373717308044434, 0.9157654643058777, 0.8919038772583008, 0.8667443990707397, 0.8413013219833374, 0.816635012626648, 0.7938104867935181, 0.7739219665527344, 0.758014440536499, 0.7469809055328369, 0.7416353225708008, 0.74258953332901, 0.7501635551452637, 0.7644140124320984, 0.7851147055625916, 0.8117296099662781, 0.8434504866600037, 0.8790884017944336, 0.9172694087028503, 0.9563484787940979, 0.994665265083313, 1.0304486751556396, 1.062107801437378, 1.0880712270736694, 1.1069496870040894, 1.1174970865249634, 1.11846923828125, 1.1089569330215454, 1.08834969997406, 1.0562633275985718, 1.0125783681869507, 0.9571337699890137, 0.8899344801902771, 0.8112557530403137, 0.7219178080558777, 0.6233798861503601, 0.5177075862884521, 0.4073009192943573, 0.29466304183006287, 0.18198007345199585, 0.07090040296316147, -0.037533488124608994, -0.14283987879753113, -0.2449202537536621, -0.3438563942909241, -0.4397181272506714, -0.5324377417564392, -0.6217417120933533, -0.7072647213935852, -0.7884694337844849, -0.8647586703300476, -0.9355055093765259, -1.0000998973846436, -1.0579726696014404, -1.1086187362670898, -1.1516374349594116, -1.1867023706436157, -1.2135591506958008, -1.2319934368133545, -1.2419451475143433, -1.2434251308441162, -1.2365589141845703, -1.2216986417770386, -1.1996688842773438, -1.1714955568313599, -1.138664722442627, -1.1031173467636108, -1.0669082403182983, -1.0324276685714722, -1.0017502307891846, -0.9765850305557251, -0.9578487873077393, -0.945710301399231, -0.9396188259124756, -0.9385584592819214, -0.9412890672683716, -0.9465112090110779, -0.9528875350952148, -0.959168016910553, -0.9642989039421082, -0.9674839973449707, -0.9681355357170105, -0.965776264667511, -0.9599710702896118, -0.9503042101860046, -0.9364698529243469, -0.9182458519935608, -0.8955451250076294, -0.8683006167411804, -0.8365811109542847, -0.800457239151001, -0.7599943280220032, -0.715199887752533, -0.666103720664978, -0.6127552390098572, -0.5553781390190125, -0.49443578720092773, -0.4305955469608307, -0.36484667658805847, -0.2983161211013794, -0.2321464866399765, -0.1672823280096054, -0.10432987660169601, -0.04352637007832527, 0.015110398642718792, 0.07163446396589279, 0.1259840577840805, 0.1778581142425537, 0.2266390174627304, 0.27133360505104065, 0.3107171356678009, 0.34344109892845154, 0.3681941330432892, 0.38385289907455444, 0.3897869884967804, 0.38602423667907715, 0.3733955919742584, 0.35348695516586304, 0.32827165722846985, 0.2997618317604065, 0.2696057856082916, 0.23894554376602173, 0.20856007933616638, 0.1790773868560791, 0.15103687345981598, 0.12469150125980377, 0.09978775680065155, 0.07551788538694382, 0.05076909810304642, 0.02455141581594944, -0.003609607694670558, -0.033614564687013626]
volume 	 [0.2975205183029175, 0.25109612941741943, 0.20884810388088226, 0.17358963191509247, 0.13236212730407715, 0.09056403487920761, 0.047729067504405975, 0.0019749233033508062, -0.04386749118566513, -0.08242730051279068, -0.11612999439239502, -0.14479213953018188, -0.1617625504732132, -0.16181416809558868, -0.1410529911518097, -0.11319559067487717, -0.0789111778140068, -0.040694497525691986, 0.014591013081371784, 0.08388429135084152, 0.16375216841697693, 0.24532517790794373, 0.32827267050743103, 0.4022563099861145, 0.4702247381210327, 0.533315896987915, 0.5908368229866028, 0.6436005234718323, 0.6892372369766235, 0.715301513671875, 0.7215519547462463, 0.7139649987220764, 0.6884238123893738, 0.6533986926078796, 0.6122647523880005, 0.5506847500801086, 0.48383480310440063, 0.4134915769100189, 0.33568260073661804, 0.25726839900016785, 0.18629410862922668, 0.11271645873785019, 0.038083795458078384, -0.03524734824895859, -0.09686772525310516, -0.15067191421985626, -0.20165356993675232, -0.25115716457366943, -0.29694998264312744, -0.3369982838630676, -0.373243123292923, -0.41139209270477295, -0.4507023096084595, -0.49304527044296265, -0.5316718220710754, -0.5628900527954102, -0.5847707390785217, -0.5913782715797424, -0.5818272829055786, -0.5579984188079834, -0.5217126607894897, -0.4731491804122925, -0.4131997227668762, -0.34069010615348816, -0.2568432092666626, -0.17714571952819824, -0.1033586710691452, -0.03968000039458275, 0.012167440727353096, 0.046451035887002945, 0.08296137303113937, 0.12039297074079514, 0.160934716463089, 0.19540543854236603, 0.21655285358428955, 0.22767359018325806, 0.22772304713726044, 0.22711576521396637, 0.2200108915567398, 0.20577555894851685, 0.18414348363876343, 0.16145987808704376, 0.13496455550193787, 0.10215345025062561, 0.056660011410713196, 0.00609467551112175, -0.05130988359451294, -0.10913602262735367, -0.16522039473056793, -0.23242370784282684, -0.30469855666160583, -0.38218894600868225, -0.4635692834854126, -0.5383883714675903, -0.6039104461669922, -0.6635003089904785, -0.7142385244369507, -0.7479428052902222, -0.7662348747253418, -0.7666852474212646, -0.7464674115180969, -0.7086058855056763, -0.655586302280426, -0.5913668870925903, -0.5135105848312378, -0.4260759651660919, -0.33331507444381714, -0.239054873585701, -0.14755284786224365, -0.0647321417927742, 0.002684873528778553, 0.0543757788836956, 0.10053082555532455, 0.14919666945934296, 0.20464062690734863, 0.25930750370025635, 0.3112625479698181, 0.3430562913417816, 0.3591579496860504, 0.3610495626926422, 0.35797736048698425, 0.35098233819007874, 0.34661242365837097, 0.33882614970207214, 0.32099419832229614, 0.2793578803539276, 0.2208760678768158, 0.14909225702285767, 0.085198774933815, 0.021998703479766846, -0.04176191985607147, -0.11011265218257904, -0.17068900167942047, -0.22413039207458496, -0.26716747879981995, -0.29147017002105713, -0.30140963196754456, -0.3060559928417206, -0.3033037781715393, -0.2867123484611511, -0.2633039057254791, -0.24109454452991486, -0.2155480831861496, -0.1899440735578537, -0.16783589124679565, -0.14902415871620178, -0.1291331797838211, -0.11828334629535675, -0.11188114434480667, -0.10292038321495056, -0.08764123171567917, -0.07464487850666046, -0.06255634129047394, -0.05489257350564003, -0.0465582013130188, -0.03327784314751625, -0.023198239505290985, -0.01712723635137081, -0.009741577319800854, 0.003370193298906088, 0.02220321260392666, 0.044413141906261444, 0.06279605627059937, 0.08144958317279816, 0.10490229725837708, 0.13259927928447723, 0.16920429468154907, 0.2229977399110794, 0.29265767335891724, 0.3738740086555481, 0.44742098450660706, 0.49359357357025146, 0.5140348076820374, 0.5193765759468079, 0.5170150399208069, 0.5076318979263306, 0.4811399579048157, 0.44974321126937866, 0.40904852747917175, 0.35062527656555176]
