-0.02474048361182213 CrossValid -73.81114959716797 CrossValidLossesBy500 13.29180908203125 -11.753021240234375 -20.640029907226562 -25.5101318359375 -29.239120483398438 -32.459747314453125 -35.333038330078125 -37.90180206298828 -40.19053649902344 -42.27867889404297 -44.1361083984375 -45.83740234375 -47.3837890625 -48.79579162597656 -50.08671569824219 -51.27976989746094 -52.37542724609375 -53.40240478515625 -54.355682373046875 -55.23374938964844 -56.066856384277344 -56.83282470703125 -57.56133270263672 -58.239891052246094 -58.86749267578125 -59.47032165527344 -60.04048156738281 -60.5882568359375 -61.088165283203125 -61.5797119140625 -62.03565216064453 -62.47455596923828 -62.88360595703125 -63.27375030517578 -63.6514892578125 -64.01435089111328 -64.35917663574219 -64.68741607666016 -64.99658203125 -65.30127716064453 -65.5855712890625 -65.86703491210938 -66.13999938964844 -66.40038299560547 -66.6397705078125 -66.88215637207031 -67.10394287109375 -67.32898712158203 -67.53425598144531 -67.75154113769531 -67.94945526123047 -68.14500427246094 -68.33311462402344 -68.5217514038086 -68.70750427246094 -68.8812026977539 -69.05059814453125 -69.20906066894531 -69.36212158203125 -69.51509857177734 -69.65323638916016 -69.80657196044922 -69.94182586669922 -70.08512878417969 -70.22084045410156 -70.35889434814453 -70.48886108398438 -70.60743713378906 -70.71610260009766 -70.84121704101562 -70.95442199707031 -71.07229614257812 -71.177978515625 -71.29061889648438 -71.39942932128906 -71.51100158691406 -71.60653686523438 -71.703369140625 -71.80419921875 -71.8968505859375 -71.98627471923828 -72.07756805419922 -72.16834259033203 -72.2562026977539 -72.34839630126953 -72.43839263916016 -72.5082778930664 -72.59959411621094 -72.68568420410156 -72.74991607666016 -72.83686828613281 -72.90371704101562 -72.98590087890625 -73.04823303222656 -73.12451171875 -73.19578552246094 -73.2580337524414 -73.32849884033203 -73.41072082519531 -73.46578216552734 -73.5252456665039 -73.60037231445312 -73.65328979492188 -73.69922637939453 -73.74162292480469 -73.76903533935547 -73.78565979003906 -73.81114959716797
54000 LossesBy500 0.009820452891290188 -0.003829667344689369 -0.008713453076779842 -0.011073824018239975 -0.012601546011865139 -0.013784902170300484 -0.01476830430328846 -0.015600320883095264 -0.016324874013662338 -0.016957562416791916 -0.01751329004764557 -0.018005821853876114 -0.01844407618045807 -0.018845615908503532 -0.01919901929795742 -0.019521381705999374 -0.019816944375634193 -0.020085759460926056 -0.020332377403974533 -0.020561618730425835 -0.02076956257224083 -0.020969538018107414 -0.021150939166545868 -0.02131885290145874 -0.021471459418535233 -0.02162197232246399 -0.02175823226571083 -0.021887442097067833 -0.02200370281934738 -0.022120937705039978 -0.022226236760616302 -0.022330570966005325 -0.02242482826113701 -0.022517114877700806 -0.022604769095778465 -0.022682171314954758 -0.022764146327972412 -0.022834017872810364 -0.02290828339755535 -0.0229781661182642 -0.023043565452098846 -0.023106155917048454 -0.023166045546531677 -0.02321983501315117 -0.023277416825294495 -0.023326270282268524 -0.023381207138299942 -0.023428473621606827 -0.02347794733941555 -0.02352389693260193 -0.023561712354421616 -0.023606402799487114 -0.023647131398320198 -0.023687684908509254 -0.023721547797322273 -0.02376287803053856 -0.023801105096936226 -0.02382938750088215 -0.023861637338995934 -0.02389875426888466 -0.023926466703414917 -0.02395937591791153 -0.02399071864783764 -0.024021239951252937 -0.024048835039138794 -0.02407478541135788 -0.024099987000226974 -0.024125147610902786 -0.024151474237442017 -0.024175604805350304 -0.024199599400162697 -0.024222325533628464 -0.024239661172032356 -0.024267910048365593 -0.024288618937134743 -0.0243072547018528 -0.024327591061592102 -0.02434631437063217 -0.024366293102502823 -0.0243859700858593 -0.0244058296084404 -0.02442481741309166 -0.024435274302959442 -0.024454623460769653 -0.02447502128779888 -0.02448815293610096 -0.024501431733369827 -0.024518005549907684 -0.024537907913327217 -0.024550069123506546 -0.02456236258149147 -0.024575533345341682 -0.02459528110921383 -0.02460607700049877 -0.024616193026304245 -0.0246345866471529 -0.024644900113344193 -0.024655885994434357 -0.024668771773576736 -0.02468336746096611 -0.024694204330444336 -0.024704163894057274 -0.024715792387723923 -0.024723326787352562 -0.02472851425409317 -0.024737190455198288 -0.024736342951655388 -0.02474048361182213
log_motor_var 	 [4.257319450378418]
sigma_logit 	 [-3.8354697227478027, -4.8109965324401855]
mixture_logit 	 [-4.03853178024292]
prior 	 [-0.06667693704366684, -0.09779101610183716, -0.12960416078567505, -0.16151168942451477, -0.19289644062519073, -0.2231125682592392, -0.251450777053833, -0.2771623432636261, -0.29950597882270813, -0.3177925944328308, -0.33141109347343445, -0.33977869153022766, -0.3422597050666809, -0.33812955021858215, -0.3265787661075592, -0.3067554831504822, -0.2779821753501892, -0.23994183540344238, -0.19290360808372498, -0.1378801465034485, -0.07665394246578217, -0.011563589796423912, 0.05497584864497185, 0.12107470631599426, 0.18570709228515625, 0.24850872159004211, 0.3092578947544098, 0.3675653338432312, 0.4230770468711853, 0.47572147846221924, 0.5257630944252014, 0.5734768509864807, 0.6189678311347961, 0.6624209880828857, 0.7042997479438782, 0.7453563213348389, 0.7861143946647644, 0.8262252807617188, 0.8640568256378174, 0.8972429037094116, 0.9235741496086121, 0.9416722655296326, 0.9512795209884644, 0.9529647827148438, 0.947841465473175, 0.9370964765548706, 0.9218234419822693, 0.9029560685157776, 0.8812916874885559, 0.8575709462165833, 0.8325545191764832, 0.8070894479751587, 0.7820720076560974, 0.7584584951400757, 0.737203061580658, 0.7193115949630737, 0.7056778073310852, 0.6971955299377441, 0.6945546269416809, 0.6983380913734436, 0.7088333368301392, 0.7261009216308594, 0.7498988509178162, 0.7796893119812012, 0.8146346211433411, 0.8535997271537781, 0.895115077495575, 0.937464714050293, 0.9787862300872803, 1.0171929597854614, 1.0508531332015991, 1.0781224966049194, 1.0975313186645508, 1.1078612804412842, 1.1080737113952637, 1.097407579421997, 1.0755302906036377, 1.0422040224075317, 0.9974399209022522, 0.9411178827285767, 0.8731599450111389, 0.7937792539596558, 0.7037842273712158, 0.6047195196151733, 0.498776376247406, 0.38856270909309387, 0.27670422196388245, 0.16546779870986938, 0.05651618167757988, -0.049131203442811966, -0.15102188289165497, -0.24907754361629486, -0.34340012073516846, -0.43410634994506836, -0.5212269425392151, -0.6046701073646545, -0.6842100620269775, -0.7594897747039795, -0.8300568461418152, -0.89540696144104, -0.9550181031227112, -1.0083587169647217, -1.0549437999725342, -1.0943162441253662, -1.1260894536972046, -1.1499475240707397, -1.1656062602996826, -1.17287015914917, -1.171737551689148, -1.1623588800430298, -1.145106315612793, -1.1208829879760742, -1.0909161567687988, -1.0569992065429688, -1.0212289094924927, -0.9862027764320374, -0.954606831073761, -0.9288768172264099, -0.9106603860855103, -0.9005186557769775, -0.8979057669639587, -0.9014836549758911, -0.909558892250061, -0.9203932285308838, -0.9323421120643616, -0.9438544511795044, -0.9536336660385132, -0.960744321346283, -0.9646573066711426, -0.9651472568511963, -0.9620932340621948, -0.95536869764328, -0.9447884559631348, -0.930118203163147, -0.9111924767494202, -0.8879480361938477, -0.8604185581207275, -0.828750729560852, -0.7931215167045593, -0.7537379264831543, -0.710732638835907, -0.6641564965248108, -0.6140379309654236, -0.5604711174964905, -0.5036869049072266, -0.44410282373428345, -0.3823733627796173, -0.3193340003490448, -0.2559489905834198, -0.19314245879650116, -0.13168950378894806, -0.0721738412976265, -0.015003814361989498, 0.03959020972251892, 0.09148641675710678, 0.14059744775295258, 0.186723530292511, 0.22944346070289612, 0.2680217921733856, 0.3014077842235565, 0.3283548355102539, 0.34758153557777405, 0.35807088017463684, 0.35937899351119995, 0.3518005609512329, 0.33640825748443604, 0.3148278594017029, 0.28887394070625305, 0.26019370555877686, 0.23009175062179565, 0.19959625601768494, 0.16960850358009338, 0.14095710217952728, 0.11417575925588608, 0.08926660567522049, 0.06558066606521606, 0.04202621057629585, 0.017495494335889816, -0.008719366043806076, -0.03683723881840706]
volume 	 [0.29628750681877136, 0.2486528605222702, 0.20542562007904053, 0.16638344526290894, 0.12253767997026443, 0.07545139640569687, 0.028851477429270744, -0.020498642697930336, -0.06807658821344376, -0.10688457638025284, -0.133920818567276, -0.1543867588043213, -0.16539449989795685, -0.16257627308368683, -0.14407120645046234, -0.1176384910941124, -0.0839509591460228, -0.043392401188611984, 0.011936559341847897, 0.08127651363611221, 0.16622285544872284, 0.24964997172355652, 0.3278420567512512, 0.397407591342926, 0.45972660183906555, 0.5222669839859009, 0.5828682780265808, 0.6323596835136414, 0.6749938726425171, 0.6959267854690552, 0.6996582746505737, 0.6917875409126282, 0.6686591506004333, 0.6453931331634521, 0.6142869591712952, 0.5580013394355774, 0.48864883184432983, 0.40698185563087463, 0.3123330771923065, 0.22318905591964722, 0.14894728362560272, 0.07869379222393036, 0.010603873990476131, -0.05540649965405464, -0.10933249443769455, -0.1544758677482605, -0.1997145563364029, -0.24540750682353973, -0.2912484109401703, -0.33364227414131165, -0.3740907609462738, -0.4166734218597412, -0.4588780403137207, -0.5036010146141052, -0.544039249420166, -0.576187252998352, -0.5942865014076233, -0.595156192779541, -0.5811293721199036, -0.5524126887321472, -0.5113995671272278, -0.4613747298717499, -0.40314486622810364, -0.33192989230155945, -0.24781550467014313, -0.16832534968852997, -0.09827549010515213, -0.03923312947154045, 0.007641755044460297, 0.03972548991441727, 0.0716971829533577, 0.10697241127490997, 0.1501058042049408, 0.1912343055009842, 0.2251337468624115, 0.2468234747648239, 0.2529336214065552, 0.2547832429409027, 0.2498530149459839, 0.23354674875736237, 0.20806509256362915, 0.1841464340686798, 0.15958626568317413, 0.13031624257564545, 0.08386059105396271, 0.03032296523451805, -0.029729284346103668, -0.09270880371332169, -0.15468855202198029, -0.22635114192962646, -0.2986520826816559, -0.37164124846458435, -0.44445690512657166, -0.5120733380317688, -0.5731831192970276, -0.6305859684944153, -0.6823634505271912, -0.7159901261329651, -0.7312561869621277, -0.7296038866043091, -0.7076325416564941, -0.6672082543373108, -0.6093859672546387, -0.5410320162773132, -0.4605969786643982, -0.3759636878967285, -0.2881835401058197, -0.20109090209007263, -0.11859322339296341, -0.04625176265835762, 0.009721621870994568, 0.0512704998254776, 0.09061543643474579, 0.13524848222732544, 0.19171534478664398, 0.2477949857711792, 0.29721155762672424, 0.32635921239852905, 0.33856436610221863, 0.34138253331184387, 0.34106525778770447, 0.33589568734169006, 0.3360595405101776, 0.33190128207206726, 0.3158189356327057, 0.275970995426178, 0.222957044839859, 0.1496470421552658, 0.07818233966827393, 0.010841661132872105, -0.055216193199157715, -0.12446846812963486, -0.18387506902217865, -0.23279473185539246, -0.27039551734924316, -0.2905762791633606, -0.30252501368522644, -0.3107772469520569, -0.31231164932250977, -0.2975177764892578, -0.27381518483161926, -0.24835605919361115, -0.2194669246673584, -0.18987639248371124, -0.16756877303123474, -0.15116913616657257, -0.1346484273672104, -0.12711399793624878, -0.12179899215698242, -0.113339863717556, -0.09933434426784515, -0.08506656438112259, -0.07219764590263367, -0.06540314108133316, -0.05816205218434334, -0.04807388782501221, -0.03985314071178436, -0.034526437520980835, -0.027152465656399727, -0.015091733075678349, 0.002985113998875022, 0.02637544646859169, 0.05201401561498642, 0.07565575838088989, 0.10293452441692352, 0.1327335387468338, 0.16706247627735138, 0.2156398892402649, 0.28170791268348694, 0.3631308972835541, 0.44350364804267883, 0.4989730715751648, 0.5233448147773743, 0.5328373312950134, 0.5348961353302002, 0.5263471603393555, 0.4930386543273926, 0.45263007283210754, 0.40771111845970154, 0.3494648039340973]
