-0.021719500422477722 CrossValid 19.71710205078125 CrossValidLossesBy500 61.98040771484375 42.148101806640625 37.144378662109375 34.870391845703125 33.517364501953125 32.4556884765625 31.729629516601562 31.083389282226562 30.522369384765625 30.02630615234375 29.565093994140625 29.14892578125 28.747512817382812 28.372085571289062 28.01287841796875 27.675628662109375 27.351486206054688 27.032974243164062 26.737152099609375 26.445358276367188 26.16876220703125 25.901580810546875 25.645858764648438 25.402496337890625 25.1505126953125 24.920379638671875 24.697021484375 24.492294311523438 24.287002563476562 24.073410034179688 23.891952514648438 23.699722290039062 23.523941040039062 23.362701416015625 23.186798095703125 23.032516479492188 22.887222290039062 22.731063842773438 22.5849609375 22.44757080078125 22.321334838867188 22.201751708984375 22.079879760742188 21.96075439453125 21.84515380859375 21.736068725585938 21.632064819335938 21.524765014648438 21.425888061523438 21.34613037109375 21.2601318359375 21.167633056640625 21.083831787109375 21.004043579101562 20.933319091796875 20.861968994140625 20.781814575195312 20.715194702148438 20.64935302734375 20.589996337890625 20.533187866210938 20.468841552734375 20.422714233398438 20.366958618164062 20.31793212890625 20.261276245117188 20.21685791015625 20.175048828125 20.1278076171875 20.094146728515625 20.049209594726562 20.00921630859375 19.983779907226562 19.952407836914062 19.920120239257812 19.882278442382812 19.868209838867188 19.843032836914062 19.814239501953125 19.795547485351562 19.76123046875 19.740188598632812 19.717025756835938 19.699539184570312 19.684341430664062 19.6607666015625 19.653900146484375 19.63592529296875 19.619277954101562 19.603378295898438 19.59173583984375 19.581924438476562 19.561721801757812 19.556442260742188 19.551071166992188 19.532882690429688 19.527862548828125 19.521530151367188 19.51263427734375 19.50634765625 19.509017944335938 19.501983642578125 19.4976806640625 19.48681640625 19.494873046875 19.48602294921875 19.61865234375 19.63763427734375 19.673828125 19.702484130859375 19.71710205078125
55500 LossesBy500 -0.001962152309715748 -0.009728532284498215 -0.01142379455268383 -0.012250889092683792 -0.012798040173947811 -0.013311991468071938 -0.013684398494660854 -0.013999550603330135 -0.014276980422437191 -0.014539002440869808 -0.014787290245294571 -0.015023930929601192 -0.015253668650984764 -0.015466555021703243 -0.015680568292737007 -0.015881797298789024 -0.016075346618890762 -0.01625967212021351 -0.016444411128759384 -0.01661454513669014 -0.01678382232785225 -0.016944296658039093 -0.0171042587608099 -0.0172572024166584 -0.017404919490218163 -0.017542101442813873 -0.01768382638692856 -0.017813069745898247 -0.017948875203728676 -0.018071308732032776 -0.01818663440644741 -0.018305104225873947 -0.018420210108160973 -0.018528860062360764 -0.0186331644654274 -0.018739433959126472 -0.01883607544004917 -0.018932921811938286 -0.019025497138500214 -0.019118811935186386 -0.019207768142223358 -0.019290771335363388 -0.019372479990124702 -0.019454265013337135 -0.01953093335032463 -0.019610436633229256 -0.01968286745250225 -0.019756102934479713 -0.01982421986758709 -0.019886109977960587 -0.01995212398469448 -0.020021717995405197 -0.020083874464035034 -0.020137328654527664 -0.02020237408578396 -0.020259182900190353 -0.02031014673411846 -0.020367933437228203 -0.020418377593159676 -0.020471855998039246 -0.02052273042500019 -0.020569706335663795 -0.020614078268408775 -0.020658183842897415 -0.020708562806248665 -0.020750604569911957 -0.020792774856090546 -0.020828204229474068 -0.02087411656975746 -0.02091240882873535 -0.02095121704041958 -0.020988095551729202 -0.021021287888288498 -0.021061478182673454 -0.02109081670641899 -0.021123817190527916 -0.021156925708055496 -0.021189115941524506 -0.021218275651335716 -0.021246494725346565 -0.021281197667121887 -0.021308213472366333 -0.021339595317840576 -0.02136523276567459 -0.02138926088809967 -0.021417122334241867 -0.021442297846078873 -0.02146999165415764 -0.02149229496717453 -0.021513858810067177 -0.021540332585573196 -0.021562498062849045 -0.021584251895546913 -0.021608170121908188 -0.021629437804222107 -0.021652208641171455 -0.021666312590241432 -0.021689938381314278 -0.021708834916353226 -0.02172873541712761 -0.02174229919910431 -0.02175919897854328 -0.02178046479821205 -0.021798215806484222 -0.021816320717334747 -0.02183370850980282 -0.021719517186284065 -0.021712882444262505 -0.02171391248703003 -0.02171710692346096 -0.021719500422477722
log_motor_var 	 [4.282163619995117]
sigma_logit 	 [-3.7284622192382812, -4.688228607177734]
mixture_logit 	 [-4.103514671325684]
prior 	 [0.29401224851608276, 0.2817651927471161, 0.27326545119285583, 0.2686704695224762, 0.2679138779640198, 0.2706116735935211, 0.27598971128463745, 0.28298357129096985, 0.29044392704963684, 0.2973887026309967, 0.3031545877456665, 0.3074530363082886, 0.31029751896858215, 0.31196892261505127, 0.3130044639110565, 0.3142463266849518, 0.316850870847702, 0.32227128744125366, 0.3321039378643036, 0.34790483117103577, 0.37085655331611633, 0.4014187157154083, 0.43915432691574097, 0.48269668221473694, 0.5299311876296997, 0.5783803462982178, 0.6256665587425232, 0.669868528842926, 0.7096289396286011, 0.7442896366119385, 0.773848831653595, 0.7989742159843445, 0.8207535147666931, 0.8403559923171997, 0.8585994839668274, 0.8756881952285767, 0.8912864923477173, 0.9047384262084961, 0.9154744744300842, 0.923091471195221, 0.927460253238678, 0.9285986423492432, 0.9265433549880981, 0.9213185906410217, 0.9129571318626404, 0.9014739394187927, 0.8869267702102661, 0.8694036602973938, 0.8490046262741089, 0.8258760571479797, 0.8001552224159241, 0.7719880938529968, 0.7415599226951599, 0.7091054320335388, 0.6748913526535034, 0.6393857002258301, 0.6032471060752869, 0.5674194693565369, 0.53314608335495, 0.5018861889839172, 0.4751846492290497, 0.4545228183269501, 0.44114139676094055, 0.43589484691619873, 0.43912869691848755, 0.4505262076854706, 0.46899762749671936, 0.49280786514282227, 0.5197832584381104, 0.5475369691848755, 0.5736455917358398, 0.5958923101425171, 0.6123197078704834, 0.6213168501853943, 0.6215845942497253, 0.6122601628303528, 0.5930096507072449, 0.5639877319335938, 0.5258607864379883, 0.47964954376220703, 0.4266260862350464, 0.36820128560066223, 0.30583876371383667, 0.2409106343984604, 0.1746005415916443, 0.10783441364765167, 0.04122129827737808, -0.024922655895352364, -0.09050113707780838, -0.15554317831993103, -0.2201307862997055, -0.2843905985355377, -0.348513126373291, -0.4127998948097229, -0.47768354415893555, -0.5436669588088989, -0.6112286448478699, -0.6807258725166321, -0.7522248029708862, -0.8254246115684509, -0.8996115326881409, -0.9736959934234619, -1.0462802648544312, -1.115759015083313, -1.1803863048553467, -1.2386008501052856, -1.288963794708252, -1.33051598072052, -1.3627384901046753, -1.3856096267700195, -1.399533987045288, -1.4051754474639893, -1.4031909704208374, -1.394110083580017, -1.378413438796997, -1.3566384315490723, -1.3296051025390625, -1.2984504699707031, -1.264500617980957, -1.2290390729904175, -1.1932770013809204, -1.1580950021743774, -1.1241114139556885, -1.0916502475738525, -1.0607284307479858, -1.0310746431350708, -1.002211570739746, -0.9733660221099854, -0.9437093138694763, -0.912443995475769, -0.8790076971054077, -0.8432050347328186, -0.8053497672080994, -0.7661362290382385, -0.7265803217887878, -0.68781578540802, -0.6509989500045776, -0.6171034574508667, -0.5869104862213135, -0.5608853101730347, -0.539072573184967, -0.5212118029594421, -0.5067564845085144, -0.4948468804359436, -0.4844416677951813, -0.47433680295944214, -0.46319568157196045, -0.44965994358062744, -0.4324573278427124, -0.4104807674884796, -0.38289469480514526, -0.3492453098297119, -0.30958181619644165, -0.2644238770008087, -0.21472524106502533, -0.16171899437904358, -0.10675319284200668, -0.05113755911588669, 0.004058395978063345, 0.058162279427051544, 0.11086206138134003, 0.16203390061855316, 0.21152959764003754, 0.259010910987854, 0.303884893655777, 0.34526190161705017, 0.38204869627952576, 0.4130292534828186, 0.4370482861995697, 0.45314261317253113, 0.46075698733329773, 0.45995527505874634, 0.45150014758110046, 0.4367596507072449, 0.4174535274505615, 0.3953889310359955, 0.37226808071136475, 0.3495680093765259, 0.328435480594635, 0.30971789360046387]
volume 	 [0.28134891390800476, 0.25079819560050964, 0.2251381278038025, 0.20360292494297028, 0.17175687849521637, 0.13418592512607574, 0.0942615494132042, 0.052408087998628616, 0.017593709751963615, -0.012411673553287983, -0.03555389493703842, -0.053239528089761734, -0.059681326150894165, -0.050957538187503815, -0.029428210109472275, -0.008075663819909096, 0.01601910963654518, 0.04326283931732178, 0.08304744213819504, 0.12930935621261597, 0.17502127587795258, 0.21828383207321167, 0.2595575749874115, 0.29099389910697937, 0.3173666000366211, 0.34511253237724304, 0.37438446283340454, 0.40625497698783875, 0.43181243538856506, 0.4430573582649231, 0.4406467378139496, 0.4298250079154968, 0.4104907810688019, 0.39221978187561035, 0.3691349923610687, 0.3283463418483734, 0.27909255027770996, 0.22574976086616516, 0.1660691648721695, 0.10718933492898941, 0.05767860263586044, 0.008968178182840347, -0.03917403146624565, -0.08330424129962921, -0.11389181017875671, -0.13464140892028809, -0.15067479014396667, -0.16679032146930695, -0.18380577862262726, -0.1970074325799942, -0.2077842801809311, -0.22419027984142303, -0.2470848262310028, -0.2798401713371277, -0.31254053115844727, -0.34404700994491577, -0.3664218485355377, -0.3731235861778259, -0.365070104598999, -0.3463195264339447, -0.3194468915462494, -0.28820571303367615, -0.2504994869232178, -0.20431846380233765, -0.1509154886007309, -0.10674577206373215, -0.07473400235176086, -0.05300172045826912, -0.04166492074728012, -0.04388583078980446, -0.045079272240400314, -0.04546813666820526, -0.03946888446807861, -0.033714283257722855, -0.033301133662462234, -0.036302581429481506, -0.04391369968652725, -0.04165693372488022, -0.03312445431947708, -0.026194412261247635, -0.020756078884005547, -0.010250326246023178, -0.0013804964255541563, -8.57160848681815e-05, -0.01125417836010456, -0.030919149518013, -0.05802473425865173, -0.08895212411880493, -0.11906205117702484, -0.15818899869918823, -0.20065206289291382, -0.24807825684547424, -0.2998599410057068, -0.3497679829597473, -0.39718443155288696, -0.4452873468399048, -0.49011650681495667, -0.5195672512054443, -0.5350187420845032, -0.5360156297683716, -0.5182387232780457, -0.48254016041755676, -0.4309026300907135, -0.3674764931201935, -0.2923702895641327, -0.21203233301639557, -0.12827211618423462, -0.04580315947532654, 0.025989757850766182, 0.07894035428762436, 0.10988754034042358, 0.1255684792995453, 0.13765767216682434, 0.15570971369743347, 0.18116328120231628, 0.2053665816783905, 0.22147206962108612, 0.22125573456287384, 0.216849684715271, 0.21233460307121277, 0.211547389626503, 0.21605709195137024, 0.23106858134269714, 0.244723841547966, 0.24978171288967133, 0.23402804136276245, 0.2015504688024521, 0.1515675038099289, 0.10018323361873627, 0.05055958777666092, 0.00032349518733099103, -0.0509655699133873, -0.09294521063566208, -0.1272563636302948, -0.15395702421665192, -0.16733066737651825, -0.17633141577243805, -0.18416374921798706, -0.18493711948394775, -0.1713460087776184, -0.14883258938789368, -0.12758512794971466, -0.10413175076246262, -0.0807139128446579, -0.06362921744585037, -0.05227544903755188, -0.03982970491051674, -0.0341302752494812, -0.030255259945988655, -0.023568416014313698, -0.011910040862858295, -0.002578819403424859, 0.0021294793114066124, -0.0026031211018562317, -0.010104404762387276, -0.018237190321087837, -0.0305928997695446, -0.05212722718715668, -0.07275478541851044, -0.08660510182380676, -0.09207377582788467, -0.09218132495880127, -0.08936680108308792, -0.08476395159959793, -0.07345972210168839, -0.053123097866773605, -0.022224336862564087, 0.028643565252423286, 0.09950871765613556, 0.18848909437656403, 0.28069329261779785, 0.3544590175151825, 0.4019792079925537, 0.42735353112220764, 0.4351695775985718, 0.43256595730781555, 0.4144039452075958, 0.39178237318992615, 0.3648904263973236, 0.31861308217048645]
