-0.02053787000477314 CrossValid 4.9095306396484375 CrossValidLossesBy500 35.88157653808594 26.739410400390625 25.016860961914062 23.698471069335938 22.525375366210938 21.744415283203125 21.204116821289062 20.740447998046875 20.29827880859375 19.885101318359375 19.47265625 19.079010009765625 18.673873901367188 18.285964965820312 17.9317626953125 17.551361083984375 17.202407836914062 16.851730346679688 16.502639770507812 16.17132568359375 15.846282958984375 15.531600952148438 15.22381591796875 14.931655883789062 14.65191650390625 14.360626220703125 14.08514404296875 13.8092041015625 13.541244506835938 13.311355590820312 13.065155029296875 12.828948974609375 12.606292724609375 12.369216918945312 12.149581909179688 11.937667846679688 11.730926513671875 11.529678344726562 11.323760986328125 11.135543823242188 10.9403076171875 10.770828247070312 10.58795166015625 10.403900146484375 10.230255126953125 10.076797485351562 9.9129638671875 9.758987426757812 9.598922729492188 9.444717407226562 9.294387817382812 9.15057373046875 9.016143798828125 8.887771606445312 8.749221801757812 8.626708984375 8.486892700195312 8.357696533203125 8.245208740234375 8.116058349609375 7.995391845703125 7.8885650634765625 7.7842559814453125 7.6743621826171875 7.5595550537109375 7.4676971435546875 7.3659210205078125 7.2533111572265625 7.156097412109375 7.049652099609375 6.9701080322265625 6.876373291015625 6.787200927734375 6.703643798828125 6.6224365234375 6.532806396484375 6.455841064453125 6.3743743896484375 6.276458740234375 6.2037353515625 6.1330108642578125 6.050079345703125 5.9760589599609375 5.90899658203125 5.8293609619140625 5.7624969482421875 5.694610595703125 5.63031005859375 5.5662078857421875 5.494781494140625 5.432708740234375 5.3729095458984375 5.309326171875 5.2376861572265625 5.1853485107421875 5.1300201416015625 5.06854248046875 5.012664794921875 4.9589996337890625 4.9074249267578125 5.114959716796875 5.0742034912109375 5.0029296875 4.9428863525390625 4.9095306396484375
52500 LossesBy500 -0.001060969429090619 -0.00906292162835598 -0.010741084814071655 -0.011553531512618065 -0.012210078537464142 -0.0126492353156209 -0.013004347681999207 -0.013309628702700138 -0.013590862043201923 -0.013851734809577465 -0.014098689891397953 -0.01433390099555254 -0.014554332010447979 -0.014771917834877968 -0.014976730570197105 -0.015175526030361652 -0.015369896776974201 -0.015556192956864834 -0.015733977779746056 -0.015903977677226067 -0.01606694608926773 -0.016228700056672096 -0.01638093590736389 -0.016524989157915115 -0.016672171652317047 -0.016808435320854187 -0.016938384622335434 -0.01707187108695507 -0.01719745807349682 -0.01731630600988865 -0.017429877072572708 -0.017542419955134392 -0.017649780958890915 -0.017756320536136627 -0.01785184256732464 -0.017948713153600693 -0.018049564212560654 -0.018139179795980453 -0.018229618668556213 -0.018315739929676056 -0.018394557759165764 -0.018473481759428978 -0.01855561137199402 -0.018630584701895714 -0.01870197243988514 -0.018769139423966408 -0.018838031217455864 -0.018908891826868057 -0.01897100917994976 -0.019032329320907593 -0.01909593492746353 -0.01915642060339451 -0.019211091101169586 -0.019267292693257332 -0.019315386191010475 -0.019368484616279602 -0.019421987235546112 -0.01947314292192459 -0.0195169635117054 -0.019567977637052536 -0.01961108297109604 -0.019657636061310768 -0.019695574417710304 -0.019736018031835556 -0.01977776363492012 -0.019817914813756943 -0.01985589973628521 -0.019891299307346344 -0.01992686092853546 -0.019960014149546623 -0.01999877579510212 -0.02002650871872902 -0.020059049129486084 -0.02009449154138565 -0.020122211426496506 -0.020150721073150635 -0.02017888054251671 -0.020207563415169716 -0.020235726609826088 -0.020266303792595863 -0.02029043808579445 -0.020313527435064316 -0.020341966301202774 -0.020365891978144646 -0.020389188081026077 -0.020410001277923584 -0.020429186522960663 -0.02045295014977455 -0.02047615684568882 -0.020497925579547882 -0.020516153424978256 -0.02053315006196499 -0.020553849637508392 -0.02057816833257675 -0.02059555985033512 -0.02060772106051445 -0.02063159830868244 -0.020648518577218056 -0.020662205293774605 -0.020676329731941223 -0.020537585020065308 -0.020532963797450066 -0.020536214113235474 -0.02053864300251007 -0.02053787000477314
log_motor_var 	 [4.294023513793945]
sigma_logit 	 [-3.728036403656006, -4.677211284637451]
mixture_logit 	 [-4.09975528717041]
prior 	 [0.28599339723587036, 0.2679468095302582, 0.2539346218109131, 0.24381586909294128, 0.23736080527305603, 0.23422570526599884, 0.23390184342861176, 0.23571129143238068, 0.2389059215784073, 0.2428257167339325, 0.24702470004558563, 0.2512960433959961, 0.255630224943161, 0.2601828873157501, 0.2652897834777832, 0.27150946855545044, 0.2796424925327301, 0.29070186614990234, 0.30585137009620667, 0.32621464133262634, 0.3526456952095032, 0.3854963183403015, 0.4243799149990082, 0.4681415259838104, 0.5149607062339783, 0.5626453161239624, 0.6089889407157898, 0.6520857810974121, 0.6906723380088806, 0.7242196798324585, 0.7530146837234497, 0.7780091166496277, 0.8004833459854126, 0.8215696811676025, 0.8417276740074158, 0.860603392124176, 0.8772273659706116, 0.8905492424964905, 0.8999663591384888, 0.9054158926010132, 0.9072808623313904, 0.9060080051422119, 0.9019232988357544, 0.8951473236083984, 0.8856731057167053, 0.8733587861061096, 0.8580564260482788, 0.8396076560020447, 0.8178805112838745, 0.7927848696708679, 0.7642452716827393, 0.7322624921798706, 0.6969450116157532, 0.6585776209831238, 0.6176146268844604, 0.5747718811035156, 0.5310431718826294, 0.4876812994480133, 0.4462119936943054, 0.4082934260368347, 0.37559524178504944, 0.34963634610176086, 0.33163776993751526, 0.3223622441291809, 0.32202357053756714, 0.3301360011100769, 0.34541767835617065, 0.36591073870658875, 0.3892168700695038, 0.4127950370311737, 0.4342471957206726, 0.45160913467407227, 0.4633561074733734, 0.46843093633651733, 0.46616336703300476, 0.4562312960624695, 0.4387057423591614, 0.41395488381385803, 0.3826432228088379, 0.3455798029899597, 0.30362075567245483, 0.2576598823070526, 0.20854653418064117, 0.1570347547531128, 0.10375618189573288, 0.049198441207408905, -0.0063067893497645855, -0.06255777925252914, -0.1194356232881546, -0.17686249315738678, -0.23477798700332642, -0.29316359758377075, -0.3520742654800415, -0.4116838872432709, -0.4722989797592163, -0.5342970490455627, -0.5980825424194336, -0.6639207005500793, -0.7318483591079712, -0.8015920519828796, -0.8724689483642578, -0.9434912800788879, -1.0133267641067505, -1.08042311668396, -1.1431185007095337, -1.199715495109558, -1.2487152814865112, -1.2888306379318237, -1.3192514181137085, -1.3396821022033691, -1.3503572940826416, -1.3518669605255127, -1.3450348377227783, -1.3307139873504639, -1.3097765445709229, -1.283251166343689, -1.2524076700210571, -1.2187427282333374, -1.1838526725769043, -1.1492582559585571, -1.1160801649093628, -1.084996223449707, -1.0562310218811035, -1.029561161994934, -1.0043166875839233, -0.9795619249343872, -0.9541878700256348, -0.9270703196525574, -0.8972477912902832, -0.8640685081481934, -0.8273177742958069, -0.7872578501701355, -0.7446367144584656, -0.7005248665809631, -0.6561688780784607, -0.6128777265548706, -0.571848452091217, -0.5340174436569214, -0.5001031756401062, -0.47044989466667175, -0.4450870454311371, -0.423758864402771, -0.40600380301475525, -0.3911632001399994, -0.3784129321575165, -0.3667808175086975, -0.3551675081253052, -0.34236279129981995, -0.3271802067756653, -0.30847129225730896, -0.2853001058101654, -0.257019579410553, -0.2234240621328354, -0.18472443521022797, -0.14149676263332367, -0.09455464780330658, -0.04481104388833046, 0.0068679857067763805, 0.05982092022895813, 0.1136397272348404, 0.16807593405246735, 0.22283895313739777, 0.27739253640174866, 0.33081185817718506, 0.38175809383392334, 0.42853844165802, 0.46930038928985596, 0.5022320747375488, 0.5257821679115295, 0.5388798713684082, 0.5411233305931091, 0.5329376459121704, 0.515580415725708, 0.49092647433280945, 0.46119749546051025, 0.42869099974632263, 0.39555051922798157, 0.3635824918746948, 0.3341425955295563, 0.3081187903881073]
volume 	 [0.28215292096138, 0.2536739706993103, 0.23107755184173584, 0.2175876796245575, 0.1950739026069641, 0.16765502095222473, 0.13331615924835205, 0.09034572541713715, 0.043682925403118134, 0.0021261735819280148, -0.02909015864133835, -0.05192830041050911, -0.06199569255113602, -0.05474831163883209, -0.02904016524553299, 0.0008716578595340252, 0.03291274607181549, 0.06775444000959396, 0.10802056640386581, 0.15192542970180511, 0.19425468146800995, 0.2323186993598938, 0.2677367627620697, 0.2976771891117096, 0.33419284224510193, 0.3686746656894684, 0.402339369058609, 0.428823322057724, 0.44857099652290344, 0.4566381275653839, 0.4547862410545349, 0.4481143355369568, 0.4311147630214691, 0.40813276171684265, 0.37963226437568665, 0.3344742953777313, 0.2801547050476074, 0.2201559841632843, 0.15499383211135864, 0.09439505636692047, 0.04882029443979263, 0.00802515633404255, -0.0326094776391983, -0.07287389785051346, -0.10163309425115585, -0.1223287358880043, -0.14192992448806763, -0.16359983384609222, -0.18582165241241455, -0.20376688241958618, -0.22018037736415863, -0.24137701094150543, -0.2684207856655121, -0.3023888170719147, -0.3346833884716034, -0.36130189895629883, -0.38013315200805664, -0.3844577968120575, -0.3764541447162628, -0.36132434010505676, -0.3393803834915161, -0.31252482533454895, -0.2802896201610565, -0.23937523365020752, -0.18667742609977722, -0.13993489742279053, -0.10114216804504395, -0.07484833896160126, -0.05967146158218384, -0.06041302531957626, -0.06299526244401932, -0.06290645897388458, -0.05560207739472389, -0.0511600598692894, -0.05130638927221298, -0.055779650807380676, -0.06204322353005409, -0.0608503483235836, -0.05584971606731415, -0.050706956535577774, -0.044892385601997375, -0.03740844875574112, -0.031232524663209915, -0.03195447474718094, -0.045746635645627975, -0.06480766087770462, -0.08811389654874802, -0.11572668701410294, -0.1422991007566452, -0.17722725868225098, -0.21625494956970215, -0.2592553198337555, -0.30681657791137695, -0.35315123200416565, -0.39755579829216003, -0.44602227210998535, -0.4947000741958618, -0.5289846062660217, -0.5483186841011047, -0.5528626441955566, -0.5371946692466736, -0.5046489238739014, -0.4546889364719391, -0.39314475655555725, -0.3181421160697937, -0.23473694920539856, -0.14688773453235626, -0.060019586235284805, 0.018088242039084435, 0.08102083206176758, 0.12124054878950119, 0.1367470622062683, 0.14518003165721893, 0.1590811163187027, 0.18255898356437683, 0.20689167082309723, 0.22937902808189392, 0.23990832269191742, 0.2428809106349945, 0.239207461476326, 0.23332694172859192, 0.23046213388442993, 0.2335990071296692, 0.2370280623435974, 0.2358916997909546, 0.21919718384742737, 0.19070976972579956, 0.14431653916835785, 0.09776599705219269, 0.04906987026333809, 0.000331230228766799, -0.049409132450819016, -0.09434255212545395, -0.13382907211780548, -0.16490961611270905, -0.17917579412460327, -0.18318693339824677, -0.18092308938503265, -0.1706806719303131, -0.14556707441806793, -0.11498214304447174, -0.09173201769590378, -0.0699661448597908, -0.0515083409845829, -0.038881368935108185, -0.033855900168418884, -0.029205065220594406, -0.03347227722406387, -0.036307159811258316, -0.03232579678297043, -0.021017415449023247, -0.013983175158500671, -0.011097688227891922, -0.01499763410538435, -0.02169855125248432, -0.028897380456328392, -0.04279440641403198, -0.06003780663013458, -0.07581743597984314, -0.08534505218267441, -0.08642452210187912, -0.0807085931301117, -0.06812436878681183, -0.051660411059856415, -0.030000869184732437, -0.00362504948861897, 0.029186982661485672, 0.07876953482627869, 0.14423243701457977, 0.22443163394927979, 0.30308476090431213, 0.3655564785003662, 0.4041510820388794, 0.42565566301345825, 0.4371832311153412, 0.43812572956085205, 0.4229028522968292, 0.40121757984161377, 0.36906272172927856, 0.31975480914115906]
