0.013692891225218773 CrossValid 35.990623474121094 CrossValidLossesBy500 79.54240417480469 75.86498260498047 73.33883666992188 70.99795532226562 68.77288055419922 66.66133880615234 64.65685272216797 62.67536163330078 60.79200744628906 59.03148651123047 57.418853759765625 55.90031433105469 54.4935302734375 53.23204803466797 52.029815673828125 50.94293975830078 49.94891357421875 49.00871276855469 48.15625762939453 47.35853576660156 46.621315002441406 45.98260498046875 45.29681396484375 44.72472381591797 44.17267608642578 43.641441345214844 43.19989013671875 42.779457092285156 42.313812255859375 41.92078399658203 41.62312316894531 41.234130859375 40.94047546386719 40.623069763183594 40.39704895019531 40.142547607421875 39.90721130371094 39.66687774658203 39.432708740234375 39.197669982910156 39.00791931152344 38.82942199707031 38.665809631347656 38.517852783203125 38.36940002441406 38.21147155761719 38.013832092285156 37.89634704589844 37.767913818359375 37.706886291503906 37.58894348144531 37.47099304199219 37.33726501464844 37.266136169433594 37.16181945800781 37.04185485839844 36.94892883300781 36.894615173339844 36.814117431640625 36.78326416015625 36.70500946044922 36.640045166015625 36.571815490722656 36.47792053222656 36.433685302734375 36.375244140625 36.32316589355469 36.27241516113281 36.23686218261719 36.18871307373047 36.138519287109375 36.127105712890625 36.11176300048828 36.10108947753906 36.07678985595703 36.037193298339844 36.028465270996094 36.05552673339844 36.03095245361328 36.004981994628906 36.03242492675781 35.990623474121094
41000 LossesBy500 0.033079471439123154 0.031042607501149178 0.029793094843626022 0.0286802239716053 0.027645966038107872 0.026681292802095413 0.025775540620088577 0.024886902421712875 0.024044500663876534 0.02325904369354248 0.02253664657473564 0.021880418062210083 0.021274611353874207 0.020705124363303185 0.020192459225654602 0.01972513273358345 0.019297366961836815 0.018903415650129318 0.01853403076529503 0.01820385456085205 0.01789282076060772 0.0176255963742733 0.017344987019896507 0.017106300219893456 0.016890423372387886 0.016663817688822746 0.016493745148181915 0.0162966325879097 0.016125943511724472 0.015972720459103584 0.01584087312221527 0.015684977173805237 0.015586310997605324 0.015471789054572582 0.015351347625255585 0.015233310870826244 0.015138710848987103 0.015065418556332588 0.014965281821787357 0.01491056103259325 0.01482272706925869 0.014749595895409584 0.014675073325634003 0.014621966518461704 0.014569696970283985 0.014512697234749794 0.01444194559007883 0.014398428611457348 0.014365333132445812 0.01430494338274002 0.014246506616473198 0.014228836633265018 0.014199458062648773 0.014140089973807335 0.014117724262177944 0.014084618538618088 0.014041450805962086 0.014010543003678322 0.013981818221509457 0.01397053524851799 0.013936478644609451 0.013918362557888031 0.013880123384296894 0.013840299099683762 0.013842490501701832 0.013826334848999977 0.013806531205773354 0.013783412054181099 0.013756103813648224 0.013752591796219349 0.013748051598668098 0.01372511126101017 0.013730107806622982 0.013730417005717754 0.013709496706724167 0.01371264923363924 0.013685735873878002 0.013703132048249245 0.01370490062981844 0.013698980212211609 0.013684562407433987 0.013692891225218773
log_motor_var 	 [5.800509929656982]
sigma_logit 	 [-3.430229425430298, -4.183178424835205]
mixture_logit 	 [-4.030241012573242]
prior 	 [0.0024768076837062836, -0.022844858467578888, -0.04917096719145775, -0.07538068294525146, -0.10059569776058197, -0.12417260557413101, -0.145639568567276, -0.16466468572616577, -0.1810741275548935, -0.19486817717552185, -0.206254780292511, -0.21559932827949524, -0.2234005182981491, -0.23017416894435883, -0.23632949590682983, -0.24208392202854156, -0.24744312465190887, -0.25216951966285706, -0.255851686000824, -0.25791239738464355, -0.25766414403915405, -0.25428307056427, -0.2469029724597931, -0.23456035554409027, -0.21634416282176971, -0.19147147238254547, -0.15944837033748627, -0.12015119194984436, -0.07394246757030487, -0.02161741815507412, 0.03566715866327286, 0.09651947021484375, 0.1594722867012024, 0.22313165664672852, 0.2862912118434906, 0.3480544984340668, 0.40783700346946716, 0.46540310978889465, 0.5208728313446045, 0.57450270652771, 0.6266666650772095, 0.6776172518730164, 0.7273089289665222, 0.7753919959068298, 0.8212846517562866, 0.8643244504928589, 0.9038601517677307, 0.9393009543418884, 0.9703046679496765, 0.996766984462738, 1.0186372995376587, 1.0361378192901611, 1.049410104751587, 1.058572769165039, 1.0637630224227905, 1.065161108970642, 1.0630401372909546, 1.0576974153518677, 1.0495928525924683, 1.0394213199615479, 1.028063178062439, 1.01608145236969, 1.0040619373321533, 0.9922373294830322, 0.980518102645874, 0.9684572219848633, 0.9553964734077454, 0.940666675567627, 0.9236473441123962, 0.9039385914802551, 0.8814405202865601, 0.8562337756156921, 0.8286507725715637, 0.7992675304412842, 0.7686095237731934, 0.7373536825180054, 0.706091582775116, 0.6753482818603516, 0.6455430388450623, 0.6170196533203125, 0.5899530053138733, 0.5643845200538635, 0.5401636362075806, 0.5169324278831482, 0.49412664771080017, 0.47097891569137573, 0.446540504693985, 0.4197516441345215, 0.3897072970867157, 0.35564878582954407, 0.31714698672294617, 0.2740420699119568, 0.2264062464237213, 0.17449834942817688, 0.11867419630289078, 0.059395335614681244, -0.0027741375379264355, -0.06723344326019287, -0.1334785670042038, -0.2012168914079666, -0.27046215534210205, -0.341424822807312, -0.41444700956344604, -0.48978444933891296, -0.567461371421814, -0.6473062634468079, -0.7288809418678284, -0.811579167842865, -0.8947718143463135, -0.9778041243553162, -1.0598697662353516, -1.1398502588272095, -1.2165580987930298, -1.2882953882217407, -1.353385090827942, -1.4101463556289673, -1.4570409059524536, -1.4930286407470703, -1.5174458026885986, -1.5299791097640991, -1.5307153463363647, -1.5200070142745972, -1.4983948469161987, -1.4664857387542725, -1.4250081777572632, -1.3747708797454834, -1.3166934251785278, -1.25178062915802, -1.1810652017593384, -1.1055877208709717, -1.026089072227478, -0.9433184862136841, -0.8579443693161011, -0.7707478404045105, -0.6826279759407043, -0.59478759765625, -0.5086246728897095, -0.4255704879760742, -0.347082257270813, -0.2742243707180023, -0.20768322050571442, -0.1476413905620575, -0.0939752459526062, -0.04637269303202629, -0.004573944490402937, 0.03148871287703514, 0.06164238974452019, 0.08554881811141968, 0.10283719748258591, 0.11328834295272827, 0.11692889779806137, 0.11409437656402588, 0.1054193452000618, 0.0917973518371582, 0.0743088498711586, 0.05415599048137665, 0.03258370980620384, 0.010780111886560917, -0.010203735902905464, -0.029514705762267113, -0.04650786519050598, -0.06070644035935402, -0.07173097133636475, -0.07921411842107773, -0.08275987952947617, -0.08196303248405457, -0.07648801058530807, -0.06622070074081421, -0.05140635371208191, -0.03278316184878349, -0.011626062914729118, 0.010327775962650776, 0.031059203669428825, 0.048532381653785706, 0.060977622866630554, 0.06711889803409576, 0.06632322072982788, 0.05861123278737068, 0.044618867337703705, 0.025448216125369072]
volume 	 [0.0, 0.0, 0.0, 0.0, 0.0, 0.0, 0.0, 0.0, 0.0, 0.0, 0.0, 0.0, 0.0, 0.0, 0.0, 0.0, 0.0, 0.0, 0.0, 0.0, 0.0, 0.0, 0.0, 0.0, 0.0, 0.0, 0.0, 0.0, 0.0, 0.0, 0.0, 0.0, 0.0, 0.0, 0.0, 0.0, 0.0, 0.0, 0.0, 0.0, 0.0, 0.0, 0.0, 0.0, 0.0, 0.0, 0.0, 0.0, 0.0, 0.0, 0.0, 0.0, 0.0, 0.0, 0.0, 0.0, 0.0, 0.0, 0.0, 0.0, 0.0, 0.0, 0.0, 0.0, 0.0, 0.0, 0.0, 0.0, 0.0, 0.0, 0.0, 0.0, 0.0, 0.0, 0.0, 0.0, 0.0, 0.0, 0.0, 0.0, 0.0, 0.0, 0.0, 0.0, 0.0, 0.0, 0.0, 0.0, 0.0, 0.0, 0.0, 0.0, 0.0, 0.0, 0.0, 0.0, 0.0, 0.0, 0.0, 0.0, 0.0, 0.0, 0.0, 0.0, 0.0, 0.0, 0.0, 0.0, 0.0, 0.0, 0.0, 0.0, 0.0, 0.0, 0.0, 0.0, 0.0, 0.0, 0.0, 0.0, 0.0, 0.0, 0.0, 0.0, 0.0, 0.0, 0.0, 0.0, 0.0, 0.0, 0.0, 0.0, 0.0, 0.0, 0.0, 0.0, 0.0, 0.0, 0.0, 0.0, 0.0, 0.0, 0.0, 0.0, 0.0, 0.0, 0.0, 0.0, 0.0, 0.0, 0.0, 0.0, 0.0, 0.0, 0.0, 0.0, 0.0, 0.0, 0.0, 0.0, 0.0, 0.0, 0.0, 0.0, 0.0, 0.0, 0.0, 0.0, 0.0, 0.0, 0.0, 0.0, 0.0, 0.0, 0.0, 0.0, 0.0, 0.0, 0.0, 0.0]
