-0.012915699742734432 CrossValid -4.2132568359375 CrossValidLossesBy500 15.617874145507812 3.9622802734375 2.737274169921875 1.6162872314453125 0.2098846435546875 -1.033966064453125 -1.9553070068359375 -2.60888671875 -3.072906494140625 -3.39703369140625 -3.6334381103515625 -3.8030548095703125 -3.921661376953125 -4.013275146484375 -4.07745361328125 -4.1208953857421875 -4.1583404541015625 -4.177093505859375 -4.199737548828125 -4.2027587890625 -4.210601806640625 -4.20977783203125 -4.2135009765625 -4.2132568359375
12000 LossesBy500 0.00041785265784710646 -0.007608635816723108 -0.009272376075387001 -0.010118858888745308 -0.010776489041745663 -0.011293349787592888 -0.01168789342045784 -0.011987085454165936 -0.012212675996124744 -0.012385699898004532 -0.01251832116395235 -0.012618597596883774 -0.01269637793302536 -0.012756814248859882 -0.012802168726921082 -0.01283414289355278 -0.012861053459346294 -0.012880777940154076 -0.01289457082748413 -0.012903557159006596 -0.012907427735626698 -0.012912516482174397 -0.012912454083561897 -0.012915699742734432
log_motor_var 	 [3.7729480266571045]
sigma_logit 	 [-4.049770355224609, -5.325257301330566]
mixture_logit 	 [-4.0874223709106445]
prior 	 [0.0, 0.0, 0.0, 0.0, 0.0, 0.0, 0.0, 0.0, 0.0, 0.0, 0.0, 0.0, 0.0, 0.0, 0.0, 0.0, 0.0, 0.0, 0.0, 0.0, 0.0, 0.0, 0.0, 0.0, 0.0, 0.0, 0.0, 0.0, 0.0, 0.0, 0.0, 0.0, 0.0, 0.0, 0.0, 0.0, 0.0, 0.0, 0.0, 0.0, 0.0, 0.0, 0.0, 0.0, 0.0, 0.0, 0.0, 0.0, 0.0, 0.0, 0.0, 0.0, 0.0, 0.0, 0.0, 0.0, 0.0, 0.0, 0.0, 0.0, 0.0, 0.0, 0.0, 0.0, 0.0, 0.0, 0.0, 0.0, 0.0, 0.0, 0.0, 0.0, 0.0, 0.0, 0.0, 0.0, 0.0, 0.0, 0.0, 0.0, 0.0, 0.0, 0.0, 0.0, 0.0, 0.0, 0.0, 0.0, 0.0, 0.0, 0.0, 0.0, 0.0, 0.0, 0.0, 0.0, 0.0, 0.0, 0.0, 0.0, 0.0, 0.0, 0.0, 0.0, 0.0, 0.0, 0.0, 0.0, 0.0, 0.0, 0.0, 0.0, 0.0, 0.0, 0.0, 0.0, 0.0, 0.0, 0.0, 0.0, 0.0, 0.0, 0.0, 0.0, 0.0, 0.0, 0.0, 0.0, 0.0, 0.0, 0.0, 0.0, 0.0, 0.0, 0.0, 0.0, 0.0, 0.0, 0.0, 0.0, 0.0, 0.0, 0.0, 0.0, 0.0, 0.0, 0.0, 0.0, 0.0, 0.0, 0.0, 0.0, 0.0, 0.0, 0.0, 0.0, 0.0, 0.0, 0.0, 0.0, 0.0, 0.0, 0.0, 0.0, 0.0, 0.0, 0.0, 0.0, 0.0, 0.0, 0.0, 0.0, 0.0, 0.0, 0.0, 0.0, 0.0, 0.0, 0.0, 0.0]
volume 	 [0.3748559355735779, 0.3454349935054779, 0.31773069500923157, 0.29111921787261963, 0.25657299160957336, 0.2177547961473465, 0.1808091104030609, 0.14373689889907837, 0.11014704406261444, 0.08143877983093262, 0.05888388678431511, 0.04128202795982361, 0.033895961940288544, 0.04370780289173126, 0.06972585618495941, 0.09598598629236221, 0.12411373108625412, 0.15314003825187683, 0.19121865928173065, 0.24017663300037384, 0.2913031280040741, 0.33686792850494385, 0.38302844762802124, 0.4238620400428772, 0.46098601818084717, 0.49843525886535645, 0.5324379801750183, 0.566378653049469, 0.598412036895752, 0.6153715252876282, 0.6227676272392273, 0.6187648773193359, 0.6028761267662048, 0.5877439379692078, 0.5689310431480408, 0.5279310941696167, 0.47295042872428894, 0.399705708026886, 0.309944212436676, 0.21580153703689575, 0.13066212832927704, 0.04922521114349365, -0.030165458098053932, -0.10172975808382034, -0.15548920631408691, -0.20060093700885773, -0.24124863743782043, -0.2844569683074951, -0.3236742317676544, -0.35830897092819214, -0.3884638845920563, -0.419844388961792, -0.45303744077682495, -0.4932588040828705, -0.5311914682388306, -0.5623193383216858, -0.5836201310157776, -0.5891541242599487, -0.5791440606117249, -0.5581495761871338, -0.5282791256904602, -0.4936627149581909, -0.45287230610847473, -0.405618280172348, -0.35169410705566406, -0.30443859100341797, -0.26544690132141113, -0.2339673936367035, -0.21272021532058716, -0.20480835437774658, -0.19743585586547852, -0.18758541345596313, -0.1733122020959854, -0.16083194315433502, -0.1550050526857376, -0.15282738208770752, -0.1535714864730835, -0.15036994218826294, -0.14702416956424713, -0.14470937848091125, -0.14149463176727295, -0.1323726326227188, -0.1218799576163292, -0.11711673438549042, -0.12845198810100555, -0.152787983417511, -0.18697622418403625, -0.22745221853256226, -0.26875266432762146, -0.3213740587234497, -0.37770310044288635, -0.43457168340682983, -0.4904748797416687, -0.5388993620872498, -0.57981276512146, -0.6177444458007812, -0.6515852808952332, -0.6676214337348938, -0.6682300567626953, -0.6550889611244202, -0.6234313249588013, -0.5767419338226318, -0.5164624452590942, -0.4479157626628876, -0.3688894808292389, -0.2847386300563812, -0.1961759477853775, -0.10542583465576172, -0.021678397431969643, 0.05568791180849075, 0.12279996275901794, 0.17600268125534058, 0.2240637093782425, 0.275905966758728, 0.3361269533634186, 0.390741229057312, 0.43022480607032776, 0.4485791027545929, 0.45459890365600586, 0.44847890734672546, 0.4363478720188141, 0.42013728618621826, 0.41034817695617676, 0.397993803024292, 0.3768995404243469, 0.34270501136779785, 0.30066120624542236, 0.24900968372821808, 0.20075853168964386, 0.1552693098783493, 0.10885783284902573, 0.05401010438799858, 0.0032488168217241764, -0.04249177873134613, -0.08136893808841705, -0.10308480262756348, -0.11654442548751831, -0.12503239512443542, -0.12744544446468353, -0.1149975135922432, -0.09599039703607559, -0.08339697867631912, -0.07376138865947723, -0.06595934927463531, -0.0633438304066658, -0.06466507911682129, -0.06415889412164688, -0.06927014142274857, -0.07327939569950104, -0.06989274173974991, -0.0600401908159256, -0.053602539002895355, -0.049574945122003555, -0.05185936763882637, -0.05431399866938591, -0.05555319786071777, -0.05966069921851158, -0.068612240254879, -0.07717269659042358, -0.08149386197328568, -0.08216597139835358, -0.07941495627164841, -0.07685652375221252, -0.0716816708445549, -0.05873357877135277, -0.03644021600484848, -0.0012766440631821752, 0.053211987018585205, 0.13082978129386902, 0.2286367416381836, 0.33072641491889954, 0.4133327007293701, 0.4647257328033447, 0.49528276920318604, 0.51441890001297, 0.5197980999946594, 0.5041061639785767, 0.48131629824638367, 0.45398423075675964, 0.40908366441726685]
