-0.011151477694511414 CrossValid -29.5777587890625 CrossValidLossesBy500 1.940704345703125 -15.338272094726562 -19.11187744140625 -20.990570068359375 -22.5224609375 -23.810928344726562 -24.859603881835938 -25.69940185546875 -26.380340576171875 -26.927978515625 -27.38043212890625 -27.749710083007812 -28.063674926757812 -28.31939697265625 -28.535797119140625 -28.724533081054688 -28.882125854492188 -29.011398315429688 -29.13238525390625 -29.225494384765625 -29.315200805664062 -29.386993408203125 -29.450393676757812 -29.498046875 -29.53302001953125 -29.555755615234375 -29.5777587890625
13500 LossesBy500 0.0038674238603562117 -0.005146624520421028 -0.007149531506001949 -0.008105441927909851 -0.008814273402094841 -0.009367762133479118 -0.009784925729036331 -0.010098792612552643 -0.010336678475141525 -0.010515333153307438 -0.010653522796928883 -0.010761287063360214 -0.010842564515769482 -0.010910853743553162 -0.010961510241031647 -0.011002082377672195 -0.011036823503673077 -0.011062423698604107 -0.011083792895078659 -0.011100975796580315 -0.011114008724689484 -0.011127342469990253 -0.011136038228869438 -0.01114295981824398 -0.011145959608256817 -0.01115038525313139 -0.011151477694511414
log_motor_var 	 [3.7416818141937256]
sigma_logit 	 [-4.064931392669678, -5.429572105407715]
mixture_logit 	 [-4.072084426879883]
prior 	 [0.0, 0.0, 0.0, 0.0, 0.0, 0.0, 0.0, 0.0, 0.0, 0.0, 0.0, 0.0, 0.0, 0.0, 0.0, 0.0, 0.0, 0.0, 0.0, 0.0, 0.0, 0.0, 0.0, 0.0, 0.0, 0.0, 0.0, 0.0, 0.0, 0.0, 0.0, 0.0, 0.0, 0.0, 0.0, 0.0, 0.0, 0.0, 0.0, 0.0, 0.0, 0.0, 0.0, 0.0, 0.0, 0.0, 0.0, 0.0, 0.0, 0.0, 0.0, 0.0, 0.0, 0.0, 0.0, 0.0, 0.0, 0.0, 0.0, 0.0, 0.0, 0.0, 0.0, 0.0, 0.0, 0.0, 0.0, 0.0, 0.0, 0.0, 0.0, 0.0, 0.0, 0.0, 0.0, 0.0, 0.0, 0.0, 0.0, 0.0, 0.0, 0.0, 0.0, 0.0, 0.0, 0.0, 0.0, 0.0, 0.0, 0.0, 0.0, 0.0, 0.0, 0.0, 0.0, 0.0, 0.0, 0.0, 0.0, 0.0, 0.0, 0.0, 0.0, 0.0, 0.0, 0.0, 0.0, 0.0, 0.0, 0.0, 0.0, 0.0, 0.0, 0.0, 0.0, 0.0, 0.0, 0.0, 0.0, 0.0, 0.0, 0.0, 0.0, 0.0, 0.0, 0.0, 0.0, 0.0, 0.0, 0.0, 0.0, 0.0, 0.0, 0.0, 0.0, 0.0, 0.0, 0.0, 0.0, 0.0, 0.0, 0.0, 0.0, 0.0, 0.0, 0.0, 0.0, 0.0, 0.0, 0.0, 0.0, 0.0, 0.0, 0.0, 0.0, 0.0, 0.0, 0.0, 0.0, 0.0, 0.0, 0.0, 0.0, 0.0, 0.0, 0.0, 0.0, 0.0, 0.0, 0.0, 0.0, 0.0, 0.0, 0.0, 0.0, 0.0, 0.0, 0.0, 0.0, 0.0]
volume 	 [0.4088621139526367, 0.3757922649383545, 0.3441700041294098, 0.31458160281181335, 0.2793537974357605, 0.24046765267848969, 0.2013990879058838, 0.15806157886981964, 0.11494451016187668, 0.07862763851881027, 0.05199991911649704, 0.029345210641622543, 0.014277116395533085, 0.012263141572475433, 0.025253869593143463, 0.04477665573358536, 0.06974776834249496, 0.09993332624435425, 0.143763929605484, 0.20011968910694122, 0.2699556052684784, 0.33717286586761475, 0.3973247706890106, 0.4474949538707733, 0.48867204785346985, 0.5286802053451538, 0.5648622512817383, 0.5917574167251587, 0.6133265495300293, 0.6215826272964478, 0.6200176477432251, 0.6144242286682129, 0.5999782085418701, 0.5860559940338135, 0.5650010704994202, 0.5208684802055359, 0.4613908529281616, 0.385966032743454, 0.29329749941825867, 0.20051656663417816, 0.11799704283475876, 0.037855200469493866, -0.03953548148274422, -0.11236946284770966, -0.17014217376708984, -0.21694186329841614, -0.2611892521381378, -0.3036482036113739, -0.3433651030063629, -0.37751737236976624, -0.408086359500885, -0.4403206706047058, -0.4725300371646881, -0.5090414881706238, -0.5438060164451599, -0.5734782814979553, -0.59243243932724, -0.5977545380592346, -0.5913973450660706, -0.5738974213600159, -0.5474854707717896, -0.515642523765564, -0.47888895869255066, -0.43266528844833374, -0.37654247879981995, -0.32639992237091064, -0.28499123454093933, -0.25270673632621765, -0.23020710051059723, -0.22007998824119568, -0.21057458221912384, -0.19868655502796173, -0.1807282567024231, -0.162726491689682, -0.14737878739833832, -0.13645315170288086, -0.13158546388149261, -0.12539488077163696, -0.11999612301588058, -0.12015035003423691, -0.1246119886636734, -0.12729111313819885, -0.12905776500701904, -0.13558341562747955, -0.15691469609737396, -0.18628735840320587, -0.22300457954406738, -0.26419946551322937, -0.30499976873397827, -0.354038268327713, -0.40195125341415405, -0.4497631788253784, -0.49632763862609863, -0.5371943712234497, -0.571276068687439, -0.6027342081069946, -0.6302465200424194, -0.6412031650543213, -0.6358619928359985, -0.6163157224655151, -0.5782963037490845, -0.5244101285934448, -0.4561048746109009, -0.3816034495830536, -0.2982458472251892, -0.21557524800300598, -0.132212296128273, -0.051146000623703, 0.025294749066233635, 0.09131326526403427, 0.14213912189006805, 0.1805487871170044, 0.22094707190990448, 0.2672998011112213, 0.3258918225765228, 0.37926650047302246, 0.42271560430526733, 0.4435102045536041, 0.4462870657444, 0.4410979449748993, 0.4346378743648529, 0.4273226261138916, 0.43211135268211365, 0.43870553374290466, 0.4352835714817047, 0.4069497287273407, 0.36446577310562134, 0.30232927203178406, 0.24037481844425201, 0.18234871327877045, 0.12228438258171082, 0.0557970367372036, -0.002930897753685713, -0.05199376866221428, -0.09117427468299866, -0.11295128613710403, -0.12859399616718292, -0.14297208189964294, -0.15336965024471283, -0.14837966859340668, -0.13682880997657776, -0.12572140991687775, -0.11249643564224243, -0.0990694984793663, -0.09350795298814774, -0.09341832250356674, -0.09179311990737915, -0.09798195958137512, -0.10502295941114426, -0.10778425633907318, -0.1043660119175911, -0.10055110603570938, -0.09824705868959427, -0.10219709575176239, -0.1064891517162323, -0.10878784954547882, -0.11331774294376373, -0.11995070427656174, -0.12433639168739319, -0.12344584614038467, -0.11610756069421768, -0.10220537334680557, -0.08298142999410629, -0.061048246920108795, -0.031383004039525986, 0.005753543693572283, 0.05157250165939331, 0.11374284327030182, 0.19441953301429749, 0.290881484746933, 0.38712623715400696, 0.46042412519454956, 0.5046353340148926, 0.5338727235794067, 0.5533861517906189, 0.5593845844268799, 0.5417373180389404, 0.5162534713745117, 0.48673108220100403, 0.4437985122203827]
