4.0828728675842285 CrossValid 1023.529052734375 CrossValidLossesBy500 1079.063720703125 1063.797607421875 1057.0589599609375 1050.9547119140625 1045.1934814453125 1040.1055908203125 1035.9022216796875 1032.6605224609375 1030.3634033203125 1028.766357421875 1027.019287109375 1025.5479736328125 1024.135498046875 1024.07080078125 1023.529052734375
7500 LossesBy500 4.296110153198242 4.218814849853516 4.189752101898193 4.16754150390625 4.147950649261475 4.131267070770264 4.117893695831299 4.10811185836792 4.10115385055542 4.09647274017334 4.0920867919921875 4.088589668273926 4.084562301635742 4.0846757888793945 4.0828728675842285
sigma2_stimulus 	 [0.0, -0.9466629028320312, 0.26447612047195435, 2.726064920425415, 5.1864471435546875, 6.295752048492432]
motor_sd 	 [7.4610114097595215]
sigma_logit 	 [-3.3797080516815186, -3.0, -3.0, -3.0, -3.0, -3.0]
chance_prob_logit 	 [0.0]
mixture_logit 	 [-3.05057430267334]
prior 	 [-0.6598683595657349, -0.6496518850326538, -0.63355952501297, -0.6120399832725525, -0.5857478380203247, -0.5554413795471191, -0.5218822956085205, -0.4857814311981201, -0.4477953016757965, -0.40853577852249146, -0.3685666620731354, -0.32838156819343567, -0.2883799374103546, -0.24885280430316925, -0.20998582243919373, -0.1718750149011612, -0.1345495581626892, -0.09799649566411972, -0.0621829554438591, -0.02707490138709545, 0.007348723243921995, 0.0410863533616066, 0.07410815358161926, 0.10635379701852798, 0.13773292303085327, 0.16812796890735626, 0.19739994406700134, 0.2253950834274292, 0.25195232033729553, 0.2769106924533844, 0.3001158535480499, 0.32142671942710876, 0.34072086215019226, 0.3578992187976837, 0.372889906167984, 0.38565200567245483, 0.39617735147476196, 0.4044918119907379, 0.4106537401676178, 0.41475266218185425, 0.41690805554389954, 0.417265921831131, 0.4159954786300659, 0.413284569978714, 0.4093343913555145, 0.40435394644737244, 0.3985550105571747, 0.39214619994163513, 0.38532716035842896, 0.3782825767993927, 0.37117764353752136, 0.3641524612903595, 0.35731935501098633, 0.35075899958610535, 0.34451812505722046, 0.338606059551239, 0.3329905569553375, 0.3275950849056244, 0.32229629158973694, 0.3169233798980713, 0.3112581670284271, 0.305035799741745, 0.29794707894325256, 0.28964418172836304, 0.27974769473075867, 0.2678597569465637, 0.25358131527900696, 0.2365347146987915, 0.21638616919517517, 0.19286644458770752, 0.1657899171113968, 0.1350712925195694, 0.10073962062597275, 0.06294786185026169, 0.021977530792355537, -0.0217629112303257, -0.06774742901325226, -0.11535058915615082, -0.16387414932250977, -0.2125779241323471, -0.26070913672447205, -0.307526558637619, -0.3523077666759491, -0.39432772994041443, -0.4328104555606842, -0.4668658971786499, -0.4954458773136139, -0.517379879951477, -0.53155916929245, -0.5372755527496338, -0.5346032381057739, -0.5246152877807617, -0.5092371702194214, -0.4907253384590149, -0.47102463245391846, -0.45135581493377686, -0.4321679174900055, -0.41333138942718506, -0.39440253376960754, -0.3748578131198883, -0.35426223278045654, -0.3323594033718109, -0.3090893030166626, -0.28455471992492676, -0.25896984338760376, -0.23261277377605438, -0.20578739047050476, -0.17879363894462585, -0.1519046276807785, -0.1253504902124405, -0.09930989146232605, -0.07390651851892471, -0.04921016842126846, -0.025240808725357056, -0.0019751526415348053, 0.02064497396349907, 0.04270371422171593, 0.06430236995220184, 0.08555145561695099, 0.10656340420246124, 0.1274462640285492, 0.14829805493354797, 0.16920198500156403, 0.1902231127023697, 0.2114054411649704, 0.23276987671852112, 0.25431275367736816, 0.27600541710853577, 0.2977924048900604, 0.3195910155773163, 0.3412894606590271, 0.3627464771270752, 0.3837907016277313, 0.4042203426361084, 0.4238026440143585, 0.4422726631164551, 0.45933327078819275, 0.4746553301811218, 0.4878806471824646, 0.4986271560192108, 0.5064980983734131, 0.5110934972763062, 0.5120241641998291, 0.5089293122291565, 0.5014953017234802, 0.4894731044769287, 0.4726959764957428, 0.4510927200317383, 0.4246981739997864, 0.3936583995819092, 0.35823071002960205, 0.31877797842025757, 0.27575674653053284, 0.22970028221607208, 0.181198850274086, 0.1308797299861908, 0.07938630878925323, 0.027356429025530815, -0.024598052725195885, -0.07590919733047485, -0.1260671317577362, -0.17463117837905884, -0.22123830020427704, -0.2656104266643524, -0.307561993598938, -0.34700411558151245, -0.3839441239833832, -0.4184790551662445, -0.4507807493209839, -0.48107224702835083, -0.5095863938331604, -0.5365098118782043, -0.5619153380393982, -0.585699200630188, -0.6075373888015747, -0.626879870891571, -0.6429958939552307, -0.6550664305686951, -0.6622980833053589, -0.6640393137931824]
volume 	 [0.8433334231376648, 0.8931939005851746, 0.9381135106086731, 0.95713871717453, 0.9746512174606323, 0.9118531346321106, 0.8254389762878418, 0.7395051121711731, 0.6487550735473633, 0.5515154004096985, 0.4527711272239685, 0.3711601495742798, 0.2915651500225067, 0.22841794788837433, 0.15753275156021118, 0.0995466411113739, 0.05413047596812248, 0.015386519022285938, -0.016553645953536034, -0.04910818114876747, -0.08138717710971832, -0.11713142693042755, -0.15363237261772156, -0.18056213855743408, -0.2013271450996399, -0.22127078473567963, -0.24357397854328156, -0.2681550681591034, -0.2936200201511383, -0.3137335777282715, -0.334639310836792, -0.36018356680870056, -0.3834865689277649, -0.3987661898136139, -0.4096236824989319, -0.4243113100528717, -0.4442737102508545, -0.46264883875846863, -0.47159701585769653, -0.47439077496528625, -0.4769721031188965, -0.4858464300632477, -0.49644243717193604, -0.5016404390335083, -0.504503607749939, -0.5085552930831909, -0.5114123821258545, -0.5100658535957336, -0.5059704184532166, -0.49938616156578064, -0.4972514808177948, -0.5043705701828003, -0.5142831802368164, -0.5180997252464294, -0.5131970643997192, -0.5024477243423462, -0.4903424084186554, -0.47948965430259705, -0.46501272916793823, -0.44605687260627747, -0.4253332018852234, -0.4024503529071808, -0.37627673149108887, -0.3440132737159729, -0.3148771822452545, -0.29489752650260925, -0.2751931846141815, -0.25224465131759644, -0.22198843955993652, -0.18722964823246002, -0.1502249836921692, -0.10553828626871109, -0.05212314799427986, -0.0019049509428441525, 0.05616205185651779, 0.11814901232719421, 0.1607172042131424, 0.22457599639892578, 0.3044452667236328, 0.3666685223579407, 0.424187570810318, 0.5046241283416748, 0.6117851138114929, 0.699726402759552, 0.7846046686172485, 0.8889168500900269, 0.9912245273590088, 1.0634453296661377, 1.1199463605880737, 1.1600102186203003, 1.1691324710845947, 1.196729063987732, 1.1184927225112915, 0.9633585214614868, 0.8787686228752136, 0.7676714658737183, 0.7030851244926453, 0.63544762134552, 0.5533711910247803, 0.44882312417030334, 0.3225467801094055, 0.2268432229757309, 0.15353746712207794, 0.08314335346221924, 0.017918143421411514, -0.0518302395939827, -0.10374374687671661, -0.14441518485546112, -0.18825820088386536, -0.22954079508781433, -0.26133978366851807, -0.2893192172050476, -0.3141038715839386, -0.3342894911766052, -0.3579143285751343, -0.3810756206512451, -0.3963780999183655, -0.4088810384273529, -0.4233566224575043, -0.43786025047302246, -0.45006754994392395, -0.46024924516677856, -0.46778643131256104, -0.47646790742874146, -0.4832998812198639, -0.480787992477417, -0.47482940554618835, -0.4720631241798401, -0.47301584482192993, -0.4696659743785858, -0.45433881878852844, -0.43143001198768616, -0.4109662175178528, -0.3933159112930298, -0.3769277036190033, -0.3659513294696808, -0.37006890773773193, -0.3856201469898224, -0.39452099800109863, -0.3921216130256653, -0.3800836205482483, -0.36211737990379333, -0.3479655385017395, -0.3404730558395386, -0.33556991815567017, -0.32935455441474915, -0.3174210786819458, -0.30122268199920654, -0.28896811604499817, -0.28185683488845825, -0.2708204984664917, -0.2484644502401352, -0.2184775024652481, -0.19679729640483856, -0.18494999408721924, -0.17669332027435303, -0.16276024281978607, -0.14091041684150696, -0.11590051651000977, -0.08961659669876099, -0.05991021543741226, -0.026890095323324203, 0.010322431102395058, 0.07231803983449936, 0.1486615687608719, 0.2092520147562027, 0.26731762290000916, 0.3482109308242798, 0.4184730052947998, 0.5099961757659912, 0.5708279609680176, 0.6339748501777649, 0.6878578662872314, 0.7336601614952087, 0.7311607599258423, 0.750499963760376, 0.7428345680236816, 0.7410482168197632, 0.769443154335022, 0.80471271276474]
