4.151214122772217 CrossValid 1041.1865234375 CrossValidLossesBy500 1082.6636962890625 1054.3798828125 1044.888427734375 1041.97216796875 1041.1226806640625 1040.724365234375 1040.609375 1040.6107177734375 1040.9495849609375 1041.2152099609375 1041.009765625 1041.1865234375
6000 LossesBy500 4.326364994049072 4.211095333099365 4.17168664932251 4.159053802490234 4.1550445556640625 4.153167724609375 4.152449131011963 4.1516642570495605 4.151434421539307 4.1513991355896 4.151454448699951 4.151214122772217
sigma2_stimulus 	 [0.0]
log_motor_var 	 [6.518217086791992]
sigma_logit 	 [-3.0, -0.5792678594589233, -1.5185832977294922, -2.963881731033325, -3.5247411727905273, -4.068425178527832]
mixture_logit 	 [-3.2962231636047363]
prior 	 [0.0, 0.0, 0.0, 0.0, 0.0, 0.0, 0.0, 0.0, 0.0, 0.0, 0.0, 0.0, 0.0, 0.0, 0.0, 0.0, 0.0, 0.0, 0.0, 0.0, 0.0, 0.0, 0.0, 0.0, 0.0, 0.0, 0.0, 0.0, 0.0, 0.0, 0.0, 0.0, 0.0, 0.0, 0.0, 0.0, 0.0, 0.0, 0.0, 0.0, 0.0, 0.0, 0.0, 0.0, 0.0, 0.0, 0.0, 0.0, 0.0, 0.0, 0.0, 0.0, 0.0, 0.0, 0.0, 0.0, 0.0, 0.0, 0.0, 0.0, 0.0, 0.0, 0.0, 0.0, 0.0, 0.0, 0.0, 0.0, 0.0, 0.0, 0.0, 0.0, 0.0, 0.0, 0.0, 0.0, 0.0, 0.0, 0.0, 0.0, 0.0, 0.0, 0.0, 0.0, 0.0, 0.0, 0.0, 0.0, 0.0, 0.0, 0.0, 0.0, 0.0, 0.0, 0.0, 0.0, 0.0, 0.0, 0.0, 0.0, 0.0, 0.0, 0.0, 0.0, 0.0, 0.0, 0.0, 0.0, 0.0, 0.0, 0.0, 0.0, 0.0, 0.0, 0.0, 0.0, 0.0, 0.0, 0.0, 0.0, 0.0, 0.0, 0.0, 0.0, 0.0, 0.0, 0.0, 0.0, 0.0, 0.0, 0.0, 0.0, 0.0, 0.0, 0.0, 0.0, 0.0, 0.0, 0.0, 0.0, 0.0, 0.0, 0.0, 0.0, 0.0, 0.0, 0.0, 0.0, 0.0, 0.0, 0.0, 0.0, 0.0, 0.0, 0.0, 0.0, 0.0, 0.0, 0.0, 0.0, 0.0, 0.0, 0.0, 0.0, 0.0, 0.0, 0.0, 0.0, 0.0, 0.0, 0.0, 0.0, 0.0, 0.0, 0.0, 0.0, 0.0, 0.0, 0.0, 0.0]
volume 	 [1.1583515405654907, 1.1297931671142578, 1.063001275062561, 0.9955761432647705, 0.9291962385177612, 0.8581551313400269, 0.7776233553886414, 0.6930215954780579, 0.6077386736869812, 0.5300461053848267, 0.452292799949646, 0.37207961082458496, 0.29347455501556396, 0.2178487926721573, 0.144021138548851, 0.0766461193561554, 0.01028074324131012, -0.04950898885726929, -0.10101321339607239, -0.14766299724578857, -0.1930871456861496, -0.23439079523086548, -0.2688915431499481, -0.2950691282749176, -0.31687024235725403, -0.3391990661621094, -0.3623583912849426, -0.38340577483177185, -0.39975860714912415, -0.41099873185157776, -0.41842880845069885, -0.4227049648761749, -0.42535585165023804, -0.42696911096572876, -0.428738534450531, -0.42914268374443054, -0.4286537170410156, -0.4287934899330139, -0.4293183386325836, -0.42844700813293457, -0.42742234468460083, -0.4290897250175476, -0.43583357334136963, -0.4443603456020355, -0.4522816836833954, -0.45852598547935486, -0.4624529778957367, -0.46319377422332764, -0.4615069031715393, -0.4594009518623352, -0.460909366607666, -0.46704497933387756, -0.4751835763454437, -0.48323750495910645, -0.49090930819511414, -0.4973193407058716, -0.5010449290275574, -0.5023189187049866, -0.5002332925796509, -0.4932800829410553, -0.48145565390586853, -0.46585986018180847, -0.4479440152645111, -0.4279683530330658, -0.4042729139328003, -0.3772706091403961, -0.34917429089546204, -0.3206980526447296, -0.2901100814342499, -0.25352463126182556, -0.20944368839263916, -0.1571899652481079, -0.09744583815336227, -0.028935106471180916, 0.04868640750646591, 0.13608242571353912, 0.22922149300575256, 0.3266138434410095, 0.43165451288223267, 0.5438735485076904, 0.6494397521018982, 0.7349882125854492, 0.8141369223594666, 0.8977069854736328, 0.9945946335792542, 1.094942569732666, 1.1811840534210205, 1.178956151008606, 1.1752294301986694, 1.1852624416351318, 1.1973901987075806, 1.1633089780807495, 1.1245017051696777, 1.0595271587371826, 0.9780851602554321, 0.9159027934074402, 0.8337361812591553, 0.7452338933944702, 0.6329554319381714, 0.5258384943008423, 0.42976436018943787, 0.3429962694644928, 0.26519396901130676, 0.19289028644561768, 0.12744063138961792, 0.06737346202135086, 0.016146915033459663, -0.02836741879582405, -0.06759525835514069, -0.10411497950553894, -0.1361294835805893, -0.1640440672636032, -0.19016271829605103, -0.21542443335056305, -0.24326613545417786, -0.2745260000228882, -0.30487310886383057, -0.33134666085243225, -0.35323479771614075, -0.3725231885910034, -0.39062684774398804, -0.40748047828674316, -0.4224087595939636, -0.43632394075393677, -0.45039111375808716, -0.4653239846229553, -0.4822556674480438, -0.5015163421630859, -0.5214707851409912, -0.5394306182861328, -0.5540115833282471, -0.5652368068695068, -0.5733577609062195, -0.5797799825668335, -0.5855890512466431, -0.5924882888793945, -0.601091206073761, -0.6114286780357361, -0.624218761920929, -0.638260006904602, -0.6510923504829407, -0.6599737405776978, -0.6627238988876343, -0.6587554216384888, -0.6477771997451782, -0.6297783255577087, -0.6053228974342346, -0.5752573609352112, -0.5415548086166382, -0.5069352388381958, -0.47354942560195923, -0.4406767785549164, -0.4073195457458496, -0.37236282229423523, -0.33445805311203003, -0.2937343120574951, -0.25041553378105164, -0.2053469568490982, -0.15856637060642242, -0.11130419373512268, -0.057278528809547424, 0.010095837526023388, 0.08236176520586014, 0.14320160448551178, 0.197303906083107, 0.2631734609603882, 0.34593090415000916, 0.4390047788619995, 0.5128166675567627, 0.5679166316986084, 0.6283878087997437, 0.68613600730896, 0.7244076132774353, 0.7764263153076172, 0.8579405546188354, 0.9404202699661255, 1.000232458114624, 1.053598403930664, 1.1045171022415161, 1.1342216730117798]
