4.095882892608643 CrossValid 995.3966674804688 CrossValidLossesBy500 1023.8822631835938 1018.9153442382812 1015.9411010742188 1012.8665771484375 1012.5025024414062 1011.8243408203125 1011.028564453125 1007.7172241210938 1005.7638549804688 1005.5208129882812 1003.9466552734375 1003.3259887695312 1002.796630859375 1002.1232299804688 1001.4522094726562 1001.0386962890625 1000.4232177734375 1005.9222412109375 999.3809814453125 998.7654418945312 998.3182373046875 997.9598999023438 997.587646484375 997.1160278320312 996.8447265625 996.7156372070312 996.15771484375 996.1331787109375 995.5347900390625 995.4926147460938 995.4503784179688 995.4165649414062 995.3838500976562 995.357666015625 995.3419189453125 995.3372802734375 995.3446044921875 995.3490600585938 995.3543701171875 995.3834838867188 995.3966674804688
20500 LossesBy500 4.186233997344971 4.16888952255249 4.1619553565979 4.152633190155029 4.153027057647705 4.150903224945068 4.14868688583374 4.135356903076172 4.128089427947998 4.12825870513916 4.121850967407227 4.119670867919922 4.117822170257568 4.115670204162598 4.1136040687561035 4.112176895141602 4.11032772064209 4.134328842163086 4.1073384284973145 4.105742454528809 4.104550838470459 4.103569507598877 4.102553844451904 4.1014323234558105 4.1006855964660645 4.100208282470703 4.098972797393799 4.098723888397217 4.097497940063477 4.097238063812256 4.0969767570495605 4.09675407409668 4.096537113189697 4.096352577209473 4.0962114334106445 4.096108436584473 4.096047878265381 4.095974922180176 4.095900058746338 4.095916271209717 4.095882892608643
sigma2_stimulus 	 [0.0]
log_motor_var 	 [5.5099873542785645]
sigma_logit 	 [-3.0, 0.5166568160057068, -1.5306731462478638, -3.371018409729004, -3.6739590167999268, -3.935844659805298]
mixture_logit 	 [-3.0734434127807617]
prior 	 [1.3185101747512817, 1.3014001846313477, 1.257278561592102, 1.1953734159469604, 1.1248451471328735, 1.049696445465088, 0.9722973704338074, 0.8921507000923157, 0.8095493912696838, 0.726844847202301, 0.6463498473167419, 0.5687938332557678, 0.4930422008037567, 0.4180687367916107, 0.3446882963180542, 0.2748512625694275, 0.20970715582370758, 0.1487671136856079, 0.0903288871049881, 0.032263945788145065, -0.026958556845784187, -0.08720765262842178, -0.1465902179479599, -0.20264749228954315, -0.2537674307823181, -0.2997238039970398, -0.3412802219390869, -0.3794974982738495, -0.41518890857696533, -0.4486452341079712, -0.47962602972984314, -0.5075278282165527, -0.531703770160675, -0.5518604516983032, -0.5685016512870789, -0.5830158591270447, -0.5969698429107666, -0.6109390258789062, -0.6240993738174438, -0.6351099610328674, -0.6432029008865356, -0.6484825611114502, -0.6517225503921509, -0.6541894674301147, -0.6570990085601807, -0.6604719758033752, -0.6625357866287231, -0.660766065120697, -0.6537674069404602, -0.64210045337677, -0.627467155456543, -0.6114065647125244, -0.5946661233901978, -0.5772547125816345, -0.5587232112884521, -0.5385334491729736, -0.5164563655853271, -0.49278441071510315, -0.46823376417160034, -0.44361206889152527, -0.41947993636131287, -0.39593973755836487, -0.3725048303604126, -0.34786951541900635, -0.3197902739048004, -0.28570467233657837, -0.24405278265476227, -0.1951485276222229, -0.14062687754631042, -0.08203991502523422, -0.020060716196894646, 0.04508564621210098, 0.11273844540119171, 0.18165704607963562, 0.2508998215198517, 0.32053694128990173, 0.39078402519226074, 0.4606054127216339, 0.5283216238021851, 0.5931856632232666, 0.6545035243034363, 0.710114061832428, 0.7578751444816589, 0.7966762185096741, 0.8250061869621277, 0.8412961363792419, 0.8464948534965515, 0.8442233204841614, 0.8383018374443054, 0.8316432237625122, 0.8284854292869568, 0.8300075531005859, 0.8331852555274963, 0.8310045599937439, 0.8182262182235718, 0.7942385673522949, 0.7610777616500854, 0.7199088931083679, 0.6713510155677795, 0.6180413961410522, 0.5630660057067871, 0.5070142149925232, 0.4489957094192505, 0.3892938792705536, 0.32980188727378845, 0.2723321318626404, 0.21717572212219238, 0.1635199934244156, 0.11110671609640121, 0.06131498143076897, 0.01649089716374874, -0.021914424374699593, -0.05488606169819832, -0.0857730507850647, -0.11835181713104248, -0.1543729454278946, -0.1929338127374649, -0.23221583664417267, -0.2712258994579315, -0.309754341840744, -0.3477626144886017, -0.38567739725112915, -0.4246719479560852, -0.46573880314826965, -0.508404016494751, -0.5505474805831909, -0.5893911719322205, -0.622744619846344, -0.6497734189033508, -0.6710089445114136, -0.6877760291099548, -0.7015603184700012, -0.7137576341629028, -0.7258040308952332, -0.739080548286438, -0.7542605996131897, -0.7705825567245483, -0.785988986492157, -0.7981983423233032, -0.8057706356048584, -0.808280885219574, -0.8057916760444641, -0.7983512878417969, -0.7859339118003845, -0.768689751625061, -0.7472056150436401, -0.7225756645202637, -0.6961769461631775, -0.669101893901825, -0.6414349675178528, -0.6119168996810913, -0.5784746408462524, -0.5392940640449524, -0.49362316727638245, -0.44193246960639954, -0.38576680421829224, -0.3273860812187195, -0.2688558101654053, -0.21080386638641357, -0.1521320641040802, -0.09131727367639542, -0.027812223881483078, 0.038505859673023224, 0.10913524031639099, 0.18682356178760529, 0.2726990580558777, 0.36435532569885254, 0.45785000920295715, 0.5508677959442139, 0.6429373025894165, 0.7337942123413086, 0.8226892948150635, 0.9083536267280579, 0.9895598292350769, 1.065220594406128, 1.1341153383255005, 1.1935768127441406, 1.2418135404586792, 1.280124306678772, 1.307552456855774]
volume 	 [0.7266912460327148, 0.7007917761802673, 0.6545390486717224, 0.5995452404022217, 0.5417059063911438, 0.48228102922439575, 0.424456924200058, 0.3668266534805298, 0.30607953667640686, 0.2412131130695343, 0.17218463122844696, 0.1054532453417778, 0.04492409899830818, -0.005313904024660587, -0.05049179121851921, -0.08740197867155075, -0.11849198490381241, -0.14168377220630646, -0.1605144888162613, -0.1765134483575821, -0.1948297768831253, -0.21554113924503326, -0.23545141518115997, -0.2510828673839569, -0.2596224844455719, -0.26012471318244934, -0.2555413246154785, -0.2495170384645462, -0.24309764802455902, -0.2374071627855301, -0.23240825533866882, -0.22792215645313263, -0.22243905067443848, -0.21308095753192902, -0.20063525438308716, -0.18509197235107422, -0.17053085565567017, -0.1607150435447693, -0.1561681032180786, -0.1549302488565445, -0.15809601545333862, -0.163487046957016, -0.1716097891330719, -0.17957338690757751, -0.18441958725452423, -0.18590445816516876, -0.1854693442583084, -0.18622691929340363, -0.1916532963514328, -0.2010612189769745, -0.21408282220363617, -0.2291577309370041, -0.24429139494895935, -0.25879794359207153, -0.27357327938079834, -0.28819704055786133, -0.29848340153694153, -0.3039560317993164, -0.304382860660553, -0.3001832664012909, -0.2929207384586334, -0.28379663825035095, -0.2740435004234314, -0.2653041183948517, -0.2558991312980652, -0.24423542618751526, -0.23029625415802002, -0.21159017086029053, -0.18817093968391418, -0.1595369279384613, -0.12750926613807678, -0.08948558568954468, -0.045171480625867844, 0.0035098057705909014, 0.0528232641518116, 0.1034555733203888, 0.15955862402915955, 0.2208692878484726, 0.2835313677787781, 0.3439800441265106, 0.399120569229126, 0.45032817125320435, 0.49973416328430176, 0.548077404499054, 0.5929432511329651, 0.6269819140434265, 0.6487867832183838, 0.6606965661048889, 0.6580240726470947, 0.6438889503479004, 0.6349045038223267, 0.6315351128578186, 0.629482090473175, 0.6257219314575195, 0.6158143281936646, 0.5968453288078308, 0.5680944919586182, 0.5250062346458435, 0.47269895672798157, 0.41367751359939575, 0.34803691506385803, 0.28028327226638794, 0.21508827805519104, 0.15409423410892487, 0.09897813946008682, 0.04721013456583023, 0.0018492621602490544, -0.04078877717256546, -0.07670632004737854, -0.10762971639633179, -0.13070058822631836, -0.1464461088180542, -0.15695028007030487, -0.1639697402715683, -0.17239351570606232, -0.18299971520900726, -0.19291289150714874, -0.2031928300857544, -0.21236743032932281, -0.22018717229366302, -0.22667169570922852, -0.23129548132419586, -0.2345217913389206, -0.2357296496629715, -0.23741428554058075, -0.23939096927642822, -0.24032551050186157, -0.2384599894285202, -0.23371975123882294, -0.2285016030073166, -0.2248586118221283, -0.22577761113643646, -0.2305402159690857, -0.2385542243719101, -0.24595826864242554, -0.2530378997325897, -0.25806838274002075, -0.26168331503868103, -0.2677922248840332, -0.27638471126556396, -0.28628650307655334, -0.2953141927719116, -0.3025580644607544, -0.30855095386505127, -0.31342461705207825, -0.3174293637275696, -0.319993257522583, -0.32051533460617065, -0.3197900950908661, -0.31615835428237915, -0.3093061149120331, -0.2976307272911072, -0.28141844272613525, -0.26424911618232727, -0.24837765097618103, -0.23460106551647186, -0.22352072596549988, -0.21463143825531006, -0.20511047542095184, -0.19223327934741974, -0.1735449731349945, -0.14977812767028809, -0.12295275926589966, -0.09111028164625168, -0.05263061821460724, -0.006475599482655525, 0.04768625274300575, 0.10813027620315552, 0.17464008927345276, 0.2478874772787094, 0.3206532299518585, 0.38807564973831177, 0.445931077003479, 0.4972352385520935, 0.5461694002151489, 0.5943956971168518, 0.6406154632568359, 0.6854696869850159, 0.7161981463432312, 0.7252214550971985]
