4.111509323120117 CrossValid 998.585205078125 CrossValidLossesBy500 1017.0918579101562 1006.43359375 999.8328247070312 1004.2116088867188 1004.0054931640625 998.9268188476562 998.7530517578125 1003.796142578125 998.661865234375 998.6787719726562 1003.7660522460938 1003.7363891601562 998.6151123046875 1003.7450561523438 998.6434326171875 1003.7183837890625 1003.740966796875 998.5945434570312 998.5966796875 1003.7402954101562 1003.7301635742188 998.585205078125
11000 LossesBy500 4.145782470703125 4.1281514167785645 4.113837242126465 4.124109268188477 4.123695373535156 4.112368583679199 4.11190128326416 4.123228549957275 4.111701011657715 4.111783504486084 4.123144149780273 4.123067378997803 4.111644744873047 4.123076438903809 4.111745357513428 4.122956275939941 4.12304162979126 4.111547470092773 4.1115522384643555 4.123049736022949 4.12300968170166 4.111509323120117
sigma2_stimulus 	 [0.0]
log_motor_var 	 [5.712225914001465]
sigma_logit 	 [-3.0, 0.6047593355178833, -1.5215704441070557, -3.2838544845581055, -3.6398563385009766, -3.974029541015625]
mixture_logit 	 [-3.034742593765259]
prior 	 [0.0, 0.0, 0.0, 0.0, 0.0, 0.0, 0.0, 0.0, 0.0, 0.0, 0.0, 0.0, 0.0, 0.0, 0.0, 0.0, 0.0, 0.0, 0.0, 0.0, 0.0, 0.0, 0.0, 0.0, 0.0, 0.0, 0.0, 0.0, 0.0, 0.0, 0.0, 0.0, 0.0, 0.0, 0.0, 0.0, 0.0, 0.0, 0.0, 0.0, 0.0, 0.0, 0.0, 0.0, 0.0, 0.0, 0.0, 0.0, 0.0, 0.0, 0.0, 0.0, 0.0, 0.0, 0.0, 0.0, 0.0, 0.0, 0.0, 0.0, 0.0, 0.0, 0.0, 0.0, 0.0, 0.0, 0.0, 0.0, 0.0, 0.0, 0.0, 0.0, 0.0, 0.0, 0.0, 0.0, 0.0, 0.0, 0.0, 0.0, 0.0, 0.0, 0.0, 0.0, 0.0, 0.0, 0.0, 0.0, 0.0, 0.0, 0.0, 0.0, 0.0, 0.0, 0.0, 0.0, 0.0, 0.0, 0.0, 0.0, 0.0, 0.0, 0.0, 0.0, 0.0, 0.0, 0.0, 0.0, 0.0, 0.0, 0.0, 0.0, 0.0, 0.0, 0.0, 0.0, 0.0, 0.0, 0.0, 0.0, 0.0, 0.0, 0.0, 0.0, 0.0, 0.0, 0.0, 0.0, 0.0, 0.0, 0.0, 0.0, 0.0, 0.0, 0.0, 0.0, 0.0, 0.0, 0.0, 0.0, 0.0, 0.0, 0.0, 0.0, 0.0, 0.0, 0.0, 0.0, 0.0, 0.0, 0.0, 0.0, 0.0, 0.0, 0.0, 0.0, 0.0, 0.0, 0.0, 0.0, 0.0, 0.0, 0.0, 0.0, 0.0, 0.0, 0.0, 0.0, 0.0, 0.0, 0.0, 0.0, 0.0, 0.0, 0.0, 0.0, 0.0, 0.0, 0.0, 0.0]
volume 	 [0.7204158306121826, 0.6922318935394287, 0.6447998881340027, 0.5866848230361938, 0.5266745090484619, 0.46615350246429443, 0.4089449346065521, 0.3510279357433319, 0.29041701555252075, 0.22579583525657654, 0.15653115510940552, 0.08691900968551636, 0.02276461571455002, -0.030604220926761627, -0.07678907364606857, -0.1145639643073082, -0.1468195915222168, -0.1704576164484024, -0.1877564787864685, -0.2002338171005249, -0.21302446722984314, -0.22765569388866425, -0.2439144402742386, -0.2593749463558197, -0.26987043023109436, -0.27316248416900635, -0.2714546024799347, -0.26937010884284973, -0.26906388998031616, -0.2697902023792267, -0.2695102393627167, -0.2670851945877075, -0.26086848974227905, -0.24897363781929016, -0.23135855793952942, -0.2087475061416626, -0.18789270520210266, -0.1739284247159958, -0.16734172403812408, -0.1650707870721817, -0.16568677127361298, -0.1669541448354721, -0.17029812932014465, -0.17402121424674988, -0.17655806243419647, -0.17569229006767273, -0.17223891615867615, -0.17055067420005798, -0.17440977692604065, -0.18233008682727814, -0.19256021082401276, -0.20393502712249756, -0.2151050567626953, -0.2273782640695572, -0.24227291345596313, -0.25836825370788574, -0.27128782868385315, -0.2784053087234497, -0.2798974812030792, -0.27849963307380676, -0.27704787254333496, -0.2760404944419861, -0.27494505047798157, -0.27318325638771057, -0.266444593667984, -0.2506656348705292, -0.2265273779630661, -0.19688984751701355, -0.1632932424545288, -0.125565305352211, -0.08655659854412079, -0.04869276285171509, -0.016208099201321602, 0.014293418265879154, 0.04961156100034714, 0.09442748874425888, 0.14955493807792664, 0.21063649654388428, 0.2700914740562439, 0.3265340030193329, 0.37629708647727966, 0.4216591417789459, 0.4679345488548279, 0.5150088667869568, 0.5639121532440186, 0.6058464646339417, 0.6314260959625244, 0.6455373167991638, 0.6450173258781433, 0.6306970715522766, 0.6184025406837463, 0.6062684059143066, 0.5930538773536682, 0.5778671503067017, 0.5618147253990173, 0.5415490865707397, 0.519089937210083, 0.48572203516960144, 0.4391525089740753, 0.3825499713420868, 0.3211604654788971, 0.2607206404209137, 0.20358243584632874, 0.1486845761537552, 0.09720355272293091, 0.04954857751727104, 0.011369297280907631, -0.021443059667944908, -0.0499587319791317, -0.07848227769136429, -0.10506094992160797, -0.12936335802078247, -0.1494007706642151, -0.1617605835199356, -0.16954182088375092, -0.1741761863231659, -0.17623834311962128, -0.17892038822174072, -0.1822691410779953, -0.18507376313209534, -0.18609599769115448, -0.1843544840812683, -0.18094462156295776, -0.1770472228527069, -0.1771521121263504, -0.18274050951004028, -0.1906331181526184, -0.1976921409368515, -0.2017372101545334, -0.20348986983299255, -0.20556935667991638, -0.210752472281456, -0.2183147668838501, -0.22945614159107208, -0.24117279052734375, -0.2524953782558441, -0.262835830450058, -0.27267369627952576, -0.28542789816856384, -0.29978612065315247, -0.3134157061576843, -0.322771817445755, -0.32590869069099426, -0.3236626982688904, -0.31710007786750793, -0.3079950213432312, -0.2976044714450836, -0.28575074672698975, -0.273349791765213, -0.26049306988716125, -0.24869221448898315, -0.2375674694776535, -0.2270938605070114, -0.21788878738880157, -0.21213911473751068, -0.20999616384506226, -0.2093924582004547, -0.20713743567466736, -0.19882726669311523, -0.1843317598104477, -0.16493915021419525, -0.14310863614082336, -0.11783163994550705, -0.0854717418551445, -0.04457772150635719, 0.0036851330660283566, 0.05749674141407013, 0.1152559295296669, 0.17877782881259918, 0.24806417524814606, 0.3143298923969269, 0.37323132157325745, 0.4242432117462158, 0.47072070837020874, 0.5187026858329773, 0.5718214511871338, 0.6222314238548279, 0.6682140231132507, 0.6975349187850952, 0.712410032749176]
