4.1219916343688965 CrossValid 1019.339599609375 CrossValidLossesBy500 1023.2808227539062 1018.5230712890625 1018.2877807617188 1018.54736328125 1018.8856201171875 1019.1392211914062 1019.3397827148438 1019.4977416992188 1019.6478881835938 1019.762451171875 1019.8106079101562 1019.7860717773438 1019.8195190429688 1019.8533325195312 1019.8306274414062 1019.876708984375 1019.9735107421875 1019.9152221679688 1019.8509521484375 1019.7640991210938 1019.5799560546875 1019.279541015625 1019.3184204101562 1019.339599609375
12000 LossesBy500 4.172883033752441 4.134357452392578 4.128096580505371 4.125718593597412 4.124597072601318 4.123932361602783 4.123540878295898 4.123254776000977 4.122920036315918 4.122865676879883 4.122889518737793 4.1228413581848145 4.12266206741333 4.122518539428711 4.1226115226745605 4.122269153594971 4.122265815734863 4.1220383644104 4.1222639083862305 4.122097015380859 4.1222147941589355 4.122185230255127 4.122011661529541 4.1219916343688965
sigma2_stimulus 	 [0.0]
log_motor_var 	 [6.7206854820251465]
sigma_logit 	 [-3.0, -0.12337815016508102, -2.1370840072631836, -3.2489399909973145, -3.7038917541503906, -4.189422130584717]
mixture_logit 	 [-2.4032790660858154]
prior 	 [0.0, 0.0, 0.0, 0.0, 0.0, 0.0, 0.0, 0.0, 0.0, 0.0, 0.0, 0.0, 0.0, 0.0, 0.0, 0.0, 0.0, 0.0, 0.0, 0.0, 0.0, 0.0, 0.0, 0.0, 0.0, 0.0, 0.0, 0.0, 0.0, 0.0, 0.0, 0.0, 0.0, 0.0, 0.0, 0.0, 0.0, 0.0, 0.0, 0.0, 0.0, 0.0, 0.0, 0.0, 0.0, 0.0, 0.0, 0.0, 0.0, 0.0, 0.0, 0.0, 0.0, 0.0, 0.0, 0.0, 0.0, 0.0, 0.0, 0.0, 0.0, 0.0, 0.0, 0.0, 0.0, 0.0, 0.0, 0.0, 0.0, 0.0, 0.0, 0.0, 0.0, 0.0, 0.0, 0.0, 0.0, 0.0, 0.0, 0.0, 0.0, 0.0, 0.0, 0.0, 0.0, 0.0, 0.0, 0.0, 0.0, 0.0, 0.0, 0.0, 0.0, 0.0, 0.0, 0.0, 0.0, 0.0, 0.0, 0.0, 0.0, 0.0, 0.0, 0.0, 0.0, 0.0, 0.0, 0.0, 0.0, 0.0, 0.0, 0.0, 0.0, 0.0, 0.0, 0.0, 0.0, 0.0, 0.0, 0.0, 0.0, 0.0, 0.0, 0.0, 0.0, 0.0, 0.0, 0.0, 0.0, 0.0, 0.0, 0.0, 0.0, 0.0, 0.0, 0.0, 0.0, 0.0, 0.0, 0.0, 0.0, 0.0, 0.0, 0.0, 0.0, 0.0, 0.0, 0.0, 0.0, 0.0, 0.0, 0.0, 0.0, 0.0, 0.0, 0.0, 0.0, 0.0, 0.0, 0.0, 0.0, 0.0, 0.0, 0.0, 0.0, 0.0, 0.0, 0.0, 0.0, 0.0, 0.0, 0.0, 0.0, 0.0, 0.0, 0.0, 0.0, 0.0, 0.0, 0.0]
volume 	 [0.8585723042488098, 0.8449409604072571, 0.8188289403915405, 0.7731674313545227, 0.7218345403671265, 0.6606077551841736, 0.6082866191864014, 0.5554340481758118, 0.4849870204925537, 0.4017099142074585, 0.3091279864311218, 0.21969710290431976, 0.14178138971328735, 0.07791294902563095, 0.02233015187084675, -0.021873265504837036, -0.06141436845064163, -0.09923624247312546, -0.1391332447528839, -0.17513345181941986, -0.20655982196331024, -0.23290392756462097, -0.25366151332855225, -0.2730447053909302, -0.29725828766822815, -0.32218489050865173, -0.34125590324401855, -0.35581502318382263, -0.36794930696487427, -0.3747260272502899, -0.3737703263759613, -0.3717361092567444, -0.37531593441963196, -0.3778252899646759, -0.3713069558143616, -0.3527965545654297, -0.32799044251441956, -0.3053142726421356, -0.28887298703193665, -0.27608630061149597, -0.2653690576553345, -0.2553218901157379, -0.25237521529197693, -0.25700294971466064, -0.2619919180870056, -0.2636389136314392, -0.2600157856941223, -0.25193822383880615, -0.24678848683834076, -0.24979276955127716, -0.2670367360115051, -0.2939795255661011, -0.31857359409332275, -0.33736956119537354, -0.35198310017585754, -0.3628893196582794, -0.3676845133304596, -0.3657536208629608, -0.35949772596359253, -0.355721116065979, -0.354958713054657, -0.3524598479270935, -0.3493928015232086, -0.3465665876865387, -0.33653733134269714, -0.3146178126335144, -0.2857441306114197, -0.25535833835601807, -0.2242700457572937, -0.18477798998355865, -0.13687396049499512, -0.08696585893630981, -0.03950834646821022, 0.009438656270503998, 0.06098039820790291, 0.11799272149801254, 0.18844087421894073, 0.2689310312271118, 0.3500012159347534, 0.4345088303089142, 0.5283319354057312, 0.613810658454895, 0.6796924471855164, 0.7373882532119751, 0.7906985878944397, 0.8177398443222046, 0.846429705619812, 0.8508749008178711, 0.8528399467468262, 0.840670108795166, 0.8336732983589172, 0.8046419024467468, 0.7799169421195984, 0.7458270192146301, 0.7306923270225525, 0.7033608555793762, 0.6618406176567078, 0.6135565638542175, 0.5504518747329712, 0.4922429621219635, 0.4301210045814514, 0.3639634847640991, 0.29072824120521545, 0.21381039917469025, 0.13789048790931702, 0.06270598620176315, 0.003686171257868409, -0.040392547845840454, -0.07030082494020462, -0.09076135605573654, -0.10272293537855148, -0.11379045248031616, -0.1277220994234085, -0.1426534801721573, -0.16012901067733765, -0.17946065962314606, -0.19776757061481476, -0.21239939332008362, -0.2238999605178833, -0.23821225762367249, -0.2558671534061432, -0.2742728590965271, -0.29304584860801697, -0.3106815218925476, -0.32369786500930786, -0.3301818072795868, -0.3351954519748688, -0.3383651077747345, -0.3355938792228699, -0.33320876955986023, -0.3394227921962738, -0.35530465841293335, -0.3741673529148102, -0.3890502452850342, -0.39853203296661377, -0.4051111340522766, -0.40761128067970276, -0.4130200445652008, -0.42616596817970276, -0.4381368160247803, -0.44337108731269836, -0.4431859850883484, -0.4406975507736206, -0.44119346141815186, -0.44490256905555725, -0.44515880942344666, -0.4381467401981354, -0.42592066526412964, -0.413884699344635, -0.401961088180542, -0.3878554105758667, -0.3690556585788727, -0.3414000868797302, -0.30326420068740845, -0.2648070156574249, -0.2354530245065689, -0.21148011088371277, -0.18535202741622925, -0.15795978903770447, -0.13575038313865662, -0.11388646066188812, -0.08417832106351852, -0.04896187782287598, -0.015108705498278141, 0.015911255031824112, 0.05510883033275604, 0.11009538173675537, 0.17564080655574799, 0.2507685124874115, 0.3391810953617096, 0.41693466901779175, 0.4813900291919708, 0.5463148355484009, 0.588549017906189, 0.6184263229370117, 0.6702750325202942, 0.7309446930885315, 0.7798003554344177, 0.8133901953697205, 0.8258814811706543]
