4.1339545249938965 CrossValid 1007.9942016601562 CrossValidLossesBy500 1018.7976684570312 1011.0450439453125 1007.9942016601562
1500 LossesBy500 4.165743827819824 4.139866352081299 4.1339545249938965
sigma2_stimulus 	 [0.0]
log_motor_var 	 [4.657911777496338]
sigma_logit 	 [-3.0, 0.3510930836200714, -1.5439449548721313, -3.446084976196289, -3.677663564682007, -3.899702548980713]
mixture_logit 	 [-2.9971797466278076]
prior 	 [0.0, 0.0, 0.0, 0.0, 0.0, 0.0, 0.0, 0.0, 0.0, 0.0, 0.0, 0.0, 0.0, 0.0, 0.0, 0.0, 0.0, 0.0, 0.0, 0.0, 0.0, 0.0, 0.0, 0.0, 0.0, 0.0, 0.0, 0.0, 0.0, 0.0, 0.0, 0.0, 0.0, 0.0, 0.0, 0.0, 0.0, 0.0, 0.0, 0.0, 0.0, 0.0, 0.0, 0.0, 0.0, 0.0, 0.0, 0.0, 0.0, 0.0, 0.0, 0.0, 0.0, 0.0, 0.0, 0.0, 0.0, 0.0, 0.0, 0.0, 0.0, 0.0, 0.0, 0.0, 0.0, 0.0, 0.0, 0.0, 0.0, 0.0, 0.0, 0.0, 0.0, 0.0, 0.0, 0.0, 0.0, 0.0, 0.0, 0.0, 0.0, 0.0, 0.0, 0.0, 0.0, 0.0, 0.0, 0.0, 0.0, 0.0, 0.0, 0.0, 0.0, 0.0, 0.0, 0.0, 0.0, 0.0, 0.0, 0.0, 0.0, 0.0, 0.0, 0.0, 0.0, 0.0, 0.0, 0.0, 0.0, 0.0, 0.0, 0.0, 0.0, 0.0, 0.0, 0.0, 0.0, 0.0, 0.0, 0.0, 0.0, 0.0, 0.0, 0.0, 0.0, 0.0, 0.0, 0.0, 0.0, 0.0, 0.0, 0.0, 0.0, 0.0, 0.0, 0.0, 0.0, 0.0, 0.0, 0.0, 0.0, 0.0, 0.0, 0.0, 0.0, 0.0, 0.0, 0.0, 0.0, 0.0, 0.0, 0.0, 0.0, 0.0, 0.0, 0.0, 0.0, 0.0, 0.0, 0.0, 0.0, 0.0, 0.0, 0.0, 0.0, 0.0, 0.0, 0.0, 0.0, 0.0, 0.0, 0.0, 0.0, 0.0, 0.0, 0.0, 0.0, 0.0, 0.0, 0.0]
volume 	 [0.6952277421951294, 0.6764918565750122, 0.639119565486908, 0.5890515446662903, 0.5314114689826965, 0.4681413173675537, 0.4053988456726074, 0.3434755802154541, 0.28016397356987, 0.21684899926185608, 0.15414562821388245, 0.0951935350894928, 0.0408637672662735, -0.00501457741484046, -0.046499092131853104, -0.08004778623580933, -0.1089569628238678, -0.13207384943962097, -0.15231719613075256, -0.16943670809268951, -0.1867777407169342, -0.20458099246025085, -0.22190894186496735, -0.2383175790309906, -0.252416729927063, -0.26210203766822815, -0.2676298916339874, -0.2702971398830414, -0.2703394293785095, -0.26876646280288696, -0.26598915457725525, -0.26277947425842285, -0.2590476870536804, -0.25277864933013916, -0.24387697875499725, -0.2306738942861557, -0.2152288854122162, -0.20031708478927612, -0.18714691698551178, -0.17548948526382446, -0.16795013844966888, -0.16335804760456085, -0.16258355975151062, -0.1632695347070694, -0.16301731765270233, -0.16161976754665375, -0.1595325469970703, -0.15836381912231445, -0.16059762239456177, -0.1656869649887085, -0.1740465611219406, -0.18484359979629517, -0.19620315730571747, -0.2071753293275833, -0.21842718124389648, -0.22970864176750183, -0.2376687228679657, -0.24307183921337128, -0.2467281073331833, -0.2489754855632782, -0.2499169409275055, -0.24841764569282532, -0.2437213957309723, -0.23636358976364136, -0.22493571043014526, -0.20946039259433746, -0.1923249214887619, -0.1729380339384079, -0.15189555287361145, -0.12834665179252625, -0.1044028252363205, -0.07810613512992859, -0.04833046719431877, -0.013974962756037712, 0.024692032486200333, 0.06911441683769226, 0.12102970480918884, 0.1782321035861969, 0.23697584867477417, 0.2942730784416199, 0.3483217656612396, 0.4009411334991455, 0.45281606912612915, 0.504409670829773, 0.5545886158943176, 0.5981290936470032, 0.6303776502609253, 0.6495772004127502, 0.6556208729743958, 0.6527407765388489, 0.6488439440727234, 0.642877995967865, 0.6318253874778748, 0.6163032054901123, 0.5958462357521057, 0.5728257298469543, 0.5424919128417969, 0.5019934177398682, 0.4545270502567291, 0.40092769265174866, 0.3411503732204437, 0.2786622941493988, 0.21733583509922028, 0.1573268175125122, 0.1005820706486702, 0.047763802111148834, 0.004887010436505079, -0.03158775344491005, -0.05996117368340492, -0.08488535135984421, -0.10561645030975342, -0.12287700176239014, -0.13673244416713715, -0.14613653719425201, -0.15430006384849548, -0.1622684895992279, -0.1687464565038681, -0.1763157844543457, -0.18421457707881927, -0.19213221967220306, -0.19958502054214478, -0.20546913146972656, -0.20965319871902466, -0.2111293375492096, -0.21235410869121552, -0.21385103464126587, -0.21557337045669556, -0.21679513156414032, -0.21733586490154266, -0.2184455692768097, -0.2207423895597458, -0.22596298158168793, -0.2328919917345047, -0.24120007455348969, -0.2483402043581009, -0.2560981512069702, -0.2631903290748596, -0.2691507935523987, -0.27631545066833496, -0.28414422273635864, -0.2920105755329132, -0.29862692952156067, -0.30383095145225525, -0.30836403369903564, -0.3119954764842987, -0.31436285376548767, -0.31435444951057434, -0.31105002760887146, -0.30537039041519165, -0.2962770462036133, -0.28448066115379333, -0.26953616738319397, -0.25257524847984314, -0.2375805526971817, -0.22626760601997375, -0.21796496212482452, -0.21155059337615967, -0.20594342052936554, -0.19919617474079132, -0.18983951210975647, -0.17563289403915405, -0.1565825492143631, -0.13373349606990814, -0.10553637892007828, -0.07103505730628967, -0.029246045276522636, 0.02087605558335781, 0.07821265608072281, 0.14115609228610992, 0.2095431685447693, 0.27816101908683777, 0.345138818025589, 0.4064001142978668, 0.46287524700164795, 0.5163550972938538, 0.5659082531929016, 0.6123753190040588, 0.6538339257240295, 0.6829887628555298, 0.6963568329811096]
