4.155710697174072 CrossValid 1046.796630859375 CrossValidLossesBy500 1056.025634765625 1050.0992431640625 1048.228515625 1047.4552001953125 1047.1170654296875 1046.9500732421875 1046.872802734375 1046.831787109375 1046.8115234375 1046.796630859375
5000 LossesBy500 4.175108432769775 4.160416603088379 4.157260417938232 4.156263828277588 4.155943393707275 4.1557936668396 4.155755043029785 4.15573263168335 4.155726432800293 4.155710697174072
sigma2_stimulus 	 [0.0]
log_motor_var 	 [4.6452107429504395]
sigma_logit 	 [-3.0, 0.40127405524253845, -1.556918740272522, -3.4683542251586914, -3.7425084114074707, -3.8349571228027344]
mixture_logit 	 [-2.868886709213257]
prior 	 [0.0, 0.0, 0.0, 0.0, 0.0, 0.0, 0.0, 0.0, 0.0, 0.0, 0.0, 0.0, 0.0, 0.0, 0.0, 0.0, 0.0, 0.0, 0.0, 0.0, 0.0, 0.0, 0.0, 0.0, 0.0, 0.0, 0.0, 0.0, 0.0, 0.0, 0.0, 0.0, 0.0, 0.0, 0.0, 0.0, 0.0, 0.0, 0.0, 0.0, 0.0, 0.0, 0.0, 0.0, 0.0, 0.0, 0.0, 0.0, 0.0, 0.0, 0.0, 0.0, 0.0, 0.0, 0.0, 0.0, 0.0, 0.0, 0.0, 0.0, 0.0, 0.0, 0.0, 0.0, 0.0, 0.0, 0.0, 0.0, 0.0, 0.0, 0.0, 0.0, 0.0, 0.0, 0.0, 0.0, 0.0, 0.0, 0.0, 0.0, 0.0, 0.0, 0.0, 0.0, 0.0, 0.0, 0.0, 0.0, 0.0, 0.0, 0.0, 0.0, 0.0, 0.0, 0.0, 0.0, 0.0, 0.0, 0.0, 0.0, 0.0, 0.0, 0.0, 0.0, 0.0, 0.0, 0.0, 0.0, 0.0, 0.0, 0.0, 0.0, 0.0, 0.0, 0.0, 0.0, 0.0, 0.0, 0.0, 0.0, 0.0, 0.0, 0.0, 0.0, 0.0, 0.0, 0.0, 0.0, 0.0, 0.0, 0.0, 0.0, 0.0, 0.0, 0.0, 0.0, 0.0, 0.0, 0.0, 0.0, 0.0, 0.0, 0.0, 0.0, 0.0, 0.0, 0.0, 0.0, 0.0, 0.0, 0.0, 0.0, 0.0, 0.0, 0.0, 0.0, 0.0, 0.0, 0.0, 0.0, 0.0, 0.0, 0.0, 0.0, 0.0, 0.0, 0.0, 0.0, 0.0, 0.0, 0.0, 0.0, 0.0, 0.0, 0.0, 0.0, 0.0, 0.0, 0.0, 0.0]
volume 	 [0.7094347476959229, 0.6962406635284424, 0.663841724395752, 0.6164264678955078, 0.5590007901191711, 0.4933876693248749, 0.42757201194763184, 0.3603990077972412, 0.2914171516895294, 0.22156922519207, 0.15221808850765228, 0.08573255687952042, 0.02343725971877575, -0.03154577687382698, -0.08186367899179459, -0.12452820688486099, -0.16101756691932678, -0.1894921362400055, -0.21195577085018158, -0.22836409509181976, -0.2417653352022171, -0.2529944181442261, -0.26174312829971313, -0.2691235840320587, -0.2759656012058258, -0.2807580828666687, -0.28318339586257935, -0.2834106385707855, -0.2817143201828003, -0.2781497836112976, -0.2727696895599365, -0.2655591070652008, -0.2559396028518677, -0.24406665563583374, -0.2303362637758255, -0.21243217587471008, -0.19220855832099915, -0.1728644073009491, -0.15510205924510956, -0.13914330303668976, -0.12725593149662018, -0.1175466924905777, -0.11074133217334747, -0.10426698625087738, -0.09798084944486618, -0.09216213971376419, -0.0874641165137291, -0.0858054831624031, -0.0906379222869873, -0.10159283876419067, -0.11845292150974274, -0.13953882455825806, -0.1624262034893036, -0.18693633377552032, -0.21216699481010437, -0.23626498878002167, -0.2566179037094116, -0.273074746131897, -0.28579509258270264, -0.29436784982681274, -0.2985348105430603, -0.2977091372013092, -0.291643351316452, -0.2814660370349884, -0.26631680130958557, -0.24670176208019257, -0.22618015110492706, -0.20553497970104218, -0.18405428528785706, -0.16194073855876923, -0.14062601327896118, -0.11730322986841202, -0.0916077122092247, -0.060618214309215546, -0.023081356659531593, 0.02244999259710312, 0.07810622453689575, 0.14135576784610748, 0.20692503452301025, 0.27202168107032776, 0.33456042408943176, 0.39527106285095215, 0.4549468457698822, 0.5115389227867126, 0.5658002495765686, 0.6128515005111694, 0.6465262770652771, 0.6646049618721008, 0.6673309206962585, 0.6596930623054504, 0.6513750553131104, 0.6406928300857544, 0.6243385076522827, 0.6044959425926208, 0.5796929597854614, 0.5554167032241821, 0.5294017791748047, 0.4938046634197235, 0.4477655291557312, 0.3924783170223236, 0.32836228609085083, 0.25984451174736023, 0.1924387365579605, 0.12792329490184784, 0.06704917550086975, 0.010449735447764397, -0.034640390425920486, -0.07012134045362473, -0.09723944962024689, -0.11985557526350021, -0.1377912014722824, -0.1526404470205307, -0.1649664342403412, -0.1733211874961853, -0.1800498217344284, -0.1864396631717682, -0.19035547971725464, -0.19425198435783386, -0.19813601672649384, -0.202054962515831, -0.2047342211008072, -0.205830916762352, -0.2047945261001587, -0.20190675556659698, -0.1989404708147049, -0.19615739583969116, -0.19202160835266113, -0.18700137734413147, -0.18174834549427032, -0.17725834250450134, -0.17510992288589478, -0.17750410735607147, -0.18318086862564087, -0.19200226664543152, -0.20134237408638, -0.21172313392162323, -0.22204114496707916, -0.23142114281654358, -0.24163515865802765, -0.25183311104774475, -0.2613290846347809, -0.26807671785354614, -0.2716689109802246, -0.27304917573928833, -0.2710327208042145, -0.2650246322154999, -0.25548461079597473, -0.2432638257741928, -0.2306920289993286, -0.21872079372406006, -0.2088640034198761, -0.20102982223033905, -0.1959414929151535, -0.19683539867401123, -0.20423611998558044, -0.21531721949577332, -0.22656606137752533, -0.23646599054336548, -0.24114568531513214, -0.23911821842193604, -0.22784648835659027, -0.20874325931072235, -0.18226324021816254, -0.14754045009613037, -0.10454685240983963, -0.05364609509706497, 0.0042389254085719585, 0.06735659390687943, 0.1340002864599228, 0.20395676791667938, 0.27411094307899475, 0.34279242157936096, 0.40661799907684326, 0.4665128290653229, 0.5231038928031921, 0.5759849548339844, 0.6262557506561279, 0.669441282749176, 0.6972896456718445, 0.7089806199073792]
