4.268683433532715 CrossValid 1084.4365234375 CrossValidLossesBy500 1127.678955078125 1126.70263671875 1126.2364501953125 1125.61572265625 1124.4964599609375 1122.77001953125 1120.49853515625 1117.9693603515625 1115.377197265625 1112.750732421875 1109.0372314453125 1106.189208984375 1100.114990234375 1096.30859375 1093.0223388671875 1090.4625244140625 1088.8955078125 1087.31494140625 1085.3565673828125 1084.159912109375 1083.942626953125 1085.4471435546875 1083.87353515625 1083.476806640625 1083.7200927734375 1083.9571533203125 1084.3907470703125 1084.01513671875 1084.06005859375 1084.166748046875 1084.181396484375 1084.188232421875 1084.0003662109375 1086.7763671875 1084.0635986328125 1084.0469970703125 1084.1361083984375 1085.80859375 1084.7496337890625 1084.0697021484375 1084.446044921875 1084.3883056640625 1083.99853515625 1084.16796875 1084.1781005859375 1084.0635986328125 1084.0743408203125 1084.4365234375
24000 LossesBy500 4.5180277824401855 4.509141445159912 4.505154609680176 4.5007123947143555 4.494060039520264 4.484372138977051 4.471826553344727 4.457980632781982 4.443918228149414 4.4303178787231445 4.415592193603516 4.40114164352417 4.380622863769531 4.36212682723999 4.344660758972168 4.329887866973877 4.321329593658447 4.311775207519531 4.302368640899658 4.295656204223633 4.2916789054870605 4.293769836425781 4.2847514152526855 4.279440402984619 4.27787971496582 4.276445388793945 4.280426979064941 4.2759623527526855 4.274509906768799 4.27321720123291 4.274008274078369 4.2752299308776855 4.271225929260254 4.277868270874023 4.271457195281982 4.272453784942627 4.27013635635376 4.273338317871094 4.270620346069336 4.270630359649658 4.2695536613464355 4.26954984664917 4.269699573516846 4.268823146820068 4.268963813781738 4.26894998550415 4.268801212310791 4.268683433532715
sigma2_stimulus 	 [0.0]
log_motor_var 	 [7.656294345855713]
sigma_logit 	 [-3.0, 1.0177782773971558, -1.2866977453231812, -2.631619691848755, -2.912119150161743, -3.149618148803711]
mixture_logit 	 [-3.8902554512023926]
prior 	 [2.002351999282837, 2.0033044815063477, 1.9155783653259277, 1.2612437009811401, 1.843644380569458, 1.6816860437393188, 1.8499783277511597, 1.4014455080032349, 1.2405669689178467, 1.43659245967865, 0.45234236121177673, 1.4517263174057007, 1.3338968753814697, 0.6899119019508362, 0.7848038077354431, 0.17638011276721954, 0.5474890470504761, 0.5647119879722595, 0.14567337930202484, -0.32597997784614563, 0.042471885681152344, 0.16009443998336792, -0.36171627044677734, -0.16752341389656067, -0.14965440332889557, -0.7996906638145447, -0.4434279501438141, -0.5475931763648987, -0.5433974862098694, -0.5728266835212708, -0.6666913032531738, -0.8270057439804077, -1.1081271171569824, -0.9861201047897339, 0.0008106500026769936, -1.1941977739334106, -1.49415123462677, -1.0625251531600952, -0.39673101902008057, -0.9575047492980957, -1.1753965616226196, -1.077506184577942, -0.8911297917366028, -1.1510138511657715, -0.5323976874351501, -0.2884225845336914, -1.4287900924682617, -1.5124462842941284, -1.1147757768630981, -0.9205549359321594, -0.6058876514434814, -0.8367390632629395, -0.9340559840202332, -0.7784509658813477, -0.45072096586227417, -0.42562541365623474, -0.9463973641395569, -0.8407043814659119, -0.4398037791252136, -0.41990119218826294, -0.24072453379631042, -0.5029941201210022, -0.22702975571155548, -0.7612526416778564, 0.2748011350631714, -0.4235505163669586, -0.9284346699714661, -0.698593258857727, -0.07391747087240219, -0.03280865028500557, 0.13811275362968445, -0.06526628136634827, 0.45170557498931885, 0.15142318606376648, 0.8465662598609924, 0.28258049488067627, 0.43923133611679077, 1.1163508892059326, 0.13844171166419983, 0.6831508278846741, 0.45989152789115906, 0.7888663411140442, 0.8178485631942749, 0.9662104845046997, 1.2447272539138794, 0.13521263003349304, 1.0448898077011108, 0.6866214871406555, 0.9488566517829895, 0.5640875101089478, 0.585366427898407, -0.2893477976322174, 0.8002153038978577, 0.6252867579460144, 1.075791835784912, 0.5610167980194092, 1.395826816558838, 1.3110699653625488, 1.5890001058578491, 1.0933725833892822, 1.0661699771881104, 0.9151192903518677, 0.996978759765625, 0.5456521511077881, 0.8461816310882568, 0.40599673986434937, 0.8827011585235596, 0.3028554916381836, 0.3679158389568329, 0.12714174389839172, 0.12957337498664856, 0.09070902317762375, 0.6224029064178467, -0.05045631527900696, -0.5191656351089478, 0.22460471093654633, -0.03243354707956314, -0.5496668815612793, -0.42991259694099426, -0.04179052636027336, -0.27716103196144104, -0.4953616261482239, -0.8899165391921997, -0.8715277910232544, -0.8786632418632507, -0.7706148624420166, -1.147346019744873, -1.3002628087997437, -0.8708754777908325, -0.6880486011505127, -1.1371870040893555, -1.1358752250671387, -0.9894670248031616, -1.2223749160766602, -0.9533227682113647, -0.6176401972770691, -1.0891096591949463, -1.3991745710372925, -1.5729602575302124, -1.4187500476837158, -0.9812009334564209, -0.9556699395179749, -0.8762007355690002, -1.1204930543899536, -1.1031334400177002, -0.9933952689170837, -0.8305278420448303, -0.9784203767776489, -0.8710368871688843, -0.9494634866714478, -0.7327530384063721, -0.0832953006029129, -0.5428154468536377, -0.8204398155212402, -0.36519306898117065, -0.0519692562520504, -0.817152738571167, -0.3880845308303833, -0.09172334522008896, 0.04578536003828049, 0.5656231045722961, -0.6002185940742493, -0.08367417752742767, 0.7708091139793396, 0.5056458711624146, -0.2616299092769623, 0.6302502751350403, 1.0097016096115112, 0.9786590337753296, 0.5095789432525635, 1.1382886171340942, 0.7338973879814148, 1.2999975681304932, 0.7937842011451721, 1.6000752449035645, 1.3568389415740967, 1.5365647077560425, 1.5689111948013306, 0.7458903789520264, 1.949475646018982]
volume 	 [0.0, 0.0, 0.0, 0.0, 0.0, 0.0, 0.0, 0.0, 0.0, 0.0, 0.0, 0.0, 0.0, 0.0, 0.0, 0.0, 0.0, 0.0, 0.0, 0.0, 0.0, 0.0, 0.0, 0.0, 0.0, 0.0, 0.0, 0.0, 0.0, 0.0, 0.0, 0.0, 0.0, 0.0, 0.0, 0.0, 0.0, 0.0, 0.0, 0.0, 0.0, 0.0, 0.0, 0.0, 0.0, 0.0, 0.0, 0.0, 0.0, 0.0, 0.0, 0.0, 0.0, 0.0, 0.0, 0.0, 0.0, 0.0, 0.0, 0.0, 0.0, 0.0, 0.0, 0.0, 0.0, 0.0, 0.0, 0.0, 0.0, 0.0, 0.0, 0.0, 0.0, 0.0, 0.0, 0.0, 0.0, 0.0, 0.0, 0.0, 0.0, 0.0, 0.0, 0.0, 0.0, 0.0, 0.0, 0.0, 0.0, 0.0, 0.0, 0.0, 0.0, 0.0, 0.0, 0.0, 0.0, 0.0, 0.0, 0.0, 0.0, 0.0, 0.0, 0.0, 0.0, 0.0, 0.0, 0.0, 0.0, 0.0, 0.0, 0.0, 0.0, 0.0, 0.0, 0.0, 0.0, 0.0, 0.0, 0.0, 0.0, 0.0, 0.0, 0.0, 0.0, 0.0, 0.0, 0.0, 0.0, 0.0, 0.0, 0.0, 0.0, 0.0, 0.0, 0.0, 0.0, 0.0, 0.0, 0.0, 0.0, 0.0, 0.0, 0.0, 0.0, 0.0, 0.0, 0.0, 0.0, 0.0, 0.0, 0.0, 0.0, 0.0, 0.0, 0.0, 0.0, 0.0, 0.0, 0.0, 0.0, 0.0, 0.0, 0.0, 0.0, 0.0, 0.0, 0.0, 0.0, 0.0, 0.0, 0.0, 0.0, 0.0, 0.0, 0.0, 0.0, 0.0, 0.0, 0.0]
