4.049823760986328 CrossValid 1001.2413330078125 CrossValidLossesBy500 1037.830078125 1034.1837158203125 1031.9664306640625 1029.6876220703125 1027.6307373046875 1026.280029296875 1024.08349609375 1022.6519775390625 1021.2512817382812 1021.9047241210938 1018.99560546875 1018.0623779296875 1017.1998901367188 1016.3084106445312 1015.5078125 1014.7589111328125 1013.9459838867188 1013.2880249023438 1012.679443359375 1011.9844970703125 1011.4155883789062 1010.8524169921875 1010.3767700195312 1009.8350219726562 1009.3949584960938 1008.9082641601562 1008.4642944335938 1008.0176391601562 1007.560791015625 1007.1187744140625 1006.7127075195312 1006.2742919921875 1005.8543701171875 1005.5269165039062 1005.1404418945312 1004.8630981445312 1004.5101928710938 1004.2247924804688 1003.9996337890625 1003.7417602539062 1003.5703735351562 1003.264892578125 1003.1829223632812 1003.0335083007812 1002.9124755859375 1002.773193359375 1002.6460571289062 1002.4839477539062 1002.3775024414062 1002.3250732421875 1002.1875 1002.0772705078125 1002.0936889648438 1002.1967163085938 1002.0771484375 1001.7129516601562 1001.66162109375 1001.3880004882812 1001.3926391601562 1001.3028564453125 1001.3368530273438 1001.3313598632812 1001.2413330078125
31500 LossesBy500 4.163098335266113 4.142977714538574 4.126248359680176 4.117311954498291 4.109808444976807 4.115495681762695 4.0981831550598145 4.093720436096191 4.089502334594727 4.104881286621094 4.082946300506592 4.080327987670898 4.0779218673706055 4.075578212738037 4.073447227478027 4.071648597717285 4.069795608520508 4.068210124969482 4.0667853355407715 4.065338134765625 4.064074516296387 4.062909126281738 4.061731815338135 4.060624122619629 4.05994987487793 4.058794975280762 4.058205604553223 4.057391166687012 4.056632995605469 4.055912017822266 4.055405616760254 4.054777145385742 4.05413293838501 4.0538716316223145 4.053382396697998 4.0531086921691895 4.052638530731201 4.052281856536865 4.052252769470215 4.051941871643066 4.051961421966553 4.051501750946045 4.051516056060791 4.051405906677246 4.051289081573486 4.051114082336426 4.051077842712402 4.0508880615234375 4.050728797912598 4.050900459289551 4.0507612228393555 4.0505900382995605 4.050539016723633 4.0508246421813965 4.051176071166992 4.050586700439453 4.050480365753174 4.0502028465271 4.0504302978515625 4.050151348114014 4.050326824188232 4.050134658813477 4.049823760986328
sigma2_stimulus 	 [0.0]
log_motor_var 	 [7.1080322265625]
sigma_logit 	 [-3.0, 0.5336340069770813, -1.5251142978668213, -3.2115142345428467, -3.6101489067077637, -4.044240951538086]
mixture_logit 	 [-3.148395538330078]
prior 	 [1.470983862876892, 1.4744194746017456, 1.441123604774475, 1.3800699710845947, 1.3152507543563843, 1.2402023077011108, 1.172327995300293, 1.0935970544815063, 1.0113747119903564, 0.9251779913902283, 0.8351297974586487, 0.7531508803367615, 0.6645206212997437, 0.5703867077827454, 0.48297572135925293, 0.3945807218551636, 0.306894987821579, 0.2285233587026596, 0.143217071890831, 0.05536608397960663, -0.03045371174812317, -0.10685820877552032, -0.17368166148662567, -0.2368786782026291, -0.2999314069747925, -0.364378422498703, -0.424306184053421, -0.4778652787208557, -0.5313741564750671, -0.5848617553710938, -0.6339755654335022, -0.676239550113678, -0.7067094445228577, -0.7235565781593323, -0.7376152276992798, -0.7622019052505493, -0.7926072478294373, -0.8116849064826965, -0.8185082674026489, -0.8266072869300842, -0.8366897702217102, -0.8399887084960938, -0.8347998261451721, -0.8266178965568542, -0.8212062120437622, -0.8275376558303833, -0.8437516093254089, -0.8505892753601074, -0.8385438919067383, -0.8164490461349487, -0.7936475276947021, -0.7743905186653137, -0.7565009593963623, -0.736836314201355, -0.7153110504150391, -0.6940708756446838, -0.6755408048629761, -0.656792163848877, -0.6355232000350952, -0.6120839715003967, -0.582874059677124, -0.5476622581481934, -0.509614109992981, -0.4696123003959656, -0.42304450273513794, -0.3738516867160797, -0.33351874351501465, -0.29051315784454346, -0.22569912672042847, -0.14062094688415527, -0.04834294319152832, 0.041115518659353256, 0.1291375607252121, 0.21432895958423615, 0.3002006709575653, 0.39681267738342285, 0.4856942892074585, 0.5715986490249634, 0.6652586460113525, 0.7464914321899414, 0.8167601227760315, 0.8886013031005859, 0.9483309984207153, 0.9891502261161804, 1.0330870151519775, 1.0630393028259277, 1.0683010816574097, 1.0749120712280273, 1.0790786743164062, 1.0877454280853271, 1.1122490167617798, 1.155436635017395, 1.1953383684158325, 1.2116267681121826, 1.2072551250457764, 1.1720173358917236, 1.121116042137146, 1.0572086572647095, 0.9714896082878113, 0.8977688550949097, 0.8192369341850281, 0.7337067723274231, 0.6383266448974609, 0.5481607913970947, 0.4630635678768158, 0.37924644351005554, 0.29342329502105713, 0.21090136468410492, 0.13655224442481995, 0.06729314476251602, 0.005294538103044033, -0.049312688410282135, -0.11298733204603195, -0.18524977564811707, -0.24900299310684204, -0.3004194498062134, -0.35065165162086487, -0.4037219285964966, -0.4548901319503784, -0.4993893802165985, -0.5442004799842834, -0.5949652791023254, -0.6487893462181091, -0.7019145488739014, -0.7480251789093018, -0.7826289534568787, -0.80823814868927, -0.8296629786491394, -0.8448562026023865, -0.8525146245956421, -0.8589767813682556, -0.8679867386817932, -0.8759647607803345, -0.880282461643219, -0.8817486763000488, -0.8860682249069214, -0.8993834853172302, -0.9184042811393738, -0.9303499460220337, -0.9278015494346619, -0.916567862033844, -0.9035049080848694, -0.8888486623764038, -0.8716859817504883, -0.8518540859222412, -0.8286955952644348, -0.8011525869369507, -0.7699480652809143, -0.7352510690689087, -0.6933013796806335, -0.6457873582839966, -0.6035023927688599, -0.5680424571037292, -0.5271345376968384, -0.4733526408672333, -0.4149825870990753, -0.35441434383392334, -0.2793651521205902, -0.19469963014125824, -0.1140352189540863, -0.037992242723703384, 0.035592928528785706, 0.1164766401052475, 0.2080046832561493, 0.2885211408138275, 0.3639194667339325, 0.4648805856704712, 0.5799366235733032, 0.6780702471733093, 0.7647536993026733, 0.8522666096687317, 0.94492107629776, 1.0329642295837402, 1.1221810579299927, 1.2075871229171753, 1.2715206146240234, 1.3217281103134155, 1.3586238622665405, 1.4023493528366089, 1.4452649354934692]
volume 	 [0.762651264667511, 0.7253445386886597, 0.6991443634033203, 0.6541944146156311, 0.6182643175125122, 0.5837771892547607, 0.5290200114250183, 0.48431673645973206, 0.4200130105018616, 0.34279051423072815, 0.2689399719238281, 0.1963481605052948, 0.13708007335662842, 0.0801394134759903, 0.02065172791481018, -0.03487153351306915, -0.07639169692993164, -0.10557927191257477, -0.13549037277698517, -0.16683413088321686, -0.2058134377002716, -0.23967522382736206, -0.2536250352859497, -0.25454187393188477, -0.2599429488182068, -0.2723553776741028, -0.2822222113609314, -0.28630679845809937, -0.28928911685943604, -0.29343539476394653, -0.29152652621269226, -0.2849023640155792, -0.2759467661380768, -0.26415449380874634, -0.25757527351379395, -0.258215993642807, -0.2606533467769623, -0.26350370049476624, -0.27291610836982727, -0.28463107347488403, -0.29054078459739685, -0.2916065752506256, -0.29565319418907166, -0.30324867367744446, -0.30741363763809204, -0.3002283275127411, -0.28400346636772156, -0.26875394582748413, -0.2672922611236572, -0.27746039628982544, -0.28981342911720276, -0.3011864721775055, -0.3110530376434326, -0.3177814185619354, -0.3209705352783203, -0.3232787549495697, -0.32568666338920593, -0.326942503452301, -0.3293834328651428, -0.33461517095565796, -0.33046454191207886, -0.306999146938324, -0.27335673570632935, -0.24739760160446167, -0.22996631264686584, -0.21118026971817017, -0.19740280508995056, -0.1933504343032837, -0.18452629446983337, -0.16142083704471588, -0.12476136535406113, -0.0799088329076767, -0.037259068340063095, 0.017435556277632713, 0.09142445027828217, 0.15991923213005066, 0.21532762050628662, 0.27571043372154236, 0.3512570261955261, 0.42503151297569275, 0.49430814385414124, 0.5488229393959045, 0.5829845070838928, 0.6156063675880432, 0.6283196210861206, 0.6382682919502258, 0.6611078381538391, 0.6852025389671326, 0.6706205606460571, 0.6325028538703918, 0.6210557222366333, 0.6340645551681519, 0.6539809107780457, 0.6447058916091919, 0.6268965601921082, 0.6050640344619751, 0.5778728127479553, 0.5407420992851257, 0.50300532579422, 0.4407205283641815, 0.3784937560558319, 0.3148931860923767, 0.2475671023130417, 0.19081906974315643, 0.13651469349861145, 0.07907871901988983, 0.04246993362903595, 0.004763984587043524, -0.033379241824150085, -0.05746190622448921, -0.07122490555047989, -0.08237884193658829, -0.09817860275506973, -0.12001495808362961, -0.14863407611846924, -0.17497219145298004, -0.1930009126663208, -0.20903511345386505, -0.22238929569721222, -0.23130948841571808, -0.23605592548847198, -0.24020440876483917, -0.24885602295398712, -0.26465389132499695, -0.2839689552783966, -0.29604119062423706, -0.2968159317970276, -0.29818230867385864, -0.30752307176589966, -0.3133290112018585, -0.3056650161743164, -0.29582884907722473, -0.2947915494441986, -0.30337512493133545, -0.3173797130584717, -0.3311797082424164, -0.33292728662490845, -0.32745489478111267, -0.33241191506385803, -0.3477015495300293, -0.36523696780204773, -0.37838461995124817, -0.3852120637893677, -0.3892279863357544, -0.3916620910167694, -0.3887707591056824, -0.37608587741851807, -0.3540079891681671, -0.3324972987174988, -0.31543830037117004, -0.3025754392147064, -0.2902354896068573, -0.27401018142700195, -0.2568420469760895, -0.24481989443302155, -0.23619258403778076, -0.2168368399143219, -0.18567010760307312, -0.1588839739561081, -0.14355087280273438, -0.1251002997159958, -0.09568747133016586, -0.06240879371762276, -0.027141010388731956, 0.022413916885852814, 0.08054300397634506, 0.14210304617881775, 0.21350598335266113, 0.2784809470176697, 0.337466299533844, 0.40724557638168335, 0.4649498462677002, 0.509964108467102, 0.5449003577232361, 0.565951406955719, 0.6005681753158569, 0.6495090126991272, 0.6942867636680603, 0.7229999303817749, 0.7339872121810913]
