4.153860569000244 CrossValid 980.5211181640625 CrossValidLossesBy500 990.4248046875 984.6072998046875 983.3993530273438 982.88134765625 982.6011352539062 982.45947265625 982.341796875 982.2491455078125 982.18359375 982.0630493164062 982.0645751953125 982.0668334960938 982.02490234375 981.96923828125 981.9383544921875 981.8902587890625 980.5211181640625
8500 LossesBy500 4.184314250946045 4.163845539093018 4.160528659820557 4.159374713897705 4.158812046051025 4.158559322357178 4.158342361450195 4.158178806304932 4.15805721282959 4.157902717590332 4.15786075592041 4.157840251922607 4.157810211181641 4.157688617706299 4.157687664031982 4.157618999481201 4.153860569000244
sigma2_stimulus 	 [0.0]
log_motor_var 	 [6.182417869567871]
sigma_logit 	 [-3.0, 0.5901946425437927, -1.6527049541473389, -3.2219858169555664, -3.595043182373047, -4.065836429595947]
mixture_logit 	 [-2.9055285453796387]
prior 	 [0.0, 0.0, 0.0, 0.0, 0.0, 0.0, 0.0, 0.0, 0.0, 0.0, 0.0, 0.0, 0.0, 0.0, 0.0, 0.0, 0.0, 0.0, 0.0, 0.0, 0.0, 0.0, 0.0, 0.0, 0.0, 0.0, 0.0, 0.0, 0.0, 0.0, 0.0, 0.0, 0.0, 0.0, 0.0, 0.0, 0.0, 0.0, 0.0, 0.0, 0.0, 0.0, 0.0, 0.0, 0.0, 0.0, 0.0, 0.0, 0.0, 0.0, 0.0, 0.0, 0.0, 0.0, 0.0, 0.0, 0.0, 0.0, 0.0, 0.0, 0.0, 0.0, 0.0, 0.0, 0.0, 0.0, 0.0, 0.0, 0.0, 0.0, 0.0, 0.0, 0.0, 0.0, 0.0, 0.0, 0.0, 0.0, 0.0, 0.0, 0.0, 0.0, 0.0, 0.0, 0.0, 0.0, 0.0, 0.0, 0.0, 0.0, 0.0, 0.0, 0.0, 0.0, 0.0, 0.0, 0.0, 0.0, 0.0, 0.0, 0.0, 0.0, 0.0, 0.0, 0.0, 0.0, 0.0, 0.0, 0.0, 0.0, 0.0, 0.0, 0.0, 0.0, 0.0, 0.0, 0.0, 0.0, 0.0, 0.0, 0.0, 0.0, 0.0, 0.0, 0.0, 0.0, 0.0, 0.0, 0.0, 0.0, 0.0, 0.0, 0.0, 0.0, 0.0, 0.0, 0.0, 0.0, 0.0, 0.0, 0.0, 0.0, 0.0, 0.0, 0.0, 0.0, 0.0, 0.0, 0.0, 0.0, 0.0, 0.0, 0.0, 0.0, 0.0, 0.0, 0.0, 0.0, 0.0, 0.0, 0.0, 0.0, 0.0, 0.0, 0.0, 0.0, 0.0, 0.0, 0.0, 0.0, 0.0, 0.0, 0.0, 0.0, 0.0, 0.0, 0.0, 0.0, 0.0, 0.0]
volume 	 [0.7263249158859253, 0.7040908932685852, 0.6594828367233276, 0.6046634316444397, 0.5518279075622559, 0.4966312348842621, 0.4400655925273895, 0.38257333636283875, 0.32290738821029663, 0.2609799802303314, 0.19491127133369446, 0.12467654794454575, 0.055553268641233444, -0.003104005940258503, -0.05367644876241684, -0.09376239031553268, -0.12846942245960236, -0.1575108915567398, -0.18246720731258392, -0.2013547718524933, -0.21753232181072235, -0.23359046876430511, -0.2514457404613495, -0.2721787393093109, -0.2943640351295471, -0.3121096193790436, -0.32097214460372925, -0.32369887828826904, -0.3262547552585602, -0.3305162787437439, -0.3323100209236145, -0.3297615945339203, -0.3239525258541107, -0.3118220865726471, -0.29120758175849915, -0.2605689764022827, -0.22515316307544708, -0.1930873841047287, -0.1687452793121338, -0.1536257266998291, -0.14645937085151672, -0.14209672808647156, -0.14047785103321075, -0.14086638391017914, -0.14093580842018127, -0.1337796449661255, -0.11999426782131195, -0.11061486601829529, -0.11779560148715973, -0.1393425464630127, -0.168929785490036, -0.20136623084545135, -0.231599822640419, -0.25745144486427307, -0.27857011556625366, -0.2948474884033203, -0.3031521141529083, -0.30382442474365234, -0.30117267370224, -0.3003104627132416, -0.30001530051231384, -0.2992566227912903, -0.2978680729866028, -0.29308030009269714, -0.27888667583465576, -0.2563517093658447, -0.23161381483078003, -0.20693854987621307, -0.17960265278816223, -0.14607474207878113, -0.11030852049589157, -0.07580310106277466, -0.04227941855788231, -0.0026282507460564375, 0.046908967196941376, 0.1040002852678299, 0.16743724048137665, 0.23442405462265015, 0.2995159327983856, 0.36040765047073364, 0.4111567735671997, 0.44930732250213623, 0.48591291904449463, 0.5339997410774231, 0.5886346697807312, 0.648223876953125, 0.690607488155365, 0.7080119252204895, 0.6975885629653931, 0.6652547121047974, 0.6480501890182495, 0.6319312453269958, 0.615830659866333, 0.6005069613456726, 0.5856526494026184, 0.5705785751342773, 0.5491623282432556, 0.5149681568145752, 0.46831217408180237, 0.40901991724967957, 0.3492923974990845, 0.29104888439178467, 0.23180675506591797, 0.17360073328018188, 0.11643407493829727, 0.05999814346432686, 0.011488601565361023, -0.02957306243479252, -0.06358443945646286, -0.09486879408359528, -0.12135069817304611, -0.143122598528862, -0.15867233276367188, -0.1655709147453308, -0.16799135506153107, -0.17054036259651184, -0.17406152188777924, -0.18026253581047058, -0.18682491779327393, -0.19295331835746765, -0.19933713972568512, -0.20753103494644165, -0.21649736166000366, -0.22340354323387146, -0.22787559032440186, -0.2293912023305893, -0.22932712733745575, -0.22801360487937927, -0.22247861325740814, -0.21435682475566864, -0.2087554931640625, -0.20744545757770538, -0.20965120196342468, -0.21844010055065155, -0.23067381978034973, -0.24215634167194366, -0.2498944252729416, -0.259746789932251, -0.27838876843452454, -0.2988818287849426, -0.3138106167316437, -0.32150715589523315, -0.3236302435398102, -0.3230670094490051, -0.32060131430625916, -0.31562238931655884, -0.3068503141403198, -0.29521676898002625, -0.28389856219291687, -0.2743384838104248, -0.26688534021377563, -0.2567000091075897, -0.24152447283267975, -0.22708597779273987, -0.22124430537223816, -0.22316910326480865, -0.2260555624961853, -0.2253980040550232, -0.2186906635761261, -0.20547713339328766, -0.18576347827911377, -0.16202352941036224, -0.13526640832424164, -0.10391733795404434, -0.06631294637918472, -0.01965649425983429, 0.03876218572258949, 0.10573986172676086, 0.17714062333106995, 0.25116604566574097, 0.3216783106327057, 0.38285306096076965, 0.43868544697761536, 0.4905962646007538, 0.538666844367981, 0.594900906085968, 0.639247715473175, 0.6740822792053223, 0.6968915462493896, 0.7086842656135559]
