4.062649250030518 CrossValid 964.2413330078125 CrossValidLossesBy500 996.9000244140625 986.5501098632812 983.1788940429688 980.7720947265625 978.7026977539062 976.7274780273438 975.0170288085938 973.4675903320312 972.4229125976562 971.4110107421875 971.8663330078125 970.1959228515625 968.499267578125 969.286376953125 967.1864013671875 967.5032958984375 966.3256225585938 965.902099609375 965.6046752929688 965.7836303710938 965.7340698242188 964.8765869140625 964.69482421875 964.59912109375 964.7066650390625 964.6369018554688 964.4299926757812 964.27978515625 964.3585205078125 964.2413330078125
15000 LossesBy500 4.187499046325684 4.140132904052734 4.124979019165039 4.114970684051514 4.106882095336914 4.0996623039245605 4.093739032745361 4.08834171295166 4.0826311111450195 4.078647613525391 4.076168537139893 4.073434352874756 4.071944713592529 4.070284843444824 4.068810939788818 4.067642688751221 4.066761493682861 4.066380023956299 4.065720081329346 4.064512729644775 4.064200401306152 4.064334392547607 4.0642805099487305 4.063930511474609 4.063056945800781 4.06375789642334 4.0629143714904785 4.063430309295654 4.063497543334961 4.062649250030518
sigma2_stimulus 	 [0.0]
log_motor_var 	 [7.029858589172363]
sigma_logit 	 [-3.0, 0.3099684417247772, -1.6007459163665771, -3.1450629234313965, -3.6063308715820312, -4.053393840789795]
mixture_logit 	 [-3.173682928085327]
prior 	 [1.1538673639297485, 1.1731271743774414, 1.1490263938903809, 1.1009821891784668, 1.044510841369629, 0.9965997934341431, 0.9390498995780945, 0.8856669664382935, 0.8350812792778015, 0.7730551958084106, 0.717851996421814, 0.6632855534553528, 0.5970650911331177, 0.5236876010894775, 0.4470115602016449, 0.3778443932533264, 0.30524787306785583, 0.23101924359798431, 0.16673055291175842, 0.11287465691566467, 0.0598166361451149, 0.006899237632751465, -0.0452004112303257, -0.09751797467470169, -0.1491755098104477, -0.1981068253517151, -0.24103425443172455, -0.27784183621406555, -0.31047120690345764, -0.3396017253398895, -0.3673091232776642, -0.39731365442276, -0.43218713998794556, -0.46972304582595825, -0.5034114122390747, -0.5292598605155945, -0.5484099984169006, -0.5615195035934448, -0.5670105218887329, -0.5656834244728088, -0.5613760352134705, -0.5572700500488281, -0.5549098253250122, -0.5567802786827087, -0.5658929347991943, -0.5807815790176392, -0.5939355492591858, -0.5975503921508789, -0.5899029970169067, -0.5745993256568909, -0.5563680529594421, -0.5385059714317322, -0.5216853618621826, -0.5055195689201355, -0.48972898721694946, -0.47282978892326355, -0.452962189912796, -0.43045514822006226, -0.4074542820453644, -0.3847530484199524, -0.36090320348739624, -0.3337900936603546, -0.3018713891506195, -0.2649443745613098, -0.22638772428035736, -0.19076880812644958, -0.15564900636672974, -0.1161145567893982, -0.07933668792247772, -0.0475597120821476, -0.008204307407140732, 0.046487901359796524, 0.11192062497138977, 0.17735569179058075, 0.2428223043680191, 0.31306421756744385, 0.38099542260169983, 0.4431515038013458, 0.5054582953453064, 0.5649590492248535, 0.6133630275726318, 0.6555123925209045, 0.6776835322380066, 0.6949708461761475, 0.7032424807548523, 0.7144644260406494, 0.7196666598320007, 0.7211738228797913, 0.7213191986083984, 0.7279296517372131, 0.7590452432632446, 0.8152706027030945, 0.8670015931129456, 0.8928877711296082, 0.8803298473358154, 0.8487051725387573, 0.8021337985992432, 0.7469580173492432, 0.7010310292243958, 0.6421683430671692, 0.5679833889007568, 0.48634055256843567, 0.40988245606422424, 0.3347688913345337, 0.2629929780960083, 0.2071136236190796, 0.15975795686244965, 0.11528309434652328, 0.06978168338537216, 0.017604593187570572, -0.034367598593235016, -0.07717406749725342, -0.11507140100002289, -0.1562371701002121, -0.20557303726673126, -0.2573024332523346, -0.30450955033302307, -0.3493158519268036, -0.39461034536361694, -0.43894580006599426, -0.4834095537662506, -0.5280740857124329, -0.5693322420120239, -0.6047323942184448, -0.6353704333305359, -0.6627886891365051, -0.6864312291145325, -0.7051023840904236, -0.7192741632461548, -0.7304372191429138, -0.7390274405479431, -0.7440826892852783, -0.745371401309967, -0.7444296479225159, -0.7429866194725037, -0.7424175143241882, -0.744276225566864, -0.7497365474700928, -0.7580779790878296, -0.7658525109291077, -0.7684867978096008, -0.7635871767997742, -0.7517352104187012, -0.733692467212677, -0.7094399929046631, -0.6801075339317322, -0.6482048034667969, -0.6154143214225769, -0.5810489058494568, -0.5437023639678955, -0.5036876797676086, -0.4624694287776947, -0.42003339529037476, -0.3752533495426178, -0.32907408475875854, -0.282976895570755, -0.23543322086334229, -0.1842067837715149, -0.13007676601409912, -0.07191170006990433, -0.006674620322883129, 0.05868604779243469, 0.11688663810491562, 0.16733838617801666, 0.21752461791038513, 0.2705562710762024, 0.31334084272384644, 0.3540806174278259, 0.4083508253097534, 0.47593924403190613, 0.5468698740005493, 0.5996361970901489, 0.6476435661315918, 0.709396481513977, 0.7672937512397766, 0.8388888239860535, 0.9115782976150513, 0.9770925641059875, 1.0411778688430786, 1.105937123298645]
volume 	 [0.9194638133049011, 0.8837566375732422, 0.855221152305603, 0.8372275233268738, 0.8009606003761292, 0.7439827919006348, 0.6960747838020325, 0.6383271813392639, 0.5659594535827637, 0.4952802360057831, 0.42603686451911926, 0.3545486629009247, 0.2887047529220581, 0.2316189855337143, 0.1670193076133728, 0.09499959647655487, 0.024635570123791695, -0.031031865626573563, -0.07826662808656693, -0.11621659249067307, -0.15658998489379883, -0.19880744814872742, -0.23430362343788147, -0.2563450336456299, -0.2700030505657196, -0.2854842245578766, -0.3030818998813629, -0.31598395109176636, -0.3253054618835449, -0.3346042335033417, -0.3430635333061218, -0.35129040479660034, -0.36004647612571716, -0.3703136146068573, -0.38244709372520447, -0.39218640327453613, -0.40105482935905457, -0.41296425461769104, -0.42555174231529236, -0.43303966522216797, -0.43781694769859314, -0.44509226083755493, -0.45781606435775757, -0.4710151255130768, -0.4789518713951111, -0.480164110660553, -0.4749224781990051, -0.46346980333328247, -0.44981151819229126, -0.43723243474960327, -0.4284880757331848, -0.4250671863555908, -0.4247535169124603, -0.4254131317138672, -0.4261325001716614, -0.42674073576927185, -0.424850195646286, -0.41887494921684265, -0.41041100025177, -0.40190428495407104, -0.3895396888256073, -0.3681381344795227, -0.337193101644516, -0.3014666736125946, -0.2634526193141937, -0.22560620307922363, -0.19378621876239777, -0.16457824409008026, -0.13170096278190613, -0.0998634621500969, -0.06986664980649948, -0.029345527291297913, 0.026929736137390137, 0.09633959084749222, 0.16451580822467804, 0.2367914617061615, 0.3272799253463745, 0.4077448546886444, 0.4792320132255554, 0.5442553758621216, 0.6011695861816406, 0.6666296124458313, 0.7272504568099976, 0.7721592783927917, 0.8475005030632019, 0.8917449712753296, 0.9226628541946411, 0.9001099467277527, 0.8850480318069458, 0.853531002998352, 0.8498323559761047, 0.8460915684700012, 0.8358686566352844, 0.7971965074539185, 0.7837540507316589, 0.7597076296806335, 0.7190306186676025, 0.6741834282875061, 0.6051844954490662, 0.5329467058181763, 0.46234503388404846, 0.3912142813205719, 0.3243259787559509, 0.26799190044403076, 0.21804547309875488, 0.16044460237026215, 0.11560607701539993, 0.08308304846286774, 0.048387084156274796, 0.007027863059192896, -0.03338126093149185, -0.066329225897789, -0.09608058631420135, -0.13135989010334015, -0.17078523337841034, -0.20472104847431183, -0.23026174306869507, -0.2563895285129547, -0.28567105531692505, -0.3173043429851532, -0.34935417771339417, -0.37737414240837097, -0.39592909812927246, -0.40321317315101624, -0.4068271815776825, -0.4172390103340149, -0.4364284873008728, -0.4586915075778961, -0.47973236441612244, -0.5002143383026123, -0.5201923251152039, -0.5386740565299988, -0.5532289743423462, -0.564520537853241, -0.5715148448944092, -0.5738003849983215, -0.5735547542572021, -0.5745763182640076, -0.580575704574585, -0.5887510776519775, -0.5960638523101807, -0.6003111004829407, -0.5995694398880005, -0.5941965579986572, -0.5838440656661987, -0.5689383745193481, -0.5505468845367432, -0.5282562375068665, -0.49997541308403015, -0.46534261107444763, -0.4287564158439636, -0.39385369420051575, -0.3614627420902252, -0.3310103714466095, -0.30078786611557007, -0.2701154947280884, -0.23656632006168365, -0.1992512047290802, -0.15433897078037262, -0.09963279962539673, -0.038198329508304596, 0.022692402824759483, 0.07416767627000809, 0.11214408278465271, 0.14826615154743195, 0.195275217294693, 0.24939246475696564, 0.31352338194847107, 0.3898945748806, 0.4460446834564209, 0.4945870339870453, 0.5660246014595032, 0.6208908557891846, 0.669041097164154, 0.7260851860046387, 0.7963270545005798, 0.8486429452896118, 0.8886038064956665, 0.9013408422470093, 0.8992024660110474]
