3.988546371459961 CrossValid 1008.3905639648438 CrossValidLossesBy500 1059.073974609375 1025.57421875 1015.7290649414062 1012.2499389648438 1010.2789916992188 1009.3151245117188 1008.7759399414062 1009.0350952148438 1009.00634765625 1008.543212890625 1009.1180419921875 1008.7058715820312 1008.699462890625 1008.7652587890625 1008.5109252929688 1008.63330078125 1008.3905639648438
8500 LossesBy500 4.220218658447266 4.070805549621582 4.024672985076904 4.008533477783203 3.9999327659606934 3.9941415786743164 3.9920897483825684 3.990601062774658 3.9899048805236816 3.989370107650757 3.98939847946167 3.989084482192993 3.9888479709625244 3.9889626502990723 3.9887118339538574 3.988827705383301 3.988546371459961
sigma2_stimulus 	 [0.0]
log_motor_var 	 [6.511437892913818]
sigma_logit 	 [-3.0, -0.8108447790145874, -1.47809898853302, -3.2786543369293213, -3.7009260654449463, -4.232390403747559]
mixture_logit 	 [-3.0273449420928955]
prior 	 [-0.8564096689224243, -0.8475198745727539, -0.8320997357368469, -0.8096651434898376, -0.7821118235588074, -0.749039888381958, -0.7103783488273621, -0.6688458323478699, -0.6279087662696838, -0.5884640216827393, -0.5493527054786682, -0.5097360610961914, -0.46899154782295227, -0.427261084318161, -0.38518908619880676, -0.34302818775177, -0.3001386821269989, -0.2553570866584778, -0.20802249014377594, -0.15854483842849731, -0.10789457708597183, -0.05673052370548248, -0.005140495486557484, 0.04698600992560387, 0.09967316687107086, 0.15289953351020813, 0.2064470499753952, 0.2595926821231842, 0.31127020716667175, 0.36052656173706055, 0.4067697823047638, 0.450104296207428, 0.49146220088005066, 0.5313952565193176, 0.5686191916465759, 0.6012435555458069, 0.6302099227905273, 0.6594957709312439, 0.6918359398841858, 0.7269102334976196, 0.7621747255325317, 0.792392909526825, 0.8128554821014404, 0.8223583698272705, 0.8207961320877075, 0.8118025660514832, 0.8034334182739258, 0.7982969284057617, 0.7907745838165283, 0.7754555344581604, 0.7518369555473328, 0.721756637096405, 0.6879116296768188, 0.6535552740097046, 0.6205602884292603, 0.5886068940162659, 0.5561767220497131, 0.5219204425811768, 0.48552531003952026, 0.4474819302558899, 0.40826669335365295, 0.3680468201637268, 0.32711467146873474, 0.28586727380752563, 0.24362321197986603, 0.19841022789478302, 0.1490938514471054, 0.09688607603311539, 0.04395147040486336, -0.008752402849495411, -0.06182777136564255, -0.11623665690422058, -0.1720583289861679, -0.22812585532665253, -0.28285205364227295, -0.3355301022529602, -0.3867265582084656, -0.43752580881118774, -0.48820364475250244, -0.537728488445282, -0.5853475332260132, -0.6309104561805725, -0.6738561391830444, -0.7133874893188477, -0.7481726408004761, -0.7791520357131958, -0.8057424426078796, -0.8279344439506531, -0.8445694446563721, -0.8551536202430725, -0.8596860766410828, -0.8577582240104675, -0.8500394225120544, -0.839000940322876, -0.8237273693084717, -0.803870677947998, -0.779237687587738, -0.7517511248588562, -0.7222437858581543, -0.6908449530601501, -0.6561823487281799, -0.6182183027267456, -0.5777531862258911, -0.5354369878768921, -0.4910396635532379, -0.4439145624637604, -0.3937423825263977, -0.3408486247062683, -0.28610163927078247, -0.23068350553512573, -0.1757536083459854, -0.12195539474487305, -0.06916000694036484, -0.016845015808939934, 0.03516234830021858, 0.08627761155366898, 0.13555748760700226, 0.1827496588230133, 0.22905409336090088, 0.27645719051361084, 0.32579296827316284, 0.3755371570587158, 0.4229629635810852, 0.46616730093955994, 0.5046350359916687, 0.5390692949295044, 0.571182370185852, 0.6021414399147034, 0.631024956703186, 0.6561562418937683, 0.6774250864982605, 0.6958745121955872, 0.7127137184143066, 0.7295594811439514, 0.7466597557067871, 0.7617231011390686, 0.7713932394981384, 0.7727358937263489, 0.7661135792732239, 0.755959153175354, 0.7461451888084412, 0.7369795441627502, 0.7271633744239807, 0.714881181716919, 0.6988286375999451, 0.6789712309837341, 0.6552734971046448, 0.6271419525146484, 0.5940340161323547, 0.5552024245262146, 0.5095276832580566, 0.45692265033721924, 0.39935946464538574, 0.33969223499298096, 0.27974259853363037, 0.2198590636253357, 0.1599554419517517, 0.10032910108566284, 0.04135161265730858, -0.017222387716174126, -0.07631959021091461, -0.13691377639770508, -0.19929170608520508, -0.2627318799495697, -0.3257192075252533, -0.3865659832954407, -0.4441777467727661, -0.4985663592815399, -0.5505443215370178, -0.6003134250640869, -0.6463225483894348, -0.6869248151779175, -0.7226144075393677, -0.7551693320274353, -0.7854709625244141, -0.8117277026176453, -0.83414626121521, -0.8501303791999817, -0.858412504196167, -0.8611077666282654]
volume 	 [0.956108570098877, 0.9592524170875549, 0.9124616384506226, 0.831108033657074, 0.7629399299621582, 0.6948696374893188, 0.6154499650001526, 0.5269970893859863, 0.4360213279724121, 0.35298964381217957, 0.27108675241470337, 0.18862766027450562, 0.10636802017688751, 0.032945167273283005, -0.03361052647233009, -0.08923111110925674, -0.1361246556043625, -0.17618626356124878, -0.21377170085906982, -0.24643166363239288, -0.273330956697464, -0.29147839546203613, -0.3024749755859375, -0.3091072738170624, -0.31482988595962524, -0.31885212659835815, -0.31825974583625793, -0.31284576654434204, -0.30563223361968994, -0.3002330958843231, -0.29906898736953735, -0.299389123916626, -0.2977543771266937, -0.2906528115272522, -0.27841097116470337, -0.26112332940101624, -0.24335475265979767, -0.22845953702926636, -0.2148529589176178, -0.19943901896476746, -0.1843768209218979, -0.17349694669246674, -0.17167481780052185, -0.1759614795446396, -0.1839704066514969, -0.19326701760292053, -0.20148177444934845, -0.20608164370059967, -0.20902450382709503, -0.21500235795974731, -0.2297896295785904, -0.252560019493103, -0.27812254428863525, -0.3024959862232208, -0.32583171129226685, -0.3483278155326843, -0.3682262599468231, -0.3854546844959259, -0.3987452983856201, -0.4062785804271698, -0.40737056732177734, -0.4029172360897064, -0.3961833715438843, -0.39073696732521057, -0.38539594411849976, -0.37964388728141785, -0.3743032217025757, -0.36891308426856995, -0.3622031807899475, -0.35109779238700867, -0.3331906497478485, -0.30417367815971375, -0.26198458671569824, -0.20524102449417114, -0.13623447716236115, -0.057510390877723694, 0.027633914723992348, 0.11824461072683334, 0.2119276523590088, 0.3135145604610443, 0.4263707399368286, 0.5432875156402588, 0.635457456111908, 0.7147768139839172, 0.7988532185554504, 0.8785518407821655, 0.9718239307403564, 1.0668660402297974, 1.0855268239974976, 1.126494288444519, 1.1140679121017456, 1.0679090023040771, 1.0440882444381714, 0.9436188340187073, 0.8715279698371887, 0.7901962995529175, 0.7095833420753479, 0.5985662341117859, 0.48623499274253845, 0.3813539147377014, 0.28342509269714355, 0.18904876708984375, 0.10505104809999466, 0.026436222717165947, -0.04495968669652939, -0.10777535289525986, -0.15861594676971436, -0.1999906599521637, -0.23159800469875336, -0.25669968128204346, -0.2756318747997284, -0.28890275955200195, -0.2986328899860382, -0.3067309856414795, -0.3156554400920868, -0.32448652386665344, -0.33003321290016174, -0.333080530166626, -0.33421334624290466, -0.3335910737514496, -0.33066460490226746, -0.3246693015098572, -0.31566500663757324, -0.30652138590812683, -0.29910728335380554, -0.2912786900997162, -0.28098049759864807, -0.2714196443557739, -0.2656363844871521, -0.2630292773246765, -0.2625925540924072, -0.26429134607315063, -0.2657226324081421, -0.26748308539390564, -0.27059823274612427, -0.2773309648036957, -0.2894972562789917, -0.3085399270057678, -0.3320131301879883, -0.3524937629699707, -0.3662763833999634, -0.37380319833755493, -0.3759253919124603, -0.37531358003616333, -0.37432074546813965, -0.3732535243034363, -0.3709432780742645, -0.36518406867980957, -0.35535821318626404, -0.34290120005607605, -0.3299908936023712, -0.31493639945983887, -0.29806870222091675, -0.2812923789024353, -0.26569607853889465, -0.25093701481819153, -0.2336152344942093, -0.21257905662059784, -0.1870981603860855, -0.15887194871902466, -0.12568123638629913, -0.08520488440990448, -0.039223432540893555, 0.007535886485129595, 0.051473118364810944, 0.09865962713956833, 0.15587230026721954, 0.2183682769536972, 0.2902037501335144, 0.3677011728286743, 0.4299562871456146, 0.4921693503856659, 0.5546368956565857, 0.5992231965065002, 0.6552425622940063, 0.7307706475257874, 0.8090182542800903, 0.8754572868347168, 0.8948535323143005, 0.910020112991333]
