4.131038188934326 CrossValid 997.6267700195312 CrossValidLossesBy500 1026.635498046875 1007.2349853515625 1002.6505126953125 1000.848388671875 999.9039916992188 999.3107299804688 998.9525146484375 998.7006225585938 998.5001220703125 998.3245239257812 998.146240234375 997.9496459960938 997.8302612304688 997.679443359375 997.5116577148438 997.3357543945312 997.4479370117188 997.4095458984375 997.5005493164062 997.6267700195312
10000 LossesBy500 4.1776275634765625 4.141875743865967 4.136593341827393 4.134841442108154 4.13397216796875 4.133454322814941 4.1331868171691895 4.1330084800720215 4.132898807525635 4.132864952087402 4.132773399353027 4.13257360458374 4.132542610168457 4.132368564605713 4.132136344909668 4.131515026092529 4.131184101104736 4.1312432289123535 4.1312127113342285 4.131038188934326
sigma2_stimulus 	 [0.0]
log_motor_var 	 [6.885254383087158]
sigma_logit 	 [-3.0, 0.02315319888293743, -2.0499322414398193, -3.218729257583618, -3.6862292289733887, -4.186008930206299]
mixture_logit 	 [-2.474571466445923]
prior 	 [0.0, 0.0, 0.0, 0.0, 0.0, 0.0, 0.0, 0.0, 0.0, 0.0, 0.0, 0.0, 0.0, 0.0, 0.0, 0.0, 0.0, 0.0, 0.0, 0.0, 0.0, 0.0, 0.0, 0.0, 0.0, 0.0, 0.0, 0.0, 0.0, 0.0, 0.0, 0.0, 0.0, 0.0, 0.0, 0.0, 0.0, 0.0, 0.0, 0.0, 0.0, 0.0, 0.0, 0.0, 0.0, 0.0, 0.0, 0.0, 0.0, 0.0, 0.0, 0.0, 0.0, 0.0, 0.0, 0.0, 0.0, 0.0, 0.0, 0.0, 0.0, 0.0, 0.0, 0.0, 0.0, 0.0, 0.0, 0.0, 0.0, 0.0, 0.0, 0.0, 0.0, 0.0, 0.0, 0.0, 0.0, 0.0, 0.0, 0.0, 0.0, 0.0, 0.0, 0.0, 0.0, 0.0, 0.0, 0.0, 0.0, 0.0, 0.0, 0.0, 0.0, 0.0, 0.0, 0.0, 0.0, 0.0, 0.0, 0.0, 0.0, 0.0, 0.0, 0.0, 0.0, 0.0, 0.0, 0.0, 0.0, 0.0, 0.0, 0.0, 0.0, 0.0, 0.0, 0.0, 0.0, 0.0, 0.0, 0.0, 0.0, 0.0, 0.0, 0.0, 0.0, 0.0, 0.0, 0.0, 0.0, 0.0, 0.0, 0.0, 0.0, 0.0, 0.0, 0.0, 0.0, 0.0, 0.0, 0.0, 0.0, 0.0, 0.0, 0.0, 0.0, 0.0, 0.0, 0.0, 0.0, 0.0, 0.0, 0.0, 0.0, 0.0, 0.0, 0.0, 0.0, 0.0, 0.0, 0.0, 0.0, 0.0, 0.0, 0.0, 0.0, 0.0, 0.0, 0.0, 0.0, 0.0, 0.0, 0.0, 0.0, 0.0, 0.0, 0.0, 0.0, 0.0, 0.0, 0.0]
volume 	 [0.8527827858924866, 0.8402114510536194, 0.8104512095451355, 0.756254255771637, 0.6945313215255737, 0.6269952058792114, 0.5748223662376404, 0.5265511870384216, 0.46115824580192566, 0.3857874870300293, 0.29997000098228455, 0.21534620225429535, 0.1401020586490631, 0.0728343278169632, 0.010913485661149025, -0.03796065226197243, -0.0779222846031189, -0.11172877997159958, -0.14911721646785736, -0.18662646412849426, -0.22495628893375397, -0.2602148652076721, -0.2850973606109619, -0.30054736137390137, -0.31588155031204224, -0.3339470326900482, -0.3485206961631775, -0.361172616481781, -0.3753620386123657, -0.38401296734809875, -0.381451278924942, -0.3740287721157074, -0.3694455921649933, -0.3630116879940033, -0.34841084480285645, -0.3246179223060608, -0.2988084852695465, -0.2807884216308594, -0.2735222578048706, -0.2700813412666321, -0.2635555565357208, -0.2532059848308563, -0.24721954762935638, -0.24920134246349335, -0.2545473575592041, -0.2577809989452362, -0.25491711497306824, -0.24935491383075714, -0.25131547451019287, -0.26162755489349365, -0.2817315459251404, -0.3059485852718353, -0.3229537904262543, -0.3350884020328522, -0.34822821617126465, -0.3605117201805115, -0.36667776107788086, -0.36406728625297546, -0.35749104619026184, -0.354276567697525, -0.35077351331710815, -0.3417949378490448, -0.33522266149520874, -0.33507513999938965, -0.33029332756996155, -0.31116196513175964, -0.2809092104434967, -0.24886147677898407, -0.21319134533405304, -0.16675187647342682, -0.11386696994304657, -0.06456350535154343, -0.0210492555052042, 0.022270947694778442, 0.06997284293174744, 0.12893947958946228, 0.20094680786132812, 0.27448853850364685, 0.3455214202404022, 0.4236885905265808, 0.5058324337005615, 0.5792645215988159, 0.6464128494262695, 0.6995429396629333, 0.7513552308082581, 0.7973530888557434, 0.8242780566215515, 0.8260956406593323, 0.8390021920204163, 0.8223640322685242, 0.8136564493179321, 0.7836580276489258, 0.7432070374488831, 0.6940963864326477, 0.6702690720558167, 0.6488305926322937, 0.6142457127571106, 0.5696249604225159, 0.507572591304779, 0.4489463269710541, 0.38791367411613464, 0.3253679871559143, 0.2630601227283478, 0.20071841776371002, 0.13253279030323029, 0.058350857347249985, -0.0003461249580141157, -0.04514653980731964, -0.07892416417598724, -0.10579492151737213, -0.1208798959851265, -0.12895900011062622, -0.13636654615402222, -0.14225582778453827, -0.1535303145647049, -0.17048601806163788, -0.18973134458065033, -0.20573382079601288, -0.21585960686206818, -0.22546681761741638, -0.23555593192577362, -0.245024174451828, -0.25354504585266113, -0.26301640272140503, -0.274636834859848, -0.28294116258621216, -0.29070672392845154, -0.3006781339645386, -0.30632349848747253, -0.3075227439403534, -0.30962660908699036, -0.31726205348968506, -0.3326834738254547, -0.3501693308353424, -0.3652838170528412, -0.37863993644714355, -0.38666972517967224, -0.39800500869750977, -0.4188463091850281, -0.4366723597049713, -0.4455111622810364, -0.44616565108299255, -0.4393579959869385, -0.4311484396457672, -0.4242825508117676, -0.4135739505290985, -0.39539051055908203, -0.37100473046302795, -0.34759458899497986, -0.33140650391578674, -0.3206905722618103, -0.30913054943084717, -0.2886258065700531, -0.25422924757003784, -0.22139260172843933, -0.2012687474489212, -0.1846000701189041, -0.16361789405345917, -0.1425005942583084, -0.12454954534769058, -0.102479487657547, -0.07546618580818176, -0.050423040986061096, -0.025940148159861565, 0.006874132435768843, 0.052148014307022095, 0.10442882031202316, 0.16358615458011627, 0.2372991144657135, 0.3172380328178406, 0.3798149526119232, 0.4481116533279419, 0.5181640386581421, 0.5632661581039429, 0.5946808457374573, 0.648406445980072, 0.7102485299110413, 0.7529579401016235, 0.7858940958976746, 0.8028912544250488]
