4.303564071655273 CrossValid 1026.136962890625 CrossValidLossesBy500 1080.482177734375 1052.2431640625 1036.6661376953125 1029.2506103515625 1026.005126953125 1024.6568603515625 1024.0936279296875 1023.8611450195312 1023.7749633789062 1023.7203369140625 1023.7009887695312 1023.6798095703125 1023.6777954101562 1023.6793212890625 1023.6688842773438 1023.65576171875 1023.6132202148438 1023.5985717773438 1023.6030883789062 1023.6228637695312 1023.6649780273438 1024.1683349609375 1025.302001953125 1026.137451171875 1026.2578125 1025.6312255859375 1025.9549560546875 1027.699462890625 1026.4937744140625 1026.136962890625
15000 LossesBy500 4.533064365386963 4.4240827560424805 4.357056617736816 4.326329708099365 4.314372539520264 4.309936046600342 4.308194160461426 4.307461738586426 4.307132720947266 4.306862831115723 4.306703090667725 4.306518077850342 4.306420803070068 4.306336879730225 4.306241989135742 4.306143760681152 4.305878162384033 4.305649280548096 4.3054728507995605 4.305271625518799 4.304681777954102 4.304240703582764 4.30380392074585 4.303893089294434 4.303632736206055 4.303701400756836 4.303650379180908 4.304206848144531 4.303654193878174 4.303564071655273
sigma2_stimulus 	 [0.0]
log_motor_var 	 [6.87852144241333]
sigma_logit 	 [-3.0, -0.39967674016952515, -1.5225409269332886, -2.909862756729126, -3.5023341178894043, -3.9574532508850098]
mixture_logit 	 [-3.3076486587524414]
prior 	 [0.0, 0.0, 0.0, 0.0, 0.0, 0.0, 0.0, 0.0, 0.0, 0.0, 0.0, 0.0, 0.0, 0.0, 0.0, 0.0, 0.0, 0.0, 0.0, 0.0, 0.0, 0.0, 0.0, 0.0, 0.0, 0.0, 0.0, 0.0, 0.0, 0.0, 0.0, 0.0, 0.0, 0.0, 0.0, 0.0, 0.0, 0.0, 0.0, 0.0, 0.0, 0.0, 0.0, 0.0, 0.0, 0.0, 0.0, 0.0, 0.0, 0.0, 0.0, 0.0, 0.0, 0.0, 0.0, 0.0, 0.0, 0.0, 0.0, 0.0, 0.0, 0.0, 0.0, 0.0, 0.0, 0.0, 0.0, 0.0, 0.0, 0.0, 0.0, 0.0, 0.0, 0.0, 0.0, 0.0, 0.0, 0.0, 0.0, 0.0, 0.0, 0.0, 0.0, 0.0, 0.0, 0.0, 0.0, 0.0, 0.0, 0.0, 0.0, 0.0, 0.0, 0.0, 0.0, 0.0, 0.0, 0.0, 0.0, 0.0, 0.0, 0.0, 0.0, 0.0, 0.0, 0.0, 0.0, 0.0, 0.0, 0.0, 0.0, 0.0, 0.0, 0.0, 0.0, 0.0, 0.0, 0.0, 0.0, 0.0, 0.0, 0.0, 0.0, 0.0, 0.0, 0.0, 0.0, 0.0, 0.0, 0.0, 0.0, 0.0, 0.0, 0.0, 0.0, 0.0, 0.0, 0.0, 0.0, 0.0, 0.0, 0.0, 0.0, 0.0, 0.0, 0.0, 0.0, 0.0, 0.0, 0.0, 0.0, 0.0, 0.0, 0.0, 0.0, 0.0, 0.0, 0.0, 0.0, 0.0, 0.0, 0.0, 0.0, 0.0, 0.0, 0.0, 0.0, 0.0, 0.0, 0.0, 0.0, 0.0, 0.0, 0.0, 0.0, 0.0, 0.0, 0.0, 0.0, 0.0]
volume 	 [1.2152057886123657, 1.1778764724731445, 1.1265085935592651, 1.0921947956085205, 1.048258662223816, 0.991062581539154, 0.9096322059631348, 0.8116365075111389, 0.7225010991096497, 0.6381188035011292, 0.5646938681602478, 0.4749651849269867, 0.3807048797607422, 0.2914105951786041, 0.21086183190345764, 0.13462141156196594, 0.059085797518491745, -0.006868595257401466, -0.06414756178855896, -0.12213751673698425, -0.17781372368335724, -0.22392156720161438, -0.2608027458190918, -0.28990861773490906, -0.31621477007865906, -0.3442862033843994, -0.3725818693637848, -0.39667412638664246, -0.41593676805496216, -0.43272799253463745, -0.4485880136489868, -0.4648536741733551, -0.48048698902130127, -0.495506227016449, -0.5115250945091248, -0.526049017906189, -0.5394279360771179, -0.5536988973617554, -0.5667321085929871, -0.5751150846481323, -0.5817561745643616, -0.5912104845046997, -0.6048513650894165, -0.6174995303153992, -0.6246060729026794, -0.6263243556022644, -0.6238900423049927, -0.6172655820846558, -0.6076419353485107, -0.5955892205238342, -0.5831181406974792, -0.5732517242431641, -0.5654218792915344, -0.5573310852050781, -0.5491853356361389, -0.5427576899528503, -0.5366195440292358, -0.5291714668273926, -0.5202262997627258, -0.5084354877471924, -0.48940762877464294, -0.46101289987564087, -0.4265728294849396, -0.3912650942802429, -0.3562512993812561, -0.32022008299827576, -0.2785740792751312, -0.22836244106292725, -0.1764429807662964, -0.12761856615543365, -0.07349903881549835, -0.008346100337803364, 0.05759406462311745, 0.12201818078756332, 0.19511720538139343, 0.27944204211235046, 0.37057775259017944, 0.466658353805542, 0.5566492676734924, 0.6505090594291687, 0.7376152873039246, 0.7983008623123169, 0.8779104948043823, 0.9513788819313049, 1.0441440343856812, 1.1158784627914429, 1.1484788656234741, 1.1641638278961182, 1.1550530195236206, 1.168668508529663, 1.173275351524353, 1.1686304807662964, 1.1750695705413818, 1.1677347421646118, 1.105198621749878, 1.0394346714019775, 0.9722189903259277, 0.8967775106430054, 0.796244204044342, 0.6955464482307434, 0.5946118831634521, 0.5083385705947876, 0.4244527220726013, 0.3509831130504608, 0.28427621722221375, 0.21740806102752686, 0.14746426045894623, 0.08543723076581955, 0.02756628952920437, -0.03018774278461933, -0.08063724637031555, -0.12383521348237991, -0.16082613170146942, -0.19957083463668823, -0.24832041561603546, -0.2992226183414459, -0.34086379408836365, -0.3753022253513336, -0.4081985354423523, -0.440190851688385, -0.4685710072517395, -0.49203985929489136, -0.5119059681892395, -0.530286431312561, -0.550339937210083, -0.5756852626800537, -0.6071767807006836, -0.6414380669593811, -0.6737551689147949, -0.7015403509140015, -0.7244191765785217, -0.7433800101280212, -0.757912814617157, -0.7684583067893982, -0.7756518125534058, -0.780800461769104, -0.7852535247802734, -0.789636492729187, -0.7951534390449524, -0.8006688952445984, -0.8047127723693848, -0.8063300848007202, -0.804309070110321, -0.797655463218689, -0.7851613759994507, -0.7664456963539124, -0.7411680221557617, -0.7091425061225891, -0.6708687543869019, -0.6272210478782654, -0.5797291994094849, -0.5303159356117249, -0.48090487718582153, -0.43210867047309875, -0.3811832666397095, -0.32645711302757263, -0.27137526869773865, -0.21713979542255402, -0.15731100738048553, -0.09273026138544083, -0.02603716030716896, 0.049158863723278046, 0.13391193747520447, 0.2145117223262787, 0.2863473892211914, 0.36861494183540344, 0.45720621943473816, 0.5630667805671692, 0.6288321018218994, 0.6855087876319885, 0.7421610355377197, 0.7869980931282043, 0.8266138434410095, 0.8811445236206055, 0.9408798813819885, 1.008095622062683, 1.0581367015838623, 1.1214056015014648, 1.1727616786956787, 1.2038779258728027]
