4.125966548919678 CrossValid 1043.830078125 CrossValidLossesBy500 1054.6611328125 1047.6365966796875 1045.9747314453125 1045.37353515625 1045.0880126953125 1045.009521484375 1044.9381103515625 1044.898193359375 1043.830078125
4500 LossesBy500 4.156169414520264 4.135840892791748 4.132528781890869 4.131396293640137 4.13081169128418 4.130624294281006 4.130320072174072 4.130133628845215 4.125966548919678
sigma2_stimulus 	 [0.0]
log_motor_var 	 [5.9047932624816895]
sigma_logit 	 [-3.0, 0.2783316671848297, -1.6673810482025146, -3.2120018005371094, -3.613631248474121, -4.065232753753662]
mixture_logit 	 [-2.925976276397705]
prior 	 [0.0, 0.0, 0.0, 0.0, 0.0, 0.0, 0.0, 0.0, 0.0, 0.0, 0.0, 0.0, 0.0, 0.0, 0.0, 0.0, 0.0, 0.0, 0.0, 0.0, 0.0, 0.0, 0.0, 0.0, 0.0, 0.0, 0.0, 0.0, 0.0, 0.0, 0.0, 0.0, 0.0, 0.0, 0.0, 0.0, 0.0, 0.0, 0.0, 0.0, 0.0, 0.0, 0.0, 0.0, 0.0, 0.0, 0.0, 0.0, 0.0, 0.0, 0.0, 0.0, 0.0, 0.0, 0.0, 0.0, 0.0, 0.0, 0.0, 0.0, 0.0, 0.0, 0.0, 0.0, 0.0, 0.0, 0.0, 0.0, 0.0, 0.0, 0.0, 0.0, 0.0, 0.0, 0.0, 0.0, 0.0, 0.0, 0.0, 0.0, 0.0, 0.0, 0.0, 0.0, 0.0, 0.0, 0.0, 0.0, 0.0, 0.0, 0.0, 0.0, 0.0, 0.0, 0.0, 0.0, 0.0, 0.0, 0.0, 0.0, 0.0, 0.0, 0.0, 0.0, 0.0, 0.0, 0.0, 0.0, 0.0, 0.0, 0.0, 0.0, 0.0, 0.0, 0.0, 0.0, 0.0, 0.0, 0.0, 0.0, 0.0, 0.0, 0.0, 0.0, 0.0, 0.0, 0.0, 0.0, 0.0, 0.0, 0.0, 0.0, 0.0, 0.0, 0.0, 0.0, 0.0, 0.0, 0.0, 0.0, 0.0, 0.0, 0.0, 0.0, 0.0, 0.0, 0.0, 0.0, 0.0, 0.0, 0.0, 0.0, 0.0, 0.0, 0.0, 0.0, 0.0, 0.0, 0.0, 0.0, 0.0, 0.0, 0.0, 0.0, 0.0, 0.0, 0.0, 0.0, 0.0, 0.0, 0.0, 0.0, 0.0, 0.0, 0.0, 0.0, 0.0, 0.0, 0.0, 0.0]
volume 	 [0.7194998860359192, 0.7042899131774902, 0.6707311272621155, 0.6229044795036316, 0.5714094042778015, 0.5172004103660583, 0.4623967111110687, 0.4035402536392212, 0.3390553891658783, 0.2735265791416168, 0.20622001588344574, 0.13723894953727722, 0.07084745168685913, 0.013265379704535007, -0.038578636944293976, -0.08319083601236343, -0.12307355552911758, -0.15653643012046814, -0.18469563126564026, -0.20636090636253357, -0.22455698251724243, -0.24109262228012085, -0.2572232782840729, -0.2744283080101013, -0.2923358380794525, -0.30688852071762085, -0.31536078453063965, -0.3188111484050751, -0.3201051652431488, -0.31984880566596985, -0.3170076012611389, -0.3117717206478119, -0.30462902784347534, -0.29439643025398254, -0.2791869044303894, -0.25637492537498474, -0.22990575432777405, -0.20596306025981903, -0.18736344575881958, -0.1738387942314148, -0.16461777687072754, -0.1562194675207138, -0.1506696343421936, -0.1471741944551468, -0.14358393847942352, -0.13586513698101044, -0.1242549791932106, -0.11535976082086563, -0.1171770915389061, -0.12902700901031494, -0.14795798063278198, -0.17032267153263092, -0.19273148477077484, -0.21572573482990265, -0.24135391414165497, -0.27011698484420776, -0.2971082925796509, -0.3180813193321228, -0.3310839831829071, -0.3368110954761505, -0.3372266888618469, -0.3343198001384735, -0.32890641689300537, -0.3201022446155548, -0.3043670654296875, -0.28158220648765564, -0.25659024715423584, -0.23066937923431396, -0.20124103128910065, -0.1674170196056366, -0.1336890310049057, -0.10143011063337326, -0.0707998052239418, -0.035066157579422, 0.010172175243496895, 0.06480696052312851, 0.12907381355762482, 0.2009461522102356, 0.2746477425098419, 0.3449268043041229, 0.40498003363609314, 0.4536251127719879, 0.4961651861667633, 0.5419083833694458, 0.5962442755699158, 0.6546148657798767, 0.6925279498100281, 0.7037240266799927, 0.6963254809379578, 0.6752825975418091, 0.6545858383178711, 0.639214277267456, 0.6252422332763672, 0.6090455055236816, 0.5852389931678772, 0.5650278329849243, 0.5455557107925415, 0.5103142857551575, 0.4595338702201843, 0.39917004108428955, 0.3367408215999603, 0.2746414542198181, 0.21410390734672546, 0.1557927280664444, 0.09951590746641159, 0.0451621450483799, 0.0012559526367112994, -0.033509284257888794, -0.06008443981409073, -0.08283008635044098, -0.10207483917474747, -0.11937479674816132, -0.13472893834114075, -0.14585092663764954, -0.15495671331882477, -0.16414394974708557, -0.1723078489303589, -0.18172906339168549, -0.19112898409366608, -0.19987602531909943, -0.20764194428920746, -0.2151772826910019, -0.22196370363235474, -0.22726716101169586, -0.23220384120941162, -0.2371407002210617, -0.23972879350185394, -0.238005131483078, -0.23129421472549438, -0.22315146028995514, -0.21884559094905853, -0.22148340940475464, -0.22878025472164154, -0.24014054238796234, -0.25163325667381287, -0.26058006286621094, -0.2662215828895569, -0.27229273319244385, -0.2842438220977783, -0.29969537258148193, -0.3142470419406891, -0.3238176107406616, -0.3275691568851471, -0.3271600008010864, -0.32303449511528015, -0.31541135907173157, -0.3041800856590271, -0.289258748292923, -0.2727319598197937, -0.2557778060436249, -0.23945115506649017, -0.22250205278396606, -0.20519207417964935, -0.1929084211587906, -0.1907031089067459, -0.19621776044368744, -0.20334303379058838, -0.20880460739135742, -0.2092798501253128, -0.2039109617471695, -0.19031181931495667, -0.1692625731229782, -0.14076827466487885, -0.10303901135921478, -0.055870622396469116, 0.00017786375246942043, 0.06409753113985062, 0.13229933381080627, 0.20212200284004211, 0.2726222276687622, 0.33991461992263794, 0.39987605810165405, 0.4512026011943817, 0.4970851540565491, 0.5395197868347168, 0.5858134031295776, 0.6332342624664307, 0.6760483384132385, 0.7029047608375549, 0.7078611254692078]
