4.2891716957092285 CrossValid 1058.2496337890625 CrossValidLossesBy500 1141.4444580078125 1105.1805419921875 1081.9326171875 1069.4769287109375 1063.3692626953125 1060.3978271484375 1058.9072265625 1058.11279296875 1057.7105712890625 1057.4759521484375 1057.3450927734375 1057.24169921875 1057.1961669921875 1057.11083984375 1057.1043701171875 1057.0118408203125 1056.9705810546875 1056.891845703125 1056.788818359375 1056.6258544921875 1056.671142578125 1056.8248291015625 1057.1434326171875 1057.1661376953125 1057.2510986328125 1057.5230712890625 1057.7724609375 1057.99658203125 1057.8404541015625 1058.0338134765625 1058.0693359375 1058.22314453125 1058.2664794921875 1058.2412109375 1058.30810546875 1058.3759765625 1058.2496337890625
18500 LossesBy500 4.509742736816406 4.407618522644043 4.34360933303833 4.312568664550781 4.30012321472168 4.295437812805176 4.29360294342041 4.292741298675537 4.292381763458252 4.292115688323975 4.291943550109863 4.291713714599609 4.2916340827941895 4.291409015655518 4.291402339935303 4.291127681732178 4.291051387786865 4.290878772735596 4.290679454803467 4.290125370025635 4.290066242218018 4.2899699211120605 4.2896270751953125 4.289514064788818 4.289759635925293 4.289430141448975 4.289393901824951 4.289445877075195 4.289456844329834 4.289308547973633 4.289409160614014 4.289351940155029 4.2892584800720215 4.289357662200928 4.289368629455566 4.289390563964844 4.2891716957092285
sigma2_stimulus 	 [0.0]
log_motor_var 	 [6.862166881561279]
sigma_logit 	 [-3.0, -0.35550791025161743, -1.5095020532608032, -2.908521890640259, -3.536190986633301, -3.974778175354004]
mixture_logit 	 [-3.3355541229248047]
prior 	 [0.0, 0.0, 0.0, 0.0, 0.0, 0.0, 0.0, 0.0, 0.0, 0.0, 0.0, 0.0, 0.0, 0.0, 0.0, 0.0, 0.0, 0.0, 0.0, 0.0, 0.0, 0.0, 0.0, 0.0, 0.0, 0.0, 0.0, 0.0, 0.0, 0.0, 0.0, 0.0, 0.0, 0.0, 0.0, 0.0, 0.0, 0.0, 0.0, 0.0, 0.0, 0.0, 0.0, 0.0, 0.0, 0.0, 0.0, 0.0, 0.0, 0.0, 0.0, 0.0, 0.0, 0.0, 0.0, 0.0, 0.0, 0.0, 0.0, 0.0, 0.0, 0.0, 0.0, 0.0, 0.0, 0.0, 0.0, 0.0, 0.0, 0.0, 0.0, 0.0, 0.0, 0.0, 0.0, 0.0, 0.0, 0.0, 0.0, 0.0, 0.0, 0.0, 0.0, 0.0, 0.0, 0.0, 0.0, 0.0, 0.0, 0.0, 0.0, 0.0, 0.0, 0.0, 0.0, 0.0, 0.0, 0.0, 0.0, 0.0, 0.0, 0.0, 0.0, 0.0, 0.0, 0.0, 0.0, 0.0, 0.0, 0.0, 0.0, 0.0, 0.0, 0.0, 0.0, 0.0, 0.0, 0.0, 0.0, 0.0, 0.0, 0.0, 0.0, 0.0, 0.0, 0.0, 0.0, 0.0, 0.0, 0.0, 0.0, 0.0, 0.0, 0.0, 0.0, 0.0, 0.0, 0.0, 0.0, 0.0, 0.0, 0.0, 0.0, 0.0, 0.0, 0.0, 0.0, 0.0, 0.0, 0.0, 0.0, 0.0, 0.0, 0.0, 0.0, 0.0, 0.0, 0.0, 0.0, 0.0, 0.0, 0.0, 0.0, 0.0, 0.0, 0.0, 0.0, 0.0, 0.0, 0.0, 0.0, 0.0, 0.0, 0.0, 0.0, 0.0, 0.0, 0.0, 0.0, 0.0]
volume 	 [1.1541047096252441, 1.1202540397644043, 1.1007856130599976, 1.0859510898590088, 1.0338715314865112, 0.9753953218460083, 0.8903047442436218, 0.8017118573188782, 0.7128666639328003, 0.6315380334854126, 0.5599528551101685, 0.47771120071411133, 0.38680291175842285, 0.2957562208175659, 0.21165551245212555, 0.13230787217617035, 0.05707449093461037, -0.007202431559562683, -0.06209266930818558, -0.11828475445508957, -0.17522312700748444, -0.22484517097473145, -0.2653554677963257, -0.29827216267585754, -0.32842811942100525, -0.3597581386566162, -0.38987982273101807, -0.41375496983528137, -0.43061670660972595, -0.44228067994117737, -0.4523408114910126, -0.4657149612903595, -0.48289546370506287, -0.5028290152549744, -0.5241953134536743, -0.5422998666763306, -0.5569922924041748, -0.5711863040924072, -0.5839239954948425, -0.5918108820915222, -0.596110999584198, -0.6000264286994934, -0.606226921081543, -0.6126700043678284, -0.6175721287727356, -0.6218116879463196, -0.6258976459503174, -0.6279838681221008, -0.626377284526825, -0.6202831864356995, -0.6119874119758606, -0.6045279502868652, -0.5974217653274536, -0.5887278318405151, -0.5792885422706604, -0.5715926885604858, -0.564268946647644, -0.554794192314148, -0.5427529215812683, -0.527411937713623, -0.5059191584587097, -0.4769177734851837, -0.44349461793899536, -0.4090888500213623, -0.37361112236976624, -0.33598557114601135, -0.29187318682670593, -0.23816077411174774, -0.18116649985313416, -0.12649565935134888, -0.06877397745847702, -0.0013640482211485505, 0.07111244648694992, 0.13898694515228271, 0.20438747107982635, 0.2831772267818451, 0.37557926774024963, 0.47144457697868347, 0.5574496388435364, 0.6524888277053833, 0.749719500541687, 0.8148797154426575, 0.8985525965690613, 0.9643599987030029, 1.0531221628189087, 1.1334322690963745, 1.1802887916564941, 1.1985394954681396, 1.1892203092575073, 1.2168707847595215, 1.2248096466064453, 1.2118724584579468, 1.187076210975647, 1.168042540550232, 1.0952057838439941, 1.023549199104309, 0.9542239308357239, 0.8876316547393799, 0.7905362844467163, 0.6920474767684937, 0.5839937329292297, 0.4892617166042328, 0.3958154618740082, 0.31578290462493896, 0.2508394420146942, 0.19303984940052032, 0.13314366340637207, 0.07583054900169373, 0.024593759328126907, -0.028087060898542404, -0.07859345525503159, -0.12315481156110764, -0.16384576261043549, -0.20227652788162231, -0.24726369976997375, -0.2976324260234833, -0.34132394194602966, -0.3741287291049957, -0.40241244435310364, -0.4302447736263275, -0.45512133836746216, -0.4754471182823181, -0.49429818987846375, -0.5141551494598389, -0.5355600118637085, -0.5596993565559387, -0.5881017446517944, -0.6188488602638245, -0.6479071378707886, -0.6720048189163208, -0.6907238364219666, -0.7053794860839844, -0.7163500785827637, -0.7247688174247742, -0.7310047149658203, -0.7364599704742432, -0.7427207231521606, -0.7505944967269897, -0.7609788179397583, -0.7724633812904358, -0.7828240990638733, -0.7893286347389221, -0.7898194193840027, -0.7835415601730347, -0.770045280456543, -0.7492492198944092, -0.7207465767860413, -0.6839589476585388, -0.6396828889846802, -0.5898665189743042, -0.5383480191230774, -0.48839661478996277, -0.44045552611351013, -0.3926936686038971, -0.34194284677505493, -0.2865164577960968, -0.22946776449680328, -0.17366693913936615, -0.11964371055364609, -0.06809797883033752, -0.010039341636002064, 0.0626068189740181, 0.14459647238254547, 0.21180377900600433, 0.2784469723701477, 0.35564661026000977, 0.44228270649909973, 0.5352882146835327, 0.592997670173645, 0.662479817867279, 0.7227045893669128, 0.7682037353515625, 0.8073177933692932, 0.8729343414306641, 0.9238541722297668, 0.9755712151527405, 1.0167286396026611, 1.038719892501831, 1.0902271270751953, 1.1294270753860474]
