4.109305381774902 CrossValid 1001.0729370117188 CrossValidLossesBy500 1010.761474609375 1005.3854370117188 1003.3786010742188 1002.4685668945312 1004.4114990234375 1004.1663818359375 1001.5076904296875 1001.5031127929688 1001.3810424804688 1003.7927856445312 1001.2381591796875 1003.7314453125 1001.1907958984375 1001.2234497070312 1001.1390380859375 1003.6876220703125 1001.1676025390625 1001.11767578125 1003.6807250976562 1001.0729370117188
10000 LossesBy500 4.132667541503906 4.114160060882568 4.111417293548584 4.110633373260498 4.122913837432861 4.1226806640625 4.1097493171691895 4.109856605529785 4.109705924987793 4.122400283813477 4.109512805938721 4.122330188751221 4.109498023986816 4.109593391418457 4.10938024520874 4.12226676940918 4.1095099449157715 4.10940408706665 4.122347831726074 4.109305381774902
sigma2_stimulus 	 [0.0]
log_motor_var 	 [5.6503586769104]
sigma_logit 	 [-3.0, 0.46507424116134644, -1.5660159587860107, -3.2989723682403564, -3.641288995742798, -4.00761079788208]
mixture_logit 	 [-3.049704074859619]
prior 	 [0.0, 0.0, 0.0, 0.0, 0.0, 0.0, 0.0, 0.0, 0.0, 0.0, 0.0, 0.0, 0.0, 0.0, 0.0, 0.0, 0.0, 0.0, 0.0, 0.0, 0.0, 0.0, 0.0, 0.0, 0.0, 0.0, 0.0, 0.0, 0.0, 0.0, 0.0, 0.0, 0.0, 0.0, 0.0, 0.0, 0.0, 0.0, 0.0, 0.0, 0.0, 0.0, 0.0, 0.0, 0.0, 0.0, 0.0, 0.0, 0.0, 0.0, 0.0, 0.0, 0.0, 0.0, 0.0, 0.0, 0.0, 0.0, 0.0, 0.0, 0.0, 0.0, 0.0, 0.0, 0.0, 0.0, 0.0, 0.0, 0.0, 0.0, 0.0, 0.0, 0.0, 0.0, 0.0, 0.0, 0.0, 0.0, 0.0, 0.0, 0.0, 0.0, 0.0, 0.0, 0.0, 0.0, 0.0, 0.0, 0.0, 0.0, 0.0, 0.0, 0.0, 0.0, 0.0, 0.0, 0.0, 0.0, 0.0, 0.0, 0.0, 0.0, 0.0, 0.0, 0.0, 0.0, 0.0, 0.0, 0.0, 0.0, 0.0, 0.0, 0.0, 0.0, 0.0, 0.0, 0.0, 0.0, 0.0, 0.0, 0.0, 0.0, 0.0, 0.0, 0.0, 0.0, 0.0, 0.0, 0.0, 0.0, 0.0, 0.0, 0.0, 0.0, 0.0, 0.0, 0.0, 0.0, 0.0, 0.0, 0.0, 0.0, 0.0, 0.0, 0.0, 0.0, 0.0, 0.0, 0.0, 0.0, 0.0, 0.0, 0.0, 0.0, 0.0, 0.0, 0.0, 0.0, 0.0, 0.0, 0.0, 0.0, 0.0, 0.0, 0.0, 0.0, 0.0, 0.0, 0.0, 0.0, 0.0, 0.0, 0.0, 0.0, 0.0, 0.0, 0.0, 0.0, 0.0, 0.0]
volume 	 [0.7254126667976379, 0.6994383931159973, 0.6519452929496765, 0.5945775508880615, 0.5337827801704407, 0.47276854515075684, 0.41448041796684265, 0.35669437050819397, 0.2963624596595764, 0.23349419236183167, 0.167235866189003, 0.10225582122802734, 0.04276899993419647, -0.005689928773790598, -0.04785852134227753, -0.08216405659914017, -0.11263925582170486, -0.13738436996936798, -0.15820905566215515, -0.17491763830184937, -0.19265958666801453, -0.21352174878120422, -0.23691457509994507, -0.26030415296554565, -0.2792518734931946, -0.28998830914497375, -0.29341602325439453, -0.293146014213562, -0.2909229099750519, -0.28785866498947144, -0.28420308232307434, -0.2807749807834625, -0.2765786349773407, -0.26763978600502014, -0.2529502511024475, -0.2316133826971054, -0.20808573067188263, -0.18769191205501556, -0.17297004163265228, -0.1634562909603119, -0.16029265522956848, -0.16085335612297058, -0.1652386337518692, -0.17034652829170227, -0.1724867969751358, -0.17001618444919586, -0.1636272519826889, -0.15719559788703918, -0.15603172779083252, -0.1604837328195572, -0.17019343376159668, -0.1834556758403778, -0.1982395499944687, -0.21382252871990204, -0.23074522614479065, -0.2477457970380783, -0.25954437255859375, -0.2655036449432373, -0.2666380703449249, -0.2655192017555237, -0.26500368118286133, -0.2653648257255554, -0.26567089557647705, -0.26487889885902405, -0.25890037417411804, -0.24540679156780243, -0.2267490178346634, -0.20416954159736633, -0.178833469748497, -0.14838223159313202, -0.1142440214753151, -0.07725408673286438, -0.04005022346973419, -0.0016258066752925515, 0.04087071865797043, 0.09062610566616058, 0.148645281791687, 0.21144245564937592, 0.2745780944824219, 0.3346050977706909, 0.3867938220500946, 0.4322793781757355, 0.47695744037628174, 0.5258400440216064, 0.5778939127922058, 0.6247937679290771, 0.6567390561103821, 0.6739547252655029, 0.6749147176742554, 0.6627234220504761, 0.6516536474227905, 0.6433629393577576, 0.6330733299255371, 0.6208137273788452, 0.6038382649421692, 0.5819258689880371, 0.5530204176902771, 0.5094009637832642, 0.4566892981529236, 0.39985257387161255, 0.33987340331077576, 0.2781405746936798, 0.21635618805885315, 0.1552615463733673, 0.09815111011266708, 0.04593365266919136, 0.004276543855667114, -0.03158608078956604, -0.060545481741428375, -0.08715005964040756, -0.10977562516927719, -0.12779608368873596, -0.13998836278915405, -0.14548008143901825, -0.14907456934452057, -0.15372970700263977, -0.15880101919174194, -0.16650299727916718, -0.17513301968574524, -0.18368197977542877, -0.19167405366897583, -0.1982499361038208, -0.20364592969417572, -0.20737724006175995, -0.2123788297176361, -0.2189279943704605, -0.2252764254808426, -0.228639617562294, -0.2279748171567917, -0.22575093805789948, -0.2244819700717926, -0.2275111973285675, -0.23437060415744781, -0.24455241858959198, -0.25396066904067993, -0.26227226853370667, -0.2681255340576172, -0.27310454845428467, -0.28154754638671875, -0.29273122549057007, -0.30456608533859253, -0.3144018054008484, -0.32139208912849426, -0.3262319266796112, -0.3292790949344635, -0.3310999572277069, -0.3311379849910736, -0.3284400701522827, -0.32350438833236694, -0.3146384358406067, -0.30172377824783325, -0.2836465537548065, -0.2613678276538849, -0.23969894647598267, -0.22288331389427185, -0.21240803599357605, -0.20723702013492584, -0.20417504012584686, -0.19912421703338623, -0.1903502196073532, -0.17648878693580627, -0.15770943462848663, -0.1344747394323349, -0.1042381301522255, -0.0665549635887146, -0.021578483283519745, 0.03159060701727867, 0.09199972450733185, 0.15881536900997162, 0.23146595060825348, 0.30274200439453125, 0.36792951822280884, 0.4231843650341034, 0.47212275862693787, 0.5213853716850281, 0.5740761160850525, 0.6247883439064026, 0.6733080148696899, 0.70779949426651, 0.7197483777999878]
