4.083156585693359 CrossValid 917.076171875 CrossValidLossesBy500 954.4212036132812 941.9384765625 937.845947265625 935.2623291015625 933.213623046875 931.486328125 929.9248046875 928.3522338867188 927.1852416992188 925.4664306640625 924.1560668945312 923.251708984375 922.6597290039062 921.7615966796875 921.3243408203125 920.8571166992188 920.263916015625 919.8233642578125 919.1726684570312 918.8704833984375 918.972412109375 918.6123046875 918.06298828125 917.7313232421875 917.693359375 917.554931640625 917.7921142578125 917.84716796875 917.6332397460938 917.4376831054688 917.62353515625 917.3385620117188 917.24951171875 917.1988525390625 917.2023315429688 917.1104125976562 917.1021728515625 917.0857543945312 917.0556030273438 917.076171875
20000 LossesBy500 4.208990573883057 4.161387920379639 4.146048545837402 4.135763645172119 4.127191066741943 4.120051860809326 4.11397123336792 4.108467102050781 4.104630947113037 4.100257396697998 4.0968170166015625 4.094355583190918 4.0921149253845215 4.090651988983154 4.089519500732422 4.088903427124023 4.087883472442627 4.0869550704956055 4.086158275604248 4.085529804229736 4.085232257843018 4.085107326507568 4.084407806396484 4.084275722503662 4.0844550132751465 4.083963871002197 4.084501266479492 4.084579944610596 4.08414363861084 4.083944797515869 4.084212779998779 4.083967685699463 4.083563804626465 4.083590984344482 4.083799362182617 4.083495616912842 4.083401679992676 4.083412170410156 4.083528995513916 4.083156585693359
sigma2_stimulus 	 [0.0]
log_motor_var 	 [7.080659866333008]
sigma_logit 	 [-3.0, 0.47429195046424866, -1.5814918279647827, -3.1606357097625732, -3.5907535552978516, -4.034456729888916]
mixture_logit 	 [-3.1731433868408203]
prior 	 [1.2526791095733643, 1.285593032836914, 1.2627912759780884, 1.2057172060012817, 1.142834186553955, 1.0766355991363525, 0.9948863983154297, 0.9230384826660156, 0.8561165928840637, 0.7834317684173584, 0.718960702419281, 0.6571687459945679, 0.5893052816390991, 0.5253603458404541, 0.45641452074050903, 0.39061713218688965, 0.317464679479599, 0.24034391343593597, 0.17778527736663818, 0.1276792734861374, 0.07556416094303131, 0.022995062172412872, -0.028514837846159935, -0.07890819758176804, -0.12689247727394104, -0.1713963747024536, -0.2102866768836975, -0.24496133625507355, -0.2771091163158417, -0.30802372097969055, -0.3404666781425476, -0.37625908851623535, -0.4151259660720825, -0.45246508717536926, -0.4838171899318695, -0.5106664896011353, -0.5354092717170715, -0.5539485812187195, -0.5609987378120422, -0.5579882860183716, -0.5516391396522522, -0.5479345321655273, -0.5501538515090942, -0.5610495805740356, -0.5808702707290649, -0.602855384349823, -0.6153337955474854, -0.6112292408943176, -0.5941925048828125, -0.5730725526809692, -0.554280698299408, -0.5395180583000183, -0.5271377563476562, -0.515360414981842, -0.5027883648872375, -0.4876891076564789, -0.469091534614563, -0.44808071851730347, -0.4268801212310791, -0.40545982122421265, -0.3814782202243805, -0.35315051674842834, -0.3203122317790985, -0.2829558849334717, -0.24324743449687958, -0.20482993125915527, -0.1640978753566742, -0.11751093715429306, -0.07635488361120224, -0.044336602091789246, -0.008125715889036655, 0.04161878675222397, 0.09917888790369034, 0.15740515291690826, 0.22023987770080566, 0.2916366755962372, 0.36360040307044983, 0.4333634674549103, 0.5032591223716736, 0.5661001205444336, 0.6147993206977844, 0.6533992886543274, 0.6757460832595825, 0.7006191611289978, 0.7154312133789062, 0.7335071563720703, 0.7385705709457397, 0.7408937811851501, 0.7438756823539734, 0.7530552744865417, 0.7834062576293945, 0.8345077633857727, 0.8779079914093018, 0.8959384560585022, 0.8755350708961487, 0.8484532833099365, 0.8034470677375793, 0.7518465518951416, 0.7076987624168396, 0.6478014588356018, 0.5789571404457092, 0.5085386037826538, 0.4354158341884613, 0.3547414541244507, 0.27709850668907166, 0.21724657714366913, 0.16158169507980347, 0.10610941797494888, 0.051604509353637695, -0.008674027398228645, -0.0666252002120018, -0.1096782311797142, -0.14397677779197693, -0.18222041428089142, -0.2317500114440918, -0.2855118215084076, -0.3315407931804657, -0.3710024356842041, -0.40972596406936646, -0.44704166054725647, -0.4844266176223755, -0.5232285857200623, -0.5604935884475708, -0.5934666395187378, -0.6220663189888, -0.6466093063354492, -0.6662415862083435, -0.6803876757621765, -0.6908046007156372, -0.700326681137085, -0.7099654078483582, -0.7177565097808838, -0.7215256094932556, -0.7211266160011292, -0.7176600694656372, -0.7138897776603699, -0.7140585780143738, -0.721377968788147, -0.7349206209182739, -0.7490947842597961, -0.7575422525405884, -0.7581269145011902, -0.7523018717765808, -0.7408638596534729, -0.7242903709411621, -0.7048212289810181, -0.6848874092102051, -0.6640628576278687, -0.6390470862388611, -0.6080244779586792, -0.5732532143592834, -0.5374625325202942, -0.4991370141506195, -0.4554823935031891, -0.40871936082839966, -0.3630439341068268, -0.31669366359710693, -0.2645892798900604, -0.20861628651618958, -0.15505877137184143, -0.09995236992835999, -0.03714485093951225, 0.026736058294773102, 0.085364930331707, 0.1371692717075348, 0.1928589791059494, 0.25020596385002136, 0.2973744571208954, 0.3520117998123169, 0.427226185798645, 0.5150774121284485, 0.60511714220047, 0.6754611730575562, 0.7474731802940369, 0.8301017880439758, 0.9039123058319092, 0.9961832165718079, 1.0785205364227295, 1.1520596742630005, 1.204123854637146]
volume 	 [0.9092773795127869, 0.8885086178779602, 0.8657698035240173, 0.8415813446044922, 0.8099683523178101, 0.7514451146125793, 0.7080864906311035, 0.6612331867218018, 0.5894421339035034, 0.516040027141571, 0.43977686762809753, 0.34837475419044495, 0.27946725487709045, 0.22430597245693207, 0.15764270722866058, 0.07949680089950562, 0.010650858283042908, -0.04018549248576164, -0.08397538959980011, -0.1192462146282196, -0.16017401218414307, -0.20718716084957123, -0.24833837151527405, -0.27411171793937683, -0.2876087427139282, -0.3002672791481018, -0.3160427510738373, -0.32852232456207275, -0.3374939560890198, -0.3455352485179901, -0.3524656295776367, -0.35910406708717346, -0.3658434748649597, -0.3730930685997009, -0.38103121519088745, -0.3871030807495117, -0.39478492736816406, -0.40736526250839233, -0.42079484462738037, -0.4270459711551666, -0.42823654413223267, -0.4307926595211029, -0.43970203399658203, -0.4532415568828583, -0.4654833972454071, -0.47320035099983215, -0.47367554903030396, -0.4653557240962982, -0.4519933760166168, -0.43856868147850037, -0.4307776987552643, -0.4308337867259979, -0.435319721698761, -0.440929114818573, -0.44459065794944763, -0.4438357651233673, -0.4376973509788513, -0.42714211344718933, -0.4164903163909912, -0.40855672955513, -0.3980831205844879, -0.3791808784008026, -0.35293304920196533, -0.32386282086372375, -0.2929247319698334, -0.25996795296669006, -0.23053763806819916, -0.2043459117412567, -0.1717381328344345, -0.13140538334846497, -0.09308880567550659, -0.052566662430763245, -0.0002158660936402157, 0.06800685822963715, 0.14504489302635193, 0.21155381202697754, 0.292331337928772, 0.3890704810619354, 0.4708345830440521, 0.544763445854187, 0.6143865585327148, 0.6740233898162842, 0.759416401386261, 0.8262869715690613, 0.9038485288619995, 0.9412763714790344, 0.9580459594726562, 0.9399799108505249, 0.9202941656112671, 0.8899502754211426, 0.8774670958518982, 0.8765625357627869, 0.8783695101737976, 0.8435080051422119, 0.8213793039321899, 0.7671282291412354, 0.7183617353439331, 0.6746752262115479, 0.6084123253822327, 0.5420135855674744, 0.4662127196788788, 0.3865971267223358, 0.3188454508781433, 0.26011475920677185, 0.20542186498641968, 0.15207886695861816, 0.1122458353638649, 0.08458536118268967, 0.05465726554393768, 0.015400951728224754, -0.02406025119125843, -0.05488624796271324, -0.08489178866147995, -0.12139328569173813, -0.16560257971286774, -0.20760300755500793, -0.24100957810878754, -0.2734520733356476, -0.30834102630615234, -0.34510019421577454, -0.37848490476608276, -0.40618494153022766, -0.4265865087509155, -0.4372897446155548, -0.44457679986953735, -0.45665881037712097, -0.4727174937725067, -0.4879997968673706, -0.5037840008735657, -0.5215160250663757, -0.5389668345451355, -0.5534040927886963, -0.5619048476219177, -0.5634291172027588, -0.5565851926803589, -0.5454025864601135, -0.538280725479126, -0.5420287847518921, -0.556423008441925, -0.57218337059021, -0.5817153453826904, -0.5827646255493164, -0.576302707195282, -0.5649294853210449, -0.5498517751693726, -0.53324294090271, -0.5163232684135437, -0.4969046711921692, -0.47117945551872253, -0.4384448826313019, -0.40410491824150085, -0.3731919527053833, -0.34527143836021423, -0.31781789660453796, -0.289265513420105, -0.2602439224720001, -0.23269061744213104, -0.20632503926753998, -0.17113132774829865, -0.12142772227525711, -0.05979624763131142, 0.003323012264445424, 0.06074540317058563, 0.10789671540260315, 0.15100149810314178, 0.2013668417930603, 0.25520840287208557, 0.31189820170402527, 0.3803941607475281, 0.429261714220047, 0.4795569181442261, 0.5591841340065002, 0.6219223737716675, 0.6765386462211609, 0.7354733347892761, 0.8057828545570374, 0.8562805652618408, 0.9000959992408752, 0.9006101489067078, 0.8975303173065186]
