4.0073041915893555 CrossValid 967.1260986328125 CrossValidLossesBy500 1053.836669921875 1005.4994506835938 987.4376220703125 979.7446899414062 975.5435791015625 972.45849609375 970.62890625 969.658203125 968.9019775390625 968.3113403320312 968.08935546875 967.7843017578125 967.7904052734375 967.5762939453125 967.52587890625 967.3361206054688 967.3239135742188 967.3258666992188 967.2627563476562 967.188720703125 967.2005615234375 967.2299194335938 967.2171020507812 967.1260986328125
12000 LossesBy500 4.22953462600708 4.085812568664551 4.041205883026123 4.025538921356201 4.0179314613342285 4.0131120681762695 4.010786056518555 4.009612083435059 4.008767127990723 4.008267402648926 4.008017063140869 4.007857799530029 4.007805824279785 4.007500648498535 4.00761079788208 4.007455825805664 4.00749397277832 4.007532119750977 4.007567405700684 4.007478713989258 4.00739049911499 4.007474899291992 4.007408142089844 4.0073041915893555
sigma2_stimulus 	 [0.0]
log_motor_var 	 [6.436949253082275]
sigma_logit 	 [-3.0, -0.7935166954994202, -1.4777134656906128, -3.281726121902466, -3.7318263053894043, -4.197939395904541]
mixture_logit 	 [-3.0263147354125977]
prior 	 [-0.836626410484314, -0.8274891972541809, -0.8123891949653625, -0.7894389629364014, -0.7603394389152527, -0.7253983020782471, -0.6854055523872375, -0.6421091556549072, -0.5988883972167969, -0.557647168636322, -0.5180257558822632, -0.4792492091655731, -0.4400096833705902, -0.3997180163860321, -0.35876256227493286, -0.3176112473011017, -0.2761816084384918, -0.23370665311813354, -0.18924061954021454, -0.14241375029087067, -0.09359753876924515, -0.04339700937271118, 0.007806222885847092, 0.05983418598771095, 0.11252514272928238, 0.16565413773059845, 0.2187405675649643, 0.27082425355911255, 0.32073190808296204, 0.3676629960536957, 0.4114069938659668, 0.4523142874240875, 0.49117472767829895, 0.5282586812973022, 0.5622462034225464, 0.591521680355072, 0.6172778606414795, 0.6435661911964417, 0.6733172535896301, 0.706337571144104, 0.7403618693351746, 0.7715752124786377, 0.7962336540222168, 0.8121619820594788, 0.8185009360313416, 0.8184852600097656, 0.81838458776474, 0.8186507821083069, 0.8133153915405273, 0.7979464530944824, 0.772380530834198, 0.7387721538543701, 0.7009180188179016, 0.6625432968139648, 0.6248317956924438, 0.5869073271751404, 0.5477466583251953, 0.5070489048957825, 0.46535998582839966, 0.423785924911499, 0.3831486403942108, 0.343517005443573, 0.3044903576374054, 0.26506632566452026, 0.2233465164899826, 0.17770102620124817, 0.12843254208564758, 0.07746786624193192, 0.02641250379383564, -0.024641480296850204, -0.07657767087221146, -0.1299748569726944, -0.1844053566455841, -0.23877406120300293, -0.2921372652053833, -0.34420138597488403, -0.39536598324775696, -0.44641128182411194, -0.49765998125076294, -0.5486376881599426, -0.5987042188644409, -0.6472395062446594, -0.6938294172286987, -0.7377188801765442, -0.7774713635444641, -0.8130435347557068, -0.8430642485618591, -0.8678480386734009, -0.8860480189323425, -0.8959929347038269, -0.8981223702430725, -0.8921858072280884, -0.8793299794197083, -0.8620854020118713, -0.8404722809791565, -0.8144438862800598, -0.7846730351448059, -0.7530118227005005, -0.719967782497406, -0.6849915981292725, -0.6466230154037476, -0.6051301956176758, -0.5615415573120117, -0.51664799451828, -0.47062554955482483, -0.42322206497192383, -0.3740267753601074, -0.32275980710983276, -0.26956573128700256, -0.21518878638744354, -0.16086138784885406, -0.10772577673196793, -0.05607900023460388, -0.005232810974121094, 0.045677635818719864, 0.09664993733167648, 0.14658710360527039, 0.1941712647676468, 0.23905347287654877, 0.28219547867774963, 0.32489728927612305, 0.36738288402557373, 0.40851539373397827, 0.4468916356563568, 0.48183414340019226, 0.5137671232223511, 0.544167160987854, 0.5744085907936096, 0.6042991280555725, 0.6321799755096436, 0.6563441157341003, 0.6763256788253784, 0.6932516098022461, 0.7090719938278198, 0.7250685095787048, 0.7407299876213074, 0.7538037300109863, 0.7611598372459412, 0.761339545249939, 0.7563700079917908, 0.7490813136100769, 0.7405856847763062, 0.7312395572662354, 0.7203415632247925, 0.7059276103973389, 0.6868624687194824, 0.6631008386611938, 0.6343207359313965, 0.5998345017433167, 0.5587366819381714, 0.5100821256637573, 0.4542994201183319, 0.3940752148628235, 0.33283665776252747, 0.27253350615501404, 0.21325428783893585, 0.1545594483613968, 0.09646756201982498, 0.03914038836956024, -0.0178062841296196, -0.07529264688491821, -0.1341094672679901, -0.1943129599094391, -0.25513163208961487, -0.3153272867202759, -0.3737742006778717, -0.4299587607383728, -0.484048992395401, -0.5362921357154846, -0.5860031247138977, -0.6313918232917786, -0.6712262034416199, -0.7061114311218262, -0.7380352020263672, -0.7672595977783203, -0.7920417189598083, -0.8134390115737915, -0.8290534615516663, -0.8374517560005188, -0.8401308655738831]
volume 	 [0.9943258762359619, 0.9906543493270874, 0.9423122406005859, 0.8613947629928589, 0.779758870601654, 0.6923189759254456, 0.6002761125564575, 0.5087766647338867, 0.4176812469959259, 0.331344872713089, 0.24342794716358185, 0.1555008590221405, 0.0693664699792862, -0.008497143164277077, -0.07755688577890396, -0.1322849541902542, -0.1752021163702011, -0.20886275172233582, -0.2394891083240509, -0.2669563889503479, -0.29109102487564087, -0.3087773621082306, -0.31898123025894165, -0.32348835468292236, -0.3253024220466614, -0.3255119323730469, -0.323274701833725, -0.3171513080596924, -0.3074767589569092, -0.2966764569282532, -0.2875809073448181, -0.2813011407852173, -0.2759874761104584, -0.26932111382484436, -0.2604180872440338, -0.24814562499523163, -0.23663422465324402, -0.22924788296222687, -0.2246764749288559, -0.21811221539974213, -0.20908591151237488, -0.1991649866104126, -0.19320915639400482, -0.19116398692131042, -0.19327203929424286, -0.19867607951164246, -0.2057274729013443, -0.2120196670293808, -0.21732798218727112, -0.22337369620800018, -0.23397895693778992, -0.24992921948432922, -0.26871463656425476, -0.288432240486145, -0.3089940845966339, -0.3301914632320404, -0.35028591752052307, -0.36823734641075134, -0.38213253021240234, -0.38943570852279663, -0.38867536187171936, -0.38093677163124084, -0.37032949924468994, -0.36183103919029236, -0.35558241605758667, -0.3495205342769623, -0.34270715713500977, -0.3343987464904785, -0.32370486855506897, -0.30883803963661194, -0.2884501814842224, -0.2581985890865326, -0.2177284061908722, -0.16617290675640106, -0.10399146378040314, -0.03332352638244629, 0.045736320316791534, 0.1331905573606491, 0.2250194102525711, 0.3222520053386688, 0.4233910143375397, 0.5231378674507141, 0.6043457388877869, 0.6876775622367859, 0.775201141834259, 0.8551375269889832, 0.9463780522346497, 1.0363211631774902, 1.0599843263626099, 1.0729436874389648, 1.0794618129730225, 1.063844084739685, 1.020269751548767, 0.9231043457984924, 0.8536967635154724, 0.7796299457550049, 0.7083370089530945, 0.6090823411941528, 0.5041024088859558, 0.3954828977584839, 0.2938898205757141, 0.20178115367889404, 0.12251404672861099, 0.04816357418894768, -0.02218157798051834, -0.08607203513383865, -0.13900531828403473, -0.18352806568145752, -0.21850934624671936, -0.24659405648708344, -0.26746895909309387, -0.2830982506275177, -0.29640117287635803, -0.30822399258613586, -0.32181498408317566, -0.3348545730113983, -0.34314218163490295, -0.3468092381954193, -0.34657856822013855, -0.34336620569229126, -0.33759254217147827, -0.32892394065856934, -0.3184100389480591, -0.3070744574069977, -0.29695752263069153, -0.2865740954875946, -0.27414876222610474, -0.2634427845478058, -0.257987380027771, -0.25655677914619446, -0.2569354772567749, -0.2589954137802124, -0.2604968845844269, -0.26279446482658386, -0.265605092048645, -0.2708747982978821, -0.28162452578544617, -0.29896026849746704, -0.32023313641548157, -0.3379925489425659, -0.34992024302482605, -0.35588058829307556, -0.3572671711444855, -0.35760846734046936, -0.3580350875854492, -0.35721608996391296, -0.3528175950050354, -0.3432222902774811, -0.33035901188850403, -0.3162936568260193, -0.3034980595111847, -0.2913948893547058, -0.27961018681526184, -0.26860612630844116, -0.2593609094619751, -0.2496085911989212, -0.2369762808084488, -0.22119368612766266, -0.20142287015914917, -0.1774173229932785, -0.147160604596138, -0.10912329703569412, -0.06474378705024719, -0.018836719915270805, 0.025665530934929848, 0.07378006726503372, 0.12898433208465576, 0.1877678632736206, 0.2556670010089874, 0.3298094570636749, 0.3929382264614105, 0.4594053328037262, 0.5252718925476074, 0.5735023617744446, 0.6327092051506042, 0.7057214379310608, 0.7944760918617249, 0.8732030987739563, 0.9074578881263733, 0.9456241130828857]
