4.081346035003662 CrossValid 1005.6317138671875 CrossValidLossesBy500 1013.826416015625 1007.6185302734375 1007.15283203125 1007.0440063476562 1006.951171875 1006.923583984375 1006.927001953125 1006.9271240234375 1006.8134765625 1006.7529907226562 1006.7360229492188 1006.690185546875 1006.6588134765625 1006.39697265625 1005.884521484375 1005.5433959960938 1005.6786499023438 1005.6317138671875
9000 LossesBy500 4.140096664428711 4.092254161834717 4.086592197418213 4.085029602050781 4.084025859832764 4.0833611488342285 4.082953453063965 4.082724571228027 4.0820817947387695 4.081887722015381 4.081892490386963 4.081923961639404 4.081816673278809 4.0815653800964355 4.081441879272461 4.081409454345703 4.0813751220703125 4.081346035003662
sigma2_stimulus 	 [0.0]
log_motor_var 	 [6.858191013336182]
sigma_logit 	 [-3.0, 0.07646524906158447, -1.7971405982971191, -3.1640942096710205, -3.635685682296753, -4.115490913391113]
mixture_logit 	 [-2.9485161304473877]
prior 	 [0.0, 0.0, 0.0, 0.0, 0.0, 0.0, 0.0, 0.0, 0.0, 0.0, 0.0, 0.0, 0.0, 0.0, 0.0, 0.0, 0.0, 0.0, 0.0, 0.0, 0.0, 0.0, 0.0, 0.0, 0.0, 0.0, 0.0, 0.0, 0.0, 0.0, 0.0, 0.0, 0.0, 0.0, 0.0, 0.0, 0.0, 0.0, 0.0, 0.0, 0.0, 0.0, 0.0, 0.0, 0.0, 0.0, 0.0, 0.0, 0.0, 0.0, 0.0, 0.0, 0.0, 0.0, 0.0, 0.0, 0.0, 0.0, 0.0, 0.0, 0.0, 0.0, 0.0, 0.0, 0.0, 0.0, 0.0, 0.0, 0.0, 0.0, 0.0, 0.0, 0.0, 0.0, 0.0, 0.0, 0.0, 0.0, 0.0, 0.0, 0.0, 0.0, 0.0, 0.0, 0.0, 0.0, 0.0, 0.0, 0.0, 0.0, 0.0, 0.0, 0.0, 0.0, 0.0, 0.0, 0.0, 0.0, 0.0, 0.0, 0.0, 0.0, 0.0, 0.0, 0.0, 0.0, 0.0, 0.0, 0.0, 0.0, 0.0, 0.0, 0.0, 0.0, 0.0, 0.0, 0.0, 0.0, 0.0, 0.0, 0.0, 0.0, 0.0, 0.0, 0.0, 0.0, 0.0, 0.0, 0.0, 0.0, 0.0, 0.0, 0.0, 0.0, 0.0, 0.0, 0.0, 0.0, 0.0, 0.0, 0.0, 0.0, 0.0, 0.0, 0.0, 0.0, 0.0, 0.0, 0.0, 0.0, 0.0, 0.0, 0.0, 0.0, 0.0, 0.0, 0.0, 0.0, 0.0, 0.0, 0.0, 0.0, 0.0, 0.0, 0.0, 0.0, 0.0, 0.0, 0.0, 0.0, 0.0, 0.0, 0.0, 0.0, 0.0, 0.0, 0.0, 0.0, 0.0, 0.0]
volume 	 [0.8767174482345581, 0.847287118434906, 0.8093600869178772, 0.7563181519508362, 0.7031925916671753, 0.6486945152282715, 0.590211808681488, 0.5406956672668457, 0.48317718505859375, 0.4001316726207733, 0.31033915281295776, 0.2308535873889923, 0.16839933395385742, 0.11934466660022736, 0.06805356591939926, 0.018967490643262863, -0.02564334310591221, -0.06209038197994232, -0.10131318122148514, -0.1422736793756485, -0.18123720586299896, -0.21581192314624786, -0.2446754425764084, -0.26655739545822144, -0.2870830297470093, -0.31135293841362, -0.33433017134666443, -0.3470245599746704, -0.3494408428668976, -0.3525938391685486, -0.3615328073501587, -0.3708559572696686, -0.3753400444984436, -0.3712530732154846, -0.3594817817211151, -0.3437874913215637, -0.32990047335624695, -0.3213441073894501, -0.31895580887794495, -0.31886768341064453, -0.3180449604988098, -0.3163195848464966, -0.3205065429210663, -0.3290349245071411, -0.3347237706184387, -0.33526089787483215, -0.32996121048927307, -0.31871655583381653, -0.3077584505081177, -0.3020540177822113, -0.30560535192489624, -0.31924086809158325, -0.33410072326660156, -0.34281790256500244, -0.34938666224479675, -0.3571941554546356, -0.36159053444862366, -0.3635723292827606, -0.36385807394981384, -0.35684463381767273, -0.3404656648635864, -0.3215889632701874, -0.3054468333721161, -0.2913978397846222, -0.281759649515152, -0.2774423360824585, -0.26803985238075256, -0.24404951930046082, -0.2098495066165924, -0.17075121402740479, -0.12928950786590576, -0.0766577497124672, -0.007721912581473589, 0.06233466789126396, 0.1137133240699768, 0.1607261449098587, 0.22110815346240997, 0.28765690326690674, 0.36005085706710815, 0.4446922242641449, 0.5302571058273315, 0.6067615747451782, 0.6785058379173279, 0.7355754971504211, 0.7884798049926758, 0.829727828502655, 0.8566458225250244, 0.8636611104011536, 0.8637197017669678, 0.845685601234436, 0.841622531414032, 0.8128842711448669, 0.7945621609687805, 0.7598286867141724, 0.7432865500450134, 0.7160484194755554, 0.6693869233131409, 0.6244276762008667, 0.5627596378326416, 0.5043612122535706, 0.4380694031715393, 0.36842888593673706, 0.29497650265693665, 0.21223272383213043, 0.13848859071731567, 0.07853150367736816, 0.03277155011892319, -0.005713548511266708, -0.036275144666433334, -0.061100978404283524, -0.07425828278064728, -0.08128426223993301, -0.09151963144540787, -0.11346310377120972, -0.14555040001869202, -0.17425304651260376, -0.19499780237674713, -0.2121477723121643, -0.22912919521331787, -0.2484029233455658, -0.2687964141368866, -0.29222750663757324, -0.3194297254085541, -0.3436518609523773, -0.3601835370063782, -0.36837223172187805, -0.3711358904838562, -0.37267330288887024, -0.3779376149177551, -0.3861458897590637, -0.39587417244911194, -0.41053518652915955, -0.4261668026447296, -0.438798725605011, -0.44758889079093933, -0.452806681394577, -0.45293736457824707, -0.4539548456668854, -0.4624418020248413, -0.473224937915802, -0.47994741797447205, -0.4808548092842102, -0.478054404258728, -0.4739077687263489, -0.47026726603507996, -0.4668903946876526, -0.4583415687084198, -0.4414213001728058, -0.4219120144844055, -0.40534505248069763, -0.39272192120552063, -0.3778518736362457, -0.3533456027507782, -0.3208281397819519, -0.28604844212532043, -0.2465910017490387, -0.20283985137939453, -0.1629454791545868, -0.1309957206249237, -0.1044585257768631, -0.07408595085144043, -0.03813654184341431, -0.006127904634922743, 0.018552975729107857, 0.047598615288734436, 0.0937950387597084, 0.14910241961479187, 0.20474693179130554, 0.2750357687473297, 0.3597884774208069, 0.42853403091430664, 0.49968257546424866, 0.5588253140449524, 0.5946542620658875, 0.6242801547050476, 0.6773567199707031, 0.7264757752418518, 0.7756003141403198, 0.8180542588233948, 0.834898054599762]
