4.052065372467041 CrossValid 962.7733764648438 CrossValidLossesBy500 990.1663208007812 980.42431640625 979.5556640625 975.3116455078125 973.5098266601562 971.9163818359375 970.4584350585938 969.2108154296875 968.0657348632812 966.9850463867188 965.9947509765625 965.2506103515625 964.5718994140625 963.9764404296875 963.5003662109375 963.10107421875 962.841552734375 962.6198120117188 962.81640625 962.9324951171875 963.35888671875 962.9794311523438 963.7078247070312 963.9435424804688 964.41455078125 964.8404541015625 962.7048950195312 963.0580444335938 962.9331665039062 962.0641479492188 962.404296875 963.6029052734375 962.8543701171875 963.6609497070312 962.0133056640625 962.4218139648438 964.2059936523438 964.3057250976562 963.4577026367188 963.0414428710938 963.1375122070312 963.039306640625 962.1148071289062 962.2122192382812 962.4090576171875 962.4681396484375 962.6715087890625 962.5418090820312 962.4110107421875 962.763671875 962.7666625976562 962.678955078125 962.65625 962.7413940429688 962.8582763671875 962.9251708984375 962.8941040039062 962.7733764648438
29000 LossesBy500 4.182755470275879 4.146100997924805 4.139683246612549 4.122915744781494 4.114219665527344 4.1066389083862305 4.099790096282959 4.093916416168213 4.08865213394165 4.083824157714844 4.079442977905273 4.075902938842773 4.072666645050049 4.069782733917236 4.067463397979736 4.065389156341553 4.063293933868408 4.06178617477417 4.059794902801514 4.058552265167236 4.057121753692627 4.056530475616455 4.0556488037109375 4.054826736450195 4.055532932281494 4.055401802062988 4.054388046264648 4.054218292236328 4.054014205932617 4.0540690422058105 4.053616046905518 4.053479194641113 4.0532050132751465 4.053515434265137 4.053563594818115 4.0531840324401855 4.053998947143555 4.054178714752197 4.053114891052246 4.053069591522217 4.052865028381348 4.052811145782471 4.053009510040283 4.053018093109131 4.052853584289551 4.052856922149658 4.052666187286377 4.052968978881836 4.052957534790039 4.052614212036133 4.052485466003418 4.0524420738220215 4.052157878875732 4.052440643310547 4.052634239196777 4.052408695220947 4.052401065826416 4.052065372467041
sigma2_stimulus 	 [0.0]
log_motor_var 	 [7.184638023376465]
sigma_logit 	 [-3.0, 0.6357407569885254, -1.5512906312942505, -3.1573290824890137, -3.630823850631714, -4.084413528442383]
mixture_logit 	 [-3.1685450077056885]
prior 	 [1.5500407218933105, 1.579573631286621, 1.5591933727264404, 1.4955838918685913, 1.4180867671966553, 1.3474494218826294, 1.2748616933822632, 1.1878036260604858, 1.1032296419143677, 1.0119045972824097, 0.934289813041687, 0.8466733694076538, 0.7566766142845154, 0.6698175072669983, 0.5843703746795654, 0.5035967230796814, 0.41102758049964905, 0.31488436460494995, 0.21785636246204376, 0.1347811073064804, 0.05963970348238945, -0.014467447064816952, -0.08653218299150467, -0.1553674042224884, -0.2152155488729477, -0.26965779066085815, -0.32458120584487915, -0.3760587275028229, -0.426268607378006, -0.4770069420337677, -0.5195037126541138, -0.5549822449684143, -0.5933049917221069, -0.6366647481918335, -0.6764810681343079, -0.7043355703353882, -0.7222273945808411, -0.7380470633506775, -0.7527987957000732, -0.7611616849899292, -0.7613005638122559, -0.7570526003837585, -0.7522440552711487, -0.7487720251083374, -0.7516098022460938, -0.7639197707176208, -0.7774237394332886, -0.7770974040031433, -0.7587440609931946, -0.7314960956573486, -0.7053946256637573, -0.685772180557251, -0.6710919737815857, -0.6579034924507141, -0.6442646980285645, -0.6281597018241882, -0.607288122177124, -0.5830135345458984, -0.5575467348098755, -0.5306271314620972, -0.5029265284538269, -0.4738111197948456, -0.440925270318985, -0.40471550822257996, -0.36720025539398193, -0.3267063796520233, -0.27778592705726624, -0.23056121170520782, -0.19364161789417267, -0.15082493424415588, -0.08535095304250717, -0.003912046086043119, 0.07820413261651993, 0.1595143973827362, 0.2496444433927536, 0.33772552013397217, 0.42980441451072693, 0.5296235680580139, 0.6261503100395203, 0.7199408411979675, 0.8057992458343506, 0.8781524300575256, 0.9474233984947205, 1.0147591829299927, 1.0586961507797241, 1.095644474029541, 1.1088666915893555, 1.1238594055175781, 1.128074288368225, 1.1264375448226929, 1.1535365581512451, 1.211349368095398, 1.2498024702072144, 1.2468371391296387, 1.2117377519607544, 1.1675829887390137, 1.1229561567306519, 1.0467175245285034, 0.9832497835159302, 0.9165510535240173, 0.8276339173316956, 0.7256572246551514, 0.6363071799278259, 0.5436385273933411, 0.44579246640205383, 0.35075488686561584, 0.27112776041030884, 0.2003619521856308, 0.13699471950531006, 0.06881744414567947, -0.016332494094967842, -0.09626814723014832, -0.15542906522750854, -0.2091687023639679, -0.2725805938243866, -0.34478023648262024, -0.4109351933002472, -0.46814408898353577, -0.5277922749519348, -0.5886774659156799, -0.6489917039871216, -0.7084232568740845, -0.7616326808929443, -0.8041056990623474, -0.8374297618865967, -0.8656906485557556, -0.889372706413269, -0.9078474044799805, -0.9238917827606201, -0.9403644800186157, -0.9560960531234741, -0.967301070690155, -0.9726560711860657, -0.9728221297264099, -0.9699055552482605, -0.969613254070282, -0.9774582982063293, -0.9929732084274292, -1.0086772441864014, -1.0156911611557007, -1.0105503797531128, -0.996025025844574, -0.9753936529159546, -0.9500241875648499, -0.9212448000907898, -0.8897663950920105, -0.8549609184265137, -0.8162336349487305, -0.7754439115524292, -0.7347925901412964, -0.6943233609199524, -0.6517021656036377, -0.6051772832870483, -0.5575333833694458, -0.5120790004730225, -0.4651242792606354, -0.4086016118526459, -0.34283357858657837, -0.27513229846954346, -0.2028290331363678, -0.11967738717794418, -0.03951149433851242, 0.02826746180653572, 0.09690333902835846, 0.17398175597190857, 0.25750184059143066, 0.34075528383255005, 0.4126473069190979, 0.5023472309112549, 0.6119203567504883, 0.7041443586349487, 0.7869182229042053, 0.8770902752876282, 0.9665000438690186, 1.0534181594848633, 1.156746745109558, 1.2417793273925781, 1.321931004524231, 1.3884642124176025, 1.4753823280334473]
volume 	 [0.8390085101127625, 0.821964681148529, 0.793057382106781, 0.7547242641448975, 0.7184308767318726, 0.6634474992752075, 0.6094728708267212, 0.5555663108825684, 0.48040711879730225, 0.4042467474937439, 0.3414764404296875, 0.2816108763217926, 0.21911895275115967, 0.16679802536964417, 0.12271447479724884, 0.07531556487083435, 0.01777646131813526, -0.03010724112391472, -0.0795096904039383, -0.11172505468130112, -0.1287461668252945, -0.15665693581104279, -0.19230413436889648, -0.21895840764045715, -0.23538415133953094, -0.24906796216964722, -0.26694485545158386, -0.2813974916934967, -0.2900196313858032, -0.29731547832489014, -0.301921010017395, -0.30550074577331543, -0.3120933473110199, -0.32525622844696045, -0.3434866964817047, -0.3572492301464081, -0.36802658438682556, -0.3819475471973419, -0.39508602023124695, -0.4008057415485382, -0.4027894139289856, -0.40726959705352783, -0.4178106188774109, -0.43042412400245667, -0.43781787157058716, -0.4355413317680359, -0.42388027906417847, -0.40586239099502563, -0.39169034361839294, -0.38762786984443665, -0.39402881264686584, -0.4075188934803009, -0.422086238861084, -0.4326522946357727, -0.43695512413978577, -0.43735864758491516, -0.4359484016895294, -0.43185698986053467, -0.42223629355430603, -0.40936794877052307, -0.3934171497821808, -0.37299320101737976, -0.34502193331718445, -0.3075868487358093, -0.2637687623500824, -0.22278188169002533, -0.19236142933368683, -0.16673962771892548, -0.13746964931488037, -0.1097283810377121, -0.08339966088533401, -0.0400363951921463, 0.020244795829057693, 0.08838529139757156, 0.16197198629379272, 0.22372666001319885, 0.29954400658607483, 0.3770087659358978, 0.43792709708213806, 0.49159765243530273, 0.5678606033325195, 0.6111101508140564, 0.6598172187805176, 0.7090408802032471, 0.756780207157135, 0.7591667175292969, 0.7611099481582642, 0.7428119778633118, 0.7435083985328674, 0.698603093624115, 0.6737538576126099, 0.6841874122619629, 0.7191162109375, 0.7375023365020752, 0.7368921041488647, 0.7458616495132446, 0.7043009996414185, 0.6605932712554932, 0.5945584177970886, 0.527375340461731, 0.45992669463157654, 0.3842307925224304, 0.32248106598854065, 0.2590266764163971, 0.1983489692211151, 0.13379599153995514, 0.08607899397611618, 0.05706615746021271, 0.03336911275982857, 0.009740353561937809, -0.017702629789710045, -0.04282020404934883, -0.06244920194149017, -0.08466003835201263, -0.12265656143426895, -0.16678614914417267, -0.20001238584518433, -0.22473913431167603, -0.24872355163097382, -0.2711881995201111, -0.29217249155044556, -0.319072961807251, -0.34539955854415894, -0.3585612177848816, -0.36082425713539124, -0.36576786637306213, -0.3805497884750366, -0.3976956307888031, -0.40893352031707764, -0.4132848381996155, -0.4157217741012573, -0.42120102047920227, -0.42779049277305603, -0.4356064200401306, -0.4433002471923828, -0.4473384916782379, -0.44385409355163574, -0.4402315616607666, -0.4485420882701874, -0.4645177125930786, -0.479294091463089, -0.4868847131729126, -0.48565757274627686, -0.47869762778282166, -0.46837282180786133, -0.4563180208206177, -0.4421731233596802, -0.42464718222618103, -0.403634250164032, -0.3831627666950226, -0.36580488085746765, -0.3469759225845337, -0.3244991898536682, -0.3014198839664459, -0.28038614988327026, -0.2585086226463318, -0.23643730580806732, -0.21295467019081116, -0.17743666470050812, -0.12843486666679382, -0.07970153540372849, -0.03857492282986641, -0.0008656157297082245, 0.033440981060266495, 0.06925534456968307, 0.11672617495059967, 0.17724192142486572, 0.24011626839637756, 0.31595104932785034, 0.38913899660110474, 0.44045671820640564, 0.5199027061462402, 0.5893576741218567, 0.6281522512435913, 0.6629306077957153, 0.7106029391288757, 0.7477223873138428, 0.793398380279541, 0.8150693774223328, 0.815471887588501]
