4.144040107727051 CrossValid 1056.8297119140625 CrossValidLossesBy500 1129.63525390625 1087.1375732421875 1068.7293701171875 1060.681640625 1057.0211181640625 1055.439453125 1054.8623046875 1055.08642578125 1056.006591796875 1057.271728515625 1056.349853515625 1056.046875 1056.664794921875 1056.5650634765625 1056.27490234375 1056.681884765625 1056.8297119140625
8500 LossesBy500 4.309293746948242 4.201472759246826 4.164990425109863 4.153288841247559 4.149220943450928 4.147568702697754 4.146273612976074 4.144989013671875 4.144421100616455 4.144205093383789 4.144064903259277 4.144259452819824 4.144219398498535 4.144142150878906 4.144131660461426 4.144047260284424 4.144040107727051
sigma2_stimulus 	 [0.0]
log_motor_var 	 [6.806775093078613]
sigma_logit 	 [-3.0, -0.5294695496559143, -1.5150034427642822, -2.9749338626861572, -3.531602144241333, -4.073407173156738]
mixture_logit 	 [-3.269763231277466]
prior 	 [0.0, 0.0, 0.0, 0.0, 0.0, 0.0, 0.0, 0.0, 0.0, 0.0, 0.0, 0.0, 0.0, 0.0, 0.0, 0.0, 0.0, 0.0, 0.0, 0.0, 0.0, 0.0, 0.0, 0.0, 0.0, 0.0, 0.0, 0.0, 0.0, 0.0, 0.0, 0.0, 0.0, 0.0, 0.0, 0.0, 0.0, 0.0, 0.0, 0.0, 0.0, 0.0, 0.0, 0.0, 0.0, 0.0, 0.0, 0.0, 0.0, 0.0, 0.0, 0.0, 0.0, 0.0, 0.0, 0.0, 0.0, 0.0, 0.0, 0.0, 0.0, 0.0, 0.0, 0.0, 0.0, 0.0, 0.0, 0.0, 0.0, 0.0, 0.0, 0.0, 0.0, 0.0, 0.0, 0.0, 0.0, 0.0, 0.0, 0.0, 0.0, 0.0, 0.0, 0.0, 0.0, 0.0, 0.0, 0.0, 0.0, 0.0, 0.0, 0.0, 0.0, 0.0, 0.0, 0.0, 0.0, 0.0, 0.0, 0.0, 0.0, 0.0, 0.0, 0.0, 0.0, 0.0, 0.0, 0.0, 0.0, 0.0, 0.0, 0.0, 0.0, 0.0, 0.0, 0.0, 0.0, 0.0, 0.0, 0.0, 0.0, 0.0, 0.0, 0.0, 0.0, 0.0, 0.0, 0.0, 0.0, 0.0, 0.0, 0.0, 0.0, 0.0, 0.0, 0.0, 0.0, 0.0, 0.0, 0.0, 0.0, 0.0, 0.0, 0.0, 0.0, 0.0, 0.0, 0.0, 0.0, 0.0, 0.0, 0.0, 0.0, 0.0, 0.0, 0.0, 0.0, 0.0, 0.0, 0.0, 0.0, 0.0, 0.0, 0.0, 0.0, 0.0, 0.0, 0.0, 0.0, 0.0, 0.0, 0.0, 0.0, 0.0, 0.0, 0.0, 0.0, 0.0, 0.0, 0.0]
volume 	 [1.1225595474243164, 1.0746538639068604, 1.0209274291992188, 0.9705345034599304, 0.9134294986724854, 0.8503246307373047, 0.765787661075592, 0.6666612029075623, 0.5806347131729126, 0.5019389986991882, 0.41952434182167053, 0.33415451645851135, 0.2499539703130722, 0.17543451488018036, 0.10723044723272324, 0.04773150756955147, -0.01004495657980442, -0.06649532169103622, -0.11546067148447037, -0.15827220678329468, -0.19927111268043518, -0.2365880161523819, -0.26824891567230225, -0.2904232144355774, -0.30239447951316833, -0.31130313873291016, -0.32580074667930603, -0.3452352285385132, -0.3638109564781189, -0.3789840638637543, -0.38872209191322327, -0.3925321400165558, -0.3929617404937744, -0.39236748218536377, -0.3952249586582184, -0.4000774025917053, -0.40436574816703796, -0.41079282760620117, -0.4205649197101593, -0.428011953830719, -0.43127506971359253, -0.4340408146381378, -0.43968665599823, -0.44406840205192566, -0.44675782322883606, -0.45127734541893005, -0.4553593695163727, -0.45496881008148193, -0.4499722719192505, -0.4441945254802704, -0.4432474970817566, -0.44661179184913635, -0.4508715569972992, -0.4554717242717743, -0.4617564380168915, -0.46805405616760254, -0.4730212390422821, -0.4775645136833191, -0.47800710797309875, -0.47056183218955994, -0.45642977952957153, -0.4395226240158081, -0.4207102656364441, -0.3987363874912262, -0.3721417486667633, -0.3424831032752991, -0.3142905831336975, -0.2877218425273895, -0.2571651041507721, -0.21849459409713745, -0.1740712672472, -0.1270827353000641, -0.07765620201826096, -0.021427758038043976, 0.04506006836891174, 0.12067652493715286, 0.20136713981628418, 0.2935144901275635, 0.3955283463001251, 0.4994439482688904, 0.5832575559616089, 0.64590984582901, 0.7249640226364136, 0.8161856532096863, 0.9097354412078857, 1.0171775817871094, 1.1198039054870605, 1.120116114616394, 1.1023527383804321, 1.1214829683303833, 1.113725185394287, 1.0844626426696777, 1.066895604133606, 1.0644611120224, 0.9902372360229492, 0.9236674904823303, 0.8454806208610535, 0.762540876865387, 0.6609352827072144, 0.5519896149635315, 0.4519401490688324, 0.36318981647491455, 0.28218603134155273, 0.20811478793621063, 0.14036083221435547, 0.0818469300866127, 0.034974101930856705, 0.00017238895816262811, -0.02796061709523201, -0.05849706754088402, -0.09125612676143646, -0.12219809740781784, -0.14963261783123016, -0.1717473715543747, -0.195229634642601, -0.22693999111652374, -0.26084765791893005, -0.29021763801574707, -0.313039630651474, -0.33248987793922424, -0.35183534026145935, -0.37153542041778564, -0.39056822657585144, -0.40693289041519165, -0.41952186822891235, -0.43005168437957764, -0.4440279006958008, -0.46317151188850403, -0.4843396544456482, -0.5046563148498535, -0.5226008296012878, -0.5375058650970459, -0.548393189907074, -0.5580844879150391, -0.5688276290893555, -0.5805578231811523, -0.591724693775177, -0.6024578809738159, -0.6150089502334595, -0.6282594799995422, -0.6401315927505493, -0.6475638747215271, -0.6488394737243652, -0.6446770429611206, -0.6346648335456848, -0.6182836890220642, -0.5959153175354004, -0.5689696073532104, -0.5404632687568665, -0.5124419927597046, -0.48526731133461, -0.45671987533569336, -0.4238058626651764, -0.3858610689640045, -0.34570184350013733, -0.30639082193374634, -0.2678946554660797, -0.2270057052373886, -0.1843002885580063, -0.14077845215797424, -0.0849524736404419, -0.011569286696612835, 0.06106330826878548, 0.11607419699430466, 0.1728968471288681, 0.24459894001483917, 0.3245406448841095, 0.4115023612976074, 0.4759364724159241, 0.5208538174629211, 0.5828054547309875, 0.6397907733917236, 0.6743717193603516, 0.744778573513031, 0.8250798583030701, 0.9085626006126404, 0.9729847311973572, 1.0201486349105835, 1.0688406229019165, 1.1049072742462158]
