4.048933029174805 CrossValid 993.1396484375 CrossValidLossesBy500 1023.8488159179688 1016.4573974609375 1013.6354370117188 1011.4906005859375 1009.5538330078125 1007.8035888671875 1006.2590942382812 1004.853759765625 1003.623779296875 1002.3641967773438 1001.343017578125 999.7469482421875 999.0997314453125 998.6495971679688 997.3764038085938 996.55712890625 996.0316772460938 996.2235717773438 995.5112915039062 995.7044067382812 995.3495483398438 995.5234985351562 994.7353515625 994.9102783203125 995.0789184570312 994.748291015625 994.1058959960938 993.9690551757812 994.4389038085938 994.5370483398438 994.4537963867188 994.0186767578125 994.1749877929688 993.8543701171875 993.4625244140625 993.0535278320312 993.2703247070312 993.3247680664062 993.1396484375
19500 LossesBy500 4.174546241760254 4.126835346221924 4.111407279968262 4.101309299468994 4.09299373626709 4.085813045501709 4.079467296600342 4.074002265930176 4.069698333740234 4.065851211547852 4.062836170196533 4.060023307800293 4.058280944824219 4.056789875030518 4.055235385894775 4.054049968719482 4.053260803222656 4.052559852600098 4.051764965057373 4.0515594482421875 4.050881385803223 4.050877571105957 4.050393581390381 4.050232410430908 4.050256252288818 4.050042629241943 4.049610614776611 4.049911022186279 4.049985408782959 4.0498366355896 4.049440860748291 4.049256801605225 4.049678325653076 4.049561023712158 4.049656391143799 4.0494065284729 4.049152851104736 4.049663066864014 4.048933029174805
sigma2_stimulus 	 [0.0]
log_motor_var 	 [7.11784029006958]
sigma_logit 	 [-3.0, 0.2186228185892105, -1.6071972846984863, -3.164696455001831, -3.6223487854003906, -4.047928333282471]
mixture_logit 	 [-3.227095365524292]
prior 	 [1.2458893060684204, 1.2730363607406616, 1.2470210790634155, 1.1866676807403564, 1.1223385334014893, 1.0637199878692627, 0.9946011900901794, 0.9370560646057129, 0.8798797726631165, 0.8133590817451477, 0.7477384209632874, 0.6816646456718445, 0.6079078912734985, 0.5386901497840881, 0.4647442698478699, 0.38909563422203064, 0.308091938495636, 0.23206627368927002, 0.1731380671262741, 0.11913846433162689, 0.05976180359721184, 0.00465801078826189, -0.04622521996498108, -0.09419950097799301, -0.14181731641292572, -0.18741759657859802, -0.22718073427677155, -0.26031553745269775, -0.28878891468048096, -0.317045122385025, -0.3494147062301636, -0.38648319244384766, -0.42727407813072205, -0.4663141369819641, -0.49687278270721436, -0.5184234380722046, -0.5341320037841797, -0.5425711870193481, -0.542194664478302, -0.5378313660621643, -0.5361164808273315, -0.5390945672988892, -0.5454999208450317, -0.5565256476402283, -0.57381671667099, -0.5927496552467346, -0.6037698984146118, -0.6013616919517517, -0.5886932611465454, -0.5719699859619141, -0.55608069896698, -0.5427864789962769, -0.5300648808479309, -0.5161129236221313, -0.5003709197044373, -0.481683611869812, -0.4589824974536896, -0.43386340141296387, -0.4099152684211731, -0.3863492012023926, -0.35899487137794495, -0.326389878988266, -0.290194034576416, -0.2520858347415924, -0.21580548584461212, -0.1851232498884201, -0.15421132743358612, -0.11913446336984634, -0.09027188271284103, -0.06568454205989838, -0.030163943767547607, 0.022608401253819466, 0.08686026930809021, 0.14980179071426392, 0.2159174233675003, 0.29231637716293335, 0.3631395101547241, 0.42972591519355774, 0.4964573383331299, 0.5604013800621033, 0.6115700006484985, 0.6510661840438843, 0.6720874905586243, 0.7011075615882874, 0.7144206762313843, 0.7273418307304382, 0.7354937791824341, 0.733709990978241, 0.729060709476471, 0.7340601086616516, 0.7682740092277527, 0.8319366574287415, 0.880293607711792, 0.8998018503189087, 0.8827981948852539, 0.8571042418479919, 0.8169297575950623, 0.7645430564880371, 0.7209874391555786, 0.6538190245628357, 0.5752385258674622, 0.49533042311668396, 0.4162241518497467, 0.33837735652923584, 0.2627779245376587, 0.20313945412635803, 0.14827467501163483, 0.09414100646972656, 0.04197534918785095, -0.014812161214649677, -0.07095406949520111, -0.11502495408058167, -0.15221835672855377, -0.19421230256557465, -0.2450520098209381, -0.2938552796840668, -0.33033233880996704, -0.36151009798049927, -0.3960757553577423, -0.4333943724632263, -0.4741537868976593, -0.5174674987792969, -0.5589821934700012, -0.5945901870727539, -0.6230936646461487, -0.6463810205459595, -0.6661937832832336, -0.6823210716247559, -0.6955872178077698, -0.7077843546867371, -0.7188079953193665, -0.7264206409454346, -0.7298210263252258, -0.7307497262954712, -0.7302992343902588, -0.7294349074363708, -0.7302916049957275, -0.7354637384414673, -0.7460620999336243, -0.7595788836479187, -0.7705829739570618, -0.7750599980354309, -0.7720794677734375, -0.7606614232063293, -0.7405229806900024, -0.7149537801742554, -0.6886707544326782, -0.6634597778320312, -0.6364940404891968, -0.6041443943977356, -0.5665614008903503, -0.5265457034111023, -0.48472172021865845, -0.4398418962955475, -0.3945413827896118, -0.3532419502735138, -0.3129645884037018, -0.26643863320350647, -0.21291838586330414, -0.15667998790740967, -0.09356258064508438, -0.02108917571604252, 0.05036196485161781, 0.11169816553592682, 0.16207388043403625, 0.21714769303798676, 0.2778766453266144, 0.3279508650302887, 0.38196584582328796, 0.44987934827804565, 0.529204785823822, 0.6151935458183289, 0.68097323179245, 0.7512680292129517, 0.8259279131889343, 0.8935331702232361, 0.9849550724029541, 1.067756175994873, 1.1462408304214478, 1.2016077041625977]
volume 	 [0.9170336723327637, 0.8759095668792725, 0.8503114581108093, 0.8247052431106567, 0.7876185178756714, 0.7328261733055115, 0.7029770612716675, 0.6596589684486389, 0.589320182800293, 0.520420491695404, 0.44785261154174805, 0.36406195163726807, 0.29211413860321045, 0.23295947909355164, 0.16847240924835205, 0.09497059881687164, 0.025439858436584473, -0.025807177647948265, -0.07146938145160675, -0.10782433301210403, -0.14723926782608032, -0.19104838371276855, -0.22929556667804718, -0.25279876589775085, -0.2684558033943176, -0.2903447449207306, -0.316760778427124, -0.33695337176322937, -0.35159581899642944, -0.36140692234039307, -0.3662397563457489, -0.3691641092300415, -0.3725527822971344, -0.37918150424957275, -0.388670414686203, -0.39515185356140137, -0.4009522795677185, -0.41187551617622375, -0.42469173669815063, -0.4317890405654907, -0.4358159899711609, -0.4418718218803406, -0.454007089138031, -0.4680172801017761, -0.47780704498291016, -0.48377540707588196, -0.4869726002216339, -0.4851795434951782, -0.4785239100456238, -0.4680088460445404, -0.4571487307548523, -0.4502218961715698, -0.44832539558410645, -0.45023179054260254, -0.4534693956375122, -0.45529231429100037, -0.4507424235343933, -0.43893712759017944, -0.42436087131500244, -0.41264525055885315, -0.4014231562614441, -0.3834890127182007, -0.3558156490325928, -0.32155299186706543, -0.28194931149482727, -0.23679879307746887, -0.19655956327915192, -0.1641601026058197, -0.13005422055721283, -0.0958823561668396, -0.06991218775510788, -0.0397062748670578, 0.00807065237313509, 0.07648945599794388, 0.1553034484386444, 0.22399865090847015, 0.3023989200592041, 0.39006391167640686, 0.46441328525543213, 0.5384795665740967, 0.6100327372550964, 0.6701422929763794, 0.7548714876174927, 0.8199940919876099, 0.9049793481826782, 0.9397138357162476, 0.9574923515319824, 0.9371688365936279, 0.9283627867698669, 0.9007781744003296, 0.8865063190460205, 0.8686017394065857, 0.8453315496444702, 0.8062763214111328, 0.79477858543396, 0.7784225344657898, 0.7488580346107483, 0.7177350521087646, 0.6596096158027649, 0.5975103378295898, 0.5249246954917908, 0.4432477355003357, 0.37091726064682007, 0.3015163242816925, 0.2379176765680313, 0.17890703678131104, 0.13988330960273743, 0.10448712110519409, 0.06118309870362282, 0.01682283729314804, -0.018343135714530945, -0.04682377353310585, -0.08424107730388641, -0.12988749146461487, -0.17456205189228058, -0.20802991092205048, -0.23181550204753876, -0.25990888476371765, -0.29677093029022217, -0.33699125051498413, -0.37373608350753784, -0.4029320478439331, -0.4209129214286804, -0.42706531286239624, -0.43316128849983215, -0.4486444592475891, -0.46969518065452576, -0.4900588393211365, -0.5103096961975098, -0.5298935174942017, -0.5453644394874573, -0.5555485486984253, -0.5609784722328186, -0.5636839866638184, -0.5627933740615845, -0.5607795119285583, -0.5602633953094482, -0.5641711950302124, -0.5731844902038574, -0.5819675922393799, -0.5862292051315308, -0.5841440558433533, -0.577515184879303, -0.5689706206321716, -0.5581586360931396, -0.5459074378013611, -0.5334761142730713, -0.5183471441268921, -0.49572065472602844, -0.46494802832603455, -0.4353165924549103, -0.4123533368110657, -0.3910991847515106, -0.36707359552383423, -0.3378337025642395, -0.30268222093582153, -0.26426297426223755, -0.22586674988269806, -0.1792534440755844, -0.12235726416110992, -0.059684958308935165, 0.0037861193995922804, 0.060160718858242035, 0.10462537407875061, 0.14408233761787415, 0.1903298944234848, 0.24542662501335144, 0.313504159450531, 0.39736509323120117, 0.4609576165676117, 0.5140159726142883, 0.5946188569068909, 0.6432326436042786, 0.6885378360748291, 0.7297513484954834, 0.7959684133529663, 0.8410839438438416, 0.876486599445343, 0.8967960476875305, 0.8900774717330933]
