4.122490882873535 CrossValid 1030.8780517578125 CrossValidLossesBy500 1034.6268310546875 1032.6173095703125 1032.084716796875 1032.0072021484375 1032.004638671875 1031.8248291015625 1031.9700927734375 1030.8780517578125
4000 LossesBy500 4.146805286407471 4.140316963195801 4.126382827758789 4.13585090637207 4.135583400726318 4.124252796173096 4.135325908660889 4.122490882873535
sigma2_stimulus 	 [0.0]
log_motor_var 	 [5.036323070526123]
sigma_logit 	 [-3.0, 0.5208050012588501, -1.5314096212387085, -3.433800458908081, -3.6643855571746826, -3.88039493560791]
mixture_logit 	 [-2.939605712890625]
prior 	 [0.0, 0.0, 0.0, 0.0, 0.0, 0.0, 0.0, 0.0, 0.0, 0.0, 0.0, 0.0, 0.0, 0.0, 0.0, 0.0, 0.0, 0.0, 0.0, 0.0, 0.0, 0.0, 0.0, 0.0, 0.0, 0.0, 0.0, 0.0, 0.0, 0.0, 0.0, 0.0, 0.0, 0.0, 0.0, 0.0, 0.0, 0.0, 0.0, 0.0, 0.0, 0.0, 0.0, 0.0, 0.0, 0.0, 0.0, 0.0, 0.0, 0.0, 0.0, 0.0, 0.0, 0.0, 0.0, 0.0, 0.0, 0.0, 0.0, 0.0, 0.0, 0.0, 0.0, 0.0, 0.0, 0.0, 0.0, 0.0, 0.0, 0.0, 0.0, 0.0, 0.0, 0.0, 0.0, 0.0, 0.0, 0.0, 0.0, 0.0, 0.0, 0.0, 0.0, 0.0, 0.0, 0.0, 0.0, 0.0, 0.0, 0.0, 0.0, 0.0, 0.0, 0.0, 0.0, 0.0, 0.0, 0.0, 0.0, 0.0, 0.0, 0.0, 0.0, 0.0, 0.0, 0.0, 0.0, 0.0, 0.0, 0.0, 0.0, 0.0, 0.0, 0.0, 0.0, 0.0, 0.0, 0.0, 0.0, 0.0, 0.0, 0.0, 0.0, 0.0, 0.0, 0.0, 0.0, 0.0, 0.0, 0.0, 0.0, 0.0, 0.0, 0.0, 0.0, 0.0, 0.0, 0.0, 0.0, 0.0, 0.0, 0.0, 0.0, 0.0, 0.0, 0.0, 0.0, 0.0, 0.0, 0.0, 0.0, 0.0, 0.0, 0.0, 0.0, 0.0, 0.0, 0.0, 0.0, 0.0, 0.0, 0.0, 0.0, 0.0, 0.0, 0.0, 0.0, 0.0, 0.0, 0.0, 0.0, 0.0, 0.0, 0.0, 0.0, 0.0, 0.0, 0.0, 0.0, 0.0]
volume 	 [0.7623265981674194, 0.7277380228042603, 0.6720667481422424, 0.6063803434371948, 0.539316713809967, 0.4717617630958557, 0.40673553943634033, 0.3425471782684326, 0.27814385294914246, 0.21357744932174683, 0.14855028688907623, 0.08541318029165268, 0.02482706680893898, -0.02860608883202076, -0.0783095732331276, -0.12043401598930359, -0.15722553431987762, -0.18611234426498413, -0.20989136397838593, -0.2284424901008606, -0.2455153614282608, -0.2607257664203644, -0.2741079330444336, -0.2850732207298279, -0.2930496335029602, -0.2972266376018524, -0.2976316809654236, -0.29494422674179077, -0.2900611162185669, -0.28416964411735535, -0.2773435711860657, -0.2695130407810211, -0.2599638104438782, -0.24697093665599823, -0.23079384863376617, -0.21075685322284698, -0.1901625096797943, -0.17257826030254364, -0.1593112349510193, -0.15002964437007904, -0.14561183750629425, -0.14406494796276093, -0.1443501114845276, -0.14307205379009247, -0.13981330394744873, -0.13377320766448975, -0.12654715776443481, -0.12113858759403229, -0.12095881253480911, -0.1259240359067917, -0.13601404428482056, -0.149917334318161, -0.1647694855928421, -0.1798715740442276, -0.19517192244529724, -0.20890869200229645, -0.21916945278644562, -0.22598718106746674, -0.23026315867900848, -0.2335389256477356, -0.2363702654838562, -0.2392115294933319, -0.2420516461133957, -0.24430407583713531, -0.24347661435604095, -0.23822031915187836, -0.22936442494392395, -0.21684539318084717, -0.20033255219459534, -0.17988701164722443, -0.15677648782730103, -0.12986133992671967, -0.09893454611301422, -0.06157094985246658, -0.016138752922415733, 0.038402847945690155, 0.10175737738609314, 0.16946598887443542, 0.23493146896362305, 0.29475584626197815, 0.3492688238620758, 0.4028877913951874, 0.4585934281349182, 0.5143923163414001, 0.5683555603027344, 0.6141213774681091, 0.6476438045501709, 0.6657567024230957, 0.6648050546646118, 0.6514842510223389, 0.6408786773681641, 0.6323330998420715, 0.6208789944648743, 0.6064264178276062, 0.586814820766449, 0.5621941685676575, 0.5317190885543823, 0.4915347695350647, 0.4417212903499603, 0.38323113322257996, 0.3181663155555725, 0.2503448724746704, 0.18339212238788605, 0.11801441758871078, 0.05633736774325371, -0.0003390723140910268, -0.0450860895216465, -0.08054611086845398, -0.1076146736741066, -0.13017036020755768, -0.1478234976530075, -0.161308154463768, -0.1716136485338211, -0.1774606555700302, -0.18131636083126068, -0.18457232415676117, -0.18686100840568542, -0.1910157948732376, -0.19608721137046814, -0.20034070312976837, -0.20207810401916504, -0.20039832592010498, -0.1949867159128189, -0.18648317456245422, -0.17913073301315308, -0.17491891980171204, -0.17299354076385498, -0.17284046113491058, -0.17257820069789886, -0.17264755070209503, -0.1744622439146042, -0.18011680245399475, -0.18797923624515533, -0.19794195890426636, -0.20783644914627075, -0.21884113550186157, -0.2301100492477417, -0.2410985231399536, -0.2537228763103485, -0.2669873535633087, -0.27954840660095215, -0.2894492447376251, -0.29470929503440857, -0.2961508631706238, -0.2935405671596527, -0.2863229811191559, -0.27632641792297363, -0.264577716588974, -0.25302550196647644, -0.2419675588607788, -0.23248200118541718, -0.22371098399162292, -0.21674799919128418, -0.214516744017601, -0.2188853919506073, -0.22748564183712006, -0.2367747575044632, -0.24430307745933533, -0.24605737626552582, -0.2404375523328781, -0.22542217373847961, -0.20304730534553528, -0.17388474941253662, -0.13755710422992706, -0.09436448663473129, -0.04415250942111015, 0.0128641901537776, 0.07445991039276123, 0.13915777206420898, 0.20799434185028076, 0.2776796519756317, 0.3475642502307892, 0.4144325256347656, 0.4797581732273102, 0.5452612638473511, 0.6115809679031372, 0.6751875281333923, 0.7292642593383789, 0.7611539363861084, 0.7705628275871277]
