4.057017803192139 CrossValid 978.7863159179688 CrossValidLossesBy500 1022.072998046875 1011.95703125 1008.8088989257812 1003.12353515625 1005.294921875 1004.261474609375 1003.2796630859375 996.55419921875 995.3408203125 994.1708984375 1000.2971801757812 992.1934814453125 991.4046020507812 990.53369140625 989.8036499023438 989.1249389648438 988.3927001953125 987.7286987304688 987.0521240234375 986.5098876953125 985.9308471679688 985.3933715820312 984.9478149414062 984.5195922851562 984.05810546875 983.651611328125 983.2667846679688 982.88720703125 982.5335693359375 982.126708984375 981.6790161132812 981.1361694335938 980.7700805664062 980.5054321289062 980.0694580078125 979.7230834960938 979.5687255859375 979.4174194335938 979.3623657226562 979.4840698242188 980.0335083007812 979.5321655273438 979.7849731445312 980.0588989257812 981.2141723632812 980.5226440429688 979.2271118164062 978.8121948242188 978.760009765625 979.0855712890625 979.0907592773438 979.3062744140625 978.8545532226562 978.754638671875 978.6080932617188 978.7474365234375 978.7863159179688
28500 LossesBy500 4.172052383422852 4.153556823730469 4.144583702087402 4.130033493041992 4.131364345550537 4.127334117889404 4.1233625411987305 4.106420993804932 4.102268695831299 4.098428726196289 4.113066673278809 4.092177867889404 4.089819431304932 4.087220668792725 4.085221767425537 4.083383083343506 4.08141565322876 4.079694747924805 4.078022003173828 4.076723575592041 4.075488090515137 4.074244022369385 4.073250770568848 4.0723161697387695 4.071319580078125 4.070517539978027 4.069748401641846 4.069001197814941 4.068398952484131 4.067553997039795 4.066779136657715 4.065931797027588 4.065426826477051 4.065009593963623 4.064180374145508 4.063541412353516 4.063232421875 4.062660217285156 4.06179666519165 4.060856342315674 4.059514045715332 4.060018062591553 4.058474063873291 4.058044910430908 4.0588202476501465 4.057657718658447 4.058195114135742 4.059189796447754 4.058588027954102 4.057759761810303 4.057283878326416 4.057257652282715 4.057704448699951 4.057351112365723 4.057615280151367 4.057252883911133 4.057017803192139
sigma2_stimulus 	 [0.0]
log_motor_var 	 [7.38524055480957]
sigma_logit 	 [-3.0, 0.6184823513031006, -1.4942468404769897, -3.194589614868164, -3.613474130630493, -4.043928146362305]
mixture_logit 	 [-3.1845428943634033]
prior 	 [1.53717839717865, 1.5804959535598755, 1.567326545715332, 1.5038914680480957, 1.4406331777572632, 1.3706620931625366, 1.3008172512054443, 1.2219325304031372, 1.138915777206421, 1.0489189624786377, 0.9470767378807068, 0.8623142838478088, 0.7654992341995239, 0.6610428690910339, 0.5726903080940247, 0.48538780212402344, 0.39793965220451355, 0.3241807222366333, 0.2402787208557129, 0.15177851915359497, 0.05618435889482498, -0.030878836289048195, -0.10790438205003738, -0.17970974743366241, -0.24390430748462677, -0.3094381093978882, -0.3723650574684143, -0.429460734128952, -0.4853750765323639, -0.5376760959625244, -0.5833238959312439, -0.6246709227561951, -0.6544435024261475, -0.672284722328186, -0.6950143575668335, -0.7341672778129578, -0.7729431390762329, -0.7946643829345703, -0.8085028529167175, -0.8242502808570862, -0.8358079195022583, -0.8360523581504822, -0.8301776647567749, -0.8255016803741455, -0.8248730897903442, -0.8357596397399902, -0.8507018685340881, -0.8489114046096802, -0.8325664401054382, -0.8140202760696411, -0.7978065609931946, -0.783129870891571, -0.7674262523651123, -0.7538413405418396, -0.7426963448524475, -0.728875994682312, -0.7123997211456299, -0.6892392039299011, -0.6610561609268188, -0.6298874616622925, -0.5973162055015564, -0.5653504133224487, -0.5330150127410889, -0.4969457685947418, -0.44854655861854553, -0.396218866109848, -0.35762161016464233, -0.31579408049583435, -0.2507905066013336, -0.17119258642196655, -0.09443101286888123, -0.021715492010116577, 0.05408750846982002, 0.13267157971858978, 0.21987159550189972, 0.32062003016471863, 0.4088611900806427, 0.49430423974990845, 0.5848549604415894, 0.6656818985939026, 0.7420075535774231, 0.8126497268676758, 0.8828410506248474, 0.9327335953712463, 0.9872350692749023, 1.0219335556030273, 1.0295567512512207, 1.0441945791244507, 1.0444817543029785, 1.038794994354248, 1.0529297590255737, 1.0888850688934326, 1.1239126920700073, 1.1490789651870728, 1.1533645391464233, 1.120574712753296, 1.0771476030349731, 1.0405184030532837, 0.9753332138061523, 0.9115611910820007, 0.8471884727478027, 0.7657676339149475, 0.6748232841491699, 0.5801867842674255, 0.49399903416633606, 0.4113251864910126, 0.3211393654346466, 0.2336326241493225, 0.1574305146932602, 0.09405234456062317, 0.038262948393821716, -0.009484820999205112, -0.06847138702869415, -0.14617112278938293, -0.2135254144668579, -0.2574629783630371, -0.29906755685806274, -0.349381685256958, -0.4030260741710663, -0.4511471688747406, -0.4981289207935333, -0.5515548586845398, -0.607739269733429, -0.6654536724090576, -0.7177436947822571, -0.7572773694992065, -0.782927930355072, -0.8008821606636047, -0.8171483874320984, -0.8337526321411133, -0.8514668941497803, -0.8692908883094788, -0.8801600933074951, -0.8855885863304138, -0.8868967294692993, -0.8903948664665222, -0.9029736518859863, -0.9207920432090759, -0.9271921515464783, -0.9183968305587769, -0.906760036945343, -0.897270679473877, -0.8890358209609985, -0.8796377778053284, -0.8659783005714417, -0.8456096649169922, -0.8183556795120239, -0.7868673205375671, -0.7514550685882568, -0.7089349627494812, -0.6660220623016357, -0.6341217756271362, -0.6065177321434021, -0.564603865146637, -0.5040227174758911, -0.44282037019729614, -0.3835962414741516, -0.30972766876220703, -0.2292623668909073, -0.15552975237369537, -0.09164872765541077, -0.03145451098680496, 0.038893070071935654, 0.12129159271717072, 0.19182181358337402, 0.2557069957256317, 0.3507814407348633, 0.4692283272743225, 0.579142689704895, 0.6719352602958679, 0.7661021947860718, 0.8608466982841492, 0.9460424780845642, 1.0234981775283813, 1.1138923168182373, 1.184862494468689, 1.2486296892166138, 1.3076601028442383, 1.361525535583496, 1.4478445053100586]
volume 	 [0.6972157955169678, 0.6591887474060059, 0.6433277726173401, 0.6298679113388062, 0.6205688118934631, 0.5973034501075745, 0.5480832457542419, 0.4934074282646179, 0.4496113955974579, 0.37291646003723145, 0.29432734847068787, 0.2204899787902832, 0.15719939768314362, 0.09922909736633301, 0.04358762502670288, -0.011901224963366985, -0.05428200960159302, -0.08088177442550659, -0.10464215278625488, -0.13599969446659088, -0.17588967084884644, -0.21401242911815643, -0.22467041015625, -0.21689651906490326, -0.21888934075832367, -0.23399312794208527, -0.24668146669864655, -0.2527289092540741, -0.25466617941856384, -0.25937414169311523, -0.25745338201522827, -0.2493511289358139, -0.2402724176645279, -0.2289000004529953, -0.22094453871250153, -0.22290828824043274, -0.23122288286685944, -0.24026402831077576, -0.25302594900131226, -0.2626596689224243, -0.2628982961177826, -0.26148468255996704, -0.2674882411956787, -0.28049400448799133, -0.2896643280982971, -0.28673386573791504, -0.2740246057510376, -0.2652446925640106, -0.27539563179016113, -0.29276856780052185, -0.30707213282585144, -0.31707191467285156, -0.32214128971099854, -0.32276034355163574, -0.32345837354660034, -0.3305748403072357, -0.3387717008590698, -0.34121963381767273, -0.34453287720680237, -0.35024961829185486, -0.34166765213012695, -0.31128227710723877, -0.2752380967140198, -0.2555719316005707, -0.24552467465400696, -0.22863180935382843, -0.21516762673854828, -0.2074994593858719, -0.18970921635627747, -0.1553921401500702, -0.10586036741733551, -0.0530865453183651, -0.007371416315436363, 0.052566058933734894, 0.12958024442195892, 0.19751831889152527, 0.2443980723619461, 0.2895706295967102, 0.34319815039634705, 0.4020649790763855, 0.4656884968280792, 0.5213916897773743, 0.5706849098205566, 0.6233183145523071, 0.6410965919494629, 0.6450380086898804, 0.6338181495666504, 0.64042729139328, 0.6453728079795837, 0.63356614112854, 0.6400567293167114, 0.6628973484039307, 0.6798233985900879, 0.6397680640220642, 0.6003521084785461, 0.567084789276123, 0.54163658618927, 0.514056384563446, 0.4757721424102783, 0.4117492437362671, 0.35330262780189514, 0.3093971312046051, 0.25467437505722046, 0.21181754767894745, 0.17007553577423096, 0.11053779721260071, 0.06969614326953888, 0.02321089617908001, -0.027305347844958305, -0.061608996242284775, -0.07688484340906143, -0.08623789250850677, -0.09883417934179306, -0.11479275673627853, -0.14482565224170685, -0.17550599575042725, -0.19313247501850128, -0.2052023559808731, -0.2128843069076538, -0.21960467100143433, -0.22725197672843933, -0.23318588733673096, -0.24370238184928894, -0.26444172859191895, -0.28624528646469116, -0.2932160496711731, -0.28913021087646484, -0.2935306429862976, -0.30802178382873535, -0.3147863447666168, -0.3108879625797272, -0.31058579683303833, -0.3182605803012848, -0.3289986848831177, -0.3405361771583557, -0.350375771522522, -0.35029634833335876, -0.3497790992259979, -0.3633994162082672, -0.37988442182540894, -0.3927946984767914, -0.40011847019195557, -0.4045628607273102, -0.4058838188648224, -0.40085816383361816, -0.39173316955566406, -0.3761460781097412, -0.35343143343925476, -0.33480989933013916, -0.3237757384777069, -0.3161754906177521, -0.3051797151565552, -0.2848644256591797, -0.2596273422241211, -0.2425891011953354, -0.23799709975719452, -0.22292742133140564, -0.19320853054523468, -0.16951456665992737, -0.156378373503685, -0.13240356743335724, -0.09016840904951096, -0.04992997646331787, -0.01501210406422615, 0.029223212972283363, 0.07798080146312714, 0.12897121906280518, 0.19407793879508972, 0.26571181416511536, 0.33631303906440735, 0.410317063331604, 0.4652707278728485, 0.5067918300628662, 0.5245739817619324, 0.5276688933372498, 0.5379520654678345, 0.5753257870674133, 0.6139721870422363, 0.6577684283256531, 0.6785681843757629]
