4.143764495849609 CrossValid 1035.8209228515625 CrossValidLossesBy500 1038.4896240234375 1036.085693359375 1035.7630615234375 1035.7138671875 1035.7279052734375 1035.754638671875 1035.7667236328125 1035.7763671875 1035.781982421875 1035.786376953125 1035.8048095703125 1035.80224609375 1035.83203125 1035.8209228515625
7000 LossesBy500 4.165672302246094 4.149636745452881 4.14609956741333 4.144856929779053 4.144377708435059 4.144194602966309 4.144070625305176 4.143998146057129 4.143922805786133 4.143858909606934 4.143872261047363 4.14380407333374 4.14385461807251 4.143764495849609
sigma2_stimulus 	 [0.0]
log_motor_var 	 [5.562896728515625]
sigma_logit 	 [-3.0, 0.503095269203186, -1.5635316371917725, -3.3332180976867676, -3.6436679363250732, -3.934608221054077]
mixture_logit 	 [-2.9327356815338135]
prior 	 [0.0, 0.0, 0.0, 0.0, 0.0, 0.0, 0.0, 0.0, 0.0, 0.0, 0.0, 0.0, 0.0, 0.0, 0.0, 0.0, 0.0, 0.0, 0.0, 0.0, 0.0, 0.0, 0.0, 0.0, 0.0, 0.0, 0.0, 0.0, 0.0, 0.0, 0.0, 0.0, 0.0, 0.0, 0.0, 0.0, 0.0, 0.0, 0.0, 0.0, 0.0, 0.0, 0.0, 0.0, 0.0, 0.0, 0.0, 0.0, 0.0, 0.0, 0.0, 0.0, 0.0, 0.0, 0.0, 0.0, 0.0, 0.0, 0.0, 0.0, 0.0, 0.0, 0.0, 0.0, 0.0, 0.0, 0.0, 0.0, 0.0, 0.0, 0.0, 0.0, 0.0, 0.0, 0.0, 0.0, 0.0, 0.0, 0.0, 0.0, 0.0, 0.0, 0.0, 0.0, 0.0, 0.0, 0.0, 0.0, 0.0, 0.0, 0.0, 0.0, 0.0, 0.0, 0.0, 0.0, 0.0, 0.0, 0.0, 0.0, 0.0, 0.0, 0.0, 0.0, 0.0, 0.0, 0.0, 0.0, 0.0, 0.0, 0.0, 0.0, 0.0, 0.0, 0.0, 0.0, 0.0, 0.0, 0.0, 0.0, 0.0, 0.0, 0.0, 0.0, 0.0, 0.0, 0.0, 0.0, 0.0, 0.0, 0.0, 0.0, 0.0, 0.0, 0.0, 0.0, 0.0, 0.0, 0.0, 0.0, 0.0, 0.0, 0.0, 0.0, 0.0, 0.0, 0.0, 0.0, 0.0, 0.0, 0.0, 0.0, 0.0, 0.0, 0.0, 0.0, 0.0, 0.0, 0.0, 0.0, 0.0, 0.0, 0.0, 0.0, 0.0, 0.0, 0.0, 0.0, 0.0, 0.0, 0.0, 0.0, 0.0, 0.0, 0.0, 0.0, 0.0, 0.0, 0.0, 0.0]
volume 	 [0.7436517477035522, 0.7069844603538513, 0.6525330543518066, 0.5859408378601074, 0.5210219025611877, 0.4577418267726898, 0.396904855966568, 0.3363099992275238, 0.27484551072120667, 0.2128089815378189, 0.14901141822338104, 0.08504188060760498, 0.021783659234642982, -0.034655503928661346, -0.08616583794355392, -0.12858808040618896, -0.16504055261611938, -0.19421836733818054, -0.21923866868019104, -0.23924551904201508, -0.25700682401657104, -0.2717273533344269, -0.28408437967300415, -0.2946845591068268, -0.30397021770477295, -0.3106786906719208, -0.3130852282047272, -0.31072869896888733, -0.30479082465171814, -0.29762381315231323, -0.2900989055633545, -0.2826705574989319, -0.2742588520050049, -0.26157140731811523, -0.2430863231420517, -0.21744100749492645, -0.1892898976802826, -0.16452665627002716, -0.1461041122674942, -0.13432542979717255, -0.12962926924228668, -0.12898242473602295, -0.1304774284362793, -0.13003620505332947, -0.12629586458206177, -0.11753375828266144, -0.10599208623170853, -0.09714601933956146, -0.09658059477806091, -0.10392799973487854, -0.11753418296575546, -0.13492263853549957, -0.15319058299064636, -0.17211295664310455, -0.19180263578891754, -0.20973844826221466, -0.2225622832775116, -0.2301194965839386, -0.23456577956676483, -0.23906558752059937, -0.2450571060180664, -0.25275158882141113, -0.26081791520118713, -0.2666141986846924, -0.26647451519966125, -0.2595234513282776, -0.2478821873664856, -0.23194609582424164, -0.21132591366767883, -0.18689462542533875, -0.16150955855846405, -0.13424287736415863, -0.10282880812883377, -0.06260200589895248, -0.01171236950904131, 0.048898130655288696, 0.11663027107715607, 0.18597468733787537, 0.2502147853374481, 0.30748724937438965, 0.35884082317352295, 0.4085938036441803, 0.46157699823379517, 0.5177119374275208, 0.5755261182785034, 0.6245783567428589, 0.658392071723938, 0.674568772315979, 0.6692885160446167, 0.648582398891449, 0.6333606243133545, 0.6239755749702454, 0.6112979650497437, 0.5965566039085388, 0.5767430663108826, 0.5512285828590393, 0.523452877998352, 0.48645520210266113, 0.4387315511703491, 0.3810024857521057, 0.31660348176956177, 0.2502737045288086, 0.18536554276943207, 0.121701180934906, 0.061088286340236664, 0.004393772222101688, -0.04129740223288536, -0.07802747189998627, -0.10593289881944656, -0.12872639298439026, -0.14644786715507507, -0.16025413572788239, -0.1711982637643814, -0.17765486240386963, -0.1813788264989853, -0.18367521464824677, -0.1848006546497345, -0.18836748600006104, -0.1934375911951065, -0.19779235124588013, -0.19957175850868225, -0.19787628948688507, -0.1920306384563446, -0.1821058839559555, -0.17269879579544067, -0.16741739213466644, -0.16650976240634918, -0.16863884031772614, -0.16953785717487335, -0.16837356984615326, -0.1671230047941208, -0.1692141890525818, -0.17430157959461212, -0.18322333693504333, -0.1932596117258072, -0.2037687748670578, -0.21349039673805237, -0.22367897629737854, -0.2380961924791336, -0.25518307089805603, -0.27156686782836914, -0.28392088413238525, -0.2899899184703827, -0.29079529643058777, -0.2866433560848236, -0.27780863642692566, -0.2669684588909149, -0.25581449270248413, -0.24645556509494781, -0.23872365057468414, -0.23256148397922516, -0.22607886791229248, -0.22070282697677612, -0.22084292769432068, -0.22947174310684204, -0.24290163815021515, -0.2549912631511688, -0.2617657780647278, -0.25976812839508057, -0.24918122589588165, -0.22949978709220886, -0.2029392272233963, -0.16991448402404785, -0.13001985847949982, -0.08387701958417892, -0.031177356839179993, 0.028151746839284897, 0.0912211611866951, 0.15635693073272705, 0.22526872158050537, 0.2948771119117737, 0.36296695470809937, 0.4258580505847931, 0.4843370020389557, 0.5424938201904297, 0.6050044298171997, 0.6630871295928955, 0.7135874032974243, 0.739511251449585, 0.74637770652771]
