4.290252208709717 CrossValid 1056.81787109375 CrossValidLossesBy500 1119.438720703125 1089.8697509765625 1069.3885498046875 1060.245361328125 1057.198486328125 1056.2904052734375 1056.1007080078125 1056.098388671875 1056.1331787109375 1056.2091064453125 1056.2490234375 1056.3260498046875 1056.318359375 1056.3701171875 1056.4053955078125 1056.4617919921875 1056.4521484375 1056.5660400390625 1056.629638671875 1056.68896484375 1056.81787109375
10500 LossesBy500 4.5169758796691895 4.4118428230285645 4.346762180328369 4.314796447753906 4.301474094390869 4.29620885848999 4.294151306152344 4.293205261230469 4.292688846588135 4.292470455169678 4.292223930358887 4.292065143585205 4.291757106781006 4.291558742523193 4.291347026824951 4.2911577224731445 4.290652275085449 4.290565013885498 4.2909393310546875 4.290698051452637 4.290252208709717
sigma2_stimulus 	 [0.0]
log_motor_var 	 [6.48801851272583]
sigma_logit 	 [-3.0, -0.4650006890296936, -1.5180529356002808, -2.9302890300750732, -3.53770112991333, -4.067636489868164]
mixture_logit 	 [-3.319681406021118]
prior 	 [0.0, 0.0, 0.0, 0.0, 0.0, 0.0, 0.0, 0.0, 0.0, 0.0, 0.0, 0.0, 0.0, 0.0, 0.0, 0.0, 0.0, 0.0, 0.0, 0.0, 0.0, 0.0, 0.0, 0.0, 0.0, 0.0, 0.0, 0.0, 0.0, 0.0, 0.0, 0.0, 0.0, 0.0, 0.0, 0.0, 0.0, 0.0, 0.0, 0.0, 0.0, 0.0, 0.0, 0.0, 0.0, 0.0, 0.0, 0.0, 0.0, 0.0, 0.0, 0.0, 0.0, 0.0, 0.0, 0.0, 0.0, 0.0, 0.0, 0.0, 0.0, 0.0, 0.0, 0.0, 0.0, 0.0, 0.0, 0.0, 0.0, 0.0, 0.0, 0.0, 0.0, 0.0, 0.0, 0.0, 0.0, 0.0, 0.0, 0.0, 0.0, 0.0, 0.0, 0.0, 0.0, 0.0, 0.0, 0.0, 0.0, 0.0, 0.0, 0.0, 0.0, 0.0, 0.0, 0.0, 0.0, 0.0, 0.0, 0.0, 0.0, 0.0, 0.0, 0.0, 0.0, 0.0, 0.0, 0.0, 0.0, 0.0, 0.0, 0.0, 0.0, 0.0, 0.0, 0.0, 0.0, 0.0, 0.0, 0.0, 0.0, 0.0, 0.0, 0.0, 0.0, 0.0, 0.0, 0.0, 0.0, 0.0, 0.0, 0.0, 0.0, 0.0, 0.0, 0.0, 0.0, 0.0, 0.0, 0.0, 0.0, 0.0, 0.0, 0.0, 0.0, 0.0, 0.0, 0.0, 0.0, 0.0, 0.0, 0.0, 0.0, 0.0, 0.0, 0.0, 0.0, 0.0, 0.0, 0.0, 0.0, 0.0, 0.0, 0.0, 0.0, 0.0, 0.0, 0.0, 0.0, 0.0, 0.0, 0.0, 0.0, 0.0, 0.0, 0.0, 0.0, 0.0, 0.0, 0.0]
volume 	 [1.3318989276885986, 1.2781347036361694, 1.2199015617370605, 1.1533738374710083, 1.09316885471344, 1.014299988746643, 0.921052098274231, 0.8258208632469177, 0.7411159873008728, 0.6615498661994934, 0.582758367061615, 0.494962215423584, 0.40117380023002625, 0.31623953580856323, 0.23218926787376404, 0.15086546540260315, 0.07222317159175873, 0.0002785145479720086, -0.06657392531633377, -0.12909844517707825, -0.18555855751037598, -0.23457759618759155, -0.2775392532348633, -0.3162216544151306, -0.35325583815574646, -0.38867899775505066, -0.41993144154548645, -0.44515547156333923, -0.4644707143306732, -0.4802824556827545, -0.4957195520401001, -0.5120972990989685, -0.5291381478309631, -0.5458928346633911, -0.5614887475967407, -0.5741214156150818, -0.5847848653793335, -0.5949980616569519, -0.6039900779724121, -0.610050618648529, -0.6137786507606506, -0.6162770390510559, -0.619146466255188, -0.6217005848884583, -0.6231978535652161, -0.6234625577926636, -0.6225761771202087, -0.6200202703475952, -0.6158086657524109, -0.6099086403846741, -0.6041414737701416, -0.6004436016082764, -0.5981273055076599, -0.5959606766700745, -0.5937655568122864, -0.5912652611732483, -0.5868056416511536, -0.5791102051734924, -0.5670722126960754, -0.5494510531425476, -0.5244297385215759, -0.49135613441467285, -0.4525294601917267, -0.4116300046443939, -0.3706907629966736, -0.3292800784111023, -0.28616729378700256, -0.24002739787101746, -0.19199304282665253, -0.14256253838539124, -0.09093571454286575, -0.033785294741392136, 0.027651414275169373, 0.09044572710990906, 0.1567850559949875, 0.2308291643857956, 0.3141753375530243, 0.40851470828056335, 0.5027087926864624, 0.594805896282196, 0.6914405822753906, 0.7644397616386414, 0.8366349935531616, 0.9280285835266113, 1.0248445272445679, 1.1151132583618164, 1.2037311792373657, 1.2285197973251343, 1.250038981437683, 1.298047661781311, 1.2898906469345093, 1.2599836587905884, 1.2368487119674683, 1.2085421085357666, 1.1311599016189575, 1.0590213537216187, 0.99284428358078, 0.9200648069381714, 0.8219612240791321, 0.7238002419471741, 0.6227636933326721, 0.528935968875885, 0.44148117303848267, 0.3669649362564087, 0.2991485297679901, 0.23159345984458923, 0.16719138622283936, 0.10863468796014786, 0.053326692432165146, -0.0024026252795010805, -0.05503394082188606, -0.1036660224199295, -0.14981314539909363, -0.1988665610551834, -0.25397196412086487, -0.3086601197719574, -0.35568109154701233, -0.395912766456604, -0.43182337284088135, -0.4647276997566223, -0.49421238899230957, -0.5202146172523499, -0.5433775782585144, -0.5645345449447632, -0.5853114128112793, -0.6074545979499817, -0.6314462423324585, -0.6556590795516968, -0.6783093810081482, -0.6980656981468201, -0.7144535183906555, -0.7276697158813477, -0.7374618053436279, -0.7445794343948364, -0.749816358089447, -0.7549426555633545, -0.7605973482131958, -0.7664245963096619, -0.7723029851913452, -0.7773644924163818, -0.7809616923332214, -0.7821911573410034, -0.7798296809196472, -0.7729006409645081, -0.7602841854095459, -0.7419586181640625, -0.717498779296875, -0.6860358119010925, -0.6477155685424805, -0.6038558483123779, -0.5574751496315002, -0.5113019943237305, -0.46664419770240784, -0.4228558838367462, -0.3775482773780823, -0.3288067877292633, -0.2773415744304657, -0.22396749258041382, -0.16782240569591522, -0.111345574259758, -0.05183398351073265, 0.01646801084280014, 0.09048005193471909, 0.1616586446762085, 0.23386164009571075, 0.31528279185295105, 0.4075060188770294, 0.5142925381660461, 0.5991907715797424, 0.6669538617134094, 0.7405095100402832, 0.7955852746963501, 0.8534411191940308, 0.9141039848327637, 1.0025800466537476, 1.0809041261672974, 1.1530424356460571, 1.21592378616333, 1.2742047309875488, 1.308070421218872]
