4.087603569030762 CrossValid 990.9920043945312 CrossValidLossesBy500 1020.9978637695312 998.5557861328125 994.33837890625 993.0045776367188 992.4417724609375 992.0769653320312 991.8513793945312 991.6863403320312 991.5171508789062 991.2450561523438 991.0361938476562 990.8754272460938 990.7631225585938 990.7991333007812 990.7008056640625 990.7178344726562 992.0216674804688 990.9920043945312
9000 LossesBy500 4.144140720367432 4.098373889923096 4.093074798583984 4.0915045738220215 4.090761184692383 4.0902419090271 4.089998245239258 4.08981466293335 4.089636325836182 4.0891876220703125 4.088793754577637 4.0886454582214355 4.088314533233643 4.087988376617432 4.087818622589111 4.088034152984619 4.087852478027344 4.087603569030762
sigma2_stimulus 	 [0.0]
log_motor_var 	 [6.88979434967041]
sigma_logit 	 [-3.0, 0.19330911338329315, -1.741922378540039, -3.151169538497925, -3.6281471252441406, -4.119097709655762]
mixture_logit 	 [-2.9556796550750732]
prior 	 [0.0, 0.0, 0.0, 0.0, 0.0, 0.0, 0.0, 0.0, 0.0, 0.0, 0.0, 0.0, 0.0, 0.0, 0.0, 0.0, 0.0, 0.0, 0.0, 0.0, 0.0, 0.0, 0.0, 0.0, 0.0, 0.0, 0.0, 0.0, 0.0, 0.0, 0.0, 0.0, 0.0, 0.0, 0.0, 0.0, 0.0, 0.0, 0.0, 0.0, 0.0, 0.0, 0.0, 0.0, 0.0, 0.0, 0.0, 0.0, 0.0, 0.0, 0.0, 0.0, 0.0, 0.0, 0.0, 0.0, 0.0, 0.0, 0.0, 0.0, 0.0, 0.0, 0.0, 0.0, 0.0, 0.0, 0.0, 0.0, 0.0, 0.0, 0.0, 0.0, 0.0, 0.0, 0.0, 0.0, 0.0, 0.0, 0.0, 0.0, 0.0, 0.0, 0.0, 0.0, 0.0, 0.0, 0.0, 0.0, 0.0, 0.0, 0.0, 0.0, 0.0, 0.0, 0.0, 0.0, 0.0, 0.0, 0.0, 0.0, 0.0, 0.0, 0.0, 0.0, 0.0, 0.0, 0.0, 0.0, 0.0, 0.0, 0.0, 0.0, 0.0, 0.0, 0.0, 0.0, 0.0, 0.0, 0.0, 0.0, 0.0, 0.0, 0.0, 0.0, 0.0, 0.0, 0.0, 0.0, 0.0, 0.0, 0.0, 0.0, 0.0, 0.0, 0.0, 0.0, 0.0, 0.0, 0.0, 0.0, 0.0, 0.0, 0.0, 0.0, 0.0, 0.0, 0.0, 0.0, 0.0, 0.0, 0.0, 0.0, 0.0, 0.0, 0.0, 0.0, 0.0, 0.0, 0.0, 0.0, 0.0, 0.0, 0.0, 0.0, 0.0, 0.0, 0.0, 0.0, 0.0, 0.0, 0.0, 0.0, 0.0, 0.0, 0.0, 0.0, 0.0, 0.0, 0.0, 0.0]
volume 	 [0.8704735040664673, 0.8352296948432922, 0.7841190695762634, 0.7284206748008728, 0.6815289855003357, 0.6375400424003601, 0.5844388604164124, 0.537386417388916, 0.48505499958992004, 0.4056297838687897, 0.32375019788742065, 0.24610987305641174, 0.181459441781044, 0.12465675920248032, 0.06415484100580215, 0.009608309715986252, -0.03615434840321541, -0.07084467262029648, -0.11048340797424316, -0.15413372218608856, -0.1973579376935959, -0.2340853363275528, -0.2594870328903198, -0.27229735255241394, -0.2824364900588989, -0.30248627066612244, -0.3291313350200653, -0.34841474890708923, -0.35449230670928955, -0.35512682795524597, -0.357103556394577, -0.3578200042247772, -0.3542660176753998, -0.34391656517982483, -0.32812339067459106, -0.31452086567878723, -0.30903953313827515, -0.3110479712486267, -0.3180122673511505, -0.3225976228713989, -0.3213297724723816, -0.31682729721069336, -0.3172699809074402, -0.32301053404808044, -0.3287481963634491, -0.3301946222782135, -0.3250196576118469, -0.3153262436389923, -0.3102870285511017, -0.3132515251636505, -0.3229631781578064, -0.33748355507850647, -0.34854769706726074, -0.35162803530693054, -0.35460609197616577, -0.3617704510688782, -0.3674246072769165, -0.370991051197052, -0.3717041313648224, -0.36261045932769775, -0.342521607875824, -0.3195219337940216, -0.2996944189071655, -0.2843654751777649, -0.27760249376296997, -0.2773326337337494, -0.2680373191833496, -0.24153701961040497, -0.20211905241012573, -0.15884225070476532, -0.11533041298389435, -0.05965477600693703, 0.012136678211390972, 0.08066191524267197, 0.12950678169727325, 0.17576977610588074, 0.23168659210205078, 0.2933121919631958, 0.3590431809425354, 0.42808306217193604, 0.4975773096084595, 0.5708959698677063, 0.6414524912834167, 0.6934128999710083, 0.748206377029419, 0.8060320019721985, 0.8423123359680176, 0.8553302884101868, 0.8705438375473022, 0.853195309638977, 0.8448821902275085, 0.8144904375076294, 0.7771198749542236, 0.7220562696456909, 0.6940365433692932, 0.6685053706169128, 0.6305498480796814, 0.5882648229598999, 0.5297595858573914, 0.4690992832183838, 0.40533319115638733, 0.340400755405426, 0.2769632935523987, 0.20768624544143677, 0.14006705582141876, 0.07732066512107849, 0.029852580279111862, -0.007928889244794846, -0.039944104850292206, -0.07200156897306442, -0.09282578527927399, -0.10136484354734421, -0.10546180605888367, -0.11464279890060425, -0.13990887999534607, -0.170649453997612, -0.19522501528263092, -0.21221917867660522, -0.2247627079486847, -0.2385828047990799, -0.2519623041152954, -0.26443061232566833, -0.28049448132514954, -0.29974398016929626, -0.3184942603111267, -0.3320724666118622, -0.34022337198257446, -0.34780609607696533, -0.3583269715309143, -0.3673545718193054, -0.3738184869289398, -0.3859279453754425, -0.402272492647171, -0.4181854724884033, -0.43185022473335266, -0.4421825110912323, -0.44694212079048157, -0.45266684889793396, -0.4673846960067749, -0.48429203033447266, -0.4957585632801056, -0.499385267496109, -0.49599260091781616, -0.4866340458393097, -0.47318321466445923, -0.45773616433143616, -0.43714144825935364, -0.40821731090545654, -0.37634706497192383, -0.3480110764503479, -0.32639452815055847, -0.30939823389053345, -0.2887738347053528, -0.2616300582885742, -0.23526813089847565, -0.20722931623458862, -0.17571066319942474, -0.14881204068660736, -0.12792862951755524, -0.10486319661140442, -0.07172543555498123, -0.03435570374131203, -0.006467781029641628, 0.012476952746510506, 0.04139383137226105, 0.08642914146184921, 0.1334342360496521, 0.1843811571598053, 0.255026638507843, 0.3288055956363678, 0.38875898718833923, 0.46284088492393494, 0.5276834964752197, 0.5731766223907471, 0.6086366772651672, 0.6602557897567749, 0.7206151485443115, 0.7654193639755249, 0.8012926578521729, 0.8241157531738281]
