4.075738430023193 CrossValid 1044.405029296875 CrossValidLossesBy500 1101.6859130859375 1058.427001953125 1049.238525390625 1046.5379638671875 1045.5299072265625 1045.08203125 1044.76513671875 1044.5723876953125 1044.512451171875 1044.96533203125 1044.49658203125 1044.620849609375 1044.37353515625 1044.4146728515625 1044.4278564453125 1044.3985595703125 1044.451416015625 1044.3875732421875 1044.405029296875
9500 LossesBy500 4.214137554168701 4.103938102722168 4.086786270141602 4.082610130310059 4.081002235412598 4.080078601837158 4.078807353973389 4.077803134918213 4.075904369354248 4.07609748840332 4.075993537902832 4.076021194458008 4.075984954833984 4.075841426849365 4.076159477233887 4.0760297775268555 4.075981140136719 4.075958251953125 4.075738430023193
sigma2_stimulus 	 [0.0]
log_motor_var 	 [6.907040119171143]
sigma_logit 	 [-3.0, -0.26061245799064636, -1.681891918182373, -3.1130659580230713, -3.610309362411499, -4.117386817932129]
mixture_logit 	 [-3.0536088943481445]
prior 	 [0.0, 0.0, 0.0, 0.0, 0.0, 0.0, 0.0, 0.0, 0.0, 0.0, 0.0, 0.0, 0.0, 0.0, 0.0, 0.0, 0.0, 0.0, 0.0, 0.0, 0.0, 0.0, 0.0, 0.0, 0.0, 0.0, 0.0, 0.0, 0.0, 0.0, 0.0, 0.0, 0.0, 0.0, 0.0, 0.0, 0.0, 0.0, 0.0, 0.0, 0.0, 0.0, 0.0, 0.0, 0.0, 0.0, 0.0, 0.0, 0.0, 0.0, 0.0, 0.0, 0.0, 0.0, 0.0, 0.0, 0.0, 0.0, 0.0, 0.0, 0.0, 0.0, 0.0, 0.0, 0.0, 0.0, 0.0, 0.0, 0.0, 0.0, 0.0, 0.0, 0.0, 0.0, 0.0, 0.0, 0.0, 0.0, 0.0, 0.0, 0.0, 0.0, 0.0, 0.0, 0.0, 0.0, 0.0, 0.0, 0.0, 0.0, 0.0, 0.0, 0.0, 0.0, 0.0, 0.0, 0.0, 0.0, 0.0, 0.0, 0.0, 0.0, 0.0, 0.0, 0.0, 0.0, 0.0, 0.0, 0.0, 0.0, 0.0, 0.0, 0.0, 0.0, 0.0, 0.0, 0.0, 0.0, 0.0, 0.0, 0.0, 0.0, 0.0, 0.0, 0.0, 0.0, 0.0, 0.0, 0.0, 0.0, 0.0, 0.0, 0.0, 0.0, 0.0, 0.0, 0.0, 0.0, 0.0, 0.0, 0.0, 0.0, 0.0, 0.0, 0.0, 0.0, 0.0, 0.0, 0.0, 0.0, 0.0, 0.0, 0.0, 0.0, 0.0, 0.0, 0.0, 0.0, 0.0, 0.0, 0.0, 0.0, 0.0, 0.0, 0.0, 0.0, 0.0, 0.0, 0.0, 0.0, 0.0, 0.0, 0.0, 0.0, 0.0, 0.0, 0.0, 0.0, 0.0, 0.0]
volume 	 [1.0882940292358398, 1.0470670461654663, 0.9985954165458679, 0.9567509293556213, 0.8839414715766907, 0.8105242252349854, 0.7310152649879456, 0.6534993648529053, 0.5673563480377197, 0.48424452543258667, 0.40325871109962463, 0.3269382417201996, 0.2566617727279663, 0.18694749474525452, 0.11401591449975967, 0.04345740005373955, -0.018024319782853127, -0.062352973967790604, -0.1064087525010109, -0.15706562995910645, -0.2067786306142807, -0.24933545291423798, -0.28342780470848083, -0.308156281709671, -0.3255991041660309, -0.3375367522239685, -0.3479330837726593, -0.3624756932258606, -0.38121846318244934, -0.3980468511581421, -0.40920794010162354, -0.41385072469711304, -0.4120929539203644, -0.4082458019256592, -0.4087323248386383, -0.41149500012397766, -0.41517966985702515, -0.42244330048561096, -0.4328228235244751, -0.44059109687805176, -0.4448356032371521, -0.44924312829971313, -0.4571760296821594, -0.46458229422569275, -0.46922945976257324, -0.47253555059432983, -0.4730241298675537, -0.4682372510433197, -0.45934486389160156, -0.44961583614349365, -0.444430410861969, -0.44615626335144043, -0.45304206013679504, -0.46022990345954895, -0.46633902192115784, -0.47128167748451233, -0.47326651215553284, -0.47334665060043335, -0.4717767834663391, -0.466078519821167, -0.4521547555923462, -0.42713335156440735, -0.3917731046676636, -0.3539170026779175, -0.31990164518356323, -0.2904314398765564, -0.2613428235054016, -0.23163871467113495, -0.20587101578712463, -0.18050862848758698, -0.14513790607452393, -0.09322872012853622, -0.029002631083130836, 0.04075975343585014, 0.11486450582742691, 0.19880925118923187, 0.2844322621822357, 0.36049923300743103, 0.43014654517173767, 0.5017369985580444, 0.5822930932044983, 0.6589339971542358, 0.7364413738250732, 0.8264249563217163, 0.9189764857292175, 1.0038139820098877, 1.040816068649292, 1.0328785181045532, 1.0397289991378784, 1.0391873121261597, 1.0490700006484985, 1.0223649740219116, 0.9886034727096558, 0.9234102964401245, 0.8743737936019897, 0.8195147514343262, 0.7506068348884583, 0.684791088104248, 0.606884241104126, 0.5257377624511719, 0.4330444037914276, 0.3407053053379059, 0.2654525339603424, 0.20488451421260834, 0.15603679418563843, 0.10743416100740433, 0.06377346813678741, 0.028777074068784714, 0.0009688069112598896, -0.023159945383667946, -0.04541411250829697, -0.06999249756336212, -0.09436091035604477, -0.11802123486995697, -0.1495901644229889, -0.18452171981334686, -0.2127249836921692, -0.2344193458557129, -0.25730687379837036, -0.2869652509689331, -0.31864097714424133, -0.3470551073551178, -0.3722420930862427, -0.3940407931804657, -0.4107974171638489, -0.42403101921081543, -0.43931880593299866, -0.45835328102111816, -0.47875985503196716, -0.4996999204158783, -0.5211106538772583, -0.5407999753952026, -0.556109607219696, -0.5696874260902405, -0.5829957127571106, -0.5942969918251038, -0.601357638835907, -0.6064305305480957, -0.6149849891662598, -0.6264505982398987, -0.6367895007133484, -0.6411420106887817, -0.6378318071365356, -0.6285606622695923, -0.613239049911499, -0.5923329591751099, -0.5686066746711731, -0.5436617136001587, -0.5165495872497559, -0.4845123887062073, -0.44788458943367004, -0.40964487195014954, -0.3726414442062378, -0.3370552957057953, -0.29977700114250183, -0.2598145604133606, -0.22234642505645752, -0.18603403866291046, -0.13882392644882202, -0.08207298815250397, -0.023606058210134506, 0.037462566047906876, 0.10249188542366028, 0.16022734344005585, 0.20654414594173431, 0.2534237205982208, 0.3006245493888855, 0.3564686179161072, 0.42300137877464294, 0.4718334376811981, 0.5161430239677429, 0.5826560258865356, 0.6473532915115356, 0.7030513882637024, 0.77815181016922, 0.8535728454589844, 0.9343968629837036, 0.9937993884086609, 1.0315252542495728, 1.048902988433838]
