4.095367908477783 CrossValid 1033.0257568359375 CrossValidLossesBy500 1041.0611572265625 1033.9892578125 1038.6031494140625 1038.4132080078125 1032.99462890625 1032.9466552734375 1032.9754638671875 1038.36572265625 1032.964599609375 1032.965576171875 1038.4434814453125 1033.019287109375 1033.02001953125 1038.4732666015625 1038.4842529296875 1033.023193359375 1033.0372314453125 1038.5050048828125 1033.0257568359375
9500 LossesBy500 4.131176471710205 4.100636005401611 4.108773231506348 4.107932090759277 4.096368312835693 4.096103668212891 4.096226215362549 4.106736183166504 4.095871925354004 4.095759868621826 4.106719017028809 4.095733165740967 4.095647811889648 4.106512069702148 4.106499671936035 4.095476150512695 4.095517635345459 4.106457710266113 4.095367908477783
sigma2_stimulus 	 [0.0]
log_motor_var 	 [5.817204475402832]
sigma_logit 	 [-3.0, 0.5601621270179749, -1.5381875038146973, -3.284797430038452, -3.633028268814087, -3.999396324157715]
mixture_logit 	 [-3.0175018310546875]
prior 	 [0.0, 0.0, 0.0, 0.0, 0.0, 0.0, 0.0, 0.0, 0.0, 0.0, 0.0, 0.0, 0.0, 0.0, 0.0, 0.0, 0.0, 0.0, 0.0, 0.0, 0.0, 0.0, 0.0, 0.0, 0.0, 0.0, 0.0, 0.0, 0.0, 0.0, 0.0, 0.0, 0.0, 0.0, 0.0, 0.0, 0.0, 0.0, 0.0, 0.0, 0.0, 0.0, 0.0, 0.0, 0.0, 0.0, 0.0, 0.0, 0.0, 0.0, 0.0, 0.0, 0.0, 0.0, 0.0, 0.0, 0.0, 0.0, 0.0, 0.0, 0.0, 0.0, 0.0, 0.0, 0.0, 0.0, 0.0, 0.0, 0.0, 0.0, 0.0, 0.0, 0.0, 0.0, 0.0, 0.0, 0.0, 0.0, 0.0, 0.0, 0.0, 0.0, 0.0, 0.0, 0.0, 0.0, 0.0, 0.0, 0.0, 0.0, 0.0, 0.0, 0.0, 0.0, 0.0, 0.0, 0.0, 0.0, 0.0, 0.0, 0.0, 0.0, 0.0, 0.0, 0.0, 0.0, 0.0, 0.0, 0.0, 0.0, 0.0, 0.0, 0.0, 0.0, 0.0, 0.0, 0.0, 0.0, 0.0, 0.0, 0.0, 0.0, 0.0, 0.0, 0.0, 0.0, 0.0, 0.0, 0.0, 0.0, 0.0, 0.0, 0.0, 0.0, 0.0, 0.0, 0.0, 0.0, 0.0, 0.0, 0.0, 0.0, 0.0, 0.0, 0.0, 0.0, 0.0, 0.0, 0.0, 0.0, 0.0, 0.0, 0.0, 0.0, 0.0, 0.0, 0.0, 0.0, 0.0, 0.0, 0.0, 0.0, 0.0, 0.0, 0.0, 0.0, 0.0, 0.0, 0.0, 0.0, 0.0, 0.0, 0.0, 0.0, 0.0, 0.0, 0.0, 0.0, 0.0, 0.0]
volume 	 [0.7076247334480286, 0.6851591467857361, 0.6425804495811462, 0.5876725912094116, 0.5319114923477173, 0.47734662890434265, 0.426639199256897, 0.373332679271698, 0.31675082445144653, 0.2573542594909668, 0.19372928142547607, 0.1273501068353653, 0.062242258340120316, 0.0052190497517585754, -0.04615713283419609, -0.08864298462867737, -0.12498203665018082, -0.15245136618614197, -0.17299588024616241, -0.18738141655921936, -0.20161060988903046, -0.2175496518611908, -0.23682765662670135, -0.2570529282093048, -0.27491602301597595, -0.2871459722518921, -0.29379796981811523, -0.29851222038269043, -0.3031114637851715, -0.3070470988750458, -0.31024983525276184, -0.3111536502838135, -0.3072868287563324, -0.29405534267425537, -0.27105912566185, -0.2393307387828827, -0.20557111501693726, -0.17630556225776672, -0.15482255816459656, -0.14213919639587402, -0.13818131387233734, -0.13960455358028412, -0.14539417624473572, -0.15111306309700012, -0.15444283187389374, -0.1528521031141281, -0.14763954281806946, -0.14447054266929626, -0.1495317965745926, -0.16205713152885437, -0.17931552231311798, -0.19821029901504517, -0.2169012874364853, -0.23595014214515686, -0.256768137216568, -0.27844515442848206, -0.2966929078102112, -0.30849990248680115, -0.31195881962776184, -0.3083871006965637, -0.30119022727012634, -0.2920110523700714, -0.2820320427417755, -0.2720753848552704, -0.25804439187049866, -0.2381797730922699, -0.21540874242782593, -0.1933043748140335, -0.17261449992656708, -0.14972923696041107, -0.12324751168489456, -0.09297081083059311, -0.059935715049505234, -0.020967422053217888, 0.02609342522919178, 0.08315926790237427, 0.14748534560203552, 0.21545296907424927, 0.2817654609680176, 0.34607112407684326, 0.403395414352417, 0.4524061977863312, 0.5010874271392822, 0.5559795498847961, 0.6125694513320923, 0.6623198390007019, 0.6968474984169006, 0.7128748893737793, 0.7064183354377747, 0.6786828637123108, 0.6584424376487732, 0.6439156532287598, 0.6306524872779846, 0.6170481443405151, 0.5946218371391296, 0.5701950788497925, 0.5362195372581482, 0.48740026354789734, 0.42934709787368774, 0.3710683584213257, 0.3135571777820587, 0.25493472814559937, 0.19529981911182404, 0.1353422850370407, 0.07825061678886414, 0.024776728823781013, -0.0168882105499506, -0.04862908273935318, -0.07184350490570068, -0.09213422238826752, -0.11001382023096085, -0.1260593831539154, -0.13954366743564606, -0.1492539644241333, -0.1575080156326294, -0.16599959135055542, -0.1729774922132492, -0.1790945678949356, -0.18357504904270172, -0.18637728691101074, -0.18870171904563904, -0.19179071485996246, -0.19555765390396118, -0.20085062086582184, -0.20884056389331818, -0.2183184176683426, -0.22586192190647125, -0.22914870083332062, -0.22731268405914307, -0.22298210859298706, -0.22021906077861786, -0.22214892506599426, -0.22895628213882446, -0.2406584918498993, -0.25339704751968384, -0.2654253840446472, -0.27518558502197266, -0.2841314375400543, -0.29640039801597595, -0.31139692664146423, -0.3257710337638855, -0.3365517556667328, -0.3417845666408539, -0.34187594056129456, -0.33782798051834106, -0.33104076981544495, -0.32272541522979736, -0.3125782907009125, -0.29965081810951233, -0.28402256965637207, -0.26699408888816833, -0.24713508784770966, -0.22576801478862762, -0.20627950131893158, -0.19204555451869965, -0.1857433021068573, -0.1846846491098404, -0.1849147379398346, -0.18121838569641113, -0.17311546206474304, -0.1596931666135788, -0.1417560577392578, -0.1190529316663742, -0.08844403922557831, -0.04901915416121483, -0.0014129293849691749, 0.05430768057703972, 0.11533008515834808, 0.17997372150421143, 0.24721355736255646, 0.31117016077041626, 0.3682275414466858, 0.4181046783924103, 0.4670667350292206, 0.5202913284301758, 0.5775295495986938, 0.6269271373748779, 0.6661598682403564, 0.6908960342407227, 0.6967662572860718]
