4.3008928298950195 CrossValid 1031.8438720703125 CrossValidLossesBy500 1071.391357421875 1051.420166015625 1040.0911865234375 1034.434814453125 1031.7244873046875 1030.7490234375 1030.4459228515625 1030.3714599609375 1030.359375 1030.3739013671875 1030.3916015625 1030.44287109375 1030.4609375 1030.4891357421875 1030.484619140625 1030.4713134765625 1030.471435546875 1030.43408203125 1030.41748046875 1030.365966796875 1030.375244140625 1030.3857421875 1030.37890625 1030.5599365234375 1030.8511962890625 1030.9227294921875 1031.08447265625 1031.4091796875 1031.48779296875 1031.6806640625 1032.032470703125 1032.0013427734375 1031.8438720703125
16500 LossesBy500 4.537539005279541 4.422712326049805 4.353778839111328 4.323117733001709 4.3112030029296875 4.3067626953125 4.305049419403076 4.304320335388184 4.303934574127197 4.303710460662842 4.303460597991943 4.303313255310059 4.303235054016113 4.3032050132751465 4.302921295166016 4.302740097045898 4.3025712966918945 4.30237340927124 4.3022847175598145 4.301892280578613 4.301628112792969 4.301967620849609 4.30146598815918 4.301576614379883 4.301340579986572 4.3013129234313965 4.3011064529418945 4.301056861877441 4.30117130279541 4.301057815551758 4.301123142242432 4.301117420196533 4.3008928298950195
sigma2_stimulus 	 [0.0]
log_motor_var 	 [6.77154541015625]
sigma_logit 	 [-3.0, -0.346472829580307, -1.5264205932617188, -2.8931174278259277, -3.5061535835266113, -4.001101493835449]
mixture_logit 	 [-3.331491231918335]
prior 	 [0.0, 0.0, 0.0, 0.0, 0.0, 0.0, 0.0, 0.0, 0.0, 0.0, 0.0, 0.0, 0.0, 0.0, 0.0, 0.0, 0.0, 0.0, 0.0, 0.0, 0.0, 0.0, 0.0, 0.0, 0.0, 0.0, 0.0, 0.0, 0.0, 0.0, 0.0, 0.0, 0.0, 0.0, 0.0, 0.0, 0.0, 0.0, 0.0, 0.0, 0.0, 0.0, 0.0, 0.0, 0.0, 0.0, 0.0, 0.0, 0.0, 0.0, 0.0, 0.0, 0.0, 0.0, 0.0, 0.0, 0.0, 0.0, 0.0, 0.0, 0.0, 0.0, 0.0, 0.0, 0.0, 0.0, 0.0, 0.0, 0.0, 0.0, 0.0, 0.0, 0.0, 0.0, 0.0, 0.0, 0.0, 0.0, 0.0, 0.0, 0.0, 0.0, 0.0, 0.0, 0.0, 0.0, 0.0, 0.0, 0.0, 0.0, 0.0, 0.0, 0.0, 0.0, 0.0, 0.0, 0.0, 0.0, 0.0, 0.0, 0.0, 0.0, 0.0, 0.0, 0.0, 0.0, 0.0, 0.0, 0.0, 0.0, 0.0, 0.0, 0.0, 0.0, 0.0, 0.0, 0.0, 0.0, 0.0, 0.0, 0.0, 0.0, 0.0, 0.0, 0.0, 0.0, 0.0, 0.0, 0.0, 0.0, 0.0, 0.0, 0.0, 0.0, 0.0, 0.0, 0.0, 0.0, 0.0, 0.0, 0.0, 0.0, 0.0, 0.0, 0.0, 0.0, 0.0, 0.0, 0.0, 0.0, 0.0, 0.0, 0.0, 0.0, 0.0, 0.0, 0.0, 0.0, 0.0, 0.0, 0.0, 0.0, 0.0, 0.0, 0.0, 0.0, 0.0, 0.0, 0.0, 0.0, 0.0, 0.0, 0.0, 0.0, 0.0, 0.0, 0.0, 0.0, 0.0, 0.0]
volume 	 [1.1756638288497925, 1.1435801982879639, 1.1206495761871338, 1.1018306016921997, 1.0576242208480835, 1.0056034326553345, 0.9249487519264221, 0.8399997353553772, 0.747623085975647, 0.6570146679878235, 0.5712516903877258, 0.48113712668418884, 0.3882753849029541, 0.3000887334346771, 0.22120080888271332, 0.1503644734621048, 0.08086876571178436, 0.015876486897468567, -0.04359862953424454, -0.10278114676475525, -0.15717969834804535, -0.20277124643325806, -0.2395608276128769, -0.27191662788391113, -0.30805060267448425, -0.3471699655056, -0.38274794816970825, -0.41216039657592773, -0.43648847937583923, -0.4571599066257477, -0.4758926331996918, -0.4938521981239319, -0.5121027231216431, -0.530823826789856, -0.5483435392379761, -0.5616488456726074, -0.5732825994491577, -0.5859239101409912, -0.5969776511192322, -0.6038951277732849, -0.6090081334114075, -0.6151700019836426, -0.6230197548866272, -0.6294633746147156, -0.633895993232727, -0.6369598507881165, -0.6378196477890015, -0.6342539191246033, -0.6265750527381897, -0.6163615584373474, -0.606678307056427, -0.5996819734573364, -0.594082236289978, -0.5882798433303833, -0.5830307006835938, -0.5803148746490479, -0.5792582631111145, -0.5782337784767151, -0.5756283402442932, -0.569345235824585, -0.5551556348800659, -0.5305533409118652, -0.4962524175643921, -0.45572301745414734, -0.4112298786640167, -0.3643941581249237, -0.31508925557136536, -0.26163265109062195, -0.20717890560626984, -0.15509070456027985, -0.10035079717636108, -0.03350383788347244, 0.04168333858251572, 0.11439452320337296, 0.1819569170475006, 0.2584538757801056, 0.3463159203529358, 0.4431336522102356, 0.5354266166687012, 0.6239864826202393, 0.7176601886749268, 0.7870627641677856, 0.8597308993339539, 0.9503021240234375, 1.0539112091064453, 1.1373140811920166, 1.2178289890289307, 1.2325159311294556, 1.2344895601272583, 1.2863720655441284, 1.2845702171325684, 1.2474194765090942, 1.2214957475662231, 1.1997946500778198, 1.128523349761963, 1.0615077018737793, 1.0003918409347534, 0.926568865776062, 0.8231145739555359, 0.7177855968475342, 0.6073709726333618, 0.5099201202392578, 0.4181959331035614, 0.33926185965538025, 0.26905861496925354, 0.2021062970161438, 0.138530433177948, 0.08097558468580246, 0.027478400617837906, -0.027139894664287567, -0.07823162525892258, -0.1248759776353836, -0.16584260761737823, -0.20483915507793427, -0.2519569396972656, -0.30187278985977173, -0.3427552282810211, -0.3739715814590454, -0.4015246331691742, -0.4290868639945984, -0.45503050088882446, -0.47982126474380493, -0.5048817992210388, -0.529635488986969, -0.5538421869277954, -0.5786002278327942, -0.6051570177078247, -0.632140576839447, -0.6567103266716003, -0.6761128306388855, -0.6904948949813843, -0.7018269300460815, -0.7106578350067139, -0.717654287815094, -0.7231983542442322, -0.7289154529571533, -0.7358128428459167, -0.7449270486831665, -0.7576603293418884, -0.7723840475082397, -0.7860735058784485, -0.7952548265457153, -0.7974018454551697, -0.7917084097862244, -0.777865469455719, -0.7563236355781555, -0.7272454500198364, -0.690613329410553, -0.6474279165267944, -0.6000761389732361, -0.5519859194755554, -0.5051431655883789, -0.45943498611450195, -0.41372188925743103, -0.3651258051395416, -0.3124803304672241, -0.25851771235466003, -0.2033061385154724, -0.1445135772228241, -0.08508787304162979, -0.021834397688508034, 0.05503040552139282, 0.14548906683921814, 0.22529779374599457, 0.29524970054626465, 0.3718918263912201, 0.4607072174549103, 0.5636704564094543, 0.6263078451156616, 0.6892310380935669, 0.7452662587165833, 0.788564145565033, 0.827367901802063, 0.885438084602356, 0.9357272982597351, 0.9995827674865723, 1.037314772605896, 1.070103645324707, 1.1162569522857666, 1.1475400924682617]
