4.074227809906006 CrossValid 1019.82080078125 CrossValidLossesBy500 1028.2186279296875 1020.43310546875 1020.1647338867188 1020.1919555664062 1020.1595458984375 1020.152099609375 1020.1428833007812 1020.13232421875 1019.9910888671875 1019.8612670898438 1019.8141479492188 1019.82080078125
6000 LossesBy500 4.133947372436523 4.08571720123291 4.080103397369385 4.0785088539123535 4.077460289001465 4.076789855957031 4.07637882232666 4.076205253601074 4.075396537780762 4.0748162269592285 4.0745768547058105 4.074227809906006
sigma2_stimulus 	 [0.0]
log_motor_var 	 [6.901790618896484]
sigma_logit 	 [-3.0, 0.12621116638183594, -1.7819652557373047, -3.157430648803711, -3.6228621006011963, -4.13761043548584]
mixture_logit 	 [-2.9177029132843018]
prior 	 [0.0, 0.0, 0.0, 0.0, 0.0, 0.0, 0.0, 0.0, 0.0, 0.0, 0.0, 0.0, 0.0, 0.0, 0.0, 0.0, 0.0, 0.0, 0.0, 0.0, 0.0, 0.0, 0.0, 0.0, 0.0, 0.0, 0.0, 0.0, 0.0, 0.0, 0.0, 0.0, 0.0, 0.0, 0.0, 0.0, 0.0, 0.0, 0.0, 0.0, 0.0, 0.0, 0.0, 0.0, 0.0, 0.0, 0.0, 0.0, 0.0, 0.0, 0.0, 0.0, 0.0, 0.0, 0.0, 0.0, 0.0, 0.0, 0.0, 0.0, 0.0, 0.0, 0.0, 0.0, 0.0, 0.0, 0.0, 0.0, 0.0, 0.0, 0.0, 0.0, 0.0, 0.0, 0.0, 0.0, 0.0, 0.0, 0.0, 0.0, 0.0, 0.0, 0.0, 0.0, 0.0, 0.0, 0.0, 0.0, 0.0, 0.0, 0.0, 0.0, 0.0, 0.0, 0.0, 0.0, 0.0, 0.0, 0.0, 0.0, 0.0, 0.0, 0.0, 0.0, 0.0, 0.0, 0.0, 0.0, 0.0, 0.0, 0.0, 0.0, 0.0, 0.0, 0.0, 0.0, 0.0, 0.0, 0.0, 0.0, 0.0, 0.0, 0.0, 0.0, 0.0, 0.0, 0.0, 0.0, 0.0, 0.0, 0.0, 0.0, 0.0, 0.0, 0.0, 0.0, 0.0, 0.0, 0.0, 0.0, 0.0, 0.0, 0.0, 0.0, 0.0, 0.0, 0.0, 0.0, 0.0, 0.0, 0.0, 0.0, 0.0, 0.0, 0.0, 0.0, 0.0, 0.0, 0.0, 0.0, 0.0, 0.0, 0.0, 0.0, 0.0, 0.0, 0.0, 0.0, 0.0, 0.0, 0.0, 0.0, 0.0, 0.0, 0.0, 0.0, 0.0, 0.0, 0.0, 0.0]
volume 	 [0.9049164056777954, 0.8542640805244446, 0.8125430345535278, 0.763640820980072, 0.7132922410964966, 0.6582621335983276, 0.6032106280326843, 0.5501140356063843, 0.483522891998291, 0.401815801858902, 0.31622931361198425, 0.2395215928554535, 0.174468532204628, 0.11662304401397705, 0.05394291132688522, -0.005347723141312599, -0.0548991933465004, -0.09338581562042236, -0.1345650553703308, -0.17827972769737244, -0.21980728209018707, -0.2544827461242676, -0.28106918931007385, -0.29832351207733154, -0.3144261837005615, -0.3364875018596649, -0.3598194420337677, -0.3740527927875519, -0.37663477659225464, -0.375703364610672, -0.3767739534378052, -0.37732598185539246, -0.37454599142074585, -0.3642975687980652, -0.34929174184799194, -0.33785760402679443, -0.3329547047615051, -0.33016204833984375, -0.32993084192276, -0.3336538076400757, -0.3370964229106903, -0.3367200493812561, -0.3373016119003296, -0.3399507403373718, -0.34105780720710754, -0.3353939950466156, -0.32241353392601013, -0.3054489493370056, -0.29405340552330017, -0.2922306954860687, -0.2980526089668274, -0.31060993671417236, -0.32470664381980896, -0.33350637555122375, -0.33866599202156067, -0.3437153697013855, -0.34667614102363586, -0.3486270606517792, -0.35033711791038513, -0.346066415309906, -0.3330276310443878, -0.31683677434921265, -0.3017403781414032, -0.2881307601928711, -0.27901625633239746, -0.2752017080783844, -0.2673743963241577, -0.24817179143428802, -0.21786612272262573, -0.17983536422252655, -0.13855183124542236, -0.08808867633342743, -0.023159967735409737, 0.042369864881038666, 0.09306112676858902, 0.14364854991436005, 0.20732097327709198, 0.2778884768486023, 0.35614246129989624, 0.4414961636066437, 0.5292274355888367, 0.6089443564414978, 0.685322642326355, 0.741230309009552, 0.7917868494987488, 0.8385740518569946, 0.8609580993652344, 0.8617553114891052, 0.8607211112976074, 0.831871747970581, 0.8321494460105896, 0.8067384362220764, 0.7805932760238647, 0.7458650469779968, 0.732540488243103, 0.7065811157226562, 0.6604062914848328, 0.6110840439796448, 0.5488470792770386, 0.4849843680858612, 0.4142489433288574, 0.34445545077323914, 0.2688952684402466, 0.18924324214458466, 0.11577876657247543, 0.05541234835982323, 0.015029214322566986, -0.018353795632719994, -0.0492381788790226, -0.07904045283794403, -0.09848372638225555, -0.10690867900848389, -0.11285261809825897, -0.12526409327983856, -0.14971821010112762, -0.1788807213306427, -0.20467878878116608, -0.22458544373512268, -0.23998360335826874, -0.2550959885120392, -0.2682434916496277, -0.2801559567451477, -0.2947902977466583, -0.31238240003585815, -0.33087706565856934, -0.3469056487083435, -0.3592225909233093, -0.37030357122421265, -0.38314568996429443, -0.3937927782535553, -0.3979908227920532, -0.4030170440673828, -0.4116300046443939, -0.4217228591442108, -0.4311377704143524, -0.43772003054618835, -0.438618540763855, -0.44025328755378723, -0.4516679048538208, -0.4683553874492645, -0.48198217153549194, -0.48844045400619507, -0.4879332482814789, -0.4831997752189636, -0.47659096121788025, -0.46758899092674255, -0.45128750801086426, -0.4231206774711609, -0.38718071579933167, -0.35218676924705505, -0.3253597021102905, -0.3044869899749756, -0.2820208966732025, -0.2565848231315613, -0.23358753323554993, -0.2080574333667755, -0.17657943069934845, -0.14600759744644165, -0.12118074297904968, -0.10117340832948685, -0.0768665224313736, -0.046970248222351074, -0.018580684438347816, 0.006706449668854475, 0.03997616842389107, 0.09193339943885803, 0.1513638198375702, 0.20965562760829926, 0.27691036462783813, 0.34966161847114563, 0.4104197919368744, 0.4830830991268158, 0.5569870471954346, 0.600014865398407, 0.6379180550575256, 0.69331955909729, 0.7637409567832947, 0.8271961212158203, 0.8724472522735596, 0.8828144669532776]
