4.183281421661377 CrossValid 1104.7000732421875 CrossValidLossesBy500 1187.5758056640625 1186.298583984375 1183.68603515625 1179.0494384765625 1173.64794921875 1167.7862548828125 1159.9093017578125 1148.3916015625 1139.6038818359375 1132.994384765625 1127.439208984375 1122.7777099609375 1119.0738525390625 1115.7052001953125 1113.473388671875 1111.3929443359375 1107.926025390625 1106.3660888671875 1104.90087890625 1104.1280517578125 1104.4552001953125 1103.5362548828125 1102.75146484375 1104.1702880859375 1105.314453125 1102.8795166015625 1103.3291015625 1106.3497314453125 1103.4610595703125 1103.4910888671875 1102.6451416015625 1111.43896484375 1104.714111328125 1105.4329833984375 1103.885498046875 1104.629150390625 1103.4281005859375 1104.977294921875 1104.8624267578125 1104.7000732421875
20000 LossesBy500 4.49048376083374 4.4785380363464355 4.468203544616699 4.452709197998047 4.435766696929932 4.419281482696533 4.403533935546875 4.381981372833252 4.358415126800537 4.3347697257995605 4.312486171722412 4.292146682739258 4.27506685256958 4.261940956115723 4.249980449676514 4.239983081817627 4.232431888580322 4.221482276916504 4.218348979949951 4.213095664978027 4.205925941467285 4.203938961029053 4.201479911804199 4.193790912628174 4.192589282989502 4.1934123039245605 4.192571640014648 4.188999652862549 4.191028594970703 4.1871466636657715 4.188889026641846 4.197718620300293 4.185094833374023 4.185347080230713 4.185166358947754 4.1844801902771 4.186887741088867 4.183901786804199 4.183733940124512 4.183281421661377
sigma2_stimulus 	 [0.0]
log_motor_var 	 [7.585721492767334]
sigma_logit 	 [-3.0, 1.0183931589126587, -1.306506872177124, -2.812288284301758, -3.06209659576416, -3.3091602325439453]
mixture_logit 	 [-3.5877480506896973]
prior 	 [2.3658649921417236, 2.33365535736084, 2.2532639503479004, 1.5856958627700806, 2.2837021350860596, 2.1153321266174316, 2.193441390991211, 1.6056190729141235, 1.411083698272705, 1.5437361001968384, 0.8345423340797424, 1.5391777753829956, 1.4453089237213135, 0.5979655385017395, 0.8016456961631775, 0.3428161144256592, 0.22571992874145508, 0.6725872755050659, 0.3393421769142151, -0.05114869773387909, -0.16671252250671387, 0.00268484721891582, -0.27171412110328674, -0.3868933916091919, -0.0716736689209938, -0.6936566829681396, -0.6220654845237732, -0.6077178716659546, -0.6413920521736145, -0.8596998453140259, -0.6159865856170654, -0.9201236963272095, -1.4169979095458984, -1.5019041299819946, -0.3971312940120697, -0.8671207427978516, -1.7549419403076172, -1.739385724067688, -0.9719967842102051, -0.9794446229934692, -1.1184890270233154, -1.3639713525772095, -1.4436841011047363, -1.3670079708099365, -1.1360007524490356, -0.38522040843963623, -1.4499872922897339, -1.7612648010253906, -1.383132815361023, -1.143196702003479, -0.7085103392601013, -1.0540554523468018, -1.0693506002426147, -0.9539485573768616, -0.9915099740028381, -0.8140506148338318, -0.7202925682067871, -0.7569352984428406, -0.5955827236175537, -0.6937082409858704, -0.4418240487575531, -0.3812430500984192, -0.2629275619983673, -0.8484817743301392, 0.2866034507751465, -0.5490022897720337, -0.943975031375885, -0.6504138708114624, -0.03958067670464516, -0.17320334911346436, 0.042211566120386124, 0.334451287984848, 0.5708330869674683, 0.054477594792842865, 1.0320591926574707, 0.35201194882392883, 0.7884206771850586, 1.331485629081726, 0.6018508076667786, 0.9351683259010315, 0.8329691290855408, 1.0815273523330688, 0.9759763479232788, 1.2764992713928223, 1.4748573303222656, 0.3176429569721222, 1.551415205001831, 0.8804543614387512, 1.150119662284851, 1.0023901462554932, 1.0651021003723145, -0.1276596039533615, 1.5471177101135254, 1.507279872894287, 0.9363862872123718, 1.6240471601486206, 1.2648528814315796, 1.0939360857009888, 1.7189325094223022, 1.2558072805404663, 1.412182331085205, 1.0686194896697998, 1.0954773426055908, 0.7465819716453552, 0.7307497262954712, 0.9357249140739441, 0.7564055323600769, 0.4781545102596283, 0.5677923560142517, 0.03554132580757141, -0.05922559276223183, -0.05285482108592987, 0.6258669495582581, -0.08550319820642471, -0.5057957768440247, 0.08792535215616226, -0.2639825642108917, -0.8098570704460144, -0.8043076395988464, -0.43170782923698425, -0.5687077045440674, -0.6162033081054688, -0.7923205494880676, -1.1387702226638794, -1.1883944272994995, -1.2272027730941772, -1.1343564987182617, -1.3548803329467773, -1.294189214706421, -1.1432299613952637, -1.0476106405258179, -1.4131829738616943, -1.2297966480255127, -1.3589212894439697, -1.2808042764663696, -1.1966321468353271, -0.802863597869873, -1.4059573411941528, -1.6100130081176758, -1.3642610311508179, -1.1149177551269531, -1.2191990613937378, -0.9721536636352539, -1.2096991539001465, -1.1695029735565186, -0.9972661733627319, -0.8123098611831665, -0.9909937977790833, -1.0674121379852295, -1.0668128728866577, 0.010424084961414337, -1.10232412815094, -1.2370682954788208, -0.8735448122024536, 0.04300878196954727, -0.8156660795211792, -0.6494054198265076, -0.233382448554039, -0.20021022856235504, 0.37199831008911133, -0.25488513708114624, -0.61843341588974, 0.17984406650066376, 0.8715831637382507, -0.14523719251155853, -0.1467539370059967, 0.45016878843307495, 1.0338389873504639, 1.0324108600616455, 0.9228949546813965, 1.1200848817825317, 0.929348886013031, 1.3629741668701172, 1.1583802700042725, 1.620743989944458, 1.7994117736816406, 1.9057948589324951, 1.9103419780731201, 1.0286881923675537, 2.2716381549835205]
volume 	 [0.0, 0.0, 0.0, 0.0, 0.0, 0.0, 0.0, 0.0, 0.0, 0.0, 0.0, 0.0, 0.0, 0.0, 0.0, 0.0, 0.0, 0.0, 0.0, 0.0, 0.0, 0.0, 0.0, 0.0, 0.0, 0.0, 0.0, 0.0, 0.0, 0.0, 0.0, 0.0, 0.0, 0.0, 0.0, 0.0, 0.0, 0.0, 0.0, 0.0, 0.0, 0.0, 0.0, 0.0, 0.0, 0.0, 0.0, 0.0, 0.0, 0.0, 0.0, 0.0, 0.0, 0.0, 0.0, 0.0, 0.0, 0.0, 0.0, 0.0, 0.0, 0.0, 0.0, 0.0, 0.0, 0.0, 0.0, 0.0, 0.0, 0.0, 0.0, 0.0, 0.0, 0.0, 0.0, 0.0, 0.0, 0.0, 0.0, 0.0, 0.0, 0.0, 0.0, 0.0, 0.0, 0.0, 0.0, 0.0, 0.0, 0.0, 0.0, 0.0, 0.0, 0.0, 0.0, 0.0, 0.0, 0.0, 0.0, 0.0, 0.0, 0.0, 0.0, 0.0, 0.0, 0.0, 0.0, 0.0, 0.0, 0.0, 0.0, 0.0, 0.0, 0.0, 0.0, 0.0, 0.0, 0.0, 0.0, 0.0, 0.0, 0.0, 0.0, 0.0, 0.0, 0.0, 0.0, 0.0, 0.0, 0.0, 0.0, 0.0, 0.0, 0.0, 0.0, 0.0, 0.0, 0.0, 0.0, 0.0, 0.0, 0.0, 0.0, 0.0, 0.0, 0.0, 0.0, 0.0, 0.0, 0.0, 0.0, 0.0, 0.0, 0.0, 0.0, 0.0, 0.0, 0.0, 0.0, 0.0, 0.0, 0.0, 0.0, 0.0, 0.0, 0.0, 0.0, 0.0, 0.0, 0.0, 0.0, 0.0, 0.0, 0.0, 0.0, 0.0, 0.0, 0.0, 0.0, 0.0]
