4.094217777252197 CrossValid 1004.136962890625 CrossValidLossesBy500 1045.184326171875 1012.4620361328125 1006.8224487304688 1005.0944213867188 1004.2644653320312 1003.711181640625 1003.2518310546875 1003.2916259765625 1003.4707641601562 1003.6558227539062 1003.4678344726562 1003.6973876953125 1003.9922485351562 1003.5050659179688 1003.6276245117188 1003.6112060546875 1004.136962890625
8500 LossesBy500 4.236684322357178 4.123173713684082 4.105691909790039 4.10133695602417 4.0996575355529785 4.098483562469482 4.0973920822143555 4.095561504364014 4.094613075256348 4.094528675079346 4.094882965087891 4.0946784019470215 4.0945587158203125 4.094814777374268 4.094480991363525 4.094298362731934 4.094217777252197
sigma2_stimulus 	 [0.0]
log_motor_var 	 [7.030938625335693]
sigma_logit 	 [-3.0, -0.2997189462184906, -1.696886658668518, -3.1325948238372803, -3.62400221824646, -4.137259483337402]
mixture_logit 	 [-3.0614733695983887]
prior 	 [0.0, 0.0, 0.0, 0.0, 0.0, 0.0, 0.0, 0.0, 0.0, 0.0, 0.0, 0.0, 0.0, 0.0, 0.0, 0.0, 0.0, 0.0, 0.0, 0.0, 0.0, 0.0, 0.0, 0.0, 0.0, 0.0, 0.0, 0.0, 0.0, 0.0, 0.0, 0.0, 0.0, 0.0, 0.0, 0.0, 0.0, 0.0, 0.0, 0.0, 0.0, 0.0, 0.0, 0.0, 0.0, 0.0, 0.0, 0.0, 0.0, 0.0, 0.0, 0.0, 0.0, 0.0, 0.0, 0.0, 0.0, 0.0, 0.0, 0.0, 0.0, 0.0, 0.0, 0.0, 0.0, 0.0, 0.0, 0.0, 0.0, 0.0, 0.0, 0.0, 0.0, 0.0, 0.0, 0.0, 0.0, 0.0, 0.0, 0.0, 0.0, 0.0, 0.0, 0.0, 0.0, 0.0, 0.0, 0.0, 0.0, 0.0, 0.0, 0.0, 0.0, 0.0, 0.0, 0.0, 0.0, 0.0, 0.0, 0.0, 0.0, 0.0, 0.0, 0.0, 0.0, 0.0, 0.0, 0.0, 0.0, 0.0, 0.0, 0.0, 0.0, 0.0, 0.0, 0.0, 0.0, 0.0, 0.0, 0.0, 0.0, 0.0, 0.0, 0.0, 0.0, 0.0, 0.0, 0.0, 0.0, 0.0, 0.0, 0.0, 0.0, 0.0, 0.0, 0.0, 0.0, 0.0, 0.0, 0.0, 0.0, 0.0, 0.0, 0.0, 0.0, 0.0, 0.0, 0.0, 0.0, 0.0, 0.0, 0.0, 0.0, 0.0, 0.0, 0.0, 0.0, 0.0, 0.0, 0.0, 0.0, 0.0, 0.0, 0.0, 0.0, 0.0, 0.0, 0.0, 0.0, 0.0, 0.0, 0.0, 0.0, 0.0, 0.0, 0.0, 0.0, 0.0, 0.0, 0.0]
volume 	 [1.1175110340118408, 1.0635322332382202, 1.0148755311965942, 0.9698251485824585, 0.8913038372993469, 0.8158571124076843, 0.7408825159072876, 0.6662328243255615, 0.5793997049331665, 0.4980469346046448, 0.424045592546463, 0.3593491315841675, 0.29337719082832336, 0.22169014811515808, 0.1483246088027954, 0.07732168585062027, 0.012999080121517181, -0.03400178253650665, -0.08514407277107239, -0.1403498351573944, -0.19138646125793457, -0.23563800752162933, -0.27548035979270935, -0.31130024790763855, -0.34205761551856995, -0.36396509408950806, -0.3800106942653656, -0.3976803719997406, -0.41680821776390076, -0.4313550591468811, -0.440553218126297, -0.4449913501739502, -0.4449174702167511, -0.4452630579471588, -0.45019686222076416, -0.4550453722476959, -0.4578123390674591, -0.461370587348938, -0.4656781554222107, -0.46629270911216736, -0.46323293447494507, -0.45991969108581543, -0.46062853932380676, -0.463238388299942, -0.464010626077652, -0.46261364221572876, -0.45895877480506897, -0.45160558819770813, -0.4428836703300476, -0.4358507990837097, -0.4340248703956604, -0.44016656279563904, -0.45255228877067566, -0.46495339274406433, -0.4733408987522125, -0.47697222232818604, -0.47609955072402954, -0.472523957490921, -0.4665151536464691, -0.45567333698272705, -0.43625038862228394, -0.40541544556617737, -0.3656174838542938, -0.3268103003501892, -0.29683586955070496, -0.27532392740249634, -0.25484105944633484, -0.2304762750864029, -0.20493042469024658, -0.17509102821350098, -0.13578058779239655, -0.08098936080932617, -0.015449020080268383, 0.050770990550518036, 0.12086315453052521, 0.2030518501996994, 0.2867721617221832, 0.3583678901195526, 0.4240381419658661, 0.490975558757782, 0.5716105699539185, 0.6487665176391602, 0.7252969741821289, 0.8107420206069946, 0.9081006050109863, 1.0006169080734253, 1.0353765487670898, 1.051303505897522, 1.0569593906402588, 1.0505712032318115, 1.0524214506149292, 1.0245418548583984, 0.9919312000274658, 0.9321228265762329, 0.890243411064148, 0.8442370891571045, 0.7776374816894531, 0.7066099047660828, 0.6243745684623718, 0.5491676926612854, 0.4569176137447357, 0.3665051758289337, 0.28964439034461975, 0.2239753156900406, 0.1676936149597168, 0.10995958745479584, 0.06465979665517807, 0.028017010539770126, -0.006074323318898678, -0.03461724519729614, -0.0574619434773922, -0.08266474306583405, -0.10527653992176056, -0.1320251226425171, -0.17088069021701813, -0.21229611337184906, -0.24669331312179565, -0.27425825595855713, -0.3020975589752197, -0.3356064558029175, -0.37017956376075745, -0.4012635350227356, -0.42776036262512207, -0.4472551643848419, -0.4581175744533539, -0.46497195959091187, -0.4755394756793976, -0.4900554120540619, -0.5040136575698853, -0.5174329876899719, -0.5335869193077087, -0.5520328879356384, -0.5683277249336243, -0.581368625164032, -0.5913710594177246, -0.5991484522819519, -0.604050874710083, -0.6083043217658997, -0.6170108914375305, -0.628746509552002, -0.6380626559257507, -0.6405947804450989, -0.635413408279419, -0.6246777772903442, -0.6084995865821838, -0.586953341960907, -0.5614264607429504, -0.5332057476043701, -0.5020890831947327, -0.46758410334587097, -0.43145835399627686, -0.3948653042316437, -0.3600160777568817, -0.32843515276908875, -0.29780852794647217, -0.2655456066131592, -0.23366966843605042, -0.20177477598190308, -0.1577587127685547, -0.10495308041572571, -0.0531611405313015, 0.002056851051747799, 0.06517218053340912, 0.128513902425766, 0.18023142218589783, 0.2321619838476181, 0.2908235192298889, 0.3595690429210663, 0.44356465339660645, 0.5096191167831421, 0.5701272487640381, 0.6447938084602356, 0.713301956653595, 0.7682983875274658, 0.8330932259559631, 0.9057828187942505, 0.9786677956581116, 1.0216553211212158, 1.0445374250411987, 1.0639219284057617]
