4.121005058288574 CrossValid 1078.8035888671875 CrossValidLossesBy500 1081.9635009765625 1077.6650390625 1077.4898681640625 1077.67822265625 1077.861083984375 1078.0230712890625 1078.1669921875 1078.2686767578125 1078.361572265625 1078.4742431640625 1078.5413818359375 1078.5596923828125 1078.593994140625 1078.6766357421875 1078.74658203125 1078.7724609375 1078.80322265625 1078.8035888671875
9000 LossesBy500 4.142544746398926 4.126643180847168 4.123231887817383 4.122169494628906 4.121696949005127 4.121463775634766 4.121306419372559 4.121253967285156 4.121176242828369 4.121227741241455 4.121173858642578 4.121108055114746 4.121065139770508 4.121123790740967 4.121130466461182 4.121048450469971 4.121102809906006 4.121005058288574
sigma2_stimulus 	 [0.0]
log_motor_var 	 [5.858547210693359]
sigma_logit 	 [-3.0, 0.601189911365509, -1.5362964868545532, -3.33455228805542, -3.654554605484009, -3.99819278717041]
mixture_logit 	 [-2.9341607093811035]
prior 	 [0.0, 0.0, 0.0, 0.0, 0.0, 0.0, 0.0, 0.0, 0.0, 0.0, 0.0, 0.0, 0.0, 0.0, 0.0, 0.0, 0.0, 0.0, 0.0, 0.0, 0.0, 0.0, 0.0, 0.0, 0.0, 0.0, 0.0, 0.0, 0.0, 0.0, 0.0, 0.0, 0.0, 0.0, 0.0, 0.0, 0.0, 0.0, 0.0, 0.0, 0.0, 0.0, 0.0, 0.0, 0.0, 0.0, 0.0, 0.0, 0.0, 0.0, 0.0, 0.0, 0.0, 0.0, 0.0, 0.0, 0.0, 0.0, 0.0, 0.0, 0.0, 0.0, 0.0, 0.0, 0.0, 0.0, 0.0, 0.0, 0.0, 0.0, 0.0, 0.0, 0.0, 0.0, 0.0, 0.0, 0.0, 0.0, 0.0, 0.0, 0.0, 0.0, 0.0, 0.0, 0.0, 0.0, 0.0, 0.0, 0.0, 0.0, 0.0, 0.0, 0.0, 0.0, 0.0, 0.0, 0.0, 0.0, 0.0, 0.0, 0.0, 0.0, 0.0, 0.0, 0.0, 0.0, 0.0, 0.0, 0.0, 0.0, 0.0, 0.0, 0.0, 0.0, 0.0, 0.0, 0.0, 0.0, 0.0, 0.0, 0.0, 0.0, 0.0, 0.0, 0.0, 0.0, 0.0, 0.0, 0.0, 0.0, 0.0, 0.0, 0.0, 0.0, 0.0, 0.0, 0.0, 0.0, 0.0, 0.0, 0.0, 0.0, 0.0, 0.0, 0.0, 0.0, 0.0, 0.0, 0.0, 0.0, 0.0, 0.0, 0.0, 0.0, 0.0, 0.0, 0.0, 0.0, 0.0, 0.0, 0.0, 0.0, 0.0, 0.0, 0.0, 0.0, 0.0, 0.0, 0.0, 0.0, 0.0, 0.0, 0.0, 0.0, 0.0, 0.0, 0.0, 0.0, 0.0, 0.0]
volume 	 [0.6998511552810669, 0.6717618107795715, 0.6295718550682068, 0.576373815536499, 0.5224254727363586, 0.4656727612018585, 0.40975069999694824, 0.3514668941497803, 0.2895148694515228, 0.2228853702545166, 0.15335968136787415, 0.08523363620042801, 0.019524969160556793, -0.038344502449035645, -0.08906491100788116, -0.12946493923664093, -0.16353070735931396, -0.19067233800888062, -0.21348713338375092, -0.23130761086940765, -0.2457151859998703, -0.2563585937023163, -0.26417675614356995, -0.2718340754508972, -0.281604528427124, -0.2908155620098114, -0.29503345489501953, -0.2929801046848297, -0.2870769500732422, -0.27991554141044617, -0.2718517482280731, -0.2644420266151428, -0.2576545178890228, -0.24752557277679443, -0.23125390708446503, -0.20532292127609253, -0.17396752536296844, -0.14394357800483704, -0.12117677181959152, -0.10802368819713593, -0.10456234216690063, -0.1067286804318428, -0.11254145950078964, -0.11792556941509247, -0.12041047215461731, -0.11755052953958511, -0.11025764793157578, -0.10493426769971848, -0.10756799578666687, -0.11754129827022552, -0.1330680549144745, -0.15082111954689026, -0.16931892931461334, -0.18861906230449677, -0.21014980971813202, -0.23194552958011627, -0.24844565987586975, -0.25926387310028076, -0.2658913731575012, -0.2709042727947235, -0.27571821212768555, -0.2808378040790558, -0.2854836881160736, -0.2889200448989868, -0.28598514199256897, -0.2753729820251465, -0.26089099049568176, -0.24230173230171204, -0.2167620062828064, -0.18566438555717468, -0.15492133796215057, -0.12653140723705292, -0.0967518538236618, -0.0569906122982502, -0.004758576862514019, 0.059622712433338165, 0.13263863325119019, 0.2074640691280365, 0.2752333879470825, 0.33335211873054504, 0.380761057138443, 0.42143550515174866, 0.46539580821990967, 0.516514241695404, 0.5732190012931824, 0.625198245048523, 0.6582396626472473, 0.6727616786956787, 0.6701196432113647, 0.6501587629318237, 0.6331328749656677, 0.6169408559799194, 0.5969187617301941, 0.5726099610328674, 0.5445064902305603, 0.5163873434066772, 0.48792004585266113, 0.4505663812160492, 0.401260107755661, 0.3440823256969452, 0.2846257984638214, 0.22695805132389069, 0.1721629798412323, 0.11671525985002518, 0.061264850199222565, 0.007423782255500555, -0.03539052605628967, -0.06573571264743805, -0.08434557169675827, -0.0980599895119667, -0.10952381044626236, -0.12092003226280212, -0.13216230273246765, -0.14114700257778168, -0.1485448181629181, -0.154609814286232, -0.1584433764219284, -0.16308030486106873, -0.16786964237689972, -0.17108938097953796, -0.17214538156986237, -0.17176218330860138, -0.17095375061035156, -0.1695244014263153, -0.1689247488975525, -0.16904273629188538, -0.1694207340478897, -0.17025525867938995, -0.1692688763141632, -0.16676941514015198, -0.1660962998867035, -0.17102877795696259, -0.1801706999540329, -0.1933077722787857, -0.20730140805244446, -0.22024068236351013, -0.23058933019638062, -0.2402389645576477, -0.2539154291152954, -0.2692212164402008, -0.28291723132133484, -0.2929989993572235, -0.2993538975715637, -0.3035893440246582, -0.3051896095275879, -0.30326366424560547, -0.29731348156929016, -0.2875959277153015, -0.2765675187110901, -0.2641306519508362, -0.25034305453300476, -0.23376750946044922, -0.2158881574869156, -0.2032557725906372, -0.20089027285575867, -0.20634005963802338, -0.2142392098903656, -0.22049465775489807, -0.22148720920085907, -0.21648277342319489, -0.20419541001319885, -0.18560367822647095, -0.16045518219470978, -0.1272880584001541, -0.08687419444322586, -0.03859066590666771, 0.01891452819108963, 0.08346354216337204, 0.15335945785045624, 0.22766557335853577, 0.3002948760986328, 0.3659186065196991, 0.42424657940864563, 0.4778508245944977, 0.5290877819061279, 0.5817904472351074, 0.6251114010810852, 0.6670812368392944, 0.6906548738479614, 0.6946819424629211]
