4.039900779724121 CrossValid 1018.4722900390625 CrossValidLossesBy500 1046.9669189453125 1043.94921875 1041.9573974609375 1040.458984375 1034.8717041015625 1033.41943359375 1032.134521484375 1037.2435302734375 1030.161865234375 1029.4365234375 1028.7086181640625 1028.0758056640625 1027.512939453125 1026.9508056640625 1026.369140625 1025.9041748046875 1025.569580078125 1025.1739501953125 1024.73193359375 1024.2493896484375 1023.4768676757812 1022.8934936523438 1022.362548828125 1022.013427734375 1021.703857421875 1020.9287109375 1020.6380615234375 1020.3867797851562 1020.0006713867188 1019.1914672851562 1019.0849609375 1019.227294921875 1018.7340698242188 1018.7640380859375 1018.6442260742188 1018.4606323242188 1018.4234008789062 1018.4722900390625
19000 LossesBy500 4.157257556915283 4.137510299682617 4.128386974334717 4.120859146118164 4.105811595916748 4.098681926727295 4.092012882232666 4.101137638092041 4.081899642944336 4.0780415534973145 4.074756145477295 4.071333885192871 4.068371295928955 4.065615653991699 4.063383102416992 4.061184883117676 4.059017658233643 4.057447910308838 4.055477142333984 4.054138660430908 4.052525997161865 4.051311492919922 4.050055027008057 4.049157619476318 4.048551559448242 4.0471510887146 4.046308994293213 4.045817852020264 4.044975757598877 4.043511867523193 4.042453289031982 4.043352127075195 4.042001247406006 4.040863037109375 4.040998935699463 4.041194438934326 4.04070520401001 4.039900779724121
sigma2_stimulus 	 [0.0]
log_motor_var 	 [7.457779884338379]
sigma_logit 	 [-3.0, 0.5850772261619568, -1.5080243349075317, -3.1951472759246826, -3.6179237365722656, -4.0893144607543945]
mixture_logit 	 [-3.163846254348755]
prior 	 [1.4868849515914917, 1.5371911525726318, 1.521660327911377, 1.4544012546539307, 1.395668864250183, 1.33096444606781, 1.267619013786316, 1.1877776384353638, 1.102791666984558, 1.007824420928955, 0.9129830002784729, 0.8363980054855347, 0.7486969828605652, 0.6469649076461792, 0.5541571974754333, 0.46388477087020874, 0.3747660219669342, 0.29861322045326233, 0.21765974164009094, 0.13620689511299133, 0.05262751132249832, -0.0204711202532053, -0.08844686299562454, -0.15824264287948608, -0.225608691573143, -0.29517534375190735, -0.35967889428138733, -0.41182708740234375, -0.4594435393810272, -0.503746509552002, -0.5420531034469604, -0.5782516002655029, -0.6083545088768005, -0.6299939155578613, -0.6556687355041504, -0.6978198289871216, -0.7384778261184692, -0.7600786089897156, -0.7744895815849304, -0.7913203239440918, -0.8005035519599915, -0.7982080578804016, -0.7962045073509216, -0.7964125871658325, -0.8019793033599854, -0.820966899394989, -0.842643678188324, -0.8444036245346069, -0.8330343961715698, -0.8182435035705566, -0.8066535592079163, -0.7953644394874573, -0.7802464365959167, -0.7642730474472046, -0.7501131892204285, -0.7363623380661011, -0.7210586071014404, -0.6980307102203369, -0.6729080677032471, -0.646348237991333, -0.6168124675750732, -0.5878791809082031, -0.559131920337677, -0.5266487002372742, -0.4829913079738617, -0.44319576025009155, -0.41758647561073303, -0.3794288635253906, -0.31269270181655884, -0.23452474176883698, -0.1582288295030594, -0.08159419894218445, 0.003779575927183032, 0.09286317974328995, 0.18264658749103546, 0.2804156541824341, 0.36809042096138, 0.4550696611404419, 0.5460243225097656, 0.6216137409210205, 0.6918841600418091, 0.76442551612854, 0.8344459533691406, 0.8768482208251953, 0.9182842969894409, 0.9447849988937378, 0.9479897022247314, 0.9610220789909363, 0.9631762504577637, 0.9541987776756287, 0.9645363092422485, 0.9955435991287231, 1.0298984050750732, 1.0574871301651, 1.0675829648971558, 1.0389735698699951, 1.006131649017334, 0.9800266027450562, 0.9214786291122437, 0.8556832671165466, 0.7991217970848083, 0.7330958843231201, 0.6637058854103088, 0.5814651250839233, 0.505501925945282, 0.4310508370399475, 0.3540627062320709, 0.268522709608078, 0.1922255903482437, 0.132346972823143, 0.0816374123096466, 0.039657603949308395, -0.003948512487113476, -0.06507183611392975, -0.12970498204231262, -0.17543934285640717, -0.21475204825401306, -0.26471850275993347, -0.314275860786438, -0.356324702501297, -0.39701780676841736, -0.44992437958717346, -0.5080242156982422, -0.5684769749641418, -0.6250017881393433, -0.671373724937439, -0.708176851272583, -0.7382053732872009, -0.7575110197067261, -0.7696162462234497, -0.7851143479347229, -0.8027656674385071, -0.8156241774559021, -0.827483594417572, -0.8364149928092957, -0.850117564201355, -0.8749875426292419, -0.9016966223716736, -0.9128348231315613, -0.9064039587974548, -0.8967280387878418, -0.8878378868103027, -0.8803040981292725, -0.8713298439979553, -0.856227695941925, -0.8348246812820435, -0.810170590877533, -0.7812228202819824, -0.7450922727584839, -0.6981123089790344, -0.6466754078865051, -0.6039430499076843, -0.5670848488807678, -0.5219317674636841, -0.4664981961250305, -0.41460588574409485, -0.36081865429878235, -0.28953590989112854, -0.21814201772212982, -0.15533557534217834, -0.09768551588058472, -0.03932798653841019, 0.035767924040555954, 0.1295182853937149, 0.21130980551242828, 0.2844375669956207, 0.3860979378223419, 0.4934018850326538, 0.5841311812400818, 0.6679036617279053, 0.7586193084716797, 0.8507792949676514, 0.9369102120399475, 1.0140717029571533, 1.1064835786819458, 1.1714720726013184, 1.2270536422729492, 1.2738041877746582, 1.3207354545593262, 1.4027067422866821]
volume 	 [0.6786146759986877, 0.671028733253479, 0.6529099345207214, 0.6367608904838562, 0.6146070957183838, 0.5950739979743958, 0.5511985421180725, 0.49121329188346863, 0.44954660534858704, 0.377001017332077, 0.2982272505760193, 0.22425326704978943, 0.15544362366199493, 0.09942041337490082, 0.04442853853106499, -0.007957510650157928, -0.04930693283677101, -0.07209719717502594, -0.09559698402881622, -0.13001346588134766, -0.17070312798023224, -0.21422211825847626, -0.23800258338451385, -0.23826028406620026, -0.23765277862548828, -0.2549307346343994, -0.27091431617736816, -0.27741119265556335, -0.2816726565361023, -0.2900637984275818, -0.2910415530204773, -0.28064996004104614, -0.2682153582572937, -0.25022369623184204, -0.23233363032341003, -0.21909187734127045, -0.2088848501443863, -0.20375175774097443, -0.21358615159988403, -0.2257501631975174, -0.2274806648492813, -0.22863996028900146, -0.23625190556049347, -0.25330883264541626, -0.26573413610458374, -0.2640160024166107, -0.25028494000434875, -0.24308110773563385, -0.25943589210510254, -0.28194689750671387, -0.30128446221351624, -0.3169918656349182, -0.3282349109649658, -0.337247759103775, -0.34780779480934143, -0.35728222131729126, -0.3611750602722168, -0.360662043094635, -0.3637317419052124, -0.3712606132030487, -0.3677234947681427, -0.34468692541122437, -0.3138095438480377, -0.2917310297489166, -0.271568238735199, -0.24387972056865692, -0.22453336417675018, -0.21343643963336945, -0.19252607226371765, -0.1580103188753128, -0.11048322170972824, -0.062345150858163834, -0.02841843105852604, 0.022387782111763954, 0.09598028659820557, 0.15607506036758423, 0.20752866566181183, 0.27012911438941956, 0.34461233019828796, 0.41809138655662537, 0.4974845051765442, 0.5649008750915527, 0.6086300611495972, 0.6585046052932739, 0.6710894107818604, 0.6661138534545898, 0.6534560322761536, 0.6521602272987366, 0.6431353688240051, 0.6190094351768494, 0.6197274923324585, 0.6527227163314819, 0.6785854697227478, 0.6411898732185364, 0.6157962679862976, 0.59226393699646, 0.571984052658081, 0.5353427529335022, 0.4929131865501404, 0.4331645667552948, 0.3761945366859436, 0.3183663785457611, 0.24408097565174103, 0.1903444230556488, 0.15126720070838928, 0.09759628027677536, 0.05861033499240875, 0.017919041216373444, -0.026072468608617783, -0.05333498492836952, -0.06981770694255829, -0.087623231112957, -0.1054796352982521, -0.1219232827425003, -0.14407050609588623, -0.163767009973526, -0.1737062782049179, -0.18536287546157837, -0.19941966235637665, -0.21542616188526154, -0.231939896941185, -0.2469393014907837, -0.26125568151474, -0.2811735272407532, -0.30190297961235046, -0.3067529797554016, -0.2975541055202484, -0.295726478099823, -0.3039763569831848, -0.3057941496372223, -0.29991433024406433, -0.3017203211784363, -0.3100828230381012, -0.3188980519771576, -0.33135414123535156, -0.343600332736969, -0.34721115231513977, -0.35158148407936096, -0.3674466609954834, -0.38430213928222656, -0.39606159925460815, -0.401976615190506, -0.40760236978530884, -0.4117157459259033, -0.41071221232414246, -0.4049486517906189, -0.3920048177242279, -0.37562882900238037, -0.36141589283943176, -0.3505733907222748, -0.3417951464653015, -0.3282474875450134, -0.3039766550064087, -0.27490851283073425, -0.25394144654273987, -0.23974692821502686, -0.20913149416446686, -0.16817434132099152, -0.14221954345703125, -0.1286051720380783, -0.10165011137723923, -0.05852511525154114, -0.022403107956051826, 0.0037746920716017485, 0.038788557052612305, 0.08804722130298615, 0.1430574208498001, 0.2130148559808731, 0.2867317497730255, 0.35540539026260376, 0.4273708760738373, 0.4841204881668091, 0.5154685378074646, 0.5308994054794312, 0.5462306141853333, 0.5590531229972839, 0.5814160704612732, 0.6021767258644104, 0.63197922706604, 0.6378144025802612]
