4.256829738616943 CrossValid 1088.8463134765625 CrossValidLossesBy500 1135.8775634765625 1132.342041015625 1131.0560302734375 1129.9896240234375 1128.6702880859375 1126.8857421875 1124.5753173828125 1122.021484375 1119.4822998046875 1117.1815185546875 1114.5137939453125 1111.7998046875 1107.800537109375 1103.60595703125 1099.8133544921875 1096.698486328125 1094.5185546875 1092.8160400390625 1091.0999755859375 1089.751220703125 1089.193359375 1089.422607421875 1089.3614501953125 1089.0716552734375 1089.063720703125 1091.7088623046875 1089.025146484375 1088.9688720703125 1089.082275390625 1088.7261962890625 1089.1805419921875 1089.25146484375 1088.945556640625 1090.008544921875 1089.43505859375 1089.29736328125 1089.1588134765625 1089.3028564453125 1088.9039306640625 1091.8421630859375 1089.62060546875 1088.6146240234375 1088.8463134765625
21500 LossesBy500 4.515700817108154 4.507401466369629 4.5037336349487305 4.499453067779541 4.492929935455322 4.483450889587402 4.471210956573486 4.457640647888184 4.443795680999756 4.43026065826416 4.414546012878418 4.3975443840026855 4.377185344696045 4.358555793762207 4.342516899108887 4.32832145690918 4.316546440124512 4.306228160858154 4.29697847366333 4.290273666381836 4.282370567321777 4.27662467956543 4.274206638336182 4.278275489807129 4.275243282318115 4.2742109298706055 4.268611431121826 4.268499851226807 4.266977310180664 4.268006801605225 4.264571189880371 4.2636895179748535 4.263833999633789 4.261792182922363 4.26047945022583 4.259965419769287 4.259891986846924 4.258647441864014 4.259071350097656 4.2626729011535645 4.257418632507324 4.25885534286499 4.256829738616943
sigma2_stimulus 	 [0.0]
log_motor_var 	 [7.608212471008301]
sigma_logit 	 [-3.0, 0.7397134304046631, -1.312329888343811, -2.6224751472473145, -2.9169631004333496, -3.121483325958252]
mixture_logit 	 [-3.894712448120117]
prior 	 [2.1047451496124268, 2.042208671569824, 1.959574580192566, 1.2217005491256714, 1.9331200122833252, 1.7345677614212036, 1.968241810798645, 1.4297049045562744, 1.271639347076416, 1.5753302574157715, 0.4648100733757019, 1.4540483951568604, 1.4122047424316406, 0.8929718136787415, 0.7630323171615601, 0.18465650081634521, 0.7165364623069763, 0.5629557967185974, -0.0010465900413691998, -0.239729106426239, 0.2840292155742645, 8.96225610631518e-05, -0.36636748909950256, -0.049394600093364716, -0.2642257511615753, -0.6713296175003052, -0.22279095649719238, -0.5109227299690247, -0.5884769558906555, -0.41965869069099426, -0.5952485203742981, -0.9063699245452881, -1.0702989101409912, -0.3105463683605194, -0.4853242337703705, -1.4888023138046265, -1.7517931461334229, -1.3839821815490723, -0.4898929297924042, -0.7281495928764343, -1.0740931034088135, -1.2351058721542358, -1.1412415504455566, -1.2291803359985352, -0.6670452952384949, -0.08998869359493256, -1.553727149963379, -1.6507363319396973, -1.1457417011260986, -0.8762788772583008, -0.7387463450431824, -0.8177149295806885, -0.8808327317237854, -0.8129051923751831, -0.4219769537448883, -0.6232805252075195, -0.7932933568954468, -0.8991913199424744, -0.3383227288722992, -0.4711824953556061, -0.34865081310272217, -0.49239659309387207, -0.2341463416814804, -0.43423202633857727, -0.5774762630462646, 0.3398914039134979, -0.6323285698890686, -0.7570019960403442, -0.135340616106987, 0.1141713336110115, 0.08036120235919952, 0.42597708106040955, 0.5862327814102173, 0.2792082726955414, 1.007238507270813, 0.5457919836044312, 0.6106119751930237, 1.126558542251587, 0.3270092308521271, 0.8646373748779297, 0.7137596011161804, 0.9930502772331238, 0.7531017661094666, 1.109033226966858, 1.3692280054092407, 0.25048828125, 1.3181504011154175, 0.8873741030693054, 0.763228178024292, 0.7839443683624268, 0.7948817014694214, -0.2616698145866394, 1.2807936668395996, 0.9008589386940002, 1.0668216943740845, 1.476464867591858, 0.7936211228370667, 1.143694281578064, 1.6332921981811523, 0.8996714353561401, 1.1328073740005493, 1.2492072582244873, 1.1804884672164917, 0.5974820256233215, 0.9415509104728699, 0.8544828295707703, 0.44840207695961, 0.5043684840202332, 0.21502763032913208, 0.04582024738192558, -0.04781028628349304, 0.5228539705276489, 0.0708203911781311, -0.3828554153442383, -0.47444918751716614, 0.2194567173719406, -0.3386273980140686, -0.7143093347549438, -0.5308937430381775, -0.1840171366930008, -0.47098103165626526, -0.6947892308235168, -0.7433879375457764, -0.9164014458656311, -1.1414828300476074, -0.9124320149421692, -0.9658652544021606, -1.000395655632019, -0.8508020639419556, -0.9309462904930115, -1.2308601140975952, -1.259033441543579, -1.1985313892364502, -1.2478805780410767, -0.8480231761932373, -0.6440642476081848, -1.3066442012786865, -1.4873250722885132, -1.4905656576156616, -1.2776011228561401, -0.9911266565322876, -1.040912389755249, -1.0945721864700317, -1.2750505208969116, -1.1483105421066284, -0.8499576449394226, -0.7969459891319275, -1.087274432182312, -1.0266239643096924, -1.109214425086975, -0.9848558306694031, -0.23353707790374756, -0.46048733592033386, -0.9503998160362244, -0.7136311531066895, 0.059250976890325546, -0.8691588044166565, -0.42092639207839966, -0.13740625977516174, 0.0043859160505235195, 0.4679816663265228, -0.7033616900444031, -0.36327579617500305, 0.5364741683006287, 0.5871827006340027, -0.26876434683799744, 0.04392246901988983, 0.5627002716064453, 0.9712966680526733, 0.5811914801597595, 0.6379597783088684, 1.2230626344680786, 0.44932273030281067, 1.1229218244552612, 0.9223693013191223, 1.5308295488357544, 1.6954216957092285, 1.8965160846710205, 1.1907362937927246, 2.0132782459259033]
volume 	 [0.0, 0.0, 0.0, 0.0, 0.0, 0.0, 0.0, 0.0, 0.0, 0.0, 0.0, 0.0, 0.0, 0.0, 0.0, 0.0, 0.0, 0.0, 0.0, 0.0, 0.0, 0.0, 0.0, 0.0, 0.0, 0.0, 0.0, 0.0, 0.0, 0.0, 0.0, 0.0, 0.0, 0.0, 0.0, 0.0, 0.0, 0.0, 0.0, 0.0, 0.0, 0.0, 0.0, 0.0, 0.0, 0.0, 0.0, 0.0, 0.0, 0.0, 0.0, 0.0, 0.0, 0.0, 0.0, 0.0, 0.0, 0.0, 0.0, 0.0, 0.0, 0.0, 0.0, 0.0, 0.0, 0.0, 0.0, 0.0, 0.0, 0.0, 0.0, 0.0, 0.0, 0.0, 0.0, 0.0, 0.0, 0.0, 0.0, 0.0, 0.0, 0.0, 0.0, 0.0, 0.0, 0.0, 0.0, 0.0, 0.0, 0.0, 0.0, 0.0, 0.0, 0.0, 0.0, 0.0, 0.0, 0.0, 0.0, 0.0, 0.0, 0.0, 0.0, 0.0, 0.0, 0.0, 0.0, 0.0, 0.0, 0.0, 0.0, 0.0, 0.0, 0.0, 0.0, 0.0, 0.0, 0.0, 0.0, 0.0, 0.0, 0.0, 0.0, 0.0, 0.0, 0.0, 0.0, 0.0, 0.0, 0.0, 0.0, 0.0, 0.0, 0.0, 0.0, 0.0, 0.0, 0.0, 0.0, 0.0, 0.0, 0.0, 0.0, 0.0, 0.0, 0.0, 0.0, 0.0, 0.0, 0.0, 0.0, 0.0, 0.0, 0.0, 0.0, 0.0, 0.0, 0.0, 0.0, 0.0, 0.0, 0.0, 0.0, 0.0, 0.0, 0.0, 0.0, 0.0, 0.0, 0.0, 0.0, 0.0, 0.0, 0.0, 0.0, 0.0, 0.0, 0.0, 0.0, 0.0]
