4.278306484222412 CrossValid 1084.71044921875 CrossValidLossesBy500 1122.982421875 1122.5474853515625 1122.0042724609375 1121.2060546875 1119.951416015625 1118.0257568359375 1115.3995361328125 1112.42724609375 1109.34765625 1106.2421875 1102.9962158203125 1099.0242919921875 1095.058837890625 1089.1951904296875 1085.48974609375 1082.776123046875 1081.1197509765625 1080.9803466796875 1082.4837646484375 1083.277587890625 1083.44873046875 1084.6585693359375 1083.3062744140625 1086.5631103515625 1086.2274169921875 1085.7637939453125 1087.3935546875 1083.756103515625 1083.1895751953125 1080.5755615234375 1083.1710205078125 1092.07568359375 1083.1163330078125 1084.2685546875 1084.3916015625 1081.7979736328125 1083.033935546875 1083.2928466796875 1082.6697998046875 1084.550537109375 1082.6424560546875 1087.099853515625 1084.71044921875
21500 LossesBy500 4.520042896270752 4.511326789855957 4.507816314697266 4.504255771636963 4.499650478363037 4.492549896240234 4.482844829559326 4.470958232879639 4.458102226257324 4.445172309875488 4.432620048522949 4.418257713317871 4.403515338897705 4.384049415588379 4.3661723136901855 4.349078178405762 4.332376003265381 4.322493076324463 4.313413619995117 4.308554172515869 4.306102752685547 4.300258159637451 4.301168918609619 4.292663097381592 4.289979934692383 4.287900924682617 4.28591775894165 4.285687446594238 4.285314083099365 4.292713642120361 4.283608436584473 4.288539409637451 4.281660079956055 4.2798380851745605 4.279667377471924 4.285452842712402 4.2812299728393555 4.280892848968506 4.2822794914245605 4.27899694442749 4.282536506652832 4.278916358947754 4.278306484222412
sigma2_stimulus 	 [0.0]
log_motor_var 	 [7.611692905426025]
sigma_logit 	 [-3.0, 1.0795625448226929, -1.2797714471817017, -2.658179998397827, -2.9280614852905273, -3.156879186630249]
mixture_logit 	 [-3.905979633331299]
prior 	 [1.8884363174438477, 1.8292884826660156, 1.7813634872436523, 0.9002507925033569, 1.7551730871200562, 1.1917457580566406, 1.2547032833099365, 1.612884759902954, 1.156758427619934, 1.235508680343628, 1.3557578325271606, 0.3238043189048767, 1.5248115062713623, 1.2765928506851196, 1.047648549079895, 0.48439767956733704, 0.29207855463027954, 0.762346625328064, 0.5711207389831543, -0.060028526932001114, 0.024527698755264282, 0.11403685808181763, -0.26509612798690796, -0.3083462119102478, 0.26719754934310913, -0.5923592448234558, -0.18284600973129272, -0.5073305368423462, -0.5414519309997559, -0.41546741127967834, -0.3900202214717865, -0.6521356701850891, -1.1731923818588257, -1.0581612586975098, 0.07515592873096466, -1.0764957666397095, -1.3833034038543701, -0.8418774008750916, -0.5288029313087463, -0.7901694774627686, -1.2022849321365356, -1.262073040008545, -1.0908743143081665, -1.0394041538238525, -0.37101423740386963, -0.28435468673706055, -1.5606410503387451, -1.498702049255371, -0.7641933560371399, -0.8366309404373169, -0.5567331910133362, -0.8574468493461609, -0.9224584698677063, -0.6676169037818909, -0.47149142622947693, -0.41063350439071655, -0.9958890676498413, -0.7790717482566833, -0.4341929256916046, -0.4463673532009125, -0.4714227616786957, -0.49619704484939575, -0.047027427703142166, -0.8416067361831665, 0.31329378485679626, -0.5611433386802673, -0.8438178896903992, -0.43135884404182434, 0.07735176384449005, -0.20332849025726318, 0.3711912930011749, 0.011229605413973331, 0.1839636117219925, 0.16626623272895813, 0.9473106861114502, 0.3040851354598999, 0.3357093036174774, 1.033745527267456, 0.5472776889801025, 0.42138439416885376, 0.732050359249115, 0.8186300992965698, 0.467363178730011, 1.1276872158050537, 1.092416763305664, 0.0416669100522995, 1.2052005529403687, 0.8205335736274719, 0.4400423467159271, 0.5641123056411743, 0.5793452262878418, -0.5083485245704651, 0.1525707095861435, 1.1183048486709595, 1.2573081254959106, 1.3586286306381226, 0.8073676824569702, 0.9728120565414429, 1.3200817108154297, 0.9402406215667725, 0.36582422256469727, 1.179749846458435, 0.7127842307090759, 1.0703744888305664, 0.6510047912597656, 0.7249177694320679, 0.8493655920028687, 0.14857280254364014, 0.5149635672569275, 0.143681138753891, 0.09514804929494858, -0.1960880160331726, 0.767855703830719, -0.19235026836395264, -0.4124668836593628, -0.27598339319229126, 0.3994101285934448, -0.5277561545372009, -0.5584349036216736, 0.008474412374198437, -0.15933440625667572, -0.3336382210254669, -0.7299711108207703, -0.8803716897964478, -1.0269975662231445, -0.9185290932655334, -0.5749512314796448, -1.0462530851364136, -0.7924321889877319, -0.8442413806915283, -0.9159664511680603, -1.0085930824279785, -0.8312592506408691, -1.0971688032150269, -0.9376131296157837, -0.430342435836792, -1.187707543373108, -1.466037631034851, -1.4510178565979004, -1.0884462594985962, -0.8706521987915039, -0.8928414583206177, -0.8524852991104126, -0.9627426862716675, -0.6873631477355957, -0.8242171406745911, -0.9900053143501282, -0.5670315027236938, -0.8691824674606323, -1.0735567808151245, -0.11391264200210571, -0.35244283080101013, -1.0694621801376343, -1.0832759141921997, 0.2283650040626526, -0.7515148520469666, -0.8134118318557739, -0.06242476776242256, -0.0479126013815403, 0.44978636503219604, -0.45017385482788086, -0.7344191670417786, 0.4306533932685852, 0.7098387479782104, -0.318295419216156, -0.36386817693710327, 0.3425004482269287, 0.9120073318481445, 0.7881100177764893, 0.421116441488266, 1.105400800704956, 0.4822937846183777, 1.0942566394805908, 0.8036072850227356, 1.379295825958252, 1.2336177825927734, 1.67666494846344, 1.284669280052185, 0.2485170066356659, 1.780941367149353]
volume 	 [0.0, 0.0, 0.0, 0.0, 0.0, 0.0, 0.0, 0.0, 0.0, 0.0, 0.0, 0.0, 0.0, 0.0, 0.0, 0.0, 0.0, 0.0, 0.0, 0.0, 0.0, 0.0, 0.0, 0.0, 0.0, 0.0, 0.0, 0.0, 0.0, 0.0, 0.0, 0.0, 0.0, 0.0, 0.0, 0.0, 0.0, 0.0, 0.0, 0.0, 0.0, 0.0, 0.0, 0.0, 0.0, 0.0, 0.0, 0.0, 0.0, 0.0, 0.0, 0.0, 0.0, 0.0, 0.0, 0.0, 0.0, 0.0, 0.0, 0.0, 0.0, 0.0, 0.0, 0.0, 0.0, 0.0, 0.0, 0.0, 0.0, 0.0, 0.0, 0.0, 0.0, 0.0, 0.0, 0.0, 0.0, 0.0, 0.0, 0.0, 0.0, 0.0, 0.0, 0.0, 0.0, 0.0, 0.0, 0.0, 0.0, 0.0, 0.0, 0.0, 0.0, 0.0, 0.0, 0.0, 0.0, 0.0, 0.0, 0.0, 0.0, 0.0, 0.0, 0.0, 0.0, 0.0, 0.0, 0.0, 0.0, 0.0, 0.0, 0.0, 0.0, 0.0, 0.0, 0.0, 0.0, 0.0, 0.0, 0.0, 0.0, 0.0, 0.0, 0.0, 0.0, 0.0, 0.0, 0.0, 0.0, 0.0, 0.0, 0.0, 0.0, 0.0, 0.0, 0.0, 0.0, 0.0, 0.0, 0.0, 0.0, 0.0, 0.0, 0.0, 0.0, 0.0, 0.0, 0.0, 0.0, 0.0, 0.0, 0.0, 0.0, 0.0, 0.0, 0.0, 0.0, 0.0, 0.0, 0.0, 0.0, 0.0, 0.0, 0.0, 0.0, 0.0, 0.0, 0.0, 0.0, 0.0, 0.0, 0.0, 0.0, 0.0, 0.0, 0.0, 0.0, 0.0, 0.0, 0.0]
