4.037757396697998 CrossValid 1017.9247436523438 CrossValidLossesBy500 1057.551025390625 1045.09423828125 1040.919677734375 1038.066650390625 1035.59814453125 1033.3990478515625 1031.4005126953125 1029.5584716796875 1027.95166015625 1026.55078125 1025.2755126953125 1024.9405517578125 1023.9096069335938 1023.4186401367188 1022.2982177734375 1021.64599609375 1020.9515380859375 1020.5523071289062 1020.0765380859375 1019.81982421875 1019.5311279296875 1019.2445678710938 1019.1283569335938 1018.8226318359375 1018.8674926757812 1018.4246215820312 1018.5206909179688 1018.2630615234375 1018.347412109375 1018.0007934570312 1017.8057861328125 1018.0281372070312 1018.4923095703125 1017.9247436523438
17000 LossesBy500 4.161295413970947 4.114544868469238 4.09988260269165 4.090247631072998 4.08240270614624 4.075774192810059 4.0697808265686035 4.064553260803223 4.060631275177002 4.056526184082031 4.052567005157471 4.049090385437012 4.047051906585693 4.0452704429626465 4.044562816619873 4.043349742889404 4.042820930480957 4.041937828063965 4.041502475738525 4.040594100952148 4.040381908416748 4.040116786956787 4.039743423461914 4.039115905761719 4.038833141326904 4.039212703704834 4.038830757141113 4.038586139678955 4.038102626800537 4.038483619689941 4.038984298706055 4.038425445556641 4.038114547729492 4.037757396697998
sigma2_stimulus 	 [0.0]
log_motor_var 	 [7.090386390686035]
sigma_logit 	 [-3.0, 0.14054027199745178, -1.6112682819366455, -3.132704734802246, -3.621767520904541, -4.072726726531982]
mixture_logit 	 [-3.1727302074432373]
prior 	 [1.2008240222930908, 1.2251754999160767, 1.2008299827575684, 1.1446564197540283, 1.082344889640808, 1.029677152633667, 0.9645622372627258, 0.9040774703025818, 0.8411415815353394, 0.7744246125221252, 0.710614025592804, 0.6515963077545166, 0.582768976688385, 0.5187941789627075, 0.4557541608810425, 0.3927587866783142, 0.32506033778190613, 0.2550467848777771, 0.19576707482337952, 0.14309976994991302, 0.08746831864118576, 0.03309575840830803, -0.018002314493060112, -0.0666269063949585, -0.11412475258111954, -0.16211256384849548, -0.20722240209579468, -0.246461421251297, -0.28062257170677185, -0.31255030632019043, -0.34686723351478577, -0.38641783595085144, -0.4294981360435486, -0.47006988525390625, -0.5019568204879761, -0.5248507261276245, -0.5427921414375305, -0.5560373663902283, -0.5615020990371704, -0.5597916841506958, -0.5555271506309509, -0.5521746277809143, -0.5508387684822083, -0.5540767908096313, -0.5654011964797974, -0.5828238725662231, -0.5971993207931519, -0.5997061133384705, -0.5894892811775208, -0.5720317959785461, -0.5533230304718018, -0.5363267064094543, -0.5201853513717651, -0.5035176277160645, -0.48677581548690796, -0.46992361545562744, -0.4507414996623993, -0.427467942237854, -0.40153685212135315, -0.3750424385070801, -0.3483690619468689, -0.32081857323646545, -0.2919928729534149, -0.2612914443016052, -0.22992302477359772, -0.2013574093580246, -0.1719082146883011, -0.13527047634124756, -0.09957999736070633, -0.06881675869226456, -0.030759518966078758, 0.024552155286073685, 0.09277600795030594, 0.16159199178218842, 0.2331984043121338, 0.3132670521736145, 0.3887436091899872, 0.45648854970932007, 0.5195626616477966, 0.5727954506874084, 0.6149965524673462, 0.651144802570343, 0.6723829507827759, 0.6981261968612671, 0.7182603478431702, 0.7419017553329468, 0.7500178217887878, 0.7508255839347839, 0.7437734007835388, 0.7442657947540283, 0.7697492837905884, 0.820168673992157, 0.8634890913963318, 0.8856600522994995, 0.8771487474441528, 0.8624622225761414, 0.8225078582763672, 0.7753742933273315, 0.7327112555503845, 0.6647883057594299, 0.5879729390144348, 0.5116708874702454, 0.43470242619514465, 0.35499653220176697, 0.27759337425231934, 0.21345072984695435, 0.1558891236782074, 0.10207007825374603, 0.046788908541202545, -0.011302851140499115, -0.06284545361995697, -0.10483212769031525, -0.14558373391628265, -0.19390903413295746, -0.24899283051490784, -0.29887765645980835, -0.338712215423584, -0.3765275478363037, -0.41678738594055176, -0.45802587270736694, -0.5005624294281006, -0.542664647102356, -0.5801655054092407, -0.6103147864341736, -0.6335947513580322, -0.6526591777801514, -0.6696149706840515, -0.6857150793075562, -0.7023247480392456, -0.7196248173713684, -0.73540198802948, -0.7463136315345764, -0.7508000135421753, -0.7497084736824036, -0.7448431849479675, -0.7391420006752014, -0.7365734577178955, -0.7400421500205994, -0.7492305040359497, -0.759983241558075, -0.7664326429367065, -0.7652996182441711, -0.757202684879303, -0.7434127926826477, -0.7242377996444702, -0.7005478739738464, -0.6741876006126404, -0.6462371349334717, -0.6158120036125183, -0.581964910030365, -0.545608401298523, -0.5076801776885986, -0.46618571877479553, -0.418195903301239, -0.3652602732181549, -0.31193849444389343, -0.25929781794548035, -0.2053845226764679, -0.1517062932252884, -0.10121070593595505, -0.048762157559394836, 0.008426478132605553, 0.06469553709030151, 0.11379915475845337, 0.15950165688991547, 0.2161138504743576, 0.2732742130756378, 0.3219945430755615, 0.3771072030067444, 0.44661280512809753, 0.5265748500823975, 0.5957099199295044, 0.6536579132080078, 0.7208887338638306, 0.7856833338737488, 0.8564019203186035, 0.9450109601020813, 1.0238882303237915, 1.0898357629776, 1.1473726034164429]
volume 	 [0.9090311527252197, 0.8822886943817139, 0.8573001027107239, 0.8412850499153137, 0.8019660115242004, 0.7451274394989014, 0.7118508815765381, 0.6550657153129578, 0.5911046862602234, 0.5282604098320007, 0.4605848491191864, 0.38244765996932983, 0.3146760165691376, 0.25431644916534424, 0.18727368116378784, 0.11276400834321976, 0.04006747528910637, -0.01809895783662796, -0.06714858114719391, -0.10987924039363861, -0.1576801836490631, -0.20581850409507751, -0.24040105938911438, -0.25772276520729065, -0.27190253138542175, -0.29381340742111206, -0.3168521821498871, -0.33282917737960815, -0.34493115544319153, -0.3544004261493683, -0.3618863821029663, -0.3688870370388031, -0.37728750705718994, -0.39058297872543335, -0.40707927942276, -0.42013242840766907, -0.430913507938385, -0.44277292490005493, -0.4523645341396332, -0.45484307408332825, -0.45361655950546265, -0.4545987546443939, -0.46308788657188416, -0.4749292731285095, -0.4833785891532898, -0.4859209358692169, -0.4823988080024719, -0.4726792275905609, -0.45980384945869446, -0.44653046131134033, -0.4370448887348175, -0.433989942073822, -0.43496960401535034, -0.4366518259048462, -0.43635571002960205, -0.433530330657959, -0.42728692293167114, -0.4181510806083679, -0.40951627492904663, -0.4031011462211609, -0.3922375440597534, -0.37051981687545776, -0.3400961756706238, -0.30914613604545593, -0.280408650636673, -0.25271451473236084, -0.22889555990695953, -0.20532646775245667, -0.17284496128559113, -0.1325283795595169, -0.0928976833820343, -0.04876941069960594, 0.006443304941058159, 0.07829883694648743, 0.15432101488113403, 0.2191573530435562, 0.2972560226917267, 0.3826308250427246, 0.46235179901123047, 0.5401781797409058, 0.6082158088684082, 0.6728792786598206, 0.7455518245697021, 0.8027621507644653, 0.8896289467811584, 0.9222575426101685, 0.9323266744613647, 0.9086092710494995, 0.9014293551445007, 0.8681338429450989, 0.8530740737915039, 0.8346602916717529, 0.8147199153900146, 0.7773491740226746, 0.771075963973999, 0.74884432554245, 0.7149497866630554, 0.6804670095443726, 0.6186627745628357, 0.5490155816078186, 0.47735992074012756, 0.40575000643730164, 0.3417179584503174, 0.29010847210884094, 0.23482558131217957, 0.17562003433704376, 0.13052606582641602, 0.09531817585229874, 0.06091472506523132, 0.019700322300195694, -0.018509861081838608, -0.049690235406160355, -0.08176804333925247, -0.12115328013896942, -0.1676907241344452, -0.20963427424430847, -0.23993778228759766, -0.2678826153278351, -0.30080583691596985, -0.33782273530960083, -0.3730159401893616, -0.40048590302467346, -0.41641855239868164, -0.42238175868988037, -0.42801278829574585, -0.44306573271751404, -0.4657615125179291, -0.48842525482177734, -0.5089134573936462, -0.5278063416481018, -0.5444760918617249, -0.5580765008926392, -0.567315936088562, -0.5727872252464294, -0.5725699663162231, -0.567330539226532, -0.5614573955535889, -0.5608974099159241, -0.5688145160675049, -0.5799480676651001, -0.5882790684700012, -0.5905836820602417, -0.587302029132843, -0.580396831035614, -0.5688438415527344, -0.551722526550293, -0.530757486820221, -0.5075764656066895, -0.4814293384552002, -0.45035672187805176, -0.4168788492679596, -0.38501212000846863, -0.3546404540538788, -0.3233199715614319, -0.28878676891326904, -0.2500733435153961, -0.2083408087491989, -0.16867968440055847, -0.12649953365325928, -0.07554122805595398, -0.01480509527027607, 0.04712890088558197, 0.10106886923313141, 0.13655313849449158, 0.16937652230262756, 0.21083925664424896, 0.2565729320049286, 0.3154715597629547, 0.3871859908103943, 0.4404059648513794, 0.49883702397346497, 0.5826521515846252, 0.6417650580406189, 0.6901206970214844, 0.740469217300415, 0.8072492480278015, 0.8505921363830566, 0.8902469277381897, 0.9021123051643372, 0.8937051296234131]
