4.064655303955078 CrossValid 955.35400390625 CrossValidLossesBy500 989.8330078125 984.3634643554688 979.8877563476562 979.580078125 975.2371215820312 973.3272094726562 971.7071533203125 970.1673583984375 968.8694458007812 967.7114868164062 966.418701171875 965.5162353515625 972.2005615234375 963.9151000976562 963.2933959960938 962.7891235351562 962.36181640625 961.8802490234375 961.4407348632812 960.9786376953125 960.6138916015625 960.3076171875 960.0263671875 959.7329711914062 959.4884033203125 959.156005859375 958.7567138671875 958.4968872070312 958.153564453125 957.6351928710938 957.8902587890625 957.7383422851562 957.8379516601562 957.762939453125 957.593017578125 957.3628540039062 957.3129272460938 957.3444213867188 957.3693237304688 957.3104248046875 957.2313842773438 957.251708984375 957.1607666015625 957.0322265625 957.0689697265625 957.0516967773438 956.9160766601562 956.8888549804688 956.7388916015625 956.6771240234375 956.6629028320312 956.3828125 956.382568359375 956.3248901367188 956.2404174804688 956.1405639648438 956.1328735351562 956.0882568359375 956.0357666015625 956.005615234375 956.0015869140625 955.9611206054688 956.0265502929688 956.0028076171875 955.9554443359375 956.00244140625 955.8982543945312 955.9055786132812 955.35400390625
34500 LossesBy500 4.185610771179199 4.165885925292969 4.149505138397217 4.148275375366211 4.132518291473389 4.125278472900391 4.119075775146484 4.113360404968262 4.108468055725098 4.104162216186523 4.099647045135498 4.096295356750488 4.118440628051758 4.090632438659668 4.088469982147217 4.086682319641113 4.0850749015808105 4.083521366119385 4.082094192504883 4.080744743347168 4.079497337341309 4.078414440155029 4.077502250671387 4.076542377471924 4.075839042663574 4.074872016906738 4.073941707611084 4.073239803314209 4.072129249572754 4.0702738761901855 4.0705976486206055 4.070407867431641 4.0706634521484375 4.070590972900391 4.070122718811035 4.069430828094482 4.0693159103393555 4.069484233856201 4.069596767425537 4.06950569152832 4.069260597229004 4.069368362426758 4.069140434265137 4.068720817565918 4.068899154663086 4.068881511688232 4.06842041015625 4.068404674530029 4.067868232727051 4.067716121673584 4.067704677581787 4.06712532043457 4.067461013793945 4.067293167114258 4.067043304443359 4.066771507263184 4.066923141479492 4.066905498504639 4.066715717315674 4.066709995269775 4.066610336303711 4.066415309906006 4.066678524017334 4.066535949707031 4.066406726837158 4.066695690155029 4.066273212432861 4.0664143562316895 4.064655303955078
sigma2_stimulus 	 [0.0]
log_motor_var 	 [7.394896030426025]
sigma_logit 	 [-3.0, 0.7494584918022156, -1.5195671319961548, -3.2083075046539307, -3.6070899963378906, -4.072468280792236]
mixture_logit 	 [-3.1328446865081787]
prior 	 [1.540625810623169, 1.5835415124893188, 1.570507287979126, 1.5100165605545044, 1.4493649005889893, 1.3804157972335815, 1.3219245672225952, 1.2530677318572998, 1.1747673749923706, 1.091733694076538, 0.999896228313446, 0.9232826232910156, 0.8394742608070374, 0.7437471747398376, 0.6562313437461853, 0.5722219944000244, 0.48980483412742615, 0.4136354625225067, 0.32168513536453247, 0.22716665267944336, 0.13291025161743164, 0.05216558650135994, -0.022775329649448395, -0.09849656373262405, -0.16928637027740479, -0.2396649718284607, -0.3007231652736664, -0.35500067472457886, -0.4080084562301636, -0.4567059874534607, -0.506363034248352, -0.5590593218803406, -0.5998116731643677, -0.6315287947654724, -0.6715371608734131, -0.7196611762046814, -0.7558794617652893, -0.7739553451538086, -0.7892794609069824, -0.8076303601264954, -0.8216517567634583, -0.8250893354415894, -0.8231272101402283, -0.8207164406776428, -0.8247478604316711, -0.8429676294326782, -0.8628506064414978, -0.8598658442497253, -0.8381971120834351, -0.813389778137207, -0.7951275110244751, -0.7835549116134644, -0.7725143432617188, -0.7598591446876526, -0.7455332279205322, -0.7262025475502014, -0.7045664191246033, -0.6792693138122559, -0.6531740427017212, -0.6277639269828796, -0.5990567207336426, -0.5672456622123718, -0.5321686863899231, -0.49431854486465454, -0.44876915216445923, -0.4010314643383026, -0.36625978350639343, -0.3306071162223816, -0.27297037839889526, -0.1965351700782776, -0.11643100529909134, -0.03864114731550217, 0.0447629913687706, 0.12874993681907654, 0.21159906685352325, 0.3072342574596405, 0.40468454360961914, 0.49940791726112366, 0.5990094542503357, 0.6961935758590698, 0.7775118350982666, 0.8612349033355713, 0.9474411010742188, 1.0126532316207886, 1.0687873363494873, 1.1076916456222534, 1.1207810640335083, 1.1428396701812744, 1.142823338508606, 1.12870454788208, 1.1371181011199951, 1.169037103652954, 1.2084721326828003, 1.235988736152649, 1.2393943071365356, 1.2035900354385376, 1.1586719751358032, 1.1174019575119019, 1.0446045398712158, 0.9811910390853882, 0.9191706776618958, 0.8386175036430359, 0.7430818676948547, 0.6498759388923645, 0.5662050843238831, 0.48142340779304504, 0.387351393699646, 0.2989473342895508, 0.22030439972877502, 0.15176336467266083, 0.09281496703624725, 0.03592031076550484, -0.042132895439863205, -0.12559767067432404, -0.18900750577449799, -0.24205321073532104, -0.3035982549190521, -0.3726218640804291, -0.43748900294303894, -0.4943074584007263, -0.5577433705329895, -0.6244131922721863, -0.6899136304855347, -0.7514905333518982, -0.8028193712234497, -0.8412112593650818, -0.8715918660163879, -0.8968788981437683, -0.9151294231414795, -0.932712197303772, -0.953010082244873, -0.9707947969436646, -0.9819326996803284, -0.9874120950698853, -0.9901068806648254, -1.0015205144882202, -1.0263184309005737, -1.0511465072631836, -1.06045663356781, -1.0536245107650757, -1.0415520668029785, -1.0285332202911377, -1.0142563581466675, -0.99648517370224, -0.9722381830215454, -0.9429797530174255, -0.9114893674850464, -0.8783082962036133, -0.8439600467681885, -0.8066805005073547, -0.7654063701629639, -0.7289248108863831, -0.6978809237480164, -0.6575435996055603, -0.599665105342865, -0.537045955657959, -0.4776725172996521, -0.4072185456752777, -0.32613444328308105, -0.2512431740760803, -0.18167729675769806, -0.11021898686885834, -0.032640401273965836, 0.06319771707057953, 0.15944425761699677, 0.2360982596874237, 0.32801052927970886, 0.448085755109787, 0.5647050142288208, 0.6623496413230896, 0.7674486637115479, 0.8694232702255249, 0.9583092331886292, 1.0425294637680054, 1.1377246379852295, 1.2081031799316406, 1.2703866958618164, 1.3186028003692627, 1.3662809133529663, 1.4544379711151123]
volume 	 [0.733476459980011, 0.7045391798019409, 0.6686431765556335, 0.6423414945602417, 0.6190276741981506, 0.5962475538253784, 0.5553401708602905, 0.50993812084198, 0.4643818736076355, 0.38467881083488464, 0.30374330282211304, 0.23977155983448029, 0.1865956336259842, 0.13038219511508942, 0.07715646922588348, 0.029130298644304276, -0.011157328262925148, -0.04136040806770325, -0.07263887673616409, -0.10903489589691162, -0.15351101756095886, -0.18418744206428528, -0.19055669009685516, -0.1951545625925064, -0.21233010292053223, -0.23241138458251953, -0.2428446263074875, -0.2467881143093109, -0.2528088390827179, -0.2588386535644531, -0.2567559480667114, -0.2508241832256317, -0.24397212266921997, -0.23508307337760925, -0.23508693277835846, -0.24245098233222961, -0.2461998611688614, -0.25123506784439087, -0.2628166973590851, -0.26974475383758545, -0.2684304416179657, -0.26911142468452454, -0.2774212062358856, -0.2918403148651123, -0.2972007691860199, -0.28458860516548157, -0.26401039958000183, -0.25149187445640564, -0.25935038924217224, -0.27754345536231995, -0.29719191789627075, -0.31649526953697205, -0.33250030875205994, -0.34499260783195496, -0.3553091585636139, -0.36395180225372314, -0.368680864572525, -0.3666037917137146, -0.36001354455947876, -0.35642820596694946, -0.3474767804145813, -0.3214067816734314, -0.28477564454078674, -0.25742191076278687, -0.24129632115364075, -0.22038938105106354, -0.19846892356872559, -0.1834588348865509, -0.16238786280155182, -0.1275356113910675, -0.08415146917104721, -0.03553548827767372, 0.010023402981460094, 0.06416896730661392, 0.13454268872737885, 0.20915056765079498, 0.27126139402389526, 0.3230947256088257, 0.38321295380592346, 0.450339138507843, 0.5077037215232849, 0.5441083908081055, 0.5847066044807434, 0.6344633102416992, 0.6481297612190247, 0.6422062516212463, 0.6384191513061523, 0.6437734961509705, 0.6357998251914978, 0.6005339622497559, 0.6109399795532227, 0.6324447393417358, 0.6530230641365051, 0.6307130455970764, 0.6121283173561096, 0.5962187647819519, 0.577402651309967, 0.5489016771316528, 0.5255200266838074, 0.4667279124259949, 0.40635424852371216, 0.3487875461578369, 0.2716500163078308, 0.21431511640548706, 0.1618429273366928, 0.09973819553852081, 0.05562087893486023, 0.007456866092979908, -0.035184022039175034, -0.05737609043717384, -0.06870147585868835, -0.07974827289581299, -0.09367130696773529, -0.11073607206344604, -0.1383565068244934, -0.16377505660057068, -0.18282252550125122, -0.20578984916210175, -0.2250031977891922, -0.24588951468467712, -0.26537564396858215, -0.2785216271877289, -0.29321640729904175, -0.3119967579841614, -0.32485103607177734, -0.3225490152835846, -0.31745755672454834, -0.3254929184913635, -0.3411807417869568, -0.3466675281524658, -0.34069234132766724, -0.3378121852874756, -0.3439052402973175, -0.3550821542739868, -0.36820119619369507, -0.37610524892807007, -0.3717088997364044, -0.3704770803451538, -0.38733088970184326, -0.40718257427215576, -0.42027828097343445, -0.423470139503479, -0.42054304480552673, -0.41568782925605774, -0.40982741117477417, -0.40404608845710754, -0.3950628936290741, -0.3791262209415436, -0.3613366186618805, -0.344367653131485, -0.33100590109825134, -0.31880974769592285, -0.30096039175987244, -0.28194350004196167, -0.26795223355293274, -0.25885093212127686, -0.23742538690567017, -0.20240148901939392, -0.17364530265331268, -0.16052240133285522, -0.14347004890441895, -0.10909102112054825, -0.07143039256334305, -0.04307522997260094, -0.00951567105948925, 0.03571133315563202, 0.07846643030643463, 0.1341892033815384, 0.19776426255702972, 0.26624614000320435, 0.3402926027774811, 0.41662320494651794, 0.4836350381374359, 0.5444797873497009, 0.5928508043289185, 0.646291971206665, 0.7140558958053589, 0.7261300683021545, 0.7399800419807434, 0.7344390153884888]
