4.154429912567139 CrossValid 1010.2412719726562 CrossValidLossesBy500 1022.9532470703125 1013.5886840820312 1011.60888671875 1010.8778686523438 1010.561767578125 1010.4255981445312 1010.3478393554688 1010.3080444335938 1010.2861938476562 1010.29443359375 1010.2877197265625 1010.2794799804688 1010.271240234375 1010.2699584960938 1010.2667846679688 1010.2648315429688 1010.2581787109375 1010.2500610351562 1010.2529296875 1010.2532348632812 1010.258056640625 1010.2559204101562 1010.2412719726562
11500 LossesBy500 4.174406051635742 4.1595282554626465 4.156399250030518 4.155337333679199 4.15492582321167 4.154752254486084 4.1546430587768555 4.154577732086182 4.154524326324463 4.154541492462158 4.154512405395508 4.154515266418457 4.15450382232666 4.154507637023926 4.154483795166016 4.154508113861084 4.154488563537598 4.154450416564941 4.15446662902832 4.154466152191162 4.154489994049072 4.154478073120117 4.154429912567139
sigma2_stimulus 	 [0.0]
log_motor_var 	 [5.510799884796143]
sigma_logit 	 [-3.0, 0.6026613712310791, -1.5308547019958496, -3.3188066482543945, -3.657792091369629, -3.94966983795166]
mixture_logit 	 [-2.963548183441162]
prior 	 [0.0, 0.0, 0.0, 0.0, 0.0, 0.0, 0.0, 0.0, 0.0, 0.0, 0.0, 0.0, 0.0, 0.0, 0.0, 0.0, 0.0, 0.0, 0.0, 0.0, 0.0, 0.0, 0.0, 0.0, 0.0, 0.0, 0.0, 0.0, 0.0, 0.0, 0.0, 0.0, 0.0, 0.0, 0.0, 0.0, 0.0, 0.0, 0.0, 0.0, 0.0, 0.0, 0.0, 0.0, 0.0, 0.0, 0.0, 0.0, 0.0, 0.0, 0.0, 0.0, 0.0, 0.0, 0.0, 0.0, 0.0, 0.0, 0.0, 0.0, 0.0, 0.0, 0.0, 0.0, 0.0, 0.0, 0.0, 0.0, 0.0, 0.0, 0.0, 0.0, 0.0, 0.0, 0.0, 0.0, 0.0, 0.0, 0.0, 0.0, 0.0, 0.0, 0.0, 0.0, 0.0, 0.0, 0.0, 0.0, 0.0, 0.0, 0.0, 0.0, 0.0, 0.0, 0.0, 0.0, 0.0, 0.0, 0.0, 0.0, 0.0, 0.0, 0.0, 0.0, 0.0, 0.0, 0.0, 0.0, 0.0, 0.0, 0.0, 0.0, 0.0, 0.0, 0.0, 0.0, 0.0, 0.0, 0.0, 0.0, 0.0, 0.0, 0.0, 0.0, 0.0, 0.0, 0.0, 0.0, 0.0, 0.0, 0.0, 0.0, 0.0, 0.0, 0.0, 0.0, 0.0, 0.0, 0.0, 0.0, 0.0, 0.0, 0.0, 0.0, 0.0, 0.0, 0.0, 0.0, 0.0, 0.0, 0.0, 0.0, 0.0, 0.0, 0.0, 0.0, 0.0, 0.0, 0.0, 0.0, 0.0, 0.0, 0.0, 0.0, 0.0, 0.0, 0.0, 0.0, 0.0, 0.0, 0.0, 0.0, 0.0, 0.0, 0.0, 0.0, 0.0, 0.0, 0.0, 0.0]
volume 	 [0.7002227306365967, 0.6754781603813171, 0.6311483979225159, 0.5730607509613037, 0.5108751654624939, 0.4467613697052002, 0.3866913914680481, 0.32726994156837463, 0.2660863399505615, 0.2018292099237442, 0.13395540416240692, 0.06524801254272461, -0.00047392427222803235, -0.05762644112110138, -0.10737792402505875, -0.14641568064689636, -0.17774765193462372, -0.20016251504421234, -0.21700073778629303, -0.22875934839248657, -0.23822322487831116, -0.2459431141614914, -0.25328028202056885, -0.26146405935287476, -0.2694409191608429, -0.2746538817882538, -0.27525877952575684, -0.2720628082752228, -0.2674233913421631, -0.26374128460884094, -0.26094159483909607, -0.25783857703208923, -0.2520570456981659, -0.2410537302494049, -0.22365140914916992, -0.19888930022716522, -0.17261414229869843, -0.1507151871919632, -0.1356971114873886, -0.12654362618923187, -0.12279856950044632, -0.12171617150306702, -0.12381836026906967, -0.12665951251983643, -0.12870626151561737, -0.12814359366893768, -0.12596522271633148, -0.12621508538722992, -0.13208195567131042, -0.1419685333967209, -0.15480633080005646, -0.1699753999710083, -0.18609751760959625, -0.20368151366710663, -0.2228662669658661, -0.24129898846149445, -0.255256712436676, -0.2644572854042053, -0.2709639072418213, -0.2767829895019531, -0.2826406955718994, -0.28717589378356934, -0.28830063343048096, -0.2843976318836212, -0.27254247665405273, -0.2521871328353882, -0.22625093162059784, -0.19690029323101044, -0.16506823897361755, -0.13256312906742096, -0.1037721261382103, -0.07761356234550476, -0.05188841000199318, -0.02095046639442444, 0.018535617738962173, 0.06722521036863327, 0.12472417205572128, 0.1873161494731903, 0.2474147081375122, 0.3033723533153534, 0.35362085700035095, 0.401911199092865, 0.45156922936439514, 0.5018601417541504, 0.5530979633331299, 0.5959055423736572, 0.6219749450683594, 0.6357446908950806, 0.636326253414154, 0.6246229410171509, 0.6131576895713806, 0.6009090542793274, 0.5853123664855957, 0.5669390559196472, 0.5478739738464355, 0.5258908867835999, 0.501778781414032, 0.4691084921360016, 0.4248359203338623, 0.3698095679283142, 0.3077964186668396, 0.24487833678722382, 0.185542494058609, 0.12924881279468536, 0.07682907581329346, 0.02853231318295002, -0.009854866191744804, -0.04132961109280586, -0.06633969396352768, -0.0898878276348114, -0.11156021058559418, -0.13268308341503143, -0.15247362852096558, -0.16757220029830933, -0.17897741496562958, -0.18537093698978424, -0.18587295711040497, -0.1843593716621399, -0.18271727859973907, -0.1812230944633484, -0.1791195124387741, -0.1748974323272705, -0.16872277855873108, -0.16080640256404877, -0.1554154008626938, -0.15486378967761993, -0.15767614543437958, -0.16216467320919037, -0.16551494598388672, -0.166783407330513, -0.16790476441383362, -0.1720094084739685, -0.17857596278190613, -0.18891899287700653, -0.20018847286701202, -0.2118818312883377, -0.22338639199733734, -0.2346341758966446, -0.24852298200130463, -0.26342567801475525, -0.27706924080848694, -0.2861268222332001, -0.2891862690448761, -0.28786608576774597, -0.283635675907135, -0.277851939201355, -0.2709008455276489, -0.26218393445014954, -0.2531600594520569, -0.24463273584842682, -0.23804520070552826, -0.2321905791759491, -0.22714808583259583, -0.22461871802806854, -0.2263777256011963, -0.22990411520004272, -0.23123770952224731, -0.22869527339935303, -0.22093671560287476, -0.20892523229122162, -0.19210928678512573, -0.1705179065465927, -0.1427077054977417, -0.10705104470252991, -0.06382016837596893, -0.013919771648943424, 0.04156653955578804, 0.10098033398389816, 0.16527391970157623, 0.23425443470478058, 0.30047446489334106, 0.3608331084251404, 0.4144335091114044, 0.464550256729126, 0.5152431726455688, 0.5675858855247498, 0.6158551573753357, 0.6576941609382629, 0.6830360889434814, 0.6959245204925537]
