4.122155666351318 CrossValid 939.8958740234375 CrossValidLossesBy500 943.6646118164062 937.9214477539062 937.9234008789062 938.169189453125 938.3812255859375 938.5431518554688 938.6419677734375 938.7406005859375 938.8359985351562 938.9078369140625 938.96923828125 938.970947265625 938.971923828125 939.2140502929688 939.5377807617188 939.836181640625 940.079833984375 940.1986694335938 940.0895385742188 940.0593872070312 939.8958740234375
10500 LossesBy500 4.154919147491455 4.129660606384277 4.126327037811279 4.125067710876465 4.124381065368652 4.123948097229004 4.123706340789795 4.123549461364746 4.123198986053467 4.122995376586914 4.123083591461182 4.12305212020874 4.122760772705078 4.122649192810059 4.122445106506348 4.122334957122803 4.122377395629883 4.122519016265869 4.122358322143555 4.122198581695557 4.122155666351318
sigma2_stimulus 	 [0.0]
log_motor_var 	 [6.743699073791504]
sigma_logit 	 [-3.0, 0.6731236577033997, -1.5951292514801025, -3.192584753036499, -3.566112995147705, -4.119073867797852]
mixture_logit 	 [-3.037529230117798]
prior 	 [0.0, 0.0, 0.0, 0.0, 0.0, 0.0, 0.0, 0.0, 0.0, 0.0, 0.0, 0.0, 0.0, 0.0, 0.0, 0.0, 0.0, 0.0, 0.0, 0.0, 0.0, 0.0, 0.0, 0.0, 0.0, 0.0, 0.0, 0.0, 0.0, 0.0, 0.0, 0.0, 0.0, 0.0, 0.0, 0.0, 0.0, 0.0, 0.0, 0.0, 0.0, 0.0, 0.0, 0.0, 0.0, 0.0, 0.0, 0.0, 0.0, 0.0, 0.0, 0.0, 0.0, 0.0, 0.0, 0.0, 0.0, 0.0, 0.0, 0.0, 0.0, 0.0, 0.0, 0.0, 0.0, 0.0, 0.0, 0.0, 0.0, 0.0, 0.0, 0.0, 0.0, 0.0, 0.0, 0.0, 0.0, 0.0, 0.0, 0.0, 0.0, 0.0, 0.0, 0.0, 0.0, 0.0, 0.0, 0.0, 0.0, 0.0, 0.0, 0.0, 0.0, 0.0, 0.0, 0.0, 0.0, 0.0, 0.0, 0.0, 0.0, 0.0, 0.0, 0.0, 0.0, 0.0, 0.0, 0.0, 0.0, 0.0, 0.0, 0.0, 0.0, 0.0, 0.0, 0.0, 0.0, 0.0, 0.0, 0.0, 0.0, 0.0, 0.0, 0.0, 0.0, 0.0, 0.0, 0.0, 0.0, 0.0, 0.0, 0.0, 0.0, 0.0, 0.0, 0.0, 0.0, 0.0, 0.0, 0.0, 0.0, 0.0, 0.0, 0.0, 0.0, 0.0, 0.0, 0.0, 0.0, 0.0, 0.0, 0.0, 0.0, 0.0, 0.0, 0.0, 0.0, 0.0, 0.0, 0.0, 0.0, 0.0, 0.0, 0.0, 0.0, 0.0, 0.0, 0.0, 0.0, 0.0, 0.0, 0.0, 0.0, 0.0, 0.0, 0.0, 0.0, 0.0, 0.0, 0.0]
volume 	 [0.7724733948707581, 0.7597669363021851, 0.7191144824028015, 0.6699062585830688, 0.6184465289115906, 0.563068687915802, 0.5067085027694702, 0.4480748474597931, 0.3870956599712372, 0.32014697790145874, 0.24239233136177063, 0.1638224720954895, 0.09475673735141754, 0.039483800530433655, -0.014366974122822285, -0.07001853734254837, -0.11660552769899368, -0.14269529283046722, -0.15815427899360657, -0.17583376169204712, -0.20282891392707825, -0.2315162569284439, -0.2583521902561188, -0.28207075595855713, -0.29589590430259705, -0.2989688813686371, -0.30350300669670105, -0.31443241238594055, -0.3211595118045807, -0.31671571731567383, -0.30555009841918945, -0.29736337065696716, -0.29184553027153015, -0.28189656138420105, -0.2677895128726959, -0.24988621473312378, -0.231819748878479, -0.21703097224235535, -0.20925678312778473, -0.20832215249538422, -0.2103354036808014, -0.21081312000751495, -0.21387581527233124, -0.2211485207080841, -0.2263175994157791, -0.2214994579553604, -0.20454010367393494, -0.1866931915283203, -0.18261867761611938, -0.18967404961585999, -0.20176561176776886, -0.2160077691078186, -0.22932997345924377, -0.24300268292427063, -0.25897204875946045, -0.27457472681999207, -0.2890605926513672, -0.30307266116142273, -0.31016579270362854, -0.30683863162994385, -0.3014455735683441, -0.2975514233112335, -0.2907502353191376, -0.2870014011859894, -0.28804999589920044, -0.2806863486766815, -0.2603056728839874, -0.23005568981170654, -0.19432267546653748, -0.15625031292438507, -0.11271383613348007, -0.05831091105937958, -0.00686747208237648, 0.02942388877272606, 0.05919652059674263, 0.10349291563034058, 0.16697484254837036, 0.23781819641590118, 0.30309122800827026, 0.3668301999568939, 0.4280672073364258, 0.47235170006752014, 0.5061982274055481, 0.5537333488464355, 0.6003379225730896, 0.6586795449256897, 0.6982171535491943, 0.7214127779006958, 0.7176206111907959, 0.6886979341506958, 0.6692460775375366, 0.6577579975128174, 0.6649612188339233, 0.6657049059867859, 0.6486819982528687, 0.6255378127098083, 0.5835229158401489, 0.5329459309577942, 0.47486481070518494, 0.40753990411758423, 0.3444853723049164, 0.28179314732551575, 0.21996890008449554, 0.16174986958503723, 0.10778540372848511, 0.058146990835666656, 0.018485575914382935, -0.01501366589218378, -0.04401565343141556, -0.07104644179344177, -0.09336445480585098, -0.10773271322250366, -0.11316274851560593, -0.11227896809577942, -0.11802680045366287, -0.13888095319271088, -0.16303345561027527, -0.18339170515537262, -0.19671469926834106, -0.2064446359872818, -0.21583247184753418, -0.22554709017276764, -0.23861901462078094, -0.25486424565315247, -0.27198827266693115, -0.28967729210853577, -0.3029369115829468, -0.3049895465373993, -0.3006082773208618, -0.29673945903778076, -0.28949984908103943, -0.28098759055137634, -0.28121092915534973, -0.29403549432754517, -0.30845269560813904, -0.313927561044693, -0.30934542417526245, -0.30829641222953796, -0.3212636709213257, -0.3381953835487366, -0.34942150115966797, -0.35367774963378906, -0.3537462055683136, -0.3517001271247864, -0.3459506928920746, -0.33624032139778137, -0.32423484325408936, -0.3124569356441498, -0.30332595109939575, -0.29680901765823364, -0.29002851247787476, -0.2782033681869507, -0.26300784945487976, -0.24602803587913513, -0.22475142776966095, -0.20462922751903534, -0.1951531320810318, -0.1908472627401352, -0.1787596195936203, -0.15854501724243164, -0.13370497524738312, -0.10822278261184692, -0.08660230040550232, -0.06555808335542679, -0.03520987555384636, 0.007161077111959457, 0.0566754974424839, 0.11106706410646439, 0.1763351857662201, 0.24991489946842194, 0.31879469752311707, 0.3755837678909302, 0.42905330657958984, 0.4772966504096985, 0.5119338035583496, 0.5734519362449646, 0.6381340622901917, 0.6806976795196533, 0.729257345199585, 0.7495007514953613]
