4.073771953582764 CrossValid 1049.3739013671875 CrossValidLossesBy500 1089.881591796875 1062.812744140625 1055.776611328125 1053.0828857421875 1051.7255859375 1050.88037109375 1050.3944091796875 1050.405029296875 1050.2216796875 1050.289794921875 1049.8533935546875 1049.8900146484375 1049.57861328125 1049.8731689453125 1049.9364013671875 1050.139892578125 1049.3057861328125 1049.20458984375 1049.203369140625 1049.2647705078125 1049.3739013671875
10500 LossesBy500 4.182343482971191 4.1106672286987305 4.095111846923828 4.089662551879883 4.086610794067383 4.084205627441406 4.082178592681885 4.078835964202881 4.077488422393799 4.075956344604492 4.076728343963623 4.075538635253906 4.075814247131348 4.074690341949463 4.074481010437012 4.074578285217285 4.0748677253723145 4.074268817901611 4.074263095855713 4.074272155761719 4.073771953582764
sigma2_stimulus 	 [0.0]
log_motor_var 	 [7.195242404937744]
sigma_logit 	 [-3.0, -0.33738720417022705, -1.7106879949569702, -3.1187868118286133, -3.6008100509643555, -4.118608474731445]
mixture_logit 	 [-2.987412691116333]
prior 	 [0.2680808901786804, 0.27940452098846436, 0.2751302719116211, 0.25538793206214905, 0.24052947759628296, 0.22931042313575745, 0.21708843111991882, 0.19900710880756378, 0.18019306659698486, 0.1675257384777069, 0.16948074102401733, 0.17941243946552277, 0.19396860897541046, 0.20090556144714355, 0.19669759273529053, 0.1948740929365158, 0.1929708868265152, 0.19410361349582672, 0.19894753396511078, 0.19602763652801514, 0.1821584552526474, 0.16511842608451843, 0.15409855544567108, 0.1412622481584549, 0.12399351596832275, 0.10251002013683319, 0.08038308471441269, 0.058876167982816696, 0.04002801701426506, 0.025663325563073158, 0.008214239962399006, -0.014071444049477577, -0.03508669510483742, -0.05395641550421715, -0.07821840792894363, -0.1062011569738388, -0.1281324326992035, -0.14243832230567932, -0.14946284890174866, -0.1497838795185089, -0.14945463836193085, -0.15228763222694397, -0.15657661855220795, -0.1636553704738617, -0.1774439662694931, -0.192514568567276, -0.1971241533756256, -0.188400536775589, -0.17326830327510834, -0.16026009619235992, -0.15176063776016235, -0.14426890015602112, -0.13818520307540894, -0.13248354196548462, -0.12064185738563538, -0.10005812346935272, -0.0770326629281044, -0.05882813781499863, -0.046646684408187866, -0.0351421944797039, -0.019541941583156586, -0.0016050842823460698, 0.013211756013333797, 0.027875954285264015, 0.04357876256108284, 0.046148307621479034, 0.04026683792471886, 0.04107079282402992, 0.047892358154058456, 0.05218266695737839, 0.051539018750190735, 0.05598590523004532, 0.06867881119251251, 0.08332608640193939, 0.09369775652885437, 0.09722397476434708, 0.09888381510972977, 0.09372294694185257, 0.07919701933860779, 0.05397208034992218, 0.02096361108124256, -0.007440432906150818, -0.031071575358510017, -0.055006686598062515, -0.06827469915151596, -0.07552479952573776, -0.0756782740354538, -0.06388718634843826, -0.04570651799440384, -0.020952103659510612, 0.0032343862112611532, 0.025433868169784546, 0.05333029106259346, 0.08370987325906754, 0.10649461299180984, 0.11540255695581436, 0.11798868328332901, 0.12037534266710281, 0.1221451535820961, 0.12667138874530792, 0.12950490415096283, 0.12310218811035156, 0.1096002534031868, 0.09404582530260086, 0.08692431449890137, 0.08334885537624359, 0.08072555065155029, 0.0762898325920105, 0.06955286860466003, 0.05818503722548485, 0.048507481813430786, 0.049676403403282166, 0.054211124777793884, 0.052084989845752716, 0.045721933245658875, 0.037632402032613754, 0.024502841755747795, 0.00159365008585155, -0.024186914786696434, -0.04160301759839058, -0.054316744208335876, -0.07097506523132324, -0.09349669516086578, -0.12482394278049469, -0.15857140719890594, -0.18685293197631836, -0.20941859483718872, -0.22856326401233673, -0.24486400187015533, -0.2580249309539795, -0.26961538195610046, -0.2797122895717621, -0.2859055697917938, -0.2873806655406952, -0.2856559753417969, -0.2816791534423828, -0.2784026563167572, -0.2796024680137634, -0.28635162115097046, -0.2949662506580353, -0.29959946870803833, -0.2981170117855072, -0.28907451033592224, -0.2713620364665985, -0.24826444685459137, -0.2235567271709442, -0.19805358350276947, -0.17155906558036804, -0.14467892050743103, -0.11787090450525284, -0.0903572291135788, -0.06422225385904312, -0.04563560709357262, -0.03178481012582779, -0.01255058404058218, 0.011766957119107246, 0.03136847913265228, 0.05010395869612694, 0.07560181617736816, 0.0989031195640564, 0.10972677171230316, 0.10848784446716309, 0.10554703325033188, 0.10204696655273438, 0.08900308609008789, 0.0712309181690216, 0.06805046647787094, 0.0773058757185936, 0.09229891747236252, 0.0985119417309761, 0.09316869080066681, 0.09007076174020767, 0.09042024612426758, 0.08843149244785309, 0.09550579637289047, 0.1177024096250534, 0.15333490073680878, 0.18149152398109436, 0.2094649076461792, 0.23941509425640106]
volume 	 [0.9610559940338135, 0.9112789630889893, 0.8891719579696655, 0.8746269345283508, 0.8360825181007385, 0.7858510613441467, 0.7220831513404846, 0.664618968963623, 0.5861669182777405, 0.4977104961872101, 0.40767377614974976, 0.32076865434646606, 0.2550910711288452, 0.19659551978111267, 0.13028456270694733, 0.06471762806177139, 0.0008106825407594442, -0.04915987327694893, -0.0877087190747261, -0.12058323621749878, -0.15662822127342224, -0.20021265745162964, -0.2377328872680664, -0.26118212938308716, -0.27842390537261963, -0.29555076360702515, -0.3083355724811554, -0.31333139538764954, -0.3206062316894531, -0.33698561787605286, -0.35297146439552307, -0.36572375893592834, -0.37165114283561707, -0.367227703332901, -0.36483684182167053, -0.3672042489051819, -0.3701249361038208, -0.3767404556274414, -0.38978835940361023, -0.4016939103603363, -0.4083719551563263, -0.4132518768310547, -0.42275282740592957, -0.4328373968601227, -0.43862825632095337, -0.44430312514305115, -0.44863057136535645, -0.44753119349479675, -0.4409220814704895, -0.43026530742645264, -0.4220566749572754, -0.4198252558708191, -0.4241112470626831, -0.4290964901447296, -0.4326525628566742, -0.4358494281768799, -0.43535637855529785, -0.4308941662311554, -0.4257853329181671, -0.41873735189437866, -0.4043826758861542, -0.3771829307079315, -0.3372971713542938, -0.29839378595352173, -0.26851966977119446, -0.24382127821445465, -0.21957522630691528, -0.19956180453300476, -0.18383625149726868, -0.1615503877401352, -0.12568414211273193, -0.0777231827378273, -0.02581263706088066, 0.03577757626771927, 0.10948970913887024, 0.18139782547950745, 0.24524225294589996, 0.304360568523407, 0.3651542365550995, 0.44586819410324097, 0.5401560664176941, 0.6134912371635437, 0.698110044002533, 0.7898375391960144, 0.8882054686546326, 0.9674032926559448, 1.002044439315796, 0.9748618602752686, 0.9691282510757446, 0.959940493106842, 0.9613263607025146, 0.9247723817825317, 0.8981887698173523, 0.8365716934204102, 0.8093913793563843, 0.7647675275802612, 0.7138826847076416, 0.6525154113769531, 0.5714935064315796, 0.49598509073257446, 0.4219650328159332, 0.33287838101387024, 0.24868373572826385, 0.1718410849571228, 0.11851628869771957, 0.07730964571237564, 0.04015537351369858, 0.018351823091506958, -0.005193142220377922, -0.03270513191819191, -0.053171396255493164, -0.06445059925317764, -0.0789446085691452, -0.09513488411903381, -0.12208279967308044, -0.15694159269332886, -0.18320636451244354, -0.20244677364826202, -0.21986129879951477, -0.24743957817554474, -0.28192955255508423, -0.3117397427558899, -0.337738573551178, -0.36284294724464417, -0.38382866978645325, -0.39923951029777527, -0.4171617031097412, -0.43943601846694946, -0.4626428186893463, -0.48764559626579285, -0.5130767226219177, -0.5332179069519043, -0.5470533967018127, -0.5604591369628906, -0.5720090866088867, -0.5801765322685242, -0.5892993211746216, -0.6043168306350708, -0.6227194666862488, -0.6358212232589722, -0.639083743095398, -0.6347489356994629, -0.6248862743377686, -0.6091156005859375, -0.5900399088859558, -0.5732526779174805, -0.5570498704910278, -0.5327962636947632, -0.4962042570114136, -0.45201224088668823, -0.41144880652427673, -0.37967002391815186, -0.3507208824157715, -0.31652259826660156, -0.2820258140563965, -0.24500638246536255, -0.1998375803232193, -0.15413035452365875, -0.11418353021144867, -0.07941961288452148, -0.034142185002565384, 0.02809685654938221, 0.08153487741947174, 0.10708818584680557, 0.13151653110980988, 0.17616595327854156, 0.22059845924377441, 0.27352607250213623, 0.34710702300071716, 0.40448230504989624, 0.4569036662578583, 0.5451723337173462, 0.6081284284591675, 0.6628711223602295, 0.7387515902519226, 0.8088975548744202, 0.8870453238487244, 0.9352860450744629, 0.9697263836860657, 0.9632930159568787]
