4.384949207305908 CrossValid 1019.5888061523438 CrossValidLossesBy500 1038.22900390625 1032.791259765625 1029.052490234375 1026.110107421875 1023.8250732421875 1022.0321044921875 1020.5782470703125 1019.3831176757812 1018.3858642578125 1017.4996337890625 1016.7220458984375 1016.0247192382812 1015.3925170898438 1014.8377685546875 1014.347412109375 1013.9342041015625 1013.544677734375 1013.1854858398438 1012.9024047851562 1012.6333618164062 1012.40869140625 1012.2357177734375 1012.1261596679688 1012.020751953125 1012.0439453125 1012.0848999023438 1012.2316284179688 1012.4735107421875 1012.7329711914062 1013.62646484375 1014.3203125 1014.9769287109375 1015.03857421875 1015.4030151367188 1015.5358276367188 1015.5867919921875 1015.989990234375 1018.4417724609375 1017.4203491210938 1018.7996826171875 1017.8380737304688 1018.4125366210938 1018.260009765625 1019.1904296875 1023.128662109375 1019.1141967773438 1019.389892578125 1019.42529296875 1019.8768920898438 1020.5751953125 1019.7041015625 1019.9637451171875 1018.97412109375 1019.1099243164062 1019.8848266601562 1019.5888061523438
28000 LossesBy500 4.530402660369873 4.5028157234191895 4.483775615692139 4.4698076248168945 4.459484100341797 4.451674938201904 4.445562839508057 4.440702438354492 4.436788558959961 4.433431148529053 4.43058443069458 4.42812442779541 4.425934314727783 4.423975944519043 4.4222564697265625 4.420802116394043 4.41934871673584 4.418018341064453 4.416849136352539 4.415604591369629 4.414674758911133 4.413451671600342 4.4124531745910645 4.411382675170898 4.41001033782959 4.408613204956055 4.407072067260742 4.405704975128174 4.4044342041015625 4.401768207550049 4.39979362487793 4.396541595458984 4.3966169357299805 4.396456241607666 4.396238803863525 4.396421432495117 4.395140647888184 4.390103340148926 4.390898704528809 4.38908052444458 4.3898115158081055 4.388450622558594 4.3890700340271 4.387488842010498 4.393021583557129 4.387122631072998 4.386692523956299 4.3863372802734375 4.386096954345703 4.386761665344238 4.38548469543457 4.385476589202881 4.385902404785156 4.3857011795043945 4.385327339172363 4.384949207305908
sigma2_stimulus 	 [0.0]
log_motor_var 	 [7.550426959991455]
sigma_logit 	 [-3.0, -0.13500216603279114, -1.7465206384658813, -3.0345470905303955, -3.334968090057373, -3.933173656463623]
mixture_logit 	 [-2.7310614585876465]
prior 	 [-0.8992241621017456, -0.762658417224884, -0.8036125898361206, -0.8764932155609131, -0.9149516820907593, -0.9338223338127136, -1.0341616868972778, -1.156876564025879, -1.212714672088623, -1.1602246761322021, -1.0337915420532227, -0.9185130000114441, -0.7657024264335632, -0.5503404140472412, -0.36781907081604004, -0.11108899861574173, 0.20614087581634521, 0.06323234736919403, 0.15974107384681702, 0.30628401041030884, 0.21417076885700226, 0.3914627730846405, 0.09710528701543808, 1.021324634552002, 1.0854440927505493, 0.9706141948699951, 0.7680085897445679, 1.0499341487884521, 0.9389393329620361, 0.06812852621078491, 0.30629199743270874, 0.9424495697021484, 0.6279224753379822, 0.5836702585220337, 0.8071984052658081, 0.5084745287895203, 0.7853649258613586, 0.7071521878242493, 1.1293907165527344, 0.019532732665538788, 0.9050795435905457, 0.10056476294994354, -0.06608633697032928, 0.8734028339385986, 1.2129619121551514, -0.30007585883140564, -0.45868396759033203, 0.5491009950637817, 0.9862388372421265, 0.7883154153823853, 0.6228610873222351, 0.8372675776481628, 0.6086159944534302, 0.6828972697257996, 0.5276393890380859, 0.9681809544563293, 0.10481491684913635, 1.269399642944336, 0.34037089347839355, 0.7616007924079895, 0.6789053678512573, 0.3978520631790161, 0.6138290762901306, 0.7280536890029907, 1.0366685390472412, 0.5850834846496582, 1.354736089706421, 0.8100290298461914, 0.12382509559392929, 0.43804192543029785, 0.48961716890335083, -0.14798575639724731, -0.34686243534088135, -0.27899354696273804, -0.21912722289562225, -0.4045427143573761, -0.7892202138900757, -0.9164077043533325, -0.8711138963699341, -0.871967077255249, -1.0414392948150635, -1.1788240671157837, -1.251344084739685, -1.2983005046844482, -1.3509697914123535, -1.3911720514297485, -1.4013012647628784, -1.4123990535736084, -1.5045151710510254, -1.6649274826049805, -1.711559534072876, -1.7868144512176514, -1.7705069780349731, -1.722270131111145, -1.6767525672912598, -1.6459976434707642, -1.5748730897903442, -1.4141271114349365, -1.2111930847167969, -0.9968263506889343, -0.7809134125709534, -0.544245719909668, -0.3609491288661957, -0.5235845446586609, -0.6695073843002319, -0.6561296582221985, -0.5815808773040771, -0.4242780804634094, -0.11390741914510727, 0.07597628980875015, 0.03132336959242821, -0.08944692462682724, 0.23885422945022583, 0.9215076565742493, 1.238407015800476, 0.14533184468746185, 0.881356418132782, 1.0690803527832031, 0.4680269956588745, 1.181976079940796, 0.6351540684700012, 1.0407483577728271, 0.3322451114654541, 0.6289938688278198, 1.3826465606689453, 0.14608082175254822, 1.0991865396499634, 0.8263866901397705, 0.6634942293167114, 0.4984137713909149, 0.5934092998504639, 0.2524791955947876, 0.67669677734375, 0.5056390166282654, 0.474098265171051, 0.5297791361808777, 1.0908619165420532, 0.047480612993240356, 0.27563896775245667, 0.5493875741958618, 0.6488068103790283, 0.622999370098114, 0.3474014401435852, 0.9587457180023193, 0.2507002055644989, 1.083061933517456, 0.4585168659687042, 0.43792855739593506, 1.1108206510543823, 0.5885391235351562, 1.4688725471496582, 0.8689344525337219, 1.4703564643859863, 0.08966297656297684, -0.14119623601436615, 0.7540484666824341, 1.2248492240905762, 0.6802707314491272, 0.6151407361030579, 0.9758400321006775, 0.24255560338497162, -0.12596046924591064, -0.04458091780543327, -0.03553050383925438, -0.1415550261735916, -0.22378657758235931, -0.2624574601650238, -0.18866300582885742, -0.1911393254995346, -0.32364219427108765, -0.6463250517845154, -0.9031806588172913, -1.031219482421875, -1.210536003112793, -1.414953351020813, -1.5234543085098267, -1.498782753944397, -1.3832134008407593, -1.2339767217636108, -1.1047327518463135]
volume 	 [0.0, 0.0, 0.0, 0.0, 0.0, 0.0, 0.0, 0.0, 0.0, 0.0, 0.0, 0.0, 0.0, 0.0, 0.0, 0.0, 0.0, 0.0, 0.0, 0.0, 0.0, 0.0, 0.0, 0.0, 0.0, 0.0, 0.0, 0.0, 0.0, 0.0, 0.0, 0.0, 0.0, 0.0, 0.0, 0.0, 0.0, 0.0, 0.0, 0.0, 0.0, 0.0, 0.0, 0.0, 0.0, 0.0, 0.0, 0.0, 0.0, 0.0, 0.0, 0.0, 0.0, 0.0, 0.0, 0.0, 0.0, 0.0, 0.0, 0.0, 0.0, 0.0, 0.0, 0.0, 0.0, 0.0, 0.0, 0.0, 0.0, 0.0, 0.0, 0.0, 0.0, 0.0, 0.0, 0.0, 0.0, 0.0, 0.0, 0.0, 0.0, 0.0, 0.0, 0.0, 0.0, 0.0, 0.0, 0.0, 0.0, 0.0, 0.0, 0.0, 0.0, 0.0, 0.0, 0.0, 0.0, 0.0, 0.0, 0.0, 0.0, 0.0, 0.0, 0.0, 0.0, 0.0, 0.0, 0.0, 0.0, 0.0, 0.0, 0.0, 0.0, 0.0, 0.0, 0.0, 0.0, 0.0, 0.0, 0.0, 0.0, 0.0, 0.0, 0.0, 0.0, 0.0, 0.0, 0.0, 0.0, 0.0, 0.0, 0.0, 0.0, 0.0, 0.0, 0.0, 0.0, 0.0, 0.0, 0.0, 0.0, 0.0, 0.0, 0.0, 0.0, 0.0, 0.0, 0.0, 0.0, 0.0, 0.0, 0.0, 0.0, 0.0, 0.0, 0.0, 0.0, 0.0, 0.0, 0.0, 0.0, 0.0, 0.0, 0.0, 0.0, 0.0, 0.0, 0.0, 0.0, 0.0, 0.0, 0.0, 0.0, 0.0, 0.0, 0.0, 0.0, 0.0, 0.0, 0.0]
