4.08892297744751 CrossValid 1009.1044921875 CrossValidLossesBy500 1028.53955078125 1026.812744140625 1026.2554931640625 1025.7579345703125 1025.23681640625 1024.6998291015625 1024.218505859375 1019.6312255859375 1023.4854736328125 1023.0537719726562 1022.8054809570312 1022.5387573242188 1015.6665649414062 1022.15380859375 1022.0421142578125 1014.0944213867188 1013.6497802734375 1013.2533569335938 1012.8629150390625 1012.4953002929688 1012.1488647460938 1011.804443359375 1011.4961547851562 1021.541748046875 1010.9465942382812 1010.7821655273438 1010.486083984375 1010.3831176757812 1010.194580078125 1009.98681640625 1009.7954711914062 1009.6160278320312 1009.4622802734375 1009.3180541992188 1009.2191162109375 1009.1044921875
18000 LossesBy500 4.180206298828125 4.164594650268555 4.156650066375732 4.151630401611328 4.147868633270264 4.144595146179199 4.142544269561768 4.127677917480469 4.138726711273193 4.133419513702393 4.13192892074585 4.1308794021606445 4.108314514160156 4.129344940185547 4.128773212432861 4.101652145385742 4.100155830383301 4.099413871765137 4.097445487976074 4.096414566040039 4.09467077255249 4.0940375328063965 4.093180179595947 4.127173900604248 4.091506481170654 4.090206146240234 4.090322017669678 4.0891432762146 4.089106559753418 4.089003086090088 4.088964462280273 4.088967800140381 4.088932037353516 4.088938236236572 4.089010238647461 4.08892297744751
sigma2_stimulus 	 [0.0]
log_motor_var 	 [5.546802520751953]
sigma_logit 	 [-3.0, 0.6804421544075012, -1.482986330986023, -3.351675271987915, -3.6665239334106445, -3.976849317550659]
mixture_logit 	 [-3.0910098552703857]
prior 	 [1.2444491386413574, 1.2262539863586426, 1.1840265989303589, 1.1270344257354736, 1.0633004903793335, 0.996142566204071, 0.9288158416748047, 0.8608395457267761, 0.7897342443466187, 0.714841365814209, 0.6377434134483337, 0.5607661604881287, 0.4841141104698181, 0.4065266251564026, 0.32849225401878357, 0.25276750326156616, 0.18202374875545502, 0.11708586663007736, 0.056883931159973145, -0.0007708314224146307, -0.05805991590023041, -0.11587272584438324, -0.17320121824741364, -0.22784510254859924, -0.27788737416267395, -0.322773277759552, -0.3632905185222626, -0.40066593885421753, -0.4356088638305664, -0.46796274185180664, -0.4970863163471222, -0.5223931670188904, -0.5436694622039795, -0.5611417889595032, -0.575567364692688, -0.5883876085281372, -0.6013556122779846, -0.6154622435569763, -0.6300586462020874, -0.6431726813316345, -0.6526036858558655, -0.6569214463233948, -0.6560564637184143, -0.6515734791755676, -0.6460193991661072, -0.6411496996879578, -0.6364468932151794, -0.6298079490661621, -0.6197435259819031, -0.6067189574241638, -0.5924636721611023, -0.5785983204841614, -0.565967321395874, -0.5545531511306763, -0.5435014367103577, -0.5314378142356873, -0.517116367816925, -0.4999126195907593, -0.4798257350921631, -0.4571916162967682, -0.4324045777320862, -0.4057876467704773, -0.3774407207965851, -0.34689822793006897, -0.3129160404205322, -0.2740840017795563, -0.2300761491060257, -0.18209680914878845, -0.13181063532829285, -0.07983240485191345, -0.02536696009337902, 0.032760269939899445, 0.09471932798624039, 0.15926411747932434, 0.22487464547157288, 0.29114025831222534, 0.35827499628067017, 0.4255794882774353, 0.49176329374313354, 0.5563549399375916, 0.6187562942504883, 0.6766974329948425, 0.7272368669509888, 0.7677872180938721, 0.7964209914207458, 0.8126143217086792, 0.8168737292289734, 0.8112581372261047, 0.7999311089515686, 0.7880721688270569, 0.7812943458557129, 0.7806791067123413, 0.7795494794845581, 0.7697980403900146, 0.748184323310852, 0.7167491316795349, 0.6788848042488098, 0.6363564729690552, 0.5904577374458313, 0.5442284941673279, 0.5002109408378601, 0.4575209617614746, 0.4128328859806061, 0.3635687828063965, 0.3097057342529297, 0.2529890537261963, 0.19517065584659576, 0.1375776082277298, 0.08193500339984894, 0.03069138154387474, -0.01388943288475275, -0.05103142932057381, -0.08223198354244232, -0.11097923666238785, -0.141006201505661, -0.17388072609901428, -0.208378404378891, -0.24258899688720703, -0.27604398131370544, -0.3094653785228729, -0.34362831711769104, -0.37944847345352173, -0.4182577133178711, -0.4606577754020691, -0.5049914121627808, -0.5474822521209717, -0.5841226577758789, -0.6127146482467651, -0.6334860324859619, -0.6483124494552612, -0.6594465374946594, -0.6687731742858887, -0.677807629108429, -0.6879566311836243, -0.7002978920936584, -0.7147482633590698, -0.7294233441352844, -0.7412598133087158, -0.7477221488952637, -0.7481251955032349, -0.743540346622467, -0.7355992794036865, -0.7254337072372437, -0.7132260203361511, -0.6984164118766785, -0.6802573800086975, -0.6584345102310181, -0.6333879232406616, -0.6059846878051758, -0.5766595005989075, -0.5447718501091003, -0.5088998079299927, -0.46770918369293213, -0.420578271150589, -0.36770349740982056, -0.3101862668991089, -0.25000399351119995, -0.18923872709274292, -0.12866370379924774, -0.0674060583114624, -0.004393209237605333, 0.06042477488517761, 0.12729889154434204, 0.1985558271408081, 0.27727293968200684, 0.3635024130344391, 0.45327338576316833, 0.5419283509254456, 0.6270309090614319, 0.7078582644462585, 0.7842856645584106, 0.8563030362129211, 0.9236955046653748, 0.9865518808364868, 1.044435739517212, 1.09547758102417, 1.1384395360946655, 1.175770878791809, 1.2093621492385864, 1.235244870185852]
volume 	 [0.7720275521278381, 0.7358593344688416, 0.6802816987037659, 0.6179190874099731, 0.5586060881614685, 0.4976806342601776, 0.4371913969516754, 0.3729167580604553, 0.3073749244213104, 0.23724721372127533, 0.16275519132614136, 0.09048600494861603, 0.024888312444090843, -0.029374079778790474, -0.07551522552967072, -0.11105560511350632, -0.1395673304796219, -0.1585903912782669, -0.17352817952632904, -0.18700389564037323, -0.20313021540641785, -0.2207188904285431, -0.2376454472541809, -0.2511759102344513, -0.25983095169067383, -0.26392877101898193, -0.26543644070625305, -0.2664949297904968, -0.2667688727378845, -0.2661667764186859, -0.2642219364643097, -0.2599056363105774, -0.251621812582016, -0.2379528135061264, -0.22117607295513153, -0.2025066614151001, -0.18658609688282013, -0.17710275948047638, -0.17344720661640167, -0.17310534417629242, -0.17551854252815247, -0.1778395026922226, -0.18044127523899078, -0.18095894157886505, -0.17826439440250397, -0.17275063693523407, -0.16739438474178314, -0.16620157659053802, -0.17257466912269592, -0.18473851680755615, -0.2014576643705368, -0.22027838230133057, -0.23723195493221283, -0.25172311067581177, -0.2656340003013611, -0.27871784567832947, -0.28906142711639404, -0.29583045840263367, -0.297537237405777, -0.29358285665512085, -0.28471148014068604, -0.27245214581489563, -0.2587418854236603, -0.24579164385795593, -0.23324796557426453, -0.21945783495903015, -0.2040928155183792, -0.18631300330162048, -0.16563141345977783, -0.14040064811706543, -0.11244615167379379, -0.07997731864452362, -0.04349292069673538, -0.005137464962899685, 0.03386257588863373, 0.07595860213041306, 0.12522324919700623, 0.181747704744339, 0.24108059704303741, 0.30073097348213196, 0.3565436005592346, 0.4105105698108673, 0.46519070863723755, 0.5154998302459717, 0.5596691966056824, 0.5968099236488342, 0.6217060089111328, 0.6296285390853882, 0.6213470101356506, 0.6056798100471497, 0.6011128425598145, 0.6046457290649414, 0.6067014336585999, 0.6062161922454834, 0.59943687915802, 0.5808574557304382, 0.5520805716514587, 0.5076783299446106, 0.44959306716918945, 0.3844054937362671, 0.3161318600177765, 0.2485240250825882, 0.18434621393680573, 0.1241154670715332, 0.07034102082252502, 0.021112604066729546, -0.019548268988728523, -0.055661141872406006, -0.08661504834890366, -0.11432148516178131, -0.13556712865829468, -0.15061263740062714, -0.16063125431537628, -0.16718126833438873, -0.17519298195838928, -0.18718335032463074, -0.19902853667736053, -0.21127043664455414, -0.2219569832086563, -0.2305111140012741, -0.23688197135925293, -0.24127064645290375, -0.24418741464614868, -0.24596312642097473, -0.24777278304100037, -0.24959927797317505, -0.2491426169872284, -0.2446260303258896, -0.2357683777809143, -0.2249528169631958, -0.21508456766605377, -0.20942577719688416, -0.2086087018251419, -0.21352380514144897, -0.22100292146205902, -0.22984051704406738, -0.23730121552944183, -0.24252267181873322, -0.24820968508720398, -0.2546239197254181, -0.26125767827033997, -0.2664693593978882, -0.2683819830417633, -0.26720187067985535, -0.26211902499198914, -0.25520095229148865, -0.24791297316551208, -0.2412801831960678, -0.2365984320640564, -0.23347480595111847, -0.23198741674423218, -0.2302802950143814, -0.22861190140247345, -0.2283286154270172, -0.23036673665046692, -0.2340332567691803, -0.23810963332653046, -0.24104836583137512, -0.23797932267189026, -0.2266990840435028, -0.20586973428726196, -0.1788700819015503, -0.14707766473293304, -0.1087595671415329, -0.06355394423007965, -0.010342320427298546, 0.05020719766616821, 0.11535744369029999, 0.18402616679668427, 0.2572243809700012, 0.32964617013931274, 0.39772066473960876, 0.4600376784801483, 0.5195673704147339, 0.5778242349624634, 0.6327004432678223, 0.6818518042564392, 0.729675829410553, 0.7604389190673828, 0.7706440687179565]
