-0.01825021021068096 CrossValid -0.8004302978515625 CrossValidLossesBy500 68.02731323242188 37.11334991455078 22.99976348876953 16.19842529296875 12.417190551757812 9.978935241699219 8.234176635742188 6.916694641113281 5.87591552734375 5.048736572265625 4.34844970703125 3.7616043090820312 3.2966461181640625 2.8394317626953125 2.4814300537109375 2.1691436767578125 1.864044189453125 1.6117782592773438 1.3788833618164062 1.2046279907226562 1.0052947998046875 0.8408889770507812 0.6838836669921875 0.5591964721679688 0.4318389892578125 0.31867218017578125 0.22330474853515625 0.1164703369140625 0.0138397216796875 -0.07450103759765625 -0.12259674072265625 -0.20550537109375 -0.27330780029296875 -0.31961822509765625 -0.385101318359375 -0.42864990234375 -0.5006561279296875 -0.54779052734375 -0.5884475708007812 -0.59893798828125 -0.645660400390625 -0.6945571899414062 -0.7098541259765625 -0.7071075439453125 -0.754638671875 -0.7634124755859375 -0.76129150390625 -0.7862167358398438 -0.8034210205078125 -0.7864761352539062 -0.8004302978515625
25500 LossesBy500 0.014824386686086655 -0.00037175085162743926 -0.007093782536685467 -0.010303501039743423 -0.012093821540474892 -0.01324219349771738 -0.014066018164157867 -0.014681880362331867 -0.015163341537117958 -0.015572329983115196 -0.015891699120402336 -0.016155187040567398 -0.016401194036006927 -0.016587093472480774 -0.016755426302552223 -0.01690605655312538 -0.017049239948391914 -0.017160288989543915 -0.01725851371884346 -0.017357997596263885 -0.017441459000110626 -0.017511602491140366 -0.017579998821020126 -0.017646141350269318 -0.017702296376228333 -0.01774188131093979 -0.0178045816719532 -0.017845116555690765 -0.017876334488391876 -0.017913594841957092 -0.017958156764507294 -0.01798197254538536 -0.018020562827587128 -0.018036996945738792 -0.01807216927409172 -0.01809120923280716 -0.01811373420059681 -0.018142404034733772 -0.018148459494113922 -0.018170740455389023 -0.01817636378109455 -0.01820007897913456 -0.018203074112534523 -0.01821453496813774 -0.01821819320321083 -0.01823451556265354 -0.01823871023952961 -0.01823684386909008 -0.01824597828090191 -0.01823960803449154 -0.01825021021068096
log_motor_var 	 [5.27229118347168]
sigma_logit 	 [-3.6268367767333984, -4.3270263671875]
mixture_logit 	 [-4.068249225616455]
prior 	 [-0.013271716423332691, -0.039447229355573654, -0.06660066545009613, -0.0943060964345932, -0.12192706763744354, -0.14865899085998535, -0.17360690236091614, -0.1959138959646225, -0.21486349403858185, -0.2299768328666687, -0.24108321964740753, -0.24828296899795532, -0.2519468069076538, -0.25261107087135315, -0.25091952085494995, -0.24755406379699707, -0.24311743676662445, -0.23809975385665894, -0.23281237483024597, -0.22734442353248596, -0.22153295576572418, -0.2150237113237381, -0.20732304453849792, -0.19794133305549622, -0.18646065890789032, -0.17273831367492676, -0.1570565104484558, -0.1402321308851242, -0.12341021001338959, -0.10742776095867157, -0.09188001602888107, -0.07460396736860275, -0.052355386316776276, -0.022412102669477463, 0.015835782513022423, 0.06056448444724083, 0.10824821889400482, 0.15487341582775116, 0.19706568121910095, 0.23282799124717712, 0.26173460483551025, 0.28460693359375, 0.3030022084712982, 0.3186933994293213, 0.33332255482673645, 0.34813082218170166, 0.3639198839664459, 0.3810212016105652, 0.3993678092956543, 0.4186080992221832, 0.4381871521472931, 0.4575043022632599, 0.47592833638191223, 0.4928949773311615, 0.5079423785209656, 0.5207204818725586, 0.5309723615646362, 0.538572371006012, 0.5434823632240295, 0.5458083152770996, 0.5457714200019836, 0.5437090396881104, 0.5400458574295044, 0.5352936387062073, 0.5300351977348328, 0.5248561501502991, 0.5203482508659363, 0.5170192122459412, 0.5151492357254028, 0.5147541165351868, 0.5154885649681091, 0.516663670539856, 0.5173285603523254, 0.5163522362709045, 0.5126181840896606, 0.5051636099815369, 0.4932575225830078, 0.4765595495700836, 0.4550827145576477, 0.42920979857444763, 0.399667352437973, 0.3673742413520813, 0.3332529664039612, 0.29804345965385437, 0.26214805245399475, 0.22557513415813446, 0.1879904866218567, 0.14890065789222717, 0.10787730664014816, 0.0647071823477745, 0.01943926326930523, -0.027622105553746223, -0.07599331438541412, -0.12508749961853027, -0.17426657676696777, -0.22290581464767456, -0.2703966200351715, -0.3161771893501282, -0.359750360250473, -0.4006912410259247, -0.4386601746082306, -0.4734114408493042, -0.5048043131828308, -0.5327373743057251, -0.557324230670929, -0.5787035822868347, -0.5971106290817261, -0.6128866672515869, -0.626386284828186, -0.6378772854804993, -0.6474906802177429, -0.6551281809806824, -0.660415530204773, -0.6627506613731384, -0.6616088151931763, -0.6568887233734131, -0.649066686630249, -0.6395406723022461, -0.630252480506897, -0.6230948567390442, -0.6192301511764526, -0.6185334920883179, -0.6195837259292603, -0.620124876499176, -0.6177950501441956, -0.6107476353645325, -0.5980298519134521, -0.5798047184944153, -0.5569499135017395, -0.5309569239616394, -0.5033653378486633, -0.47557568550109863, -0.4485480785369873, -0.4227789640426636, -0.39828190207481384, -0.3746630549430847, -0.3512176275253296, -0.32707083225250244, -0.3012964427471161, -0.27297747135162354, -0.2413845956325531, -0.20595063269138336, -0.1664273738861084, -0.12292465567588806, -0.07596355676651001, -0.026458296924829483, 0.024330642074346542, 0.07490722835063934, 0.12373432517051697, 0.16945429146289825, 0.21109969913959503, 0.2482210248708725, 0.28093278408050537, 0.30970561504364014, 0.3351994454860687, 0.35787999629974365, 0.3778824508190155, 0.39493072032928467, 0.4083413779735565, 0.4173254072666168, 0.4211663007736206, 0.41949084401130676, 0.41242125630378723, 0.40049153566360474, 0.3845020532608032, 0.36523735523223877, 0.3432694971561432, 0.3189792335033417, 0.2925981879234314, 0.26444461941719055, 0.23507334291934967, 0.20541630685329437, 0.1766282469034195, 0.1496703177690506, 0.12490883469581604, 0.10197363793849945, 0.08001554757356644, 0.05808258056640625, 0.03544585779309273, 0.01170633640140295]
volume 	 [0.24300158023834229, 0.20783774554729462, 0.16839097440242767, 0.12856540083885193, 0.08788573741912842, 0.04943997040390968, 0.009236238896846771, -0.028248148038983345, -0.06696438044309616, -0.10334557294845581, -0.13322699069976807, -0.16106146574020386, -0.17016442120075226, -0.1590617299079895, -0.13733579218387604, -0.1045084074139595, -0.055750325322151184, -0.0022790643852204084, 0.05648225173354149, 0.11185970157384872, 0.15822602808475494, 0.20567046105861664, 0.26217180490493774, 0.3215653598308563, 0.38733339309692383, 0.4387590289115906, 0.47854849696159363, 0.5173354148864746, 0.5695866346359253, 0.6142230033874512, 0.6305030584335327, 0.6234279274940491, 0.5802766680717468, 0.5236514210700989, 0.4639124572277069, 0.4171595275402069, 0.37264782190322876, 0.31657087802886963, 0.2537066638469696, 0.18292012810707092, 0.11173128336668015, 0.04664546996355057, -0.00894006248563528, -0.052200499922037125, -0.08297940343618393, -0.11371714621782303, -0.150856152176857, -0.1904674768447876, -0.22759346663951874, -0.26342037320137024, -0.29266563057899475, -0.3235783874988556, -0.3591030538082123, -0.39676904678344727, -0.4316394031047821, -0.45880430936813354, -0.47409167885780334, -0.4785793125629425, -0.48071277141571045, -0.463868111371994, -0.4303223192691803, -0.38772866129875183, -0.3364237844944, -0.28163477778434753, -0.2214021384716034, -0.15975940227508545, -0.09537341445684433, -0.03705593943595886, 0.008040931075811386, 0.0383434072136879, 0.06979358196258545, 0.11343972384929657, 0.15552178025245667, 0.19287006556987762, 0.2194652557373047, 0.2383432686328888, 0.2517118752002716, 0.24937903881072998, 0.2283519059419632, 0.2112245112657547, 0.19435477256774902, 0.1722908765077591, 0.15881182253360748, 0.14005827903747559, 0.11032364517450333, 0.06601346284151077, -0.0026124261785298586, -0.08772199600934982, -0.18020471930503845, -0.27384331822395325, -0.3574676215648651, -0.42617031931877136, -0.48385143280029297, -0.5325306057929993, -0.5777573585510254, -0.6217952370643616, -0.6609874963760376, -0.6868094205856323, -0.7025935053825378, -0.6996928453445435, -0.6796203255653381, -0.6446776390075684, -0.5923108458518982, -0.5246446132659912, -0.43827879428863525, -0.34517791867256165, -0.2527342438697815, -0.15882620215415955, -0.07380768656730652, 0.00938347727060318, 0.08098629117012024, 0.14096128940582275, 0.18464146554470062, 0.222274050116539, 0.26526060700416565, 0.30283355712890625, 0.329458087682724, 0.3364567756652832, 0.3250739574432373, 0.3028518855571747, 0.28383657336235046, 0.26442795991897583, 0.2415860891342163, 0.21100370585918427, 0.18486784398555756, 0.16260404884815216, 0.1383841186761856, 0.10754963755607605, 0.07193353027105331, 0.037236496806144714, -0.0021207297686487436, -0.04381321370601654, -0.0870448499917984, -0.1306207925081253, -0.17196080088615417, -0.21186168491840363, -0.24448736011981964, -0.2626558840274811, -0.2686828374862671, -0.2692531943321228, -0.26172441244125366, -0.2502208650112152, -0.23205310106277466, -0.20836423337459564, -0.1834578961133957, -0.15994574129581451, -0.13210968673229218, -0.11804165691137314, -0.10056041926145554, -0.08059733361005783, -0.061963364481925964, -0.04882693290710449, -0.04446760565042496, -0.04588182270526886, -0.03996569663286209, -0.02765398845076561, -0.01495382096618414, 0.0013629953609779477, 0.01728246547281742, 0.0263485386967659, 0.03693395480513573, 0.04583004117012024, 0.052486468106508255, 0.05776664987206459, 0.06638922542333603, 0.08255121111869812, 0.1129320040345192, 0.1716552972793579, 0.24207954108715057, 0.31571292877197266, 0.3834573030471802, 0.43476298451423645, 0.45965731143951416, 0.4773555099964142, 0.48475444316864014, 0.481707364320755, 0.4583933651447296, 0.41613054275512695, 0.35298821330070496, 0.2892928421497345]
