-0.012780537828803062 CrossValid 7.390769958496094 CrossValidLossesBy500 49.777976989746094 34.36982727050781 31.027908325195312 29.0845947265625 27.526123046875 26.27886962890625 25.294662475585938 24.49353790283203 23.815643310546875 23.23168182373047 22.70001220703125 22.213134765625 21.7564697265625 21.328086853027344 20.912513732910156 20.523941040039062 20.13774871826172 19.7763671875 19.416015625 19.070907592773438 18.73613739013672 18.412513732910156 18.101364135742188 17.79273223876953 17.491241455078125 17.202285766601562 16.91905975341797 16.644142150878906 16.380172729492188 16.113075256347656 15.862930297851562 15.612945556640625 15.370880126953125 15.136749267578125 14.909210205078125 14.687339782714844 14.470878601074219 14.261016845703125 14.052391052246094 13.852058410644531 13.647697448730469 13.459228515625 13.275932312011719 13.093620300292969 12.91558837890625 12.742256164550781 12.569358825683594 12.405868530273438 12.244888305664062 12.088623046875 11.934425354003906 11.78582763671875 11.641685485839844 11.491996765136719 11.354682922363281 11.218803405761719 11.086776733398438 10.957427978515625 10.829780578613281 10.707267761230469 10.584426879882812 10.466278076171875 10.352806091308594 10.23858642578125 10.126022338867188 10.018630981445312 9.915382385253906 9.811370849609375 9.70721435546875 9.611259460449219 9.513092041015625 9.421310424804688 9.329299926757812 9.2381591796875 9.148849487304688 9.062004089355469 8.975250244140625 8.897216796875 8.813827514648438 8.739593505859375 8.656631469726562 8.583999633789062 8.510711669921875 8.437614440917969 8.36065673828125 8.293769836425781 8.226821899414062 8.162979125976562 8.0947265625 8.029281616210938 7.9664764404296875 7.911125183105469 7.848350524902344 7.7881927490234375 7.7325592041015625 7.6721343994140625 7.6157073974609375 7.5709686279296875 7.5349273681640625 7.4886932373046875 7.4562530517578125 7.430198669433594 7.410758972167969 7.390769958496094
52000 LossesBy500 0.006561423651874065 -0.001828888664022088 -0.003897586138918996 -0.005003536585718393 -0.005762303713709116 -0.006302838213741779 -0.006701086647808552 -0.007013165391981602 -0.007269569672644138 -0.007493420969694853 -0.007694463711231947 -0.007879945449531078 -0.008057156577706337 -0.008224966935813427 -0.008385480381548405 -0.008538397029042244 -0.008683934807777405 -0.008827194571495056 -0.008962965570390224 -0.00909686554223299 -0.009222899563610554 -0.009345105849206448 -0.00946437194943428 -0.009579791687428951 -0.009690510109066963 -0.009797931648790836 -0.009902091696858406 -0.010001950897276402 -0.010098632425069809 -0.01019374467432499 -0.010283204726874828 -0.0103710126131773 -0.010453803464770317 -0.010534548200666904 -0.010614067316055298 -0.010690816678106785 -0.010763775557279587 -0.010837545618414879 -0.010905387811362743 -0.01097395084798336 -0.011038617230951786 -0.011099319905042648 -0.011160900816321373 -0.01121774036437273 -0.01127491146326065 -0.011329472064971924 -0.01138556282967329 -0.011436455883085728 -0.011483753100037575 -0.011532258242368698 -0.011580568738281727 -0.011623436585068703 -0.01166900247335434 -0.01171141117811203 -0.011751318350434303 -0.011794479563832283 -0.01183311827480793 -0.011867955327033997 -0.011906743980944157 -0.011939825490117073 -0.0119762122631073 -0.012008704245090485 -0.012042175978422165 -0.012073053978383541 -0.012102632783353329 -0.012130999006330967 -0.012159910053014755 -0.012187262997031212 -0.012216698378324509 -0.012241236865520477 -0.012267684563994408 -0.0122910151258111 -0.012314406223595142 -0.012339431792497635 -0.01236090250313282 -0.012382153421640396 -0.01240537315607071 -0.012425240129232407 -0.012447483837604523 -0.01246651727706194 -0.01248331367969513 -0.01250341348350048 -0.012519881129264832 -0.01253972202539444 -0.012557159177958965 -0.012572583742439747 -0.01258771400898695 -0.012605179101228714 -0.012621049769222736 -0.012634956277906895 -0.012651248835027218 -0.012665094807744026 -0.012677861377596855 -0.01269262284040451 -0.012706208974123001 -0.012719886377453804 -0.012729642912745476 -0.01273985207080841 -0.012751300819218159 -0.01275938656181097 -0.012768448330461979 -0.012772596441209316 -0.01277699414640665 -0.012780537828803062
log_motor_var 	 [4.030373573303223]
sigma_logit 	 [-3.9198966026306152, -4.896899223327637]
mixture_logit 	 [-4.045277118682861]
prior 	 [0.3142484128475189, 0.2670542001724243, 0.2234131544828415, 0.18416710197925568, 0.1499735414981842, 0.12121841311454773, 0.09796467423439026, 0.08001169562339783, 0.06699355691671371, 0.05849729850888252, 0.054145295172929764, 0.05362798273563385, 0.056724417954683304, 0.06330391764640808, 0.07334794104099274, 0.08693442493677139, 0.10419033467769623, 0.1252005249261856, 0.1498929113149643, 0.1779928207397461, 0.2090391218662262, 0.2425120621919632, 0.2779347896575928, 0.314881831407547, 0.3528915047645569, 0.3913188576698303, 0.4292478561401367, 0.4656360149383545, 0.4994620382785797, 0.5299522876739502, 0.5566564202308655, 0.5793569684028625, 0.5977357625961304, 0.6112666726112366, 0.6192298531532288, 0.6211102604866028, 0.6167665123939514, 0.6066207885742188, 0.5915573835372925, 0.5726575255393982, 0.5508820414543152, 0.526918351650238, 0.5012001991271973, 0.47410088777542114, 0.4460299015045166, 0.41755759716033936, 0.389436811208725, 0.36249104142189026, 0.33755218982696533, 0.3153473436832428, 0.2964755892753601, 0.2813996970653534, 0.27039843797683716, 0.26360026001930237, 0.2609672546386719, 0.26233118772506714, 0.2673780620098114, 0.2757226824760437, 0.2869222164154053, 0.30053946375846863, 0.31617939472198486, 0.33352673053741455, 0.352365642786026, 0.3725724518299103, 0.3940781056880951, 0.4168342649936676, 0.44070354104042053, 0.46535900235176086, 0.49025458097457886, 0.5145670771598816, 0.537283182144165, 0.5573363304138184, 0.5737067461013794, 0.5854161381721497, 0.5915651917457581, 0.5912966132164001, 0.5838249921798706, 0.5684369802474976, 0.544580340385437, 0.5119264125823975, 0.47046220302581787, 0.42035332322120667, 0.36195746064186096, 0.295795202255249, 0.22256968915462494, 0.14326325058937073, 0.059153296053409576, -0.028209950774908066, -0.11714740842580795, -0.2060326784849167, -0.293460875749588, -0.3783443868160248, -0.45989006757736206, -0.5375720262527466, -0.6110368371009827, -0.680087685585022, -0.7445802688598633, -0.804407000541687, -0.8594743013381958, -0.9096569418907166, -0.9547426104545593, -0.9945078492164612, -1.0286693572998047, -1.0569028854370117, -1.0789092779159546, -1.0944401025772095, -1.103373646736145, -1.105761170387268, -1.101850152015686, -1.092141032218933, -1.077364206314087, -1.058469533920288, -1.036549687385559, -1.0127348899841309, -0.9880974292755127, -0.9634682536125183, -0.939501941204071, -0.9166243672370911, -0.89503014087677, -0.8747736811637878, -0.8558582663536072, -0.8383640050888062, -0.822386622428894, -0.8080137968063354, -0.7952653765678406, -0.7841192483901978, -0.7744528651237488, -0.766086220741272, -0.7587226629257202, -0.7520480751991272, -0.7456659078598022, -0.7390222549438477, -0.731460690498352, -0.7222673296928406, -0.7107546925544739, -0.6963559985160828, -0.6787626147270203, -0.657904326915741, -0.633911669254303, -0.6069894433021545, -0.5773157477378845, -0.5449807047843933, -0.5099759101867676, -0.47215965390205383, -0.43136194348335266, -0.3873746693134308, -0.3400023579597473, -0.2890477180480957, -0.23432789742946625, -0.17573265731334686, -0.11323574185371399, -0.046972282230854034, 0.02270263433456421, 0.09514766186475754, 0.16940486431121826, 0.2441960573196411, 0.3179929852485657, 0.38915929198265076, 0.45608919858932495, 0.5174141526222229, 0.5721527934074402, 0.6196897625923157, 0.6598973870277405, 0.6929247379302979, 0.719142735004425, 0.7389531135559082, 0.7525887489318848, 0.7600361704826355, 0.7610259652137756, 0.755134105682373, 0.7418994307518005, 0.7210357189178467, 0.6925775408744812, 0.6570308804512024, 0.6153674125671387, 0.5689463019371033, 0.5192146301269531, 0.46765363216400146, 0.4155575633049011, 0.36407148838043213]
volume 	 [0.2645531892776489, 0.24229870736598969, 0.2187928855419159, 0.19602684676647186, 0.1714533269405365, 0.1467495560646057, 0.11923542618751526, 0.09426774829626083, 0.06741795688867569, 0.041294217109680176, 0.018320636823773384, -0.006503369193524122, -0.01387719251215458, -0.0014597824774682522, 0.019720884039998055, 0.04975073039531708, 0.09317775070667267, 0.13648904860019684, 0.18111029267311096, 0.21904554963111877, 0.24602864682674408, 0.2732887268066406, 0.3087051808834076, 0.346484512090683, 0.3936610817909241, 0.43506574630737305, 0.4726925194263458, 0.5084489583969116, 0.54911208152771, 0.5769013166427612, 0.5786786675453186, 0.5590859651565552, 0.5109168887138367, 0.45643481612205505, 0.40690314769744873, 0.3711845874786377, 0.3359086513519287, 0.2882668077945709, 0.23117686808109283, 0.16663376986980438, 0.10374660789966583, 0.04912243038415909, 0.004339085426181555, -0.02977144345641136, -0.05401520058512688, -0.08041048794984818, -0.11435521394014359, -0.149970144033432, -0.1822318136692047, -0.21332944929599762, -0.23815561830997467, -0.26611918210983276, -0.30080896615982056, -0.33988240361213684, -0.37788283824920654, -0.40908029675483704, -0.42831000685691833, -0.4366127848625183, -0.44321131706237793, -0.42994505167007446, -0.3997768759727478, -0.36196663975715637, -0.31771284341812134, -0.2737012505531311, -0.22804710268974304, -0.18406614661216736, -0.13732044398784637, -0.09375956654548645, -0.05955956131219864, -0.039115529507398605, -0.020807646214962006, 0.004074398428201675, 0.024704547598958015, 0.04145417362451553, 0.0505969412624836, 0.05322323366999626, 0.05218013375997543, 0.041678138077259064, 0.019716178998351097, 0.0029426678083837032, -0.009460492059588432, -0.021353233605623245, -0.0230607520788908, -0.027349580079317093, -0.03811456635594368, -0.058385759592056274, -0.09799367189407349, -0.15161952376365662, -0.21382023394107819, -0.2810930013656616, -0.34198299050331116, -0.390056848526001, -0.4282701015472412, -0.45839065313339233, -0.4870275557041168, -0.5174688100814819, -0.5459936857223511, -0.5628615617752075, -0.5729442834854126, -0.5656870603561401, -0.5428274869918823, -0.5076050162315369, -0.45655354857444763, -0.3925395607948303, -0.3102070987224579, -0.22441425919532776, -0.143243670463562, -0.06406454741954803, -0.0004945922992192209, 0.05475239455699921, 0.09323310106992722, 0.12312058359384537, 0.1428445428609848, 0.15505367517471313, 0.1722165197134018, 0.18539941310882568, 0.190778449177742, 0.18899919092655182, 0.18213604390621185, 0.16852553188800812, 0.15697315335273743, 0.1442909985780716, 0.12927305698394775, 0.11107691377401352, 0.10173856467008591, 0.1003945842385292, 0.09802956879138947, 0.0863417237997055, 0.06475359201431274, 0.041034720838069916, 0.011002378538250923, -0.02197709120810032, -0.05893687903881073, -0.09836140275001526, -0.13753437995910645, -0.17634114623069763, -0.20845456421375275, -0.2246345430612564, -0.2272873967885971, -0.22344964742660522, -0.2114059180021286, -0.19673331081867218, -0.17734934389591217, -0.15414860844612122, -0.13199810683727264, -0.11389218270778656, -0.09441698342561722, -0.09340529888868332, -0.09173400700092316, -0.08927696198225021, -0.08802102506160736, -0.08957122266292572, -0.09472264349460602, -0.09980563819408417, -0.09318208694458008, -0.07765758037567139, -0.06063659489154816, -0.04072780907154083, -0.022053508087992668, -0.010101190768182278, 0.0035630110651254654, 0.015973256900906563, 0.027435986325144768, 0.03914758190512657, 0.05488650128245354, 0.07716644555330276, 0.11111216992139816, 0.16822203993797302, 0.2325441837310791, 0.29647111892700195, 0.3544851243495941, 0.40146833658218384, 0.4280124306678772, 0.44613489508628845, 0.45103418827056885, 0.4463377296924591, 0.4280647039413452, 0.398480087518692, 0.35033392906188965, 0.29912567138671875]
