0.035998065024614334 CrossValid 87.61896514892578 CrossValidLossesBy500 648.40185546875 472.0039367675781 302.75933837890625 201.3809814453125 145.52365112304688 118.31414794921875 105.8731460571289 100.00967407226562 96.70323944091797 94.6892318725586 93.41574096679688 92.59427642822266 92.00315856933594 91.5956039428711 91.25445556640625 91.01466369628906 90.79115295410156 90.63868713378906 90.49919891357422 90.37349700927734 90.24125671386719 90.13786315917969 90.00775146484375 89.8711166381836 89.81527709960938 89.68423461914062 89.61518859863281 89.55553436279297 89.44752502441406 89.4156723022461 89.3164291381836 89.21998596191406 89.16116333007812 89.07974243164062 89.03082275390625 88.92534637451172 88.88968658447266 88.81741333007812 88.76686096191406 88.7120590209961 88.67217254638672 88.62264251708984 88.55970764160156 88.48247528076172 88.44095611572266 88.4269790649414 88.34382629394531 88.29356384277344 88.27116394042969 88.21922302246094 88.19038391113281 88.1201171875 88.09671020507812 88.04754638671875 87.98875427246094 87.99647521972656 87.92768859863281 87.92828369140625 87.8594970703125 87.81987762451172 87.83264923095703 87.83393096923828 87.80751037597656 87.75262451171875 87.76880645751953 87.7267837524414 87.75318145751953 87.7364273071289 87.69062042236328 87.69242095947266 87.69302368164062 87.6789779663086 87.67369842529297 87.68402862548828 87.68248748779297 87.63977813720703 87.66981506347656 87.64640808105469 87.65901947021484 87.61896514892578
40000 LossesBy500_3 0.2263580709695816 0.16567160189151764 0.10757703334093094 0.07291454076766968 0.054098792374134064 0.04521515592932701 0.041318148374557495 0.03955531492829323 0.0385768860578537 0.03798608109354973 0.03761669620871544 0.0373796671628952 0.037208206951618195 0.037090547382831573 0.036990076303482056 0.03692129999399185 0.03685605153441429 0.03681458905339241 0.036776915192604065 0.03674425557255745 0.036708999425172806 0.036683835089206696 0.036649420857429504 0.03661210089921951 0.03660324588418007 0.03656724840402603 0.03655214607715607 0.036540381610393524 0.03651120886206627 0.03650852292776108 0.03648211061954498 0.03645551577210426 0.03644254803657532 0.03642064705491066 0.03640986233949661 0.036378949880599976 0.03637241572141647 0.036352626979351044 0.036340195685625076 0.0363251268863678 0.0363161638379097 0.0363025926053524 0.036284469068050385 0.03626161441206932 0.0362500362098217 0.036248378455638885 0.0362226702272892 0.036207713186740875 0.036202430725097656 0.03618663176894188 0.036178432404994965 0.03615611046552658 0.03614940494298935 0.036134809255599976 0.03611573949456215 0.03611965477466583 0.03609727323055267 0.0360986590385437 0.036075297743082047 0.0360628217458725 0.036067575216293335 0.03606893867254257 0.036059871315956116 0.03604089096188545 0.036047209054231644 0.03603279963135719 0.03604191169142723 0.036036498844623566 0.03602093085646629 0.03602168336510658 0.03602200001478195 0.03601768612861633 0.036016300320625305 0.03602020815014839 0.03601953387260437 0.03600502014160156 0.036015722900629044 0.036007706075906754 0.03601197525858879 0.035998065024614334
sigma2_stimulus 	 [4.188906669616699, 2.780255079269409]
log_motor_var 	 [7.415733814239502]
sigma_logit 	 [-6.4017767906188965, -6.438879013061523, -7.4666361808776855]
mixture_logit 	 [-4.469729423522949]
prior 	 [-0.09038460999727249, -0.09871009737253189, -0.10332252830266953, -0.10344234853982925, -0.09863623231649399, -0.08884072303771973, -0.0744074210524559, -0.0560377761721611, -0.034732311964035034, -0.011685735546052456, 0.011870065703988075, 0.03483324125409126, 0.056385088711977005, 0.07605775445699692, 0.09371516853570938, 0.10937105119228363, 0.12299122661352158, 0.13436532020568848, 0.14301954209804535, 0.14841395616531372, 0.1498965620994568, 0.14711426198482513, 0.14005577564239502, 0.12915542721748352, 0.11534202843904495, 0.09987758100032806, 0.08420580625534058, 0.0697125792503357, 0.057506248354911804, 0.04826850816607475, 0.04224502667784691, 0.03924832120537758, 0.03881741687655449, 0.04028750956058502, 0.04294425994157791, 0.04613785818219185, 0.04936786741018295, 0.05236322805285454, 0.05510585010051727, 0.057733431458473206, 0.060481179505586624, 0.06345998495817184, 0.06663361191749573, 0.06969381868839264, 0.07214249670505524, 0.07333862036466599, 0.07270996272563934, 0.06978974491357803, 0.06435243785381317, 0.05642514303326607, 0.04625067487359047, 0.03422839194536209, 0.020868781954050064, 0.006726675666868687, -0.00767184654250741, -0.021904297173023224, -0.03571240231394768, -0.04903719574213028, -0.06194959580898285, -0.0745842233300209, -0.08709830790758133, -0.09944731742143631, -0.11147160083055496, -0.1228688657283783, -0.13322094082832336, -0.14208917319774628, -0.14921720325946808, -0.15449504554271698, -0.15805676579475403, -0.16031888127326965, -0.16189828515052795, -0.16332508623600006, -0.16504114866256714, -0.1673119068145752, -0.16999633610248566, -0.1727266013622284, -0.17499858140945435, -0.17636848986148834, -0.17655199766159058, -0.17558351159095764, -0.17375358939170837, -0.1715945601463318, -0.16968320310115814, -0.16843055188655853, -0.16816551983356476, -0.16897447407245636, -0.17075404524803162, -0.1731429249048233, -0.17561489343643188, -0.1775536686182022, -0.1782962679862976, -0.17735038697719574, -0.17457005381584167, -0.1701226383447647, -0.164596289396286, -0.15884235501289368, -0.15367558598518372, -0.14971692860126495, -0.14701592922210693, -0.1451852023601532, -0.14344896376132965, -0.14075739681720734, -0.13619716465473175, -0.12902888655662537, -0.11896514147520065, -0.10615596920251846, -0.09121377766132355, -0.07519493252038956, -0.05947749689221382, -0.04563474282622337, -0.03511783853173256, -0.028948938474059105, -0.02743597701191902, -0.03003132902085781, -0.035397719591856, -0.041671022772789, -0.04677458852529526, -0.0488065704703331, -0.046378184109926224, -0.03877190127968788, -0.026072151958942413, -0.009123912081122398, 0.010682376101613045, 0.03171597048640251, 0.05245456099510193, 0.07176825404167175, 0.0890410840511322, 0.10413705557584763, 0.11711367964744568, 0.1280946582555771, 0.1370629370212555, 0.1437893658876419, 0.14809980988502502, 0.14985451102256775, 0.14909297227859497, 0.14607273042201996, 0.14115725457668304, 0.13478992879390717, 0.1274527758359909, 0.1196255087852478, 0.11186826974153519, 0.10494176298379898, 0.09974494576454163, 0.09726182371377945, 0.09836649149656296, 0.10366126894950867, 0.11321837455034256, 0.12648993730545044, 0.14220163226127625, 0.15867722034454346, 0.17392531037330627, 0.18621553480625153, 0.19440388679504395, 0.19800961017608643, 0.19743230938911438, 0.19341515004634857, 0.18676099181175232, 0.1782352477312088, 0.16829761862754822, 0.15720410645008087, 0.14523129165172577, 0.13256032764911652, 0.11947619915008545, 0.10624529421329498, 0.0931088775396347, 0.08024995028972626, 0.06779272854328156, 0.05581711605191231, 0.044360142201185226, 0.033448725938797, 0.023052437230944633, 0.013058548793196678, 0.0032400984782725573, -0.006723481230437756, -0.01719161681830883, -0.02846379764378071, -0.04064752534031868, -0.05358502268791199, -0.06676332652568817, -0.07938376814126968]
volume 	 [0.0, 0.0, 0.0, 0.0, 0.0, 0.0, 0.0, 0.0, 0.0, 0.0, 0.0, 0.0, 0.0, 0.0, 0.0, 0.0, 0.0, 0.0, 0.0, 0.0, 0.0, 0.0, 0.0, 0.0, 0.0, 0.0, 0.0, 0.0, 0.0, 0.0, 0.0, 0.0, 0.0, 0.0, 0.0, 0.0, 0.0, 0.0, 0.0, 0.0, 0.0, 0.0, 0.0, 0.0, 0.0, 0.0, 0.0, 0.0, 0.0, 0.0, 0.0, 0.0, 0.0, 0.0, 0.0, 0.0, 0.0, 0.0, 0.0, 0.0, 0.0, 0.0, 0.0, 0.0, 0.0, 0.0, 0.0, 0.0, 0.0, 0.0, 0.0, 0.0, 0.0, 0.0, 0.0, 0.0, 0.0, 0.0, 0.0, 0.0, 0.0, 0.0, 0.0, 0.0, 0.0, 0.0, 0.0, 0.0, 0.0, 0.0, 0.0, 0.0, 0.0, 0.0, 0.0, 0.0, 0.0, 0.0, 0.0, 0.0, 0.0, 0.0, 0.0, 0.0, 0.0, 0.0, 0.0, 0.0, 0.0, 0.0, 0.0, 0.0, 0.0, 0.0, 0.0, 0.0, 0.0, 0.0, 0.0, 0.0, 0.0, 0.0, 0.0, 0.0, 0.0, 0.0, 0.0, 0.0, 0.0, 0.0, 0.0, 0.0, 0.0, 0.0, 0.0, 0.0, 0.0, 0.0, 0.0, 0.0, 0.0, 0.0, 0.0, 0.0, 0.0, 0.0, 0.0, 0.0, 0.0, 0.0, 0.0, 0.0, 0.0, 0.0, 0.0, 0.0, 0.0, 0.0, 0.0, 0.0, 0.0, 0.0, 0.0, 0.0, 0.0, 0.0, 0.0, 0.0, 0.0, 0.0, 0.0, 0.0, 0.0, 0.0, 0.0, 0.0, 0.0, 0.0, 0.0, 0.0]
