0.033430200070142746 CrossValid 114.4378662109375 CrossValidLossesBy500 115.70201873779297 114.4378662109375
1000 LossesBy500 0.03380357846617699 0.033430200070142746
sigma2_stimulus 	 [3.490532875061035, 2.5466034412384033]
log_motor_var 	 [7.934154033660889]
sigma_logit 	 [-7.118685245513916, -7.142538070678711, -8.948686599731445]
mixture_logit 	 [-4.758144378662109]
prior 	 [1.0]
volume 	 [0.9516178369522095, 0.9492170214653015, 0.9113780856132507, 0.8612251281738281, 0.843154788017273, 0.96135413646698, 1.0692178010940552, 1.0871614217758179, 1.0231750011444092, 1.0242726802825928, 1.0096429586410522, 1.0269489288330078, 1.034358024597168, 0.9290783405303955, 0.8765560984611511, 0.788242757320404, 0.661846399307251, 0.6187118887901306, 0.5453759431838989, 0.4227222502231598, 0.3555341958999634, 0.1926296353340149, 0.02823122963309288, -0.0987270325422287, -0.22403554618358612, -0.2239094227552414, -0.31617307662963867, -0.3844012916088104, -0.40147337317466736, -0.40701380372047424, -0.30431970953941345, -0.2361205667257309, -0.17873027920722961, -0.2189566045999527, -0.1069473922252655, -0.17832086980342865, -0.09483718872070312, -0.14306725561618805, -0.130453422665596, -0.1513151079416275, -0.2254641354084015, -0.32036250829696655, -0.35039544105529785, -0.26012009382247925, -0.3273388147354126, -0.32940155267715454, -0.308709055185318, -0.12383686751127243, -0.15987743437290192, -0.06562148034572601, -0.1320960521697998, -0.2457513064146042, -0.2518824636936188, -0.4114544987678528, -0.5495057702064514, -0.6287872195243835, -0.6933774352073669, -0.671167254447937, -0.5646900534629822, -0.48847290873527527, -0.42175424098968506, -0.2988731563091278, -0.14276109635829926, -0.16388119757175446, -0.24523445963859558, -0.2120639532804489, -0.2241242676973343, -0.2160964012145996, -0.1354495882987976, -0.04750381037592888, 0.05714373663067818, 0.12349274754524231, 0.1903718262910843, 0.2613545358181, 0.26937827467918396, 0.32208532094955444, 0.21114149689674377, 0.12262757122516632, 0.09541147202253342, 0.11589811742305756, 0.1637493222951889, 0.22612079977989197, 0.2985900342464447, 0.299641489982605, 0.4485643804073334, 0.5823023319244385, 0.6697562336921692, 0.7006099820137024, 0.7080056071281433, 0.8170503377914429, 0.8667416572570801, 0.697335958480835, 0.630395233631134, 0.5790911316871643, 0.4502856731414795, 0.5230333805084229, 0.37941232323646545, 0.3286988437175751, 0.23715780675411224, 0.1843007653951645, 0.1759616881608963, -0.003266161773353815, -0.12292628735303879, -0.17142903804779053, -0.24342462420463562, -0.2845805883407593, -0.370315819978714, -0.46842485666275024, -0.4977846145629883, -0.4614701569080353, -0.3763279318809509, -0.2889866828918457, -0.23965002596378326, -0.14344318211078644, -0.008036073297262192, 0.0049086762592196465, 0.010496551170945168, 0.08456162363290787, 0.20081639289855957, 0.05232830345630646, -0.026200098916888237, -0.12938371300697327, -0.18039508163928986, -0.19615516066551208, -0.18824400007724762, -0.27227091789245605, -0.2874080240726471, -0.20193922519683838, -0.11428753286600113, -0.04327012598514557, -0.03152672201395035, -0.0566311851143837, -0.05162350460886955, -0.039131421595811844, 0.013460226356983185, -0.01671818271279335, -0.02997615560889244, -0.02028587833046913, 0.08848090469837189, 0.09308890998363495, 0.0920315682888031, 0.05410825461149216, -0.13860131800174713, -0.13570550084114075, -0.21132823824882507, -0.23998306691646576, -0.22071464359760284, -0.31765642762184143, -0.38414570689201355, -0.42870795726776123, -0.5254679918289185, -0.5894699096679688, -0.6275749206542969, -0.7359703183174133, -0.8403241634368896, -0.8585615754127502, -0.8375928997993469, -0.7880054712295532, -0.6766180992126465, -0.5351268649101257, -0.3636561334133148, -0.19567155838012695, -0.1062699556350708, 0.12998239696025848, 0.38618358969688416, 0.4152836501598358, 0.45087313652038574, 0.516051173210144, 0.627595841884613, 0.7117128372192383, 0.6304833292961121, 0.6645691394805908, 0.7164912223815918, 0.6763507723808289, 0.7699142098426819, 0.8030571937561035, 0.7759522795677185, 0.7469935417175293, 0.7002426981925964, 0.7806739211082458]
========
sigma2_stimulus	6.003188900649548e-06	log_motor_var	0.008025780320167542	sigma_logit	3.92465153709054e-06	mixture_logit	4.328940121922642e-07	volume	2.9155562515370548e-06
