0.030760888010263443 CrossValid 78.53511810302734 CrossValidLossesBy500 79.24710845947266 77.64974975585938 78.21540069580078 77.84937286376953 78.4373779296875 78.53511810302734
3000 LossesBy500 0.0320095531642437 0.031373992562294006 0.031099848449230194 0.030818285420536995 0.030771294608712196 0.030760888010263443
sigma2_stimulus 	 [3.7935311794281006, 2.729109525680542]
log_motor_var 	 [7.321345329284668]
sigma_logit 	 [-6.771731376647949, -6.861591339111328, -8.18159294128418]
mixture_logit 	 [-4.569495677947998]
prior 	 [0.35444286465644836, 0.286903440952301, 0.24502301216125488, 0.2675049901008606, 0.30877941846847534, 0.2881340980529785, 0.20229879021644592, 0.13224487006664276, 0.1330372840166092, 0.1790233701467514, 0.20262430608272552, 0.1787039339542389, 0.1450945883989334, 0.13625472784042358, 0.14374646544456482, 0.14381220936775208, 0.1384957730770111, 0.14863508939743042, 0.17694637179374695, 0.19965218007564545, 0.19519081711769104, 0.16987280547618866, 0.15103979408740997, 0.16313967108726501, 0.20615270733833313, 0.24797093868255615, 0.25190767645835876, 0.22556748986244202, 0.2148420512676239, 0.24274523556232452, 0.2811734676361084, 0.28974616527557373, 0.2693816125392914, 0.25046437978744507, 0.24562948942184448, 0.24260659515857697, 0.22995775938034058, 0.2085053026676178, 0.18201319873332977, 0.15611520409584045, 0.14172902703285217, 0.1396685540676117, 0.12683771550655365, 0.08324560523033142, 0.030113451182842255, 0.005521651357412338, 0.00841744989156723, -0.004828309640288353, -0.059498801827430725, -0.12256137281656265, -0.14928588271141052, -0.14258812367916107, -0.1524004340171814, -0.2118600457906723, -0.2872086465358734, -0.3204282224178314, -0.29856404662132263, -0.2674964368343353, -0.2780263423919678, -0.3345392644405365, -0.39767736196517944, -0.4303326904773712, -0.4268096089363098, -0.411813884973526, -0.4176594614982605, -0.4545975923538208, -0.5059065222740173, -0.5418044924736023, -0.5469207763671875, -0.5351647138595581, -0.5393308997154236, -0.5689748525619507, -0.5955759882926941, -0.5993279814720154, -0.6018494367599487, -0.6347339749336243, -0.679445207118988, -0.6813611388206482, -0.6295139193534851, -0.5871854424476624, -0.6223956942558289, -0.7031098008155823, -0.7358291149139404, -0.6815944910049438, -0.5946210622787476, -0.5658727884292603, -0.6114975810050964, -0.6634894013404846, -0.6635987162590027, -0.6102688312530518, -0.5477983951568604, -0.5334737300872803, -0.5840330719947815, -0.646353542804718, -0.6489975452423096, -0.5770902633666992, -0.4938018023967743, -0.4777244031429291, -0.5216623544692993, -0.552034854888916, -0.5300785303115845, -0.4798468351364136, -0.43990984559059143, -0.4147714078426361, -0.3900758922100067, -0.3686402142047882, -0.36132973432540894, -0.3588980436325073, -0.3392961919307709, -0.2942742705345154, -0.23741550743579865, -0.1966109573841095, -0.1962813287973404, -0.225653275847435, -0.23385760188102722, -0.18151962757110596, -0.0922778844833374, -0.03990592435002327, -0.057901784777641296, -0.08877594769001007, -0.062449973076581955, 0.023828133940696716, 0.10357953608036041, 0.1164708063006401, 0.09365807473659515, 0.11781004816293716, 0.21512918174266815, 0.3137572407722473, 0.3208836615085602, 0.26363494992256165, 0.2545553743839264, 0.3428649604320526, 0.46140387654304504, 0.49622002243995667, 0.4394833743572235, 0.3928145468235016, 0.41902679204940796, 0.48577144742012024, 0.5241283178329468, 0.5193437337875366, 0.5085567235946655, 0.5111566781997681, 0.5186485052108765, 0.5333867073059082, 0.5707263946533203, 0.6193901896476746, 0.634833812713623, 0.5977502465248108, 0.5532267093658447, 0.555770218372345, 0.6037359237670898, 0.6372987627983093, 0.613854169845581, 0.5695784091949463, 0.5617172122001648, 0.5944607257843018, 0.608750581741333, 0.5663481950759888, 0.5101719498634338, 0.5005403161048889, 0.5300835371017456, 0.5275428295135498, 0.45374995470046997, 0.36760345101356506, 0.3465114235877991, 0.3947717249393463, 0.44043493270874023, 0.41802170872688293, 0.353233277797699, 0.3157742917537689, 0.32626208662986755, 0.35130563378334045, 0.36162734031677246, 0.35723990201950073, 0.34313154220581055, 0.3141528367996216, 0.2834475040435791, 0.2857123017311096, 0.33095601201057434, 0.37346386909484863]
volume 	 [0.9002223014831543, 0.9368019104003906, 0.9437739253044128, 0.8691504001617432, 0.7711385488510132, 0.7495914101600647, 0.8005896806716919, 0.8421966433525085, 0.803885817527771, 0.8125951886177063, 0.8619340062141418, 0.8885868787765503, 0.9004504084587097, 0.7848987579345703, 0.6415202617645264, 0.5752606987953186, 0.44747743010520935, 0.2556565999984741, 0.11400254815816879, -0.06698969006538391, -0.21104593575000763, -0.3363286256790161, -0.4459018409252167, -0.4997052848339081, -0.49486732482910156, -0.46026748418807983, -0.44613489508628845, -0.448920339345932, -0.43010014295578003, -0.38937994837760925, -0.29423728585243225, -0.17667216062545776, -0.11185101419687271, -0.13088242709636688, -0.1906537264585495, -0.2021341472864151, -0.15454019606113434, -0.07118088006973267, -0.06930506974458694, -0.13287048041820526, -0.10337230563163757, -0.06651516258716583, -0.09987682104110718, -0.14578068256378174, -0.16561879217624664, -0.16824814677238464, -0.1481122076511383, -0.14735116064548492, -0.09285981953144073, -0.0591999888420105, -0.14002028107643127, -0.17825151979923248, -0.19912943243980408, -0.20881004631519318, -0.26261335611343384, -0.33196040987968445, -0.34874749183654785, -0.29233846068382263, -0.295700341463089, -0.25702229142189026, -0.19072142243385315, -0.1559223234653473, -0.14333221316337585, -0.0594123937189579, -0.004145299084484577, -0.039620157331228256, -0.06341365724802017, -0.06914716213941574, -0.01860496960580349, 0.038468215614557266, 0.15070928633213043, 0.147566020488739, 0.13379982113838196, 0.12575243413448334, 0.14605949819087982, 0.19444844126701355, 0.24608753621578217, 0.23782111704349518, 0.22521191835403442, 0.21625299751758575, 0.22235721349716187, 0.27623865008354187, 0.3858482837677002, 0.4228571355342865, 0.561867892742157, 0.6871739029884338, 0.7578978538513184, 0.7286534905433655, 0.7769101858139038, 0.7771173715591431, 0.6893012523651123, 0.6547673344612122, 0.5486062169075012, 0.41666680574417114, 0.295905739068985, 0.1838618814945221, 0.15234507620334625, 0.13832153379917145, 0.11268740892410278, 0.11616411060094833, 0.03767886757850647, -0.02112572081387043, -0.02946195937693119, -0.06934046745300293, -0.08199845254421234, -0.18506859242916107, -0.21518366038799286, -0.18628248572349548, -0.17143645882606506, -0.19878321886062622, -0.18833662569522858, -0.09834347665309906, -0.019445039331912994, -0.10166426002979279, -0.08786977082490921, -0.04590316116809845, 0.014426570385694504, 0.09270153939723969, 0.08889898657798767, 0.09047110378742218, 0.11899732798337936, 0.07070356607437134, 0.0070033809170126915, -0.044610507786273956, -0.08105693757534027, -0.05376194790005684, -0.004654027055948973, 0.03925551846623421, 0.011548386886715889, 0.0020346224773675203, -0.001045010518282652, 0.018485555425286293, 0.007058168761432171, -0.09955954551696777, -0.16946303844451904, -0.20186035335063934, -0.17857380211353302, -0.14295150339603424, -0.15341518819332123, -0.12291838973760605, -0.05063724145293236, -0.09317581355571747, -0.11586244404315948, -0.16740959882736206, -0.22616837918758392, -0.24043036997318268, -0.22299222648143768, -0.20960633456707, -0.264907568693161, -0.2958689332008362, -0.32740074396133423, -0.36515310406684875, -0.3989576995372772, -0.45335525274276733, -0.5199704766273499, -0.5451345443725586, -0.532598614692688, -0.5084692239761353, -0.4772181212902069, -0.4405004680156708, -0.3955179452896118, -0.36594125628471375, -0.3538469970226288, -0.31406277418136597, -0.20798100531101227, -0.035439878702163696, 0.15493808686733246, 0.22727857530117035, 0.29987549781799316, 0.38427436351776123, 0.3849989175796509, 0.42686229944229126, 0.448119193315506, 0.564309298992157, 0.6049794554710388, 0.6245059370994568, 0.7330886125564575, 0.7737427949905396, 0.7752991914749146, 0.8135503530502319]
========
sigma2_stimulus	7.014023140072823e-08	log_motor_var	0.010510602034628391	sigma_logit	5.901529220864177e-08	mixture_logit	9.275709089706652e-10	prior	8.000299203558825e-06	volume	3.6213350540492684e-08
