0.03257953003048897 CrossValid 102.78108215332031 CrossValidLossesBy500 777.7623291015625 697.3651733398438 559.768798828125 441.69384765625 352.4250183105469 286.19488525390625 236.47178649902344 199.5570831298828 172.6208953857422 153.52928161621094 140.359130859375 131.3806915283203 125.27201843261719 120.916259765625 117.81930541992188 115.83851623535156 113.84552001953125 112.52377319335938 111.56011199951172 110.54303741455078 109.88076782226562 109.0814208984375 108.55729675292969 108.03851318359375 107.59009552001953 107.18416595458984 106.81722259521484 106.62345886230469 106.42770385742188 106.0182876586914 105.7764892578125 105.56863403320312 105.47341918945312 105.16908264160156 105.07357788085938 104.8791275024414 104.85459899902344 104.70524597167969 104.55416107177734 104.41806030273438 104.35331726074219 104.24951171875 104.21449279785156 104.16458892822266 104.18792724609375 104.05317687988281 103.9831771850586 103.91357421875 103.89463806152344 103.89910888671875 103.95346069335938 104.03974914550781 104.0772933959961 103.8916244506836 103.93904876708984 103.94593048095703 103.94099426269531 103.91055297851562 103.87054443359375 103.99251556396484 104.08797454833984 103.2654037475586 103.20905303955078 103.07478332519531 102.99608612060547 102.9947280883789 102.98033142089844 103.03231811523438 102.9814224243164 102.9310302734375 102.99791717529297 102.83030700683594 102.8924331665039 102.84515380859375 102.83345031738281 102.87910461425781 102.8473892211914 102.88858032226562 102.78108215332031
39500 LossesBy500_1 0.25682002305984497 0.2292821705341339 0.18451863527297974 0.1457078754901886 0.11624263972043991 0.094437375664711 0.07822027057409286 0.06621997058391571 0.05749411880970001 0.05133099853992462 0.04710082709789276 0.04423069581389427 0.04227840155363083 0.0408751517534256 0.03985908254981041 0.039186328649520874 0.0384945310652256 0.03801398351788521 0.03763975203037262 0.03724902868270874 0.036964114755392075 0.03663472831249237 0.03639250621199608 0.036148522049188614 0.03592902421951294 0.0357232540845871 0.03553318604826927 0.03539755567908287 0.035267800092697144 0.03507175296545029 0.03493066504597664 0.034803587943315506 0.034715913236141205 0.034562453627586365 0.034477926790714264 0.03436114639043808 0.03429819643497467 0.03420315682888031 0.03410845994949341 0.034015413373708725 0.03394989296793938 0.033873021602630615 0.03382044658064842 0.03376142680644989 0.03372720256447792 0.033644139766693115 0.03357620909810066 0.033507756888866425 0.033454544842243195 0.033407725393772125 0.03337899595499039 0.03335636109113693 0.033324990421533585 0.03322930261492729 0.033205971121788025 0.03317400813102722 0.03313925489783287 0.033100675791502 0.03306137025356293 0.03307170048356056 0.03307972103357315 0.032847482711076736 0.03281661123037338 0.03276997432112694 0.03273863345384598 0.032727502286434174 0.0327109657227993 0.03271908685564995 0.0326944962143898 0.03266904130578041 0.03268308937549591 0.03262773156166077 0.03264223784208298 0.032624587416648865 0.03261534124612808 0.03262442350387573 0.032609812915325165 0.032619304955005646 0.03257953003048897
sigma2_stimulus 	 [4.670010566711426, 2.9109222888946533]
log_motor_var 	 [7.763047218322754]
sigma_logit 	 [-6.465570449829102, -6.440548896789551, -7.20306396484375]
mixture_logit 	 [-4.414508819580078]
prior 	 [1.0]
volume 	 [0.2684180438518524, 0.2257581502199173, 0.2070043534040451, 0.1341705471277237, 0.14136549830436707, 0.1527833789587021, 0.1796404868364334, 0.12761934101581573, 0.1790105253458023, 0.255007266998291, 0.32440096139907837, 0.2784915268421173, 0.3044600188732147, 0.2097804844379425, 0.11724375933408737, 0.08164828270673752, 0.1729697436094284, 0.14921097457408905, 0.16082990169525146, 0.12143618613481522, 0.05727525055408478, 0.02843431942164898, 0.032103683799505234, 0.001178727950900793, -0.0698881596326828, -0.15708047151565552, -0.21839329600334167, -0.2606469988822937, -0.2784681022167206, -0.3099091351032257, -0.2919349670410156, -0.2920397222042084, -0.33593788743019104, -0.3081943690776825, -0.28781282901763916, -0.27370375394821167, -0.22490738332271576, -0.234744593501091, -0.25680696964263916, -0.24366284906864166, -0.19020216166973114, -0.18753287196159363, -0.17899547517299652, -0.12385668605566025, -0.07386570423841476, -0.12068386375904083, -0.10377135127782822, -0.08843368291854858, -0.07432710379362106, 0.006998022552579641, -0.03033743053674698, -0.059524282813072205, -0.107054702937603, -0.08405245840549469, -0.034066736698150635, -0.0685281828045845, -0.04155744984745979, 0.0023341411724686623, -0.0348074808716774, -0.059839390218257904, -0.03346667438745499, 0.015543202869594097, 0.0033390712924301624, 0.04085617884993553, 0.12576723098754883, 0.1319146603345871, 0.12421707063913345, 0.1481790840625763, 0.12180165201425552, 0.07091717422008514, 0.0906105488538742, 0.21939928829669952, 0.2156217098236084, 0.08766698837280273, 0.11616570502519608, 0.10928961634635925, 0.1052660346031189, 0.12298653274774551, 0.2148190140724182, 0.1887258142232895, 0.1463274210691452, 0.1517978012561798, 0.15429887175559998, 0.14935402572155, 0.1605340540409088, 0.1225452795624733, 0.1867433339357376, 0.3241741955280304, 0.3103931248188019, 0.3170839846134186, 0.31026995182037354, 0.2506633996963501, 0.2497565746307373, 0.2398948073387146, 0.2546679973602295, 0.24802619218826294, 0.18826675415039062, 0.12307928502559662, 0.16091208159923553, 0.1541571021080017, 0.08007881045341492, 0.08147765696048737, 0.1452322006225586, 0.12386852502822876, 0.08254294842481613, 0.11244836449623108, 0.04618753120303154, -0.003474040888249874, -0.09906208515167236, -0.09300018101930618, -0.02355634979903698, -0.03283461183309555, -0.054884172976017, -0.11443886160850525, -0.09956608712673187, -0.043709393590688705, -0.0708603784441948, -0.07970760762691498, -0.10122250765562057, -0.08615152537822723, -0.0856265053153038, -0.03494597226381302, -0.08635823428630829, -0.12522172927856445, -0.1698581874370575, -0.19461941719055176, -0.17289330065250397, -0.181678906083107, -0.16995853185653687, -0.14465010166168213, -0.16314402222633362, -0.14976200461387634, -0.17698273062705994, -0.20307475328445435, -0.19580239057540894, -0.18427787721157074, -0.20184391736984253, -0.15487171709537506, -0.17415527999401093, -0.23412637412548065, -0.2003202885389328, -0.2349623739719391, -0.2304248809814453, -0.22326263785362244, -0.23532788455486298, -0.22019021213054657, -0.21749597787857056, -0.15269367396831512, -0.1907038688659668, -0.24901245534420013, -0.30498820543289185, -0.29175618290901184, -0.25491204857826233, -0.2107532024383545, -0.15517209470272064, -0.15687550604343414, -0.12505441904067993, -0.052679792046546936, -0.024148287251591682, -0.03426293283700943, -0.06386234611272812, -0.011087283492088318, -0.022412290796637535, -0.014380020089447498, 0.05130436643958092, 0.03840693086385727, 0.11300262063741684, 0.14035533368587494, 0.11710197478532791, 0.15310817956924438, 0.13006596267223358, 0.14017236232757568, 0.12458602339029312, 0.20386849343776703, 0.1556987762451172, 0.2095080465078354, 0.26170623302459717, 0.34684988856315613, 0.2187546342611313, 0.27021315693855286]
