0.03105003759264946 CrossValid 109.62649536132812 CrossValidLossesBy500 649.7698364257812 474.81915283203125 310.2801208496094 212.39825439453125 159.9329833984375 135.29600524902344 124.8340835571289 120.37704467773438 118.04814147949219 116.73889923095703 115.79792785644531 115.16326904296875 114.50856018066406 114.06878662109375 113.60958099365234 113.24069213867188 112.8736801147461 112.46537780761719 112.10337829589844 111.8411636352539 111.61294555664062 111.30265808105469 111.04781341552734 110.83606719970703 110.6629867553711 110.48564147949219 110.27652740478516 110.15293884277344 109.98978424072266 109.87943267822266 109.79022979736328 109.66229248046875 109.6061782836914 109.53128814697266 109.45700073242188 109.37682342529297 109.31776428222656 109.2712173461914 109.27629089355469 109.21928405761719 109.2325439453125 109.22355651855469 109.2046127319336 109.22212219238281 109.24919128417969 109.26610565185547 109.28721618652344 109.29035186767578 109.33482360839844 109.38885498046875 109.43378448486328 109.43367004394531 109.42581939697266 109.45057678222656 109.45550537109375 109.47972106933594 109.5455093383789 109.50027465820312 109.54324340820312 109.5794906616211 109.57471466064453 109.5766372680664 109.59425354003906 109.59183502197266 109.64590454101562 109.64645385742188 109.64480590820312 109.62649536132812
34000 LossesBy500_3 0.22618572413921356 0.16413439810276031 0.10570283979177475 0.07109243422746658 0.052334532141685486 0.04321083426475525 0.03904572129249573 0.03704362362623215 0.03587290272116661 0.035123683512210846 0.03457328677177429 0.0341782346367836 0.033822402358055115 0.03355971723794937 0.03332272544503212 0.033124521374702454 0.03294629976153374 0.03276997432112694 0.032623354345560074 0.03250471130013466 0.032394956797361374 0.0322786383330822 0.032171644270420074 0.03208902105689049 0.032018084079027176 0.031939659267663956 0.03186209872364998 0.03180623799562454 0.03173944726586342 0.03169940412044525 0.03164874017238617 0.03159486874938011 0.03155875578522682 0.031521786004304886 0.03147995471954346 0.03144131228327751 0.03140285983681679 0.03137100487947464 0.031357020139694214 0.031317371875047684 0.03130393475294113 0.031280968338251114 0.0312519446015358 0.03123871609568596 0.031228384003043175 0.03121197037398815 0.031191622838377953 0.03117886371910572 0.031168576329946518 0.031162897124886513 0.031150497496128082 0.031124450266361237 0.03111768327653408 0.031113633885979652 0.031104382127523422 0.0310946237295866 0.03110017068684101 0.0310727059841156 0.031084250658750534 0.031086457893252373 0.031079405918717384 0.031072191894054413 0.031071554869413376 0.031060725450515747 0.0310744009912014 0.03106898069381714 0.031063303351402283 0.03105003759264946
sigma2_stimulus 	 [5.040419101715088, 2.793578624725342]
log_motor_var 	 [7.4412312507629395]
sigma_logit 	 [-6.394222736358643, -6.536057949066162, -7.2631988525390625]
mixture_logit 	 [-4.673556804656982]
prior 	 [1.0]
volume 	 [0.12529894709587097, 0.22932492196559906, 0.18310442566871643, 0.14771874248981476, 0.1251346468925476, 0.1893162876367569, 0.28137996792793274, 0.28266406059265137, 0.2468763142824173, 0.26600468158721924, 0.4010791480541229, 0.28490036725997925, 0.2259935736656189, 0.15333983302116394, 0.11255650967359543, 0.13947182893753052, 0.12580128014087677, 0.12689587473869324, 0.08417147397994995, 0.032472364604473114, -0.0572676844894886, -0.11163090169429779, -0.18974445760250092, -0.1822556108236313, -0.17587457597255707, -0.22778335213661194, -0.26989829540252686, -0.29226621985435486, -0.25879478454589844, -0.18855492770671844, -0.1922321617603302, -0.223872572183609, -0.23226229846477509, -0.24746279418468475, -0.2415347695350647, -0.22143876552581787, -0.2308802306652069, -0.25195804238319397, -0.23698292672634125, -0.20780572295188904, -0.17878149449825287, -0.18181857466697693, -0.19987519085407257, -0.19646696746349335, -0.12669484317302704, -0.07920843362808228, -0.10914932191371918, -0.09270979464054108, -0.05970369279384613, -0.09042080491781235, -0.141060933470726, -0.09431203454732895, -0.03125545382499695, -0.047514110803604126, -0.06491999328136444, -0.03859205171465874, -0.06631383299827576, -0.13276450335979462, -0.12596704065799713, -0.03690873086452484, 0.059838857501745224, 0.03629332408308983, 0.06799101829528809, 0.08665849268436432, 0.005525955464690924, -0.005662291776388884, 0.06487875431776047, 0.06902214884757996, 0.0976397842168808, 0.12648189067840576, 0.13493579626083374, 0.1073344498872757, 0.10510849207639694, 0.1697503924369812, 0.2264261543750763, 0.28138259053230286, 0.2913350462913513, 0.3154202401638031, 0.2874717116355896, 0.28036928176879883, 0.2677348256111145, 0.2912558913230896, 0.34066858887672424, 0.266320139169693, 0.29043108224868774, 0.3693745732307434, 0.383981317281723, 0.32121700048446655, 0.3450219929218292, 0.40096035599708557, 0.392690509557724, 0.3839593231678009, 0.47658705711364746, 0.3764062821865082, 0.340287983417511, 0.34920451045036316, 0.3059379756450653, 0.28277286887168884, 0.26741012930870056, 0.15898668766021729, 0.11194441467523575, 0.10934168845415115, 0.11340048909187317, 0.08371502161026001, -0.0019918731413781643, -0.02414914220571518, -0.05428929626941681, -0.09157083928585052, -0.08210533857345581, -0.04814859479665756, 0.035272277891635895, 0.12811201810836792, 0.03816621005535126, 0.04484270513057709, 0.0063231284730136395, -0.028849486261606216, -0.03130491450428963, -0.018603689968585968, -0.02247082255780697, -0.012750590220093727, -0.07046254724264145, -0.08091991394758224, -0.05670494958758354, -0.07260268181562424, -0.1492268294095993, -0.13427972793579102, -0.14337500929832458, -0.11238186806440353, -0.15930278599262238, -0.2073758989572525, -0.22503690421581268, -0.22502948343753815, -0.17451128363609314, -0.15990962088108063, -0.22270174324512482, -0.24536390602588654, -0.22414785623550415, -0.15857282280921936, -0.12038342654705048, -0.13316430151462555, -0.14327076077461243, -0.15813511610031128, -0.20842520892620087, -0.3033527731895447, -0.3350066542625427, -0.2871938645839691, -0.22238090634346008, -0.1881577968597412, -0.18453742563724518, -0.19527651369571686, -0.24755138158798218, -0.2649358808994293, -0.24856454133987427, -0.2690218389034271, -0.2780771553516388, -0.30076780915260315, -0.283710241317749, -0.24278844892978668, -0.17913365364074707, -0.09802472591400146, -0.07784945517778397, 0.005190485157072544, 0.10163304954767227, 0.12427026778459549, 0.15442216396331787, 0.06780338287353516, 0.041639719158411026, 0.04646242409944534, 0.03063015453517437, 0.0527922585606575, -0.02228044532239437, -0.04209699481725693, -0.02080160193145275, 0.026755765080451965, -0.009666208177804947, -0.020150935277342796, 0.00977050606161356, -0.01064985804259777, 0.07375364750623703, 0.07927526533603668]
