0.035667289048433304 CrossValid 109.59259033203125 CrossValidLossesBy500 648.700439453125 474.42376708984375 307.4134826660156 208.91339111328125 156.5198516845703 131.68264770507812 121.08010864257812 116.598388671875 114.51008605957031 113.3326187133789 112.59429168701172 112.09812927246094 111.77534484863281 111.55423736572266 111.29801177978516 111.09088897705078 111.01007080078125 110.82726287841797 110.6944351196289 110.54658508300781 110.4647445678711 110.35550689697266 110.31734466552734 110.23638916015625 110.1418228149414 110.0898666381836 110.01185607910156 109.98101806640625 109.89241027832031 109.88528442382812 109.84695434570312 109.79479217529297 109.77564239501953 109.74295806884766 109.69050598144531 109.67327117919922 109.62821960449219 109.66919708251953 109.61463165283203 109.60436248779297 109.62368774414062 109.59259033203125
21000 LossesBy500_4 0.22627350687980652 0.16535693407058716 0.10697292536497116 0.07239801436662674 0.053722552955150604 0.044595248997211456 0.0405227392911911 0.038687512278556824 0.03776036947965622 0.03720558434724808 0.036844562739133835 0.036600060760974884 0.0364392027258873 0.03633033111691475 0.036222007125616074 0.03613874316215515 0.0361056849360466 0.03604048863053322 0.03599537909030914 0.035946328192949295 0.03592124208807945 0.03588704392313957 0.03587808087468147 0.03585290163755417 0.03582385927438736 0.03580924868583679 0.0357859842479229 0.0357789546251297 0.03575057163834572 0.03575104475021362 0.03573991358280182 0.03572436049580574 0.03572017699480057 0.03571004420518875 0.03569335862994194 0.03568846359848976 0.035674624145030975 0.035689834505319595 0.035672079771757126 0.03566969931125641 0.03567757084965706 0.035667289048433304
sigma2_stimulus 	 [4.150990962982178, 2.7509725093841553]
log_motor_var 	 [7.421840190887451]
sigma_logit 	 [-6.435558319091797, -6.480495929718018, -7.481842994689941]
mixture_logit 	 [-4.310168743133545]
prior 	 [-0.024287471547722816, -0.025072921067476273, -0.024470705538988113, -0.022373346611857414, -0.018800931051373482, -0.013888489454984665, -0.00785806868225336, -0.0009915424743667245, 0.006388130597770214, 0.013934708200395107, 0.02130884863436222, 0.028234386816620827, 0.03454836830496788, 0.04023165628314018, 0.04541444405913353, 0.050280530005693436, 0.05498113855719566, 0.05952915549278259, 0.06376435607671738, 0.06733997166156769, 0.06983699649572372, 0.07080519944429398, 0.06990603357553482, 0.067034050822258, 0.06232780963182449, 0.05618729442358017, 0.0491994246840477, 0.042010582983493805, 0.03520296886563301, 0.029196515679359436, 0.024226795881986618, 0.020348403602838516, 0.017480283975601196, 0.015450505539774895, 0.014044221490621567, 0.013052464462816715, 0.012327292002737522, 0.01183435320854187, 0.01167319156229496, 0.012043577618896961, 0.01316598430275917, 0.015169047750532627, 0.017999783158302307, 0.021378882229328156, 0.024839196354150772, 0.02781299501657486, 0.029759924858808517, 0.030277114361524582, 0.029163489118218422, 0.02642359770834446, 0.022227799519896507, 0.016845058649778366, 0.010593336075544357, 0.0037963641807436943, -0.003242389764636755, -0.010263602249324322, -0.01707351580262184, -0.023559998720884323, -0.029698865488171577, -0.03553633391857147, -0.0411665104329586, -0.04668913781642914, -0.052163928747177124, -0.05755257606506348, -0.06276050955057144, -0.06762943416833878, -0.07198525220155716, -0.0757475346326828, -0.07891185581684113, -0.081602543592453, -0.08401317149400711, -0.08634772151708603, -0.08875417709350586, -0.09124965220689774, -0.09371283650398254, -0.09590516984462738, -0.09752263873815536, -0.09833351522684097, -0.09822022169828415, -0.09724348783493042, -0.09562279284000397, -0.09364760667085648, -0.09163404256105423, -0.08983999490737915, -0.08844060450792313, -0.08752162754535675, -0.08709090948104858, -0.0870233103632927, -0.08710188418626785, -0.08701475709676743, -0.08640258014202118, -0.08498165756464005, -0.0826108381152153, -0.0793696865439415, -0.07556245476007462, -0.07164571434259415, -0.06807825714349747, -0.0651848092675209, -0.06301532685756683, -0.06133159622550011, -0.05968165397644043, -0.0575236901640892, -0.0543956495821476, -0.050022561103105545, -0.044367216527462006, -0.037635259330272675, -0.03025316633284092, -0.022820627316832542, -0.016063446179032326, -0.010725688189268112, -0.0074290013872087, -0.006511099636554718, -0.007905596867203712, -0.011115165427327156, -0.01529568899422884, -0.019421357661485672, -0.022486435249447823, -0.02368340641260147, -0.02252902090549469, -0.018937483429908752, -0.013215956278145313, -0.005989693570882082, 0.001937989378347993, 0.009769619442522526, 0.016890069469809532, 0.0229798574000597, 0.028030144050717354, 0.03225955739617348, 0.035981643944978714, 0.03946175053715706, 0.04283909872174263, 0.04610138013958931, 0.04911544919013977, 0.0516841746866703, 0.05360518768429756, 0.05470086261630058, 0.05484979599714279, 0.05399831384420395, 0.052194755524396896, 0.049612708389759064, 0.046588070690631866, 0.04362067952752113, 0.041326526552438736, 0.04034794121980667, 0.0412321500480175, 0.044313494116067886, 0.04960678145289421, 0.05677453428506851, 0.06516027450561523, 0.07389333844184875, 0.08203192055225372, 0.08874443173408508, 0.0934685543179512, 0.09601309150457382, 0.09646277874708176, 0.09515593200922012, 0.09247799962759018, 0.08881501108407974, 0.08445005863904953, 0.07959269732236862, 0.07440052181482315, 0.06898734718561172, 0.06342850625514984, 0.05777370557188988, 0.052033472806215286, 0.04619362950325012, 0.04024612903594971, 0.034228526055812836, 0.028191344812512398, 0.022235849872231483, 0.01646382547914982, 0.010959950275719166, 0.005768355447798967, 0.0008942691492848098, -0.0036946823820471764, -0.008041729219257832, -0.012165173888206482, -0.016023559495806694, -0.01948516070842743, -0.022332100197672844]
volume 	 [0.0, 0.0, 0.0, 0.0, 0.0, 0.0, 0.0, 0.0, 0.0, 0.0, 0.0, 0.0, 0.0, 0.0, 0.0, 0.0, 0.0, 0.0, 0.0, 0.0, 0.0, 0.0, 0.0, 0.0, 0.0, 0.0, 0.0, 0.0, 0.0, 0.0, 0.0, 0.0, 0.0, 0.0, 0.0, 0.0, 0.0, 0.0, 0.0, 0.0, 0.0, 0.0, 0.0, 0.0, 0.0, 0.0, 0.0, 0.0, 0.0, 0.0, 0.0, 0.0, 0.0, 0.0, 0.0, 0.0, 0.0, 0.0, 0.0, 0.0, 0.0, 0.0, 0.0, 0.0, 0.0, 0.0, 0.0, 0.0, 0.0, 0.0, 0.0, 0.0, 0.0, 0.0, 0.0, 0.0, 0.0, 0.0, 0.0, 0.0, 0.0, 0.0, 0.0, 0.0, 0.0, 0.0, 0.0, 0.0, 0.0, 0.0, 0.0, 0.0, 0.0, 0.0, 0.0, 0.0, 0.0, 0.0, 0.0, 0.0, 0.0, 0.0, 0.0, 0.0, 0.0, 0.0, 0.0, 0.0, 0.0, 0.0, 0.0, 0.0, 0.0, 0.0, 0.0, 0.0, 0.0, 0.0, 0.0, 0.0, 0.0, 0.0, 0.0, 0.0, 0.0, 0.0, 0.0, 0.0, 0.0, 0.0, 0.0, 0.0, 0.0, 0.0, 0.0, 0.0, 0.0, 0.0, 0.0, 0.0, 0.0, 0.0, 0.0, 0.0, 0.0, 0.0, 0.0, 0.0, 0.0, 0.0, 0.0, 0.0, 0.0, 0.0, 0.0, 0.0, 0.0, 0.0, 0.0, 0.0, 0.0, 0.0, 0.0, 0.0, 0.0, 0.0, 0.0, 0.0, 0.0, 0.0, 0.0, 0.0, 0.0, 0.0, 0.0, 0.0, 0.0, 0.0, 0.0, 0.0]
