0.03216716647148132 CrossValid 120.63465118408203 CrossValidLossesBy500 121.62698364257812 120.97848510742188 120.16019439697266 120.56840515136719 120.6393051147461 120.6346206665039 120.63465118408203
3500 LossesBy500 0.03321674093604088 0.032546717673540115 0.032247088849544525 0.03217379376292229 0.032168611884117126 0.03216718137264252 0.03216716647148132
sigma2_stimulus 	 [8.303231239318848, 3.100072145462036]
log_motor_var 	 [6.545424938201904]
sigma_logit 	 [-6.199948310852051, -6.287314414978027, -6.9899091720581055]
mixture_logit 	 [-4.637249946594238]
prior 	 [0.42784735560417175, 0.36329594254493713, 0.33153557777404785, 0.3663969933986664, 0.42348429560661316, 0.4200280010700226, 0.34487974643707275, 0.2721526026725769, 0.2636897563934326, 0.3071107864379883, 0.337815523147583, 0.3170224130153656, 0.2719064950942993, 0.24615426361560822, 0.24900493025779724, 0.2614978551864624, 0.269450843334198, 0.2770225405693054, 0.2918533682823181, 0.31029242277145386, 0.3198084235191345, 0.312925785779953, 0.29957273602485657, 0.30275967717170715, 0.3352033495903015, 0.37966981530189514, 0.4019966721534729, 0.39251527190208435, 0.3782234191894531, 0.3839094042778015, 0.4026787579059601, 0.4111134707927704, 0.39974847435951233, 0.3761553466320038, 0.3486729860305786, 0.32300955057144165, 0.3056353032588959, 0.2960180640220642, 0.28132686018943787, 0.25223299860954285, 0.21926116943359375, 0.1984829604625702, 0.18672288954257965, 0.16594171524047852, 0.13060589134693146, 0.09341803193092346, 0.061835095286369324, 0.02807346172630787, -0.01193443313241005, -0.045601215213537216, -0.0625392496585846, -0.07793620973825455, -0.1215323880314827, -0.19634610414505005, -0.2653203010559082, -0.290641725063324, -0.27319368720054626, -0.2529744505882263, -0.2720806300640106, -0.334617018699646, -0.40837201476097107, -0.4568745493888855, -0.4636082351207733, -0.44127172231674194, -0.4266775846481323, -0.451785147190094, -0.5068511366844177, -0.5489975214004517, -0.5522271394729614, -0.5366615056991577, -0.542390763759613, -0.5731879472732544, -0.5938382148742676, -0.5880247354507446, -0.5868301391601562, -0.6217159628868103, -0.6645433306694031, -0.6613984107971191, -0.6074416637420654, -0.564544141292572, -0.5928981304168701, -0.662106454372406, -0.6929361820220947, -0.6558700799942017, -0.5961108207702637, -0.5805481672286987, -0.6173996329307556, -0.655420184135437, -0.6537650227546692, -0.6141436696052551, -0.5691959261894226, -0.5552424192428589, -0.5813590288162231, -0.6170684099197388, -0.6189771890640259, -0.5729812383651733, -0.5121943354606628, -0.48797646164894104, -0.5071685910224915, -0.530529797077179, -0.5235413312911987, -0.4855550229549408, -0.4376998245716095, -0.39963299036026, -0.3803435266017914, -0.3791438937187195, -0.38357052206993103, -0.3742843270301819, -0.3413486182689667, -0.2924945652484894, -0.24489599466323853, -0.21635058522224426, -0.22130617499351501, -0.2544461190700531, -0.2777763307094574, -0.25051555037498474, -0.1781500279903412, -0.12108882516622543, -0.1274908185005188, -0.15952061116695404, -0.1408500373363495, -0.05277194455265999, 0.039265718311071396, 0.05846845358610153, 0.02869190089404583, 0.04366936907172203, 0.1413612961769104, 0.2525443732738495, 0.27166399359703064, 0.20896099507808685, 0.17854300141334534, 0.24450135231018066, 0.3564833402633667, 0.4021863639354706, 0.3488689959049225, 0.2831650674343109, 0.2844531238079071, 0.3501410186290741, 0.4183601438999176, 0.4362263083457947, 0.4077160954475403, 0.37377387285232544, 0.37232768535614014, 0.4179593026638031, 0.49091723561286926, 0.5410752296447754, 0.5306586027145386, 0.4823353588581085, 0.45399218797683716, 0.47351181507110596, 0.5146313309669495, 0.5299575328826904, 0.5087671279907227, 0.48650291562080383, 0.4941357374191284, 0.5215336084365845, 0.5339177846908569, 0.5180728435516357, 0.49627554416656494, 0.4867437183856964, 0.47511526942253113, 0.43606996536254883, 0.3784283995628357, 0.34340721368789673, 0.3571335971355438, 0.3991880416870117, 0.4155576527118683, 0.3870317339897156, 0.3501422703266144, 0.34275463223457336, 0.3626690208911896, 0.3817192614078522, 0.39035215973854065, 0.39819929003715515, 0.4024083614349365, 0.3867790400981903, 0.3631370961666107, 0.36890843510627747, 0.41407978534698486, 0.451833039522171]
volume 	 [0.0, 0.0, 0.0, 0.0, 0.0, 0.0, 0.0, 0.0, 0.0, 0.0, 0.0, 0.0, 0.0, 0.0, 0.0, 0.0, 0.0, 0.0, 0.0, 0.0, 0.0, 0.0, 0.0, 0.0, 0.0, 0.0, 0.0, 0.0, 0.0, 0.0, 0.0, 0.0, 0.0, 0.0, 0.0, 0.0, 0.0, 0.0, 0.0, 0.0, 0.0, 0.0, 0.0, 0.0, 0.0, 0.0, 0.0, 0.0, 0.0, 0.0, 0.0, 0.0, 0.0, 0.0, 0.0, 0.0, 0.0, 0.0, 0.0, 0.0, 0.0, 0.0, 0.0, 0.0, 0.0, 0.0, 0.0, 0.0, 0.0, 0.0, 0.0, 0.0, 0.0, 0.0, 0.0, 0.0, 0.0, 0.0, 0.0, 0.0, 0.0, 0.0, 0.0, 0.0, 0.0, 0.0, 0.0, 0.0, 0.0, 0.0, 0.0, 0.0, 0.0, 0.0, 0.0, 0.0, 0.0, 0.0, 0.0, 0.0, 0.0, 0.0, 0.0, 0.0, 0.0, 0.0, 0.0, 0.0, 0.0, 0.0, 0.0, 0.0, 0.0, 0.0, 0.0, 0.0, 0.0, 0.0, 0.0, 0.0, 0.0, 0.0, 0.0, 0.0, 0.0, 0.0, 0.0, 0.0, 0.0, 0.0, 0.0, 0.0, 0.0, 0.0, 0.0, 0.0, 0.0, 0.0, 0.0, 0.0, 0.0, 0.0, 0.0, 0.0, 0.0, 0.0, 0.0, 0.0, 0.0, 0.0, 0.0, 0.0, 0.0, 0.0, 0.0, 0.0, 0.0, 0.0, 0.0, 0.0, 0.0, 0.0, 0.0, 0.0, 0.0, 0.0, 0.0, 0.0, 0.0, 0.0, 0.0, 0.0, 0.0, 0.0, 0.0, 0.0, 0.0, 0.0, 0.0, 0.0]
========
sigma2_stimulus	1.7969323380384594e-05	log_motor_var	0.00020343520736787468	sigma_logit	7.101334631443024e-08	mixture_logit	2.4000655685085803e-08	prior	3.925170403817901e-06	volume	0.0
