0.03074849210679531 CrossValid 112.51715850830078 CrossValidLossesBy500 649.1869506835938 476.5082702636719 312.53814697265625 216.06396484375 164.84307861328125 141.54396057128906 131.71890258789062 126.96159362792969 124.42449951171875 122.66901397705078 121.4610366821289 120.32830047607422 119.47242736816406 118.77484130859375 118.15667724609375 117.60779571533203 117.08104705810547 116.62510681152344 116.17530059814453 115.78096008300781 115.47351837158203 115.18986511230469 114.93754577636719 114.62712860107422 114.42417907714844 114.25991821289062 114.10906982421875 113.93965148925781 113.83781433105469 113.72897338867188 113.6129379272461 113.51251983642578 113.44976043701172 113.37739562988281 113.30134582519531 113.20054626464844 113.13494873046875 113.08052062988281 113.04183959960938 113.006591796875 112.93426513671875 112.81302642822266 112.76329040527344 112.74217224121094 112.70964050292969 112.68034362792969 112.68296813964844 112.63355255126953 112.61991119384766 112.61603546142578 112.55488586425781 112.58999633789062 112.53776550292969 112.54363250732422 112.55615234375 112.54714965820312 112.53622436523438 112.54512786865234 112.50824737548828 112.54556274414062 112.54608917236328 112.52974700927734 112.51421356201172 112.53179168701172 112.51409912109375 112.52003479003906 112.54560852050781 112.51715850830078
34000 LossesBy500_1 0.2261952906847 0.16495831310749054 0.10634173452854156 0.07130765914916992 0.05209791287779808 0.04285915940999985 0.03868008032441139 0.03655705228447914 0.03538217023015022 0.03458922356367111 0.034050676971673965 0.033598706126213074 0.033260636031627655 0.03299586474895477 0.032774899154901505 0.032581865787506104 0.032401300966739655 0.03224973380565643 0.03210372477769852 0.031975165009498596 0.0318758450448513 0.03178508207201958 0.031704459339380264 0.03160026669502258 0.031532227993011475 0.031475622206926346 0.031423360109329224 0.03136225417256355 0.03132478520274162 0.03128409385681152 0.031240366399288177 0.031202422454953194 0.03117770329117775 0.03115079551935196 0.031122153624892235 0.031084539368748665 0.03106064349412918 0.031038304790854454 0.03102518990635872 0.031011369079351425 0.030985109508037567 0.030949048697948456 0.030928969383239746 0.030919969081878662 0.030906284227967262 0.03089330345392227 0.030891651287674904 0.030871063470840454 0.030862392857670784 0.030855778604745865 0.030827617272734642 0.03083442524075508 0.03081144019961357 0.030809856951236725 0.03081001341342926 0.03080195188522339 0.030794989317655563 0.030794575810432434 0.030777668580412865 0.030784718692302704 0.03078106790781021 0.030771387740969658 0.030762357637286186 0.030764427036046982 0.030756276100873947 0.030755139887332916 0.030760977417230606 0.03074849210679531
sigma2_stimulus 	 [4.88456392288208, 2.8062875270843506]
log_motor_var 	 [7.452033042907715]
sigma_logit 	 [-6.452822685241699, -6.486387252807617, -7.229713439941406]
mixture_logit 	 [-4.674667835235596]
prior 	 [0.05469604954123497, 0.05756750330328941, 0.060830071568489075, 0.06446032971143723, 0.0685044676065445, 0.07302983105182648, 0.07803768664598465, 0.08345972746610641, 0.0891730785369873, 0.09498221427202225, 0.10063343495130539, 0.10590516775846481, 0.11067647486925125, 0.1149863451719284, 0.11903825402259827, 0.12307656556367874, 0.12719903886318207, 0.13117077946662903, 0.13432443141937256, 0.13566000759601593, 0.1342155784368515, 0.12935568392276764, 0.12099643051624298, 0.10966472327709198, 0.09629996120929718, 0.08196903765201569, 0.0676233172416687, 0.05396440997719765, 0.041395362466573715, 0.03008219040930271, 0.0200122632086277, 0.011066651903092861, 0.0030574174597859383, -0.004242478404194117, -0.011065506376326084, -0.017607050016522408, -0.023980075493454933, -0.030191250145435333, -0.03613113984465599, -0.04160227254033089, -0.046362634748220444, -0.05020356550812721, -0.05297756940126419, -0.054639022797346115, -0.055224865674972534, -0.05482485890388489, -0.053551387041807175, -0.0515567772090435, -0.049077607691287994, -0.0465058796107769, -0.04440409317612648, -0.04341690614819527, -0.04411427676677704, -0.046773072332143784, -0.05124829337000847, -0.056999772787094116, -0.06324046850204468, -0.0691940188407898, -0.07430727779865265, -0.0782715305685997, -0.0810396671295166, -0.08265022188425064, -0.08313506096601486, -0.08254822343587875, -0.08093713968992233, -0.07850953191518784, -0.07558057457208633, -0.07257159054279327, -0.0698811411857605, -0.06780099123716354, -0.06650309264659882, -0.06604333966970444, -0.0664006769657135, -0.06745004653930664, -0.06889673322439194, -0.07025137543678284, -0.07090834528207779, -0.07032971829175949, -0.0682588592171669, -0.06486817449331284, -0.06075947359204292, -0.056804459542036057, -0.053918108344078064, -0.05287019535899162, -0.0541781485080719, -0.058069031685590744, -0.06444218754768372, -0.07279667258262634, -0.08220457285642624, -0.09137286990880966, -0.09889931231737137, -0.103595070540905, -0.10480713099241257, -0.10259480029344559, -0.09764135628938675, -0.09101178497076035, -0.08373458683490753, -0.07644844800233841, -0.0692148506641388, -0.06161171942949295, -0.0530109629034996, -0.0429106168448925, -0.031184175983071327, -0.0181826613843441, -0.0046884347684681416, 0.008204109966754913, 0.019242113456130028, 0.027191180735826492, 0.031043635681271553, 0.030233480036258698, 0.02480829693377018, 0.015464769676327705, 0.0034423719625920057, -0.009737133979797363, -0.022571884095668793, -0.03384954854846001, -0.042809341102838516, -0.04916130751371384, -0.05298851802945137, -0.05458253622055054, -0.054284922778606415, -0.05237393453717232, -0.04903023689985275, -0.044375643134117126, -0.038550663739442825, -0.03179102763533592, -0.024484239518642426, -0.0171602014452219, -0.010450848378241062, -0.004993267357349396, -0.001328680315054953, 0.00018288439605385065, -0.0005965582095086575, -0.0035937614738941193, -0.008572517894208431, -0.01518990471959114, -0.023030292242765427, -0.031606487929821014, -0.04033515974879265, -0.048521969467401505, -0.055370885878801346, -0.060033008456230164, -0.06168707087635994, -0.05964484438300133, -0.053406793624162674, -0.04274309426546097, -0.027745811268687248, -0.00887443870306015, 0.013021119870245457, 0.036717161536216736, 0.06069466099143028, 0.08327499777078629, 0.10282424092292786, 0.11797141283750534, 0.1278664469718933, 0.13231617212295532, 0.13179846107959747, 0.12740454077720642, 0.12052936851978302, 0.11255981773138046, 0.10460855811834335, 0.09731648862361908, 0.09087440371513367, 0.08518802374601364, 0.08011586219072342, 0.07564021646976471, 0.07191772013902664, 0.06914200633764267, 0.06734273582696915, 0.06627081334590912, 0.0654270350933075, 0.06422025710344315, 0.06225469708442688, 0.05951989069581032, 0.05638753995299339, 0.053470827639102936, 0.051372092217206955, 0.050477270036935806, 0.0508669838309288, 0.052372127771377563]
volume 	 [0.11758267879486084, 0.16727212071418762, 0.16422641277313232, 0.12706603109836578, 0.08606083691120148, 0.23214563727378845, 0.21133017539978027, 0.17891818284988403, 0.16598913073539734, 0.1431385725736618, 0.24869759380817413, 0.20452047884464264, 0.1501450389623642, 0.11943908780813217, 0.08268055319786072, 0.1033528670668602, 0.11479365825653076, 0.11798457056283951, 0.0820135772228241, 0.054230332374572754, -0.003916069399565458, -0.06703406572341919, -0.12310678511857986, -0.159450501203537, -0.15230603516101837, -0.2219424992799759, -0.28529536724090576, -0.30449748039245605, -0.2890464663505554, -0.22897358238697052, -0.1852959394454956, -0.21538379788398743, -0.24585385620594025, -0.2606811225414276, -0.26174119114875793, -0.25215643644332886, -0.22775784134864807, -0.193395733833313, -0.1944054365158081, -0.1886145919561386, -0.16280029714107513, -0.12798580527305603, -0.1138695627450943, -0.09888340532779694, -0.08230245113372803, -0.03991851955652237, -0.045046065002679825, -0.04158483073115349, 0.008160681463778019, 0.0293098334223032, -0.022463584318757057, -0.00595963466912508, 0.028810804709792137, -0.007088301703333855, -0.01586560346186161, 0.0020741079933941364, -0.06491770595312119, -0.14587222039699554, -0.15773236751556396, -0.10060171037912369, -0.011932418681681156, -0.02700437419116497, 0.033917803317308426, 0.05834440141916275, -0.028085632249712944, -0.04607820138335228, 0.04110753908753395, 0.09268181025981903, 0.12376796454191208, 0.17965492606163025, 0.1824982911348343, 0.18608400225639343, 0.1755954772233963, 0.20189501345157623, 0.2579004466533661, 0.2537841498851776, 0.25011226534843445, 0.24670374393463135, 0.19095894694328308, 0.20368854701519012, 0.16872751712799072, 0.18771277368068695, 0.22994838654994965, 0.22529073059558868, 0.23036664724349976, 0.3264036774635315, 0.364688903093338, 0.3373154401779175, 0.3599018156528473, 0.41305920481681824, 0.39203885197639465, 0.36784490942955017, 0.4174005389213562, 0.31794387102127075, 0.3046344220638275, 0.38394802808761597, 0.36783477663993835, 0.30039748549461365, 0.27985721826553345, 0.1860852688550949, 0.14526298642158508, 0.13249969482421875, 0.14100660383701324, 0.09606432169675827, 0.01892814412713051, 0.025184350088238716, -0.01737980917096138, -0.02737782709300518, -0.009275429882109165, 0.01589401811361313, 0.04024094343185425, -0.034117523580789566, -0.031228458508849144, -0.027326591312885284, -0.03416081890463829, -0.0671323835849762, -0.04518848657608032, -0.004811751190572977, 0.00628146156668663, -0.04344004765152931, -0.09604340046644211, -0.07859938591718674, -0.05604895204305649, -0.07949405908584595, -0.1035398617386818, -0.07562848180532455, -0.09204190224409103, -0.07563526928424835, -0.1218903437256813, -0.1376996785402298, -0.1712169647216797, -0.1781013160943985, -0.15129418671131134, -0.18023954331874847, -0.19123151898384094, -0.20159822702407837, -0.18371951580047607, -0.15589921176433563, -0.16021567583084106, -0.1953667253255844, -0.20152513682842255, -0.21352872252464294, -0.2628052234649658, -0.34271642565727234, -0.3758159577846527, -0.3478924334049225, -0.2778787612915039, -0.17916512489318848, -0.13882601261138916, -0.1463153064250946, -0.21021334826946259, -0.2562630772590637, -0.2569528818130493, -0.24743445217609406, -0.2316608875989914, -0.25022080540657043, -0.23241667449474335, -0.19647179543972015, -0.12371386587619781, -0.060219794511795044, -0.04649629816412926, 0.008877330459654331, 0.03939247876405716, 0.041920147836208344, 0.1320284605026245, 0.05781133472919464, 0.04177491366863251, 0.05168214067816734, 0.03298270329833031, 0.09085244685411453, 0.04136431962251663, -0.0003942212206311524, 0.026908282190561295, 0.009357663802802563, -0.024220064282417297, -0.012445567175745964, 0.01985112577676773, -0.011863145977258682, 0.03741771727800369, 0.04765883460640907]
