0.03274758905172348 CrossValid 67.27520751953125 CrossValidLossesBy500 647.0997314453125 467.5805969238281 295.9945068359375 192.6265869140625 134.22909545898438 104.91031646728516 90.7301254272461 83.76680755615234 79.8651123046875 77.31400299072266 75.60075378417969 74.32849884033203 73.3555908203125 72.60090637207031 72.0030288696289 71.43627166748047 71.01614379882812 70.57221221923828 70.25404357910156 69.98385620117188 69.70021057128906 69.49437713623047 69.25848388671875 69.03689575195312 68.8697280883789 68.70182800292969 68.53984069824219 68.42781829833984 68.29075622558594 68.18888854980469 68.11676025390625 68.01734924316406 67.96556091308594 67.90290069580078 67.863525390625 67.79606628417969 67.76000213623047 67.74342346191406 67.68321990966797 67.6627426147461 67.67316436767578 67.59837341308594 67.56826782226562 67.56898498535156 67.50675964355469 67.48054504394531 67.47228240966797 67.4490966796875 67.44129943847656 67.43682861328125 67.43028259277344 67.41183471679688 67.39044189453125 67.38685607910156 67.38379669189453 67.36683654785156 67.38711547851562 67.36695861816406 67.37976837158203 67.33241271972656 67.32844543457031 67.35106658935547 67.32359313964844 67.36497497558594 67.31515502929688 67.36833953857422 67.3071060180664 67.32754516601562 67.30654907226562 67.3380126953125 67.3433837890625 67.30516052246094 67.31292724609375 67.30461120605469 67.30607604980469 67.31029510498047 67.31732177734375 67.30767822265625 67.31267547607422 67.27520751953125
40000 LossesBy500_1 0.22641803324222565 0.16483265161514282 0.10669723898172379 0.07244943827390671 0.053820639848709106 0.04492970556020737 0.04087018221616745 0.038967449218034744 0.03790852054953575 0.037196915596723557 0.036698117852211 0.036310501396656036 0.036006856709718704 0.03575979173183441 0.03555390611290932 0.0353497751057148 0.035188280045986176 0.03501153364777565 0.03487272560596466 0.03474590182304382 0.03461252897977829 0.03450402244925499 0.034382302314043045 0.03426733985543251 0.0341719314455986 0.03407834842801094 0.033985551446676254 0.03390950337052345 0.03382622078061104 0.03375359997153282 0.03369243070483208 0.03361904248595238 0.03356315568089485 0.03349888697266579 0.033448029309511185 0.03338931128382683 0.03334953635931015 0.03330590948462486 0.033250533044338226 0.033213697373867035 0.03318832814693451 0.03314419463276863 0.03312275931239128 0.03309837728738785 0.033059012144804 0.03303146734833717 0.033015936613082886 0.03299187868833542 0.032975275069475174 0.03296143189072609 0.0329488180577755 0.03292703256011009 0.03290851041674614 0.032897863537073135 0.03288532793521881 0.0328710600733757 0.03286447376012802 0.03285142034292221 0.032844848930835724 0.03282438963651657 0.03281430900096893 0.03281458839774132 0.03279530256986618 0.03280505910515785 0.032782550901174545 0.03279854357242584 0.03277398645877838 0.03277842700481415 0.03276742994785309 0.03277546539902687 0.032776374369859695 0.03276180475950241 0.03276314586400986 0.03275936469435692 0.032760072499513626 0.03276057913899422 0.03276263177394867 0.03275931999087334 0.03276047855615616 0.03274758905172348
sigma2_stimulus 	 [4.991759777069092, 2.849835157394409]
log_motor_var 	 [7.421804904937744]
sigma_logit 	 [-6.424867630004883, -6.443692207336426, -7.198696136474609]
mixture_logit 	 [-4.57047176361084]
prior 	 [1.0]
volume 	 [0.18106135725975037, 0.24301810562610626, 0.2111114263534546, 0.20277388393878937, 0.16386960446834564, 0.17698678374290466, 0.333740234375, 0.3380432724952698, 0.28298360109329224, 0.3453048765659332, 0.39242222905158997, 0.5243474245071411, 0.43653979897499084, 0.3833637833595276, 0.30358120799064636, 0.3079161047935486, 0.24682463705539703, 0.19192762672901154, 0.13331635296344757, 0.007749264128506184, -0.07201232016086578, -0.14593955874443054, -0.20492152869701385, -0.21480394899845123, -0.24962840974330902, -0.30545946955680847, -0.34237053990364075, -0.35878464579582214, -0.32914355397224426, -0.2652778923511505, -0.25592494010925293, -0.26940780878067017, -0.2690422534942627, -0.29335057735443115, -0.30822184681892395, -0.2884257733821869, -0.25146862864494324, -0.23470789194107056, -0.22627174854278564, -0.22127844393253326, -0.20652110874652863, -0.2250412553548813, -0.22824163734912872, -0.2111833542585373, -0.14271503686904907, -0.13125789165496826, -0.16405197978019714, -0.1517641544342041, -0.10986703634262085, -0.10848558694124222, -0.1449631303548813, -0.09190506488084793, -0.0829804465174675, -0.13856084644794464, -0.1358506828546524, -0.07545921206474304, -0.11166007071733475, -0.16979648172855377, -0.16562332212924957, -0.0695466622710228, 0.09347455203533173, 0.09176817536354065, 0.1340543031692505, 0.11318142712116241, 0.030826687812805176, 0.042902443557977676, 0.12268154323101044, 0.11021330952644348, 0.1318698227405548, 0.1323729008436203, 0.12380953133106232, 0.11251780390739441, 0.17467835545539856, 0.22313174605369568, 0.24418659508228302, 0.2731451094150543, 0.33944135904312134, 0.3227742314338684, 0.30873343348503113, 0.33333292603492737, 0.3179275393486023, 0.31947287917137146, 0.29962223768234253, 0.23291456699371338, 0.286555677652359, 0.3468300700187683, 0.35067659616470337, 0.3128473162651062, 0.3592522144317627, 0.44253286719322205, 0.4504089057445526, 0.449103444814682, 0.4923251271247864, 0.38177043199539185, 0.3470061123371124, 0.39687371253967285, 0.32541602849960327, 0.23564869165420532, 0.1981864720582962, 0.16381891071796417, 0.11271294951438904, 0.07903783023357391, 0.07102475315332413, 0.06611587852239609, 0.01962633989751339, -0.03471739590167999, -0.07654041796922684, -0.10340193659067154, -0.07125730067491531, -0.03125042840838432, 0.024780569598078728, 0.0980125367641449, 0.061551690101623535, -0.0069086188450455666, -0.036046307533979416, -0.03995443508028984, -0.019637256860733032, -0.0079800421372056, 0.003357966197654605, -0.05722508952021599, -0.11381449550390244, -0.09783180803060532, -0.0730605274438858, -0.1228896901011467, -0.20990009605884552, -0.22839727997779846, -0.22424544394016266, -0.18349531292915344, -0.20223644375801086, -0.2462402731180191, -0.2551690936088562, -0.27873149514198303, -0.26585543155670166, -0.23091159760951996, -0.24723468720912933, -0.24119792878627777, -0.22622762620449066, -0.16660600900650024, -0.13101913034915924, -0.14468452334403992, -0.15991881489753723, -0.13702397048473358, -0.16502894461154938, -0.28265661001205444, -0.31487590074539185, -0.26146984100341797, -0.1707935780286789, -0.16077429056167603, -0.2111726999282837, -0.28294655680656433, -0.3511850833892822, -0.3642149865627289, -0.36691978573799133, -0.3618091642856598, -0.35358139872550964, -0.3620262145996094, -0.34289148449897766, -0.3151228725910187, -0.2763011157512665, -0.1916709542274475, -0.1358320564031601, -0.08541462570428848, -0.016858652234077454, 0.05313495546579361, 0.1074996069073677, 0.12991733849048615, 0.09954967349767685, 0.14090460538864136, 0.1307116001844406, 0.22490230202674866, 0.17394332587718964, 0.11120246350765228, 0.1114286556839943, 0.10441350936889648, 0.05798522010445595, 0.05296459421515465, 0.05565515533089638, 0.075261190533638, 0.14527416229248047, 0.1310066431760788]
