0.03211801126599312 CrossValid 84.44527435302734 CrossValidLossesBy500 647.97265625 469.52203369140625 300.5591125488281 200.36740112304688 144.9994659423828 117.44917297363281 104.23238372802734 97.53164672851562 93.67784881591797 91.16096496582031 89.46598815917969 88.21993255615234 87.2773208618164 86.66435241699219 86.14220428466797 85.73341369628906 85.35832977294922 85.09209442138672 84.89725494384766 84.73919677734375 84.57222747802734 84.52769470214844 84.47057342529297 84.42384338378906 84.35840606689453 84.34889221191406 84.3052978515625 84.3272705078125 84.32347106933594 84.32295989990234 84.33832550048828 84.38941955566406 84.37435913085938 84.40699768066406 84.42667388916016 84.31495666503906 84.3394775390625 84.31160736083984 84.37954711914062 84.33525085449219 84.3235092163086 84.3542251586914 84.37812805175781 84.37474822998047 84.3848648071289 84.42657470703125 84.38517761230469 84.4161376953125 84.4145736694336 84.39743041992188 84.42574310302734 84.44609069824219 84.42948150634766 84.4451904296875 84.4193115234375 84.4127426147461 84.44638061523438 84.42784881591797 84.45166778564453 84.43623352050781 84.45903015136719 84.47701263427734 84.45901489257812 84.44510650634766 84.44432830810547 84.47725677490234 84.44877624511719 84.44456481933594 84.47740173339844 84.44527435302734
35000 LossesBy500_1 0.22646257281303406 0.16467003524303436 0.10633541643619537 0.07178261876106262 0.05295351892709732 0.04391926899552345 0.039801761507987976 0.037795886397361755 0.03664889186620712 0.03587225824594498 0.03531721979379654 0.03487806022167206 0.034519363194704056 0.034256912767887115 0.03401905298233032 0.033812642097473145 0.03361848369240761 0.03346606716513634 0.03333213925361633 0.033208973705768585 0.03308418393135071 0.03300207480788231 0.03291536495089531 0.032836493104696274 0.03275291994214058 0.03269105777144432 0.032621756196022034 0.032575346529483795 0.032525040209293365 0.032483525574207306 0.032448846846818924 0.03242851048707962 0.032388195395469666 0.03236781805753708 0.032345954328775406 0.03229678422212601 0.03228475898504257 0.0322539284825325 0.032254524528980255 0.03222264349460602 0.0322079174220562 0.03220503032207489 0.03220019116997719 0.03218666464090347 0.03217647969722748 0.03218135982751846 0.03215745463967323 0.03216182813048363 0.03215484693646431 0.03214236721396446 0.03214722499251366 0.03214963525533676 0.03214013949036598 0.0321420393884182 0.032130710780620575 0.03212559223175049 0.03213462978601456 0.032126329839229584 0.032132215797901154 0.032125577330589294 0.03213117644190788 0.0321364626288414 0.03212870657444 0.032123468816280365 0.03212215006351471 0.03213213011622429 0.03212185949087143 0.03211943805217743 0.03213050588965416 0.03211801126599312
sigma2_stimulus 	 [4.899549961090088, 2.820739984512329]
log_motor_var 	 [7.435494422912598]
sigma_logit 	 [-6.41616678237915, -6.483322620391846, -7.22523307800293]
mixture_logit 	 [-4.533482074737549]
prior 	 [1.0]
volume 	 [0.0805758386850357, 0.1601448506116867, 0.11930152773857117, 0.11047351360321045, 0.09426461160182953, 0.16335523128509521, 0.22413313388824463, 0.2285192608833313, 0.2202156037092209, 0.22490321099758148, 0.3303922414779663, 0.2604503631591797, 0.18602882325649261, 0.15409745275974274, 0.1146649494767189, 0.12205774337053299, 0.1354866623878479, 0.15139104425907135, 0.10901691764593124, 0.06090914458036423, -0.0254466962069273, -0.06637462973594666, -0.13204240798950195, -0.13649292290210724, -0.12692244350910187, -0.21296590566635132, -0.2754673361778259, -0.2918035089969635, -0.258451908826828, -0.1885945200920105, -0.17536963522434235, -0.21800418198108673, -0.24858275055885315, -0.2561914324760437, -0.2554745078086853, -0.2351972907781601, -0.2030128389596939, -0.19642382860183716, -0.19299696385860443, -0.1712244302034378, -0.15157723426818848, -0.14479225873947144, -0.14795897901058197, -0.14276918768882751, -0.08677361160516739, -0.020982827991247177, -0.050190068781375885, -0.06483622640371323, -0.033835090696811676, -0.03271612152457237, -0.07696095108985901, -0.04844379052519798, 0.04119328781962395, 0.0023464083205908537, 0.005505500826984644, 0.0342668853700161, -0.029233667999505997, -0.08424316346645355, -0.09255212545394897, -0.01830306090414524, 0.07729839533567429, 0.06159454584121704, 0.10805562138557434, 0.10623300075531006, 0.01324628945440054, 0.023520532995462418, 0.09240715205669403, 0.10332083702087402, 0.13573437929153442, 0.13595294952392578, 0.1421833634376526, 0.12977316975593567, 0.1427338719367981, 0.19099096953868866, 0.2333376705646515, 0.2527860999107361, 0.2554195523262024, 0.21627652645111084, 0.17448842525482178, 0.20856259763240814, 0.19970588386058807, 0.24183185398578644, 0.29290086030960083, 0.2429194450378418, 0.2561088502407074, 0.3140788972377777, 0.33380457758903503, 0.30599644780158997, 0.33120492100715637, 0.37430375814437866, 0.37231141328811646, 0.3555447459220886, 0.4224470555782318, 0.3173935115337372, 0.29702916741371155, 0.34438446164131165, 0.2970367968082428, 0.26402270793914795, 0.2509944438934326, 0.16662199795246124, 0.1546650528907776, 0.1495588719844818, 0.15264123678207397, 0.11340547353029251, 0.04433118551969528, 0.03466862067580223, -0.041919466108083725, -0.07061872631311417, -0.04686855152249336, 0.008980912156403065, 0.06091789901256561, -0.007883225567638874, -0.010644122026860714, -0.04599671810865402, -0.04007932171225548, -0.04970858246088028, -0.029278764501214027, -0.04216008260846138, -0.02702692337334156, -0.06260564178228378, -0.10780753940343857, -0.10036518424749374, -0.10178390145301819, -0.11324629187583923, -0.13279913365840912, -0.13455645740032196, -0.1562463492155075, -0.11937151104211807, -0.16939052939414978, -0.18709906935691833, -0.203704372048378, -0.21677590906620026, -0.18426097929477692, -0.164072185754776, -0.20633718371391296, -0.22582760453224182, -0.2191121131181717, -0.1861542910337448, -0.1595509946346283, -0.1652718037366867, -0.17818842828273773, -0.1940132975578308, -0.22609493136405945, -0.3011800944805145, -0.3425402045249939, -0.31748339533805847, -0.2607881426811218, -0.18392711877822876, -0.1669846773147583, -0.18546094000339508, -0.22931897640228271, -0.27904945611953735, -0.2727210521697998, -0.2551918923854828, -0.2283690720796585, -0.2348383218050003, -0.2325308471918106, -0.22085554897785187, -0.17435163259506226, -0.06795026361942291, -0.057758841663599014, 0.00834726169705391, 0.05864391475915909, 0.05813475698232651, 0.10501694679260254, 0.05854091793298721, 0.04508436098694801, 0.07754506915807724, 0.04429822042584419, 0.0630698949098587, 0.0318777896463871, 0.006565452087670565, 0.001050929888151586, 0.028028292581439018, -0.019773658365011215, -0.03205825015902519, 0.004918275400996208, -0.02254387177526951, 0.04139961302280426, 0.03578031808137894]
