0.03158007562160492 CrossValid 81.46562194824219 CrossValidLossesBy500 442.6715393066406 267.1138000488281 174.90585327148438 134.62989807128906 118.44596862792969 111.1923828125 107.07139587402344 104.0186538696289 101.95799255371094 100.34599304199219 99.03387451171875 97.3154067993164 96.29006958007812 95.66920471191406 94.47821044921875 93.60174560546875 92.97821807861328 92.51141357421875 91.86487579345703 91.34529876708984 90.8684310913086 90.48257446289062 90.01104736328125 89.57185363769531 89.21893310546875 88.82769012451172 88.3770751953125 88.03568267822266 87.70609283447266 87.365966796875 86.97416687011719 86.73152160644531 86.42161560058594 86.18684387207031 85.8989028930664 85.67942810058594 85.43682861328125 85.22396087646484 85.01676940917969 84.80815887451172 84.62088775634766 84.45934295654297 84.2647933959961 84.11569213867188 83.94195556640625 83.80056762695312 83.671142578125 83.54593658447266 83.42955017089844 83.30810546875 83.20968627929688 83.0993881225586 82.99967956542969 82.90453338623047 82.83255004882812 82.7356185913086 82.68312072753906 82.61196899414062 82.52368927001953 82.50044250488281 82.43313598632812 82.34262084960938 82.27743530273438 82.24552917480469 82.1781005859375 82.12979125976562 82.09130859375 82.05632019042969 81.99091339111328 81.97930145263672 81.95173645019531 81.91152954101562 81.8371353149414 81.81392669677734 81.81024169921875 81.7966079711914 81.7578353881836 81.71176147460938 81.71170043945312 81.7024154663086 81.6349868774414 81.63504028320312 81.60320281982422 81.57621765136719 81.5841064453125 81.58224487304688 81.53713989257812 81.5273666381836 81.4818344116211 81.49386596679688 81.5061264038086 81.44776153564453 81.47586822509766 81.48613739013672 81.47054290771484 81.44619750976562 81.46265411376953 81.4193344116211 81.46600341796875 81.45042419433594 81.43739318847656 81.43843078613281 81.46562194824219
51500 LossesBy500_5 0.15298190712928772 0.09139384329319 0.05953328683972359 0.045878320932388306 0.04066826403141022 0.038601554930210114 0.03760649263858795 0.03692134842276573 0.036506734788417816 0.03618402034044266 0.0359138585627079 0.03548058122396469 0.035249508917331696 0.03512152284383774 0.03481601923704147 0.03459732607007027 0.0344473272562027 0.03433964401483536 0.034168172627687454 0.03404075652360916 0.03391711041331291 0.03382103145122528 0.0337030366063118 0.03359251841902733 0.03350147232413292 0.033406149595975876 0.033297136425971985 0.033213142305612564 0.03313633054494858 0.033059120178222656 0.03296297416090965 0.032910995185375214 0.03283466026186943 0.03278117626905441 0.03271042928099632 0.03266119956970215 0.0326022170484066 0.03255263715982437 0.03250126540660858 0.03245284780859947 0.0324084535241127 0.03237346187233925 0.03232951834797859 0.032296955585479736 0.03225421905517578 0.03222266212105751 0.03219383582472801 0.032164815813302994 0.03213713318109512 0.03210684657096863 0.03208344057202339 0.03205803036689758 0.032035037875175476 0.03201096132397652 0.0319942869246006 0.031963687390089035 0.0319523923099041 0.03193579241633415 0.031912967562675476 0.03191140294075012 0.03189079836010933 0.03186243027448654 0.03184455260634422 0.03183962404727936 0.03182006627321243 0.031808190047740936 0.031795695424079895 0.03178824856877327 0.03176434710621834 0.03175894543528557 0.03175133466720581 0.031738732010126114 0.03170992061495781 0.03170572966337204 0.03170878440141678 0.03170383721590042 0.031690098345279694 0.03167039528489113 0.031668901443481445 0.031667206436395645 0.03164658322930336 0.03164605796337128 0.03163444250822067 0.03162676841020584 0.03162876516580582 0.0316276028752327 0.031610891222953796 0.03160746768116951 0.0315900519490242 0.031593676656484604 0.03159702196717262 0.03157613053917885 0.031584978103637695 0.031587567180395126 0.031582362949848175 0.0315738245844841 0.031579457223415375 0.03156358003616333 0.031580373644828796 0.03157437592744827 0.03156977519392967 0.031570423394441605 0.03158007562160492
sigma2_stimulus 	 [4.916452884674072, 2.8619110584259033]
motor_sd 	 [7.41527795791626]
sigma_logit 	 [-4.743708610534668, -4.781411170959473, -5.274423122406006, -3.0, -3.0]
chance_prob_logit 	 [0.0]
mixture_logit 	 [-4.675980567932129]
prior 	 [0.09501766413450241, 0.08072169870138168, 0.06956614553928375, 0.0635959729552269, 0.06393639743328094, 0.07057567685842514, 0.08276406675577164, 0.09959836304187775, 0.12032853066921234, 0.1442996859550476, 0.1702556312084198, 0.19588670134544373, 0.21780171990394592, 0.23230905830860138, 0.23681853711605072, 0.2307262122631073, 0.2158854603767395, 0.19555559754371643, 0.17350488901138306, 0.15289705991744995, 0.13571500778198242, 0.12281499803066254, 0.11405368894338608, 0.10874943435192108, 0.10590013116598129, 0.10446418076753616, 0.10348901152610779, 0.10212776064872742, 0.09974416345357895, 0.09588924050331116, 0.09024495631456375, 0.08279919624328613, 0.07369233667850494, 0.06331947445869446, 0.052287813276052475, 0.04124889522790909, 0.030838122591376305, 0.021545609459280968, 0.013615932315587997, 0.007028965279459953, 0.0015125572681427002, -0.0034045556094497442, -0.008308948017656803, -0.013803983107209206, -0.02041098289191723, -0.028490131720900536, -0.03817130997776985, -0.04934121295809746, -0.06164536625146866, -0.07450728863477707, -0.08719764649868011, -0.09893571585416794, -0.10900600999593735, -0.11683516204357147, -0.12218497693538666, -0.12516279518604279, -0.12626928091049194, -0.12630972266197205, -0.126194030046463, -0.12674015760421753, -0.12853683531284332, -0.13170623779296875, -0.1360851228237152, -0.14129561185836792, -0.14704114198684692, -0.1530081033706665, -0.15905436873435974, -0.1649123877286911, -0.17008988559246063, -0.17371244728565216, -0.17472176253795624, -0.17216378450393677, -0.16555917263031006, -0.15506507456302643, -0.14170238375663757, -0.1269487738609314, -0.11255158483982086, -0.10024857521057129, -0.09155374020338058, -0.08759991079568863, -0.08901166170835495, -0.09553718566894531, -0.10587207973003387, -0.11775076389312744, -0.12847140431404114, -0.1356402486562729, -0.13794788718223572, -0.1357307881116867, -0.13077884912490845, -0.12590426206588745, -0.12392933666706085, -0.12672372162342072, -0.1344999074935913, -0.14585475623607635, -0.1583249717950821, -0.16909007728099823, -0.1759529560804367, -0.1778188943862915, -0.17486265301704407, -0.1683027148246765, -0.16006457805633545, -0.15199728310108185, -0.14536751806735992, -0.1406792402267456, -0.1375502198934555, -0.1351349949836731, -0.1325393170118332, -0.1289346069097519, -0.12380839884281158, -0.11690208315849304, -0.10803138464689255, -0.09718813002109528, -0.08446648716926575, -0.0702943429350853, -0.05544251948595047, -0.04103684425354004, -0.028262777253985405, -0.018058693036437035, -0.010801799595355988, -0.006192170083522797, -0.0033773405011743307, -0.0012697178171947598, 0.0010754091199487448, 0.004178156144917011, 0.008044891059398651, 0.01227791141718626, 0.016334908083081245, 0.019802847877144814, 0.02261997014284134, 0.025134112685918808, 0.028004422783851624, 0.03201375901699066, 0.037857189774513245, 0.04598588868975639, 0.05654012784361839, 0.06941299140453339, 0.08435647934675217, 0.10095095634460449, 0.11879294365644455, 0.13733790814876556, 0.1557651311159134, 0.17301243543624878, 0.1875040978193283, 0.19740375876426697, 0.20085148513317108, 0.1964416354894638, 0.1836375594139099, 0.163056880235672, 0.13654908537864685, 0.10700511187314987, 0.07743210345506668, 0.050670377910137177, 0.0287642739713192, 0.012761395424604416, 0.002734213601797819, -0.002032547490671277, -0.0027345058042556047, -0.000721001299098134, 0.002790942555293441, 0.006913810968399048, 0.011177225969731808, 0.015516901388764381, 0.02019336260855198, 0.025680160149931908, 0.032551638782024384, 0.04135558754205704, 0.0524667389690876, 0.06592780351638794, 0.0812830701470375, 0.09754828363656998, 0.11336050927639008, 0.12719742953777313, 0.13779900968074799, 0.14457719027996063, 0.14731964468955994, 0.14641384780406952, 0.14205920696258545, 0.13436958193778992, 0.12352517992258072, 0.10997206717729568]
volume 	 [0.2790369689464569, 0.3844298720359802, 0.2998960614204407, 0.2845092713832855, 0.24569056928157806, 0.2729530334472656, 0.4191841781139374, 0.43589648604393005, 0.38588252663612366, 0.39559927582740784, 0.4219023287296295, 0.45911896228790283, 0.4218849241733551, 0.40927112102508545, 0.3618859648704529, 0.34032952785491943, 0.3186948299407959, 0.2974402904510498, 0.1765904724597931, 0.03551247715950012, -0.07326684147119522, -0.15335115790367126, -0.22248370945453644, -0.22345024347305298, -0.21694263815879822, -0.2599424421787262, -0.3006588816642761, -0.32100290060043335, -0.3216639757156372, -0.27306556701660156, -0.2165948748588562, -0.2179875671863556, -0.22561094164848328, -0.23490825295448303, -0.24359026551246643, -0.2472202479839325, -0.24926131963729858, -0.2410488873720169, -0.24050036072731018, -0.2399405837059021, -0.23320195078849792, -0.23919065296649933, -0.2567124366760254, -0.25555551052093506, -0.20169506967067719, -0.14876678586006165, -0.15113972127437592, -0.12324882298707962, -0.0547526553273201, -0.06962945312261581, -0.14329040050506592, -0.09912330657243729, -0.07205309718847275, -0.09681367129087448, -0.15348246693611145, -0.15464352071285248, -0.21533995866775513, -0.2554256319999695, -0.24430546164512634, -0.1619630753993988, -0.02391626499593258, -0.006218309514224529, 0.04033852741122246, 0.05054319649934769, -0.02980123646557331, -0.029039351269602776, 0.051554542034864426, 0.05843609198927879, 0.05259231850504875, 0.05168452113866806, 0.06706169992685318, 0.056223444640636444, 0.08188778907060623, 0.17130805552005768, 0.24150249361991882, 0.2797681391239166, 0.28747299313545227, 0.2882932126522064, 0.24927859008312225, 0.2956245541572571, 0.2981157600879669, 0.30825647711753845, 0.34674161672592163, 0.2779585123062134, 0.3036152720451355, 0.33649951219558716, 0.3531557321548462, 0.29656630754470825, 0.3182905912399292, 0.4164724051952362, 0.45495977997779846, 0.42560532689094543, 0.4699133336544037, 0.3971889913082123, 0.34040871262550354, 0.36241981387138367, 0.32081303000450134, 0.2702542841434479, 0.2389446198940277, 0.19334115087985992, 0.11595574766397476, 0.06559183448553085, 0.08680237829685211, 0.10572613775730133, 0.04394851624965668, 0.0015733401523903012, -0.0578124113380909, -0.0653960332274437, -0.022002462297677994, 0.0026704007759690285, 0.06542108952999115, 0.10860328376293182, 0.006878553424030542, -0.031174277886748314, -0.049465179443359375, -0.07086657732725143, -0.07293686270713806, -0.06246832013130188, -0.07923422008752823, -0.11125651746988297, -0.1374433934688568, -0.10525249689817429, -0.09993498027324677, -0.13331888616085052, -0.1840934008359909, -0.15660154819488525, -0.14659354090690613, -0.11022316664457321, -0.19643016159534454, -0.2591254711151123, -0.29443955421447754, -0.29281124472618103, -0.2464398443698883, -0.23434360325336456, -0.27579718828201294, -0.26981744170188904, -0.2577178478240967, -0.19694913923740387, -0.1736084669828415, -0.1993287205696106, -0.18852245807647705, -0.16720955073833466, -0.21743623912334442, -0.3092436194419861, -0.32802584767341614, -0.28868502378463745, -0.22972387075424194, -0.1649884432554245, -0.14597131311893463, -0.20683634281158447, -0.29767951369285583, -0.33344167470932007, -0.3446525037288666, -0.3282988667488098, -0.3095349371433258, -0.3234359920024872, -0.3210087716579437, -0.30883437395095825, -0.2468467801809311, -0.15570656955242157, -0.09587915986776352, -0.015773704275488853, 0.049288131296634674, 0.07919202744960785, 0.14055469632148743, 0.10046005994081497, 0.058014191687107086, 0.07935361564159393, 0.042758699506521225, 0.0977223664522171, 0.09285321831703186, 0.07148618251085281, 0.07235857844352722, 0.11578147858381271, 0.0803472250699997, 0.07089459896087646, 0.09343847632408142, 0.09754310548305511, 0.20453058183193207, 0.21380719542503357]
