0.03297772631049156 CrossValid 128.95347595214844 CrossValidLossesBy500 129.55418395996094 128.95347595214844
1000 LossesBy500 0.033356182277202606 0.03297772631049156
sigma2_stimulus 	 [3.634314775466919, 2.592196464538574]
log_motor_var 	 [7.934154033660889]
sigma_logit 	 [-6.956955909729004, -7.0141119956970215, -8.589034080505371]
mixture_logit 	 [-4.6991658210754395]
prior 	 [1.0]
volume 	 [0.6996567249298096, 0.6625381112098694, 0.6340163350105286, 0.584317684173584, 0.5585787892341614, 0.6344509124755859, 0.8017017841339111, 0.937499463558197, 1.0345587730407715, 1.0478028059005737, 1.0370088815689087, 1.0686475038528442, 1.1791136264801025, 0.9685760140419006, 0.7306899428367615, 0.48752087354660034, 0.3923741281032562, 0.27153030037879944, 0.08078829199075699, 0.043380532413721085, -0.07047426700592041, -0.17953604459762573, -0.2520427703857422, -0.3418809175491333, -0.39896804094314575, -0.3717122972011566, -0.3938167095184326, -0.44032615423202515, -0.47395747900009155, -0.4765278100967407, -0.3906506597995758, -0.21292543411254883, -0.14291273057460785, -0.15062493085861206, -0.01659528911113739, -0.13973699510097504, -0.13635219633579254, -0.22397193312644958, -0.19624370336532593, -0.18689775466918945, -0.25294506549835205, -0.30604052543640137, -0.34385445713996887, -0.29413309693336487, -0.35800743103027344, -0.35005930066108704, -0.3073805272579193, -0.13161273300647736, -0.13602490723133087, -0.021772164851427078, -0.13660964369773865, -0.2197938859462738, -0.27681347727775574, -0.4421718418598175, -0.5576297640800476, -0.6108790636062622, -0.674719512462616, -0.6477033495903015, -0.5544966459274292, -0.5166959762573242, -0.4566798210144043, -0.36135393381118774, -0.2780567407608032, -0.2799074947834015, -0.3243095278739929, -0.2685108482837677, -0.23022376000881195, -0.2534114420413971, -0.19282065331935883, -0.09346151351928711, -0.01420056913048029, 0.08948970586061478, 0.15807436406612396, 0.2513996958732605, 0.1744949221611023, 0.2457398772239685, 0.11602378636598587, 0.04773646593093872, 0.034580834209918976, 0.06672993302345276, 0.1437266319990158, 0.20703838765621185, 0.2968183159828186, 0.2985345721244812, 0.43935349583625793, 0.5465570092201233, 0.6558451056480408, 0.675805926322937, 0.6663600206375122, 0.7688672542572021, 0.7725104689598083, 0.6599298715591431, 0.6224294304847717, 0.5683566331863403, 0.4760533571243286, 0.4712659418582916, 0.33611100912094116, 0.319457471370697, 0.24780315160751343, 0.21116438508033752, 0.22131739556789398, 0.019095994532108307, -0.09868879616260529, -0.19112806022167206, -0.33019086718559265, -0.4231621026992798, -0.5487608909606934, -0.6403826475143433, -0.6484058499336243, -0.583871066570282, -0.47809332609176636, -0.36710256338119507, -0.305031418800354, -0.22858476638793945, -0.08928612619638443, -0.12034198641777039, -0.10143683850765228, -0.048840079456567764, -0.004140319302678108, -0.07051128149032593, -0.11092782020568848, -0.17208072543144226, -0.21175692975521088, -0.23217368125915527, -0.2550002932548523, -0.3597719967365265, -0.415637344121933, -0.36713096499443054, -0.2282351702451706, -0.14583837985992432, -0.1391948014497757, -0.1807478666305542, -0.13692308962345123, -0.10344298928976059, 0.05408472940325737, -0.040437109768390656, -0.057087477296590805, -0.06437146663665771, 0.0427393801510334, 0.08981607109308243, 0.04467649757862091, 0.01774423010647297, -0.1792304813861847, -0.22437022626399994, -0.34667322039604187, -0.32417234778404236, -0.27144283056259155, -0.31829768419265747, -0.39231711626052856, -0.40151387453079224, -0.47550079226493835, -0.508631706237793, -0.5298491716384888, -0.6514288187026978, -0.7614120244979858, -0.7843709588050842, -0.7818877100944519, -0.7365438938140869, -0.602104127407074, -0.42700302600860596, -0.23553581535816193, -0.06814415007829666, 0.06044480577111244, 0.24899223446846008, 0.3356296122074127, 0.24335677921772003, 0.23193909227848053, 0.20812425017356873, 0.22255642712116241, 0.17546483874320984, 0.14080242812633514, 0.1940191686153412, 0.27526161074638367, 0.32286232709884644, 0.38788288831710815, 0.40161213278770447, 0.47888290882110596, 0.4506778419017792, 0.4516656696796417, 0.5007196068763733]
========
sigma2_stimulus	4.720845026895404e-06	log_motor_var	0.007880162447690964	sigma_logit	2.824963303282857e-06	mixture_logit	9.41618054639548e-08	volume	2.8768863558070734e-06
