0.03232894465327263 CrossValid 82.9617691040039 CrossValidLossesBy500 744.5612182617188 683.0274658203125 649.53125 618.303955078125 592.1270751953125 566.6415405273438 480.4560852050781 431.7462463378906 394.8423156738281 349.58221435546875 240.99095153808594 191.27035522460938 160.0742950439453 139.4459228515625 125.69390106201172 116.56761932373047 110.47590637207031 106.23921966552734 103.14036560058594 100.8258056640625 98.99606323242188 97.56756591796875 96.25838470458984 95.07396697998047 94.33647918701172 93.32630157470703 92.71670532226562 91.85991668701172 91.2503433227539 90.71530151367188 90.09271240234375 89.62992858886719 89.23275756835938 88.80835723876953 88.48857116699219 88.019775390625 87.8364486694336 87.37137603759766 87.0621566772461 86.7740707397461 86.5592041015625 86.22911071777344 86.08524322509766 85.76707458496094 85.61572265625 85.49311065673828 85.36860656738281 85.2555923461914 85.17426300048828 84.80098724365234 84.7078628540039 84.68034362792969 84.55508422851562 84.4950180053711 84.68081665039062 84.44239807128906 84.30720520019531 84.2914810180664 84.22212219238281 84.183349609375 84.14964294433594 84.00941467285156 83.99708557128906 83.80014038085938 83.7339096069336 83.6571044921875 83.67240142822266 83.57490539550781 83.54420471191406 83.53964233398438 83.4970703125 83.48562622070312 83.47075653076172 83.35932159423828 83.46292114257812 83.29450988769531 83.21755981445312 83.12821960449219 83.0611801147461 83.07982635498047 83.12409210205078 83.02580261230469 82.9617691040039
41500 LossesBy500_0 0.2582975924015045 0.23850907385349274 0.22611409425735474 0.21644005179405212 0.20819644629955292 0.2009703367948532 0.1721365749835968 0.15517255663871765 0.14298467338085175 0.1286180019378662 0.08799487352371216 0.07032914459705353 0.059313930571079254 0.05209781602025032 0.04732169210910797 0.04417572543025017 0.04209054261445999 0.040644191205501556 0.03959258645772934 0.03880475461483002 0.03818456456065178 0.03770061582326889 0.03725384920835495 0.0368475615978241 0.03658914938569069 0.03624393790960312 0.0360230952501297 0.03572356328368187 0.0355033352971077 0.035305704921483994 0.03508027270436287 0.034908734261989594 0.03476211428642273 0.03460872173309326 0.03449222818017006 0.03432907536625862 0.0342649444937706 0.03410758078098297 0.03400598093867302 0.03390936926007271 0.033837057650089264 0.033722277730703354 0.03367020562291145 0.03355547785758972 0.033494703471660614 0.03343997523188591 0.03338206559419632 0.033327825367450714 0.0332818441092968 0.03319579362869263 0.03314264863729477 0.033109065145254135 0.03304627165198326 0.03300339728593826 0.03303515911102295 0.03294887766242027 0.03288803994655609 0.03286943957209587 0.032831594347953796 0.03280571848154068 0.03278220444917679 0.03272729739546776 0.03271046653389931 0.032644983381032944 0.03262161836028099 0.03259171172976494 0.03259045258164406 0.032554104924201965 0.03253871947526932 0.03253457695245743 0.032508667558431625 0.03250541165471077 0.03249776363372803 0.032459065318107605 0.03248654305934906 0.032434575259685516 0.03241753205657005 0.032386887818574905 0.032364025712013245 0.03236760199069977 0.03238366171717644 0.03235100209712982 0.03232894465327263
sigma2_stimulus 	 [4.9130682945251465, 2.8555335998535156]
log_motor_var 	 [7.704675197601318]
sigma_logit 	 [-6.423254013061523, -6.473482131958008, -7.211248874664307]
mixture_logit 	 [-4.35822868347168]
prior 	 [1.0]
volume 	 [0.22980016469955444, 0.15715917944908142, 0.1527412384748459, 0.07732601463794708, 0.054413001984357834, 0.23809415102005005, 0.220182865858078, 0.2008877992630005, 0.20472344756126404, 0.18681424856185913, 0.24772481620311737, 0.2685352563858032, 0.22835952043533325, 0.21479012072086334, 0.14703156054019928, 0.08877664059400558, 0.10964477062225342, 0.08778256177902222, 0.06887176632881165, 0.029071787372231483, 0.0011708983220160007, -0.08548106253147125, -0.12090003490447998, -0.177435040473938, -0.16831177473068237, -0.17442995309829712, -0.21711720526218414, -0.2583305239677429, -0.29926231503486633, -0.27296182513237, -0.21760515868663788, -0.23301464319229126, -0.26288512349128723, -0.26718881726264954, -0.26825371384620667, -0.2642909288406372, -0.22175273299217224, -0.18686597049236298, -0.20502884685993195, -0.18550804257392883, -0.17795735597610474, -0.14814038574695587, -0.15387223660945892, -0.15952438116073608, -0.11344020068645477, -0.05328131094574928, -0.10662245005369186, -0.09367544949054718, -0.03253043815493584, -0.026157818734645844, -0.08192458748817444, -0.047668732702732086, -0.019293934106826782, -0.0489051379263401, -0.04881327599287033, -0.03109804540872574, -0.08734580874443054, -0.122660793364048, -0.07600945234298706, -0.007143408991396427, -0.0022721481509506702, 0.03272658586502075, 0.05961151793599129, 0.013282076455652714, -0.024452757090330124, 0.058555591851472855, 0.13818472623825073, 0.08116370439529419, 0.1102447584271431, 0.14878258109092712, 0.14006750285625458, 0.08652539551258087, 0.16040730476379395, 0.18903721868991852, 0.23353160917758942, 0.20770825445652008, 0.2254452258348465, 0.2358563244342804, 0.22922946512699127, 0.2441103458404541, 0.21612003445625305, 0.25842779874801636, 0.24931199848651886, 0.18442651629447937, 0.2350696325302124, 0.29542288184165955, 0.3229645788669586, 0.26188501715660095, 0.3023432791233063, 0.4311966001987457, 0.4419041872024536, 0.40898558497428894, 0.41753286123275757, 0.29747238755226135, 0.23644502460956573, 0.2596517503261566, 0.22907382249832153, 0.244648277759552, 0.21950267255306244, 0.23071728646755219, 0.14345677196979523, 0.12898339331150055, 0.12881919741630554, 0.14864592254161835, 0.09720597416162491, 0.026205286383628845, 0.02002701349556446, -0.03839072585105896, -0.04256552457809448, -0.03429480642080307, 0.015839358791708946, 0.05687447264790535, -0.03526148945093155, -0.00362963299266994, -0.06560245901346207, -0.047096770256757736, -0.06484358012676239, -0.03802004083991051, -0.047009311616420746, -0.003038115566596389, -0.04285264015197754, -0.07425349950790405, -0.1011216938495636, -0.09872222691774368, -0.12305378168821335, -0.09982141107320786, -0.13572700321674347, -0.09084347635507584, -0.15282946825027466, -0.17026643455028534, -0.2016063630580902, -0.22035689651966095, -0.1544751524925232, -0.12799476087093353, -0.20572926104068756, -0.25338321924209595, -0.22872720658779144, -0.19188474118709564, -0.18746481835842133, -0.2344975620508194, -0.22638648748397827, -0.23080399632453918, -0.24899624288082123, -0.3332841694355011, -0.3386335074901581, -0.30293020606040955, -0.2658361792564392, -0.21138732135295868, -0.20584112405776978, -0.21705806255340576, -0.2846682667732239, -0.28773561120033264, -0.25154706835746765, -0.2379201203584671, -0.2103196531534195, -0.2140476256608963, -0.1748507171869278, -0.16103142499923706, -0.10433237999677658, -0.04466020315885544, -0.042270250618457794, -0.002202967880293727, 0.04334445297718048, 0.048899561166763306, 0.14844447374343872, 0.07262538373470306, 0.08645092695951462, 0.1257190704345703, 0.05892113596200943, 0.11269665509462357, 0.05339682474732399, 0.03803178668022156, 0.05304387956857681, 0.09785731881856918, 0.06009524688124657, 0.04946349188685417, 0.09094707667827606, 0.11106745153665543, 0.14916041493415833, 0.14380134642124176]
