0.03384391963481903 CrossValid 125.83243560791016 CrossValidLossesBy500 679.35009765625 496.3875427246094 323.205810546875 221.91488647460938 167.97100830078125 143.15725708007812 133.0200958251953 128.87582397460938 126.93440246582031 126.02145385742188 125.5071029663086 125.2735595703125 125.1343994140625 125.0730972290039 124.98613739013672 124.98493194580078 124.97300720214844 125.0109634399414 124.99064636230469 125.0556869506836 125.06351470947266 125.10205841064453 125.10177612304688 125.14961242675781 125.1669921875 125.17720031738281 125.21559143066406 125.24816131591797 125.29438018798828 125.30255126953125 125.30152893066406 125.35114288330078 125.35464477539062 125.3938980102539 125.43223571777344 125.45639038085938 125.51500701904297 125.5025863647461 125.57090759277344 125.61082458496094 125.62733459472656 125.65990447998047 125.68824005126953 125.66705322265625 125.6942367553711 125.75918579101562 125.74166107177734 125.77975463867188 125.77798461914062 125.7988510131836 125.80601501464844 125.83483123779297 125.83243560791016
26500 LossesBy500_3 0.2251986265182495 0.16411420702934265 0.10593228042125702 0.0714312195777893 0.052668631076812744 0.043673526495695114 0.039689790457487106 0.037832487374544144 0.03681264817714691 0.03621089830994606 0.0358038954436779 0.03553411737084389 0.035328980535268784 0.03517713397741318 0.03503686562180519 0.0349380299448967 0.034846387803554535 0.03478090092539787 0.03470217064023018 0.0346585214138031 0.03459971398115158 0.03455507010221481 0.03450079262256622 0.03446529060602188 0.03442182019352913 0.03437763452529907 0.034345537424087524 0.03431328386068344 0.03428640216588974 0.0342479832470417 0.034207865595817566 0.03418662026524544 0.03414999693632126 0.03412659093737602 0.034104157239198685 0.034077029675245285 0.03406302258372307 0.03402544930577278 0.03401598706841469 0.03400411084294319 0.03398445248603821 0.03397124260663986 0.03395643085241318 0.033926211297512054 0.033912546932697296 0.03391077741980553 0.03388744220137596 0.0338820181787014 0.03386714681982994 0.03386038914322853 0.0338512659072876 0.033852268010377884 0.03384391963481903
sigma2_stimulus 	 [4.163909912109375, 2.7692830562591553]
log_motor_var 	 [7.41602897644043]
sigma_logit 	 [-6.431930065155029, -6.462236404418945, -7.4983415603637695]
mixture_logit 	 [-4.507956027984619]
prior 	 [0.07788455486297607, 0.08481352031230927, 0.08595097810029984, 0.08079224079847336, 0.06909044086933136, 0.05097753927111626, 0.027083083987236023, -0.0014155902899801731, -0.03281223028898239, -0.06500722467899323, -0.09571351110935211, -0.1227058619260788, -0.14403995871543884, -0.15822993218898773, -0.16434070467948914, -0.16204267740249634, -0.15158143639564514, -0.13370724022388458, -0.10955899953842163, -0.08052321523427963, -0.048071641474962234, -0.01359756849706173, 0.021709147840738297, 0.05693285912275314, 0.09143349528312683, 0.12477253377437592, 0.15660108625888824, 0.1865537017583847, 0.2141304910182953, 0.2386944741010666, 0.2594969570636749, 0.27576395869255066, 0.2868151068687439, 0.29220905900001526, 0.29179054498672485, 0.2858043313026428, 0.2748107314109802, 0.25964948534965515, 0.24133212864398956, 0.22091107070446014, 0.19935216009616852, 0.17743846774101257, 0.15570643544197083, 0.1344471573829651, 0.11369945853948593, 0.09336497634649277, 0.07326114922761917, 0.05322854593396187, 0.03319767862558365, 0.013232764787971973, -0.006455877795815468, -0.025556830689311028, -0.04371268302202225, -0.06059328094124794, -0.07595901191234589, -0.08969923108816147, -0.10184255242347717, -0.11252036690711975, -0.12191156297922134, -0.13017287850379944, -0.13737617433071136, -0.1435069441795349, -0.14845901727676392, -0.15210215747356415, -0.15435568988323212, -0.15525859594345093, -0.15502512454986572, -0.1540360301733017, -0.15279726684093475, -0.15185849368572235, -0.15172290802001953, -0.1526811569929123, -0.15478777885437012, -0.15778014063835144, -0.16111360490322113, -0.1640443503856659, -0.1657818853855133, -0.165603905916214, -0.16310493648052216, -0.15825627744197845, -0.1514558047056198, -0.14357466995716095, -0.1357429176568985, -0.12921573221683502, -0.12508195638656616, -0.12401042878627777, -0.12617266178131104, -0.1311233639717102, -0.13799260556697845, -0.1456862986087799, -0.15307146310806274, -0.15927793085575104, -0.16377544403076172, -0.16643229126930237, -0.16741891205310822, -0.16709819436073303, -0.1658133566379547, -0.16375958919525146, -0.16085587441921234, -0.15672944486141205, -0.15080595016479492, -0.14245852828025818, -0.13122870028018951, -0.11699840426445007, -0.1001795083284378, -0.0817531943321228, -0.0632103756070137, -0.04636957496404648, -0.03306356072425842, -0.024753166362643242, -0.02219283953309059, -0.025218702852725983, -0.032757196575403214, -0.043018776923418045, -0.05385012552142143, -0.06308483332395554, -0.06886660307645798, -0.06984738260507584, -0.06528851389884949, -0.05507764220237732, -0.03966641053557396, -0.0199647955596447, 0.002802446251735091, 0.027269501239061356, 0.052114252001047134, 0.07622458040714264, 0.09882055968046188, 0.11947689205408096, 0.13806885480880737, 0.1546318084001541, 0.16916443407535553, 0.18149679899215698, 0.19119572639465332, 0.1976262778043747, 0.20011907815933228, 0.19819103181362152, 0.19182124733924866, 0.1815681755542755, 0.16859202086925507, 0.1544874608516693, 0.14102190732955933, 0.1298561990261078, 0.12229032814502716, 0.11911924183368683, 0.12061195075511932, 0.12656889855861664, 0.13640742003917694, 0.1492992341518402, 0.16422539949417114, 0.17999255657196045, 0.19520869851112366, 0.20824430882930756, 0.2172512263059616, 0.22031687200069427, 0.21570654213428497, 0.20224612951278687, 0.17967557907104492, 0.1487535834312439, 0.11129426211118698, 0.06979016959667206, 0.027056517079472542, -0.014191479422152042, -0.051649294793605804, -0.0835954025387764, -0.10893737524747849, -0.12716403603553772, -0.13824845850467682, -0.14251907169818878, -0.14054353535175323, -0.13302379846572876, -0.12073653191328049, -0.1044616624712944, -0.08499948680400848, -0.06316706538200378, -0.03982746973633766, -0.01589759811758995, 0.007645727600902319, 0.029788168147206306, 0.049515753984451294, 0.06584867089986801]
volume 	 [0.0, 0.0, 0.0, 0.0, 0.0, 0.0, 0.0, 0.0, 0.0, 0.0, 0.0, 0.0, 0.0, 0.0, 0.0, 0.0, 0.0, 0.0, 0.0, 0.0, 0.0, 0.0, 0.0, 0.0, 0.0, 0.0, 0.0, 0.0, 0.0, 0.0, 0.0, 0.0, 0.0, 0.0, 0.0, 0.0, 0.0, 0.0, 0.0, 0.0, 0.0, 0.0, 0.0, 0.0, 0.0, 0.0, 0.0, 0.0, 0.0, 0.0, 0.0, 0.0, 0.0, 0.0, 0.0, 0.0, 0.0, 0.0, 0.0, 0.0, 0.0, 0.0, 0.0, 0.0, 0.0, 0.0, 0.0, 0.0, 0.0, 0.0, 0.0, 0.0, 0.0, 0.0, 0.0, 0.0, 0.0, 0.0, 0.0, 0.0, 0.0, 0.0, 0.0, 0.0, 0.0, 0.0, 0.0, 0.0, 0.0, 0.0, 0.0, 0.0, 0.0, 0.0, 0.0, 0.0, 0.0, 0.0, 0.0, 0.0, 0.0, 0.0, 0.0, 0.0, 0.0, 0.0, 0.0, 0.0, 0.0, 0.0, 0.0, 0.0, 0.0, 0.0, 0.0, 0.0, 0.0, 0.0, 0.0, 0.0, 0.0, 0.0, 0.0, 0.0, 0.0, 0.0, 0.0, 0.0, 0.0, 0.0, 0.0, 0.0, 0.0, 0.0, 0.0, 0.0, 0.0, 0.0, 0.0, 0.0, 0.0, 0.0, 0.0, 0.0, 0.0, 0.0, 0.0, 0.0, 0.0, 0.0, 0.0, 0.0, 0.0, 0.0, 0.0, 0.0, 0.0, 0.0, 0.0, 0.0, 0.0, 0.0, 0.0, 0.0, 0.0, 0.0, 0.0, 0.0, 0.0, 0.0, 0.0, 0.0, 0.0, 0.0, 0.0, 0.0, 0.0, 0.0, 0.0, 0.0]
