0.031525056809186935 CrossValid 80.90972900390625 CrossValidLossesBy500 648.5645751953125 470.3804931640625 301.64508056640625 201.18917846679688 145.53546142578125 118.13935089111328 104.82076263427734 98.27210235595703 94.41802215576172 91.95366668701172 90.24446105957031 88.97142028808594 88.04441833496094 87.32876586914062 86.72901153564453 86.2393569946289 85.7928466796875 85.37032318115234 85.06314849853516 84.76826477050781 84.49592590332031 84.26944732666016 84.01608276367188 83.83265686035156 83.65119934082031 83.43714904785156 83.29515075683594 83.12858581542969 83.00768280029297 82.85275268554688 82.74534606933594 82.64067077636719 82.52267456054688 82.43396759033203 82.38347625732422 82.2563705444336 82.16529846191406 82.11312103271484 82.06148529052734 81.94316864013672 81.90264129638672 81.8292465209961 81.80195617675781 81.77039337158203 81.69775390625 81.64196014404297 81.58168029785156 81.5672607421875 81.51609802246094 81.45407104492188 81.44364929199219 81.4210205078125 81.36558532714844 81.3580093383789 81.30215454101562 81.29840850830078 81.28189086914062 81.25990295410156 81.25668334960938 81.22855377197266 81.23741149902344 81.18887329101562 81.19964599609375 81.17730712890625 81.17070770263672 81.19998931884766 81.14856719970703 81.13422393798828 81.1311264038086 81.15737915039062 81.14494323730469 81.12789154052734 81.11267852783203 81.0946273803711 81.09542083740234 81.106201171875 81.09191131591797 81.07608795166016 81.04737854003906 81.04206848144531 81.07120513916016 81.03150939941406 81.04653930664062 81.03895568847656 81.04594421386719 81.05330657958984 81.03767395019531 81.00421142578125 81.01978302001953 80.96751403808594 80.97862243652344 80.97732543945312 80.98835754394531 80.93788146972656 80.99209594726562 80.98131561279297 80.9693603515625 80.92459869384766 80.94163513183594 80.90950775146484 80.93385314941406 80.90972900390625
51000 LossesBy500_1 0.22655995190143585 0.1649702936410904 0.10680346935987473 0.07224130630493164 0.05338256433606148 0.04447278007864952 0.04038982093334198 0.03850376233458519 0.037431444972753525 0.03674938529729843 0.036265332251787186 0.0358908511698246 0.035604920238256454 0.03536967188119888 0.03516038507223129 0.034975048154592514 0.034799590706825256 0.034625500440597534 0.03448602557182312 0.034348201006650925 0.03421650826931 0.03410041704773903 0.03397386521100998 0.03387340158224106 0.033771876245737076 0.033658672124147415 0.033569447696208954 0.033471256494522095 0.03338940069079399 0.03329514339566231 0.03321842476725578 0.033142656087875366 0.033062759786844254 0.03299478441476822 0.03294103592634201 0.032861530780792236 0.03279620036482811 0.03274603188037872 0.0326976403594017 0.0326269157230854 0.032584767788648605 0.03253225237131119 0.03249635919928551 0.032460641115903854 0.03241177648305893 0.03236927092075348 0.03232584521174431 0.032299332320690155 0.03226003050804138 0.03221817687153816 0.0321953110396862 0.03216778114438057 0.03212945535778999 0.03210826963186264 0.03207102045416832 0.032051701098680496 0.03202918916940689 0.03200463578104973 0.03198722004890442 0.031961146742105484 0.03194894269108772 0.03191690146923065 0.03190591558814049 0.03188369795680046 0.03186766058206558 0.03186435624957085 0.031833332031965256 0.0318153016269207 0.03180179372429848 0.031799063086509705 0.03178301826119423 0.03176615759730339 0.03174992650747299 0.03173283860087395 0.03172335401177406 0.03171681612730026 0.03170309215784073 0.03168836236000061 0.03166995942592621 0.031659677624702454 0.03166239708662033 0.03164222463965416 0.03164162486791611 0.031632259488105774 0.03162984922528267 0.03162696212530136 0.03161608427762985 0.031599629670381546 0.031600210815668106 0.031578078866004944 0.0315779410302639 0.03157416358590126 0.031574126332998276 0.031553518027067184 0.031569212675094604 0.031562887132167816 0.03155598044395447 0.03153793886303902 0.031541548669338226 0.031528063118457794 0.03153504431247711 0.031525056809186935
sigma2_stimulus 	 [5.087146759033203, 2.881432294845581]
log_motor_var 	 [7.431085109710693]
sigma_logit 	 [-6.408768653869629, -6.464548587799072, -7.2470550537109375]
mixture_logit 	 [-4.644449710845947]
prior 	 [0.10123302042484283, 0.12081222981214523, 0.13680100440979004, 0.14532189071178436, 0.14430825412273407, 0.13449500501155853, 0.11902254819869995, 0.10208886116743088, 0.08712679892778397, 0.0756293386220932, 0.0669308677315712, 0.0589999184012413, 0.04967794567346573, 0.03785134106874466, 0.023971572518348694, 0.009821970947086811, -0.0022236595395952463, -0.009997961111366749, -0.012090269476175308, -0.008045748807489872, 0.0017171730287373066, 0.01614188216626644, 0.03379741311073303, 0.05310652032494545, 0.07253358513116837, 0.09073750674724579, 0.10670047998428345, 0.11980828642845154, 0.12985067069530487, 0.13694801926612854, 0.14149892330169678, 0.14405828714370728, 0.1451905369758606, 0.14538420736789703, 0.14491179585456848, 0.14375494420528412, 0.14155808091163635, 0.1377294659614563, 0.13154032826423645, 0.12234491854906082, 0.10970604419708252, 0.09356920421123505, 0.07431934028863907, 0.05275414139032364, 0.029973825439810753, 0.007227407768368721, -0.0142781687900424, -0.033553145825862885, -0.04996838420629501, -0.06333254277706146, -0.07391023635864258, -0.08234269917011261, -0.08950530737638474, -0.09631992131471634, -0.1035376712679863, -0.11155813932418823, -0.12035167962312698, -0.12950536608695984, -0.13842158019542694, -0.14655445516109467, -0.15362554788589478, -0.15974251925945282, -0.1652892678976059, -0.17066481709480286, -0.17609462141990662, -0.18137873709201813, -0.18594874441623688, -0.1890561729669571, -0.19003915786743164, -0.18859805166721344, -0.1848558783531189, -0.17924021184444427, -0.17232941091060638, -0.16468721628189087, -0.15688487887382507, -0.1496812105178833, -0.14411921799182892, -0.14147213101387024, -0.14279019832611084, -0.14819511771202087, -0.15639758110046387, -0.16474798321723938, -0.17005248367786407, -0.16977933049201965, -0.16321678459644318, -0.1519542932510376, -0.13953039050102234, -0.13016624748706818, -0.12714263796806335, -0.13146235048770905, -0.1415674090385437, -0.15414458513259888, -0.16549697518348694, -0.17278587818145752, -0.17464056611061096, -0.17118936777114868, -0.1637343466281891, -0.1543027013540268, -0.14514347910881042, -0.13842642307281494, -0.13583068549633026, -0.13845066726207733, -0.14646515250205994, -0.15924906730651855, -0.17527538537979126, -0.19234079122543335, -0.20777104794979095, -0.2187362015247345, -0.22260981798171997, -0.21729445457458496, -0.20147396624088287, -0.17490296065807343, -0.1385727971792221, -0.0947379618883133, -0.04679996147751808, 0.001004589255899191, 0.04417042061686516, 0.0785900428891182, 0.10130554437637329, 0.1110881119966507, 0.10865582525730133, 0.09643208235502243, 0.077975794672966, 0.05723917484283447, 0.037902120500802994, 0.022882819175720215, 0.01410397794097662, 0.012457243166863918, 0.017944281920790672, 0.029926028102636337, 0.047412723302841187, 0.06935279816389084, 0.09485319256782532, 0.123291976749897, 0.1543392390012741, 0.18781858682632446, 0.22348330914974213, 0.2607392966747284, 0.2983189821243286, 0.3343544900417328, 0.36624130606651306, 0.391028493642807, 0.4059566259384155, 0.4088837802410126, 0.39869365096092224, 0.37540438771247864, 0.34019482135772705, 0.2951314151287079, 0.2429862916469574, 0.18689249455928802, 0.1300487518310547, 0.07547071576118469, 0.02578302100300789, -0.016904637217521667, -0.05104469880461693, -0.07570075243711472, -0.09054740518331528, -0.09590093046426773, -0.09267427027225494, -0.08233685791492462, -0.06680167466402054, -0.04824644699692726, -0.028867671266198158, -0.010615167208015919, 0.005060387775301933, 0.017358457669615746, 0.026148881763219833, 0.031859152019023895, 0.03527330234646797, 0.037278689444065094, 0.038638222962617874, 0.039825018495321274, 0.041017696261405945, 0.042216427624225616, 0.04352444037795067, 0.045446738600730896, 0.04901481419801712, 0.055637042969465256, 0.066571906208992, 0.08216875791549683]
volume 	 [0.29202044010162354, 0.35991621017456055, 0.3018288314342499, 0.28248706459999084, 0.27092888951301575, 0.29275840520858765, 0.3796972632408142, 0.44493037462234497, 0.44328925013542175, 0.4819972515106201, 0.5125589370727539, 0.5757982730865479, 0.5304301381111145, 0.4591197073459625, 0.43355467915534973, 0.40522661805152893, 0.40957731008529663, 0.3442698121070862, 0.22381386160850525, 0.057705529034137726, -0.053835827857255936, -0.13427332043647766, -0.2051832526922226, -0.20145322382450104, -0.21701818704605103, -0.29968661069869995, -0.3471657633781433, -0.34429261088371277, -0.3018158972263336, -0.21173407137393951, -0.16301308572292328, -0.20447112619876862, -0.2511192262172699, -0.2764100730419159, -0.2899288833141327, -0.28241628408432007, -0.2536260485649109, -0.25470757484436035, -0.2722052037715912, -0.2637823224067688, -0.24932359158992767, -0.2514822483062744, -0.2591092884540558, -0.25375157594680786, -0.18608777225017548, -0.11311691999435425, -0.13803236186504364, -0.138193741440773, -0.10494675487279892, -0.1254994422197342, -0.18676722049713135, -0.15159939229488373, -0.10773395001888275, -0.11219620704650879, -0.1145690381526947, -0.10230060666799545, -0.17542968690395355, -0.2033250778913498, -0.1959766149520874, -0.10273832827806473, 0.03347356989979744, 0.007304457016289234, 0.08428750187158585, 0.02224685810506344, -0.04712690785527229, -0.039057034999132156, 0.006148362997919321, 0.015913596376776695, 0.031335122883319855, 0.02392396330833435, 0.023904792964458466, 0.0011105533922091126, 0.020038869231939316, 0.08322916179895401, 0.1688784658908844, 0.2392163723707199, 0.28611811995506287, 0.2726665437221527, 0.22774575650691986, 0.25112202763557434, 0.2628905177116394, 0.30635613203048706, 0.3686007261276245, 0.31570425629615784, 0.3288356065750122, 0.3830660581588745, 0.4184533953666687, 0.41168898344039917, 0.4321972727775574, 0.4921983480453491, 0.5071184635162354, 0.49183717370033264, 0.5021682977676392, 0.406722754240036, 0.3813413679599762, 0.34964317083358765, 0.29259806871414185, 0.21380747854709625, 0.16406689584255219, 0.1433291882276535, 0.10945072770118713, 0.09403509646654129, 0.1041170135140419, 0.08365646749734879, 0.011331646703183651, -0.062393441796302795, -0.1511707454919815, -0.16316159069538116, -0.1170751303434372, -0.10063429176807404, -0.037564966827631, 0.06174076348543167, 0.0012901322916150093, -0.06693830341100693, -0.07092777639627457, -0.06214803457260132, -0.04318785294890404, -0.022982830181717873, -0.06520195305347443, -0.12528985738754272, -0.12484465539455414, -0.10201266407966614, -0.10856243222951889, -0.1576234996318817, -0.1860765814781189, -0.17593276500701904, -0.16403482854366302, -0.1669570952653885, -0.2433735430240631, -0.2899482846260071, -0.3001069128513336, -0.3182305693626404, -0.2899603545665741, -0.2396475225687027, -0.25596266984939575, -0.27788421511650085, -0.2680418789386749, -0.21915346384048462, -0.1369260996580124, -0.0879661962389946, -0.07894343137741089, -0.06557498127222061, -0.11277147382497787, -0.2078976333141327, -0.22043858468532562, -0.1773422807455063, -0.09147009998559952, -0.08415613323450089, -0.14711296558380127, -0.26112619042396545, -0.34119758009910583, -0.3809531629085541, -0.41269218921661377, -0.4175570011138916, -0.4240853488445282, -0.4362086057662964, -0.42967551946640015, -0.4055735170841217, -0.3432309627532959, -0.2347012162208557, -0.15596529841423035, -0.08389841020107269, -0.007703358773142099, 0.03137650713324547, 0.0899328887462616, 0.11811061203479767, 0.059558846056461334, 0.10772494971752167, 0.0730057880282402, 0.1020132377743721, 0.0798080638051033, 0.08026795089244843, 0.07326870411634445, 0.11318254470825195, 0.1244366317987442, 0.1302892118692398, 0.14554646611213684, 0.17675462365150452, 0.22703434526920319, 0.2376055121421814]
