0.030717404559254646 CrossValid 123.7254638671875 CrossValidLossesBy500 680.3272094726562 496.70196533203125 323.7599182128906 222.12989807128906 167.7189178466797 142.89480590820312 132.16342163085938 127.91436767578125 125.66004943847656 124.57093811035156 123.94351959228516 123.4919662475586 123.21688842773438 123.04029846191406 122.90071105957031 122.81204223632812 122.67424011230469 122.53844451904297 122.43667602539062 122.38855743408203 122.32685089111328 122.26134490966797 122.23443603515625 122.14957427978516 122.08909606933594 122.01922607421875 121.98825073242188 121.93475341796875 121.89105987548828 121.92382049560547 121.8930892944336 121.85952758789062 121.864013671875 121.87163543701172 121.91947937011719 121.90138244628906 121.93675231933594 121.94278717041016 121.93529510498047 121.95630645751953 121.9236831665039 121.99779510498047 121.99517822265625 121.99559783935547 122.04412078857422 122.0794448852539 122.1155776977539 122.14671325683594 122.18193054199219 122.16181182861328 122.26717376708984 122.28173828125 122.33094024658203 122.34672546386719 122.43730163574219 122.483642578125 122.56231689453125 122.59074401855469 122.650390625 122.69551849365234 122.73716735839844 122.77522277832031 122.86051940917969 122.91998291015625 122.95556640625 123.00831604003906 123.07067108154297 123.0719223022461 123.12690734863281 123.24647521972656 123.26932525634766 123.2947006225586 123.34114074707031 123.38613891601562 123.40958404541016 123.44307708740234 123.46741485595703 123.51557922363281 123.57137298583984 123.61637878417969 123.63484191894531 123.60633087158203 123.67581176757812 123.69375610351562 123.69461822509766 123.7378921508789 123.70352172851562 123.70817565917969 123.74445343017578 123.76348114013672 123.7254638671875
45500 LossesBy500_2 0.22550790011882782 0.1642160266637802 0.1061171293258667 0.07150352746248245 0.05258502811193466 0.04357202723622322 0.03938134014606476 0.03745962679386139 0.03630540519952774 0.035608354955911636 0.03511491045355797 0.034730177372694016 0.034434448927640915 0.03419395908713341 0.033989302814006805 0.033812254667282104 0.033633042126894 0.03346297889947891 0.033317454159259796 0.03318624198436737 0.033062051981687546 0.03294564411044121 0.03284581005573273 0.032728806138038635 0.03262167423963547 0.032517287880182266 0.03242846205830574 0.03233140707015991 0.032242801040410995 0.03217756003141403 0.032096415758132935 0.03201477229595184 0.03194456920027733 0.03187971189618111 0.03182576224207878 0.03175641596317291 0.031705908477306366 0.03164885938167572 0.031587813049554825 0.03154032677412033 0.031478025019168854 0.03144889697432518 0.03140020743012428 0.03135371208190918 0.03132273629307747 0.03128940239548683 0.03125741332769394 0.031222766265273094 0.031195789575576782 0.03114565834403038 0.031138436868786812 0.031102603301405907 0.031078418716788292 0.031044907867908478 0.031036457046866417 0.03101489320397377 0.031004048883914948 0.030978770926594734 0.030963663011789322 0.030944546684622765 0.030925272032618523 0.030905678868293762 0.03090265579521656 0.03089173138141632 0.030873488634824753 0.030862227082252502 0.03085418790578842 0.030826689675450325 0.030818045139312744 0.03083127923309803 0.030817808583378792 0.030806347727775574 0.030802246183156967 0.03079753741621971 0.03078651800751686 0.030778570100665092 0.03076804056763649 0.030765989795327187 0.03076672926545143 0.030767669901251793 0.030762767419219017 0.030742229893803596 0.0307549387216568 0.030752694234251976 0.03074464201927185 0.03075064904987812 0.0307326503098011 0.030727652832865715 0.03073280304670334 0.03073379397392273 0.030717404559254646
sigma2_stimulus 	 [5.096096038818359, 2.8702807426452637]
log_motor_var 	 [7.392967700958252]
sigma_logit 	 [-6.4265594482421875, -6.478696346282959, -7.251769065856934]
mixture_logit 	 [-4.668795585632324]
prior 	 [1.0]
volume 	 [0.39277076721191406, 0.40029624104499817, 0.35198578238487244, 0.29264503717422485, 0.275626540184021, 0.32172995805740356, 0.43585261702537537, 0.44545629620552063, 0.4276823103427887, 0.4567576050758362, 0.4533030688762665, 0.5437802672386169, 0.5053902268409729, 0.41667622327804565, 0.3773607015609741, 0.36458155512809753, 0.3461773693561554, 0.27327054738998413, 0.19623221457004547, 0.04765373468399048, -0.056508585810661316, -0.12865865230560303, -0.18374592065811157, -0.1800374984741211, -0.23653438687324524, -0.3179750442504883, -0.3667675256729126, -0.38530054688453674, -0.3508892059326172, -0.29033559560775757, -0.2848394811153412, -0.2953222990036011, -0.2871688902378082, -0.2978348731994629, -0.3156581521034241, -0.3277114927768707, -0.33388030529022217, -0.3466010093688965, -0.3376668691635132, -0.313721626996994, -0.2754862904548645, -0.2727934718132019, -0.28300711512565613, -0.2741294801235199, -0.19935038685798645, -0.1658940315246582, -0.17259536683559418, -0.126806378364563, -0.08274957537651062, -0.14519032835960388, -0.16673515737056732, -0.10991159081459045, -0.1413477212190628, -0.16617166996002197, -0.1552543342113495, -0.16789938509464264, -0.21791887283325195, -0.2226705700159073, -0.18606902658939362, -0.07873392105102539, -0.012602732516825199, -0.0019606994464993477, 0.08603373169898987, 0.007624541874974966, -0.01864689588546753, 0.0356786884367466, 0.10246895998716354, 0.07240638881921768, 0.05177118629217148, 0.04856250807642937, 0.03387439623475075, 0.038935061544179916, 0.09373705089092255, 0.13855643570423126, 0.17049553990364075, 0.18502004444599152, 0.2367355078458786, 0.24609550833702087, 0.24067187309265137, 0.28378826379776, 0.30326852202415466, 0.3327958285808563, 0.3570587933063507, 0.300968199968338, 0.31974291801452637, 0.3561592698097229, 0.39167365431785583, 0.38700416684150696, 0.40491870045661926, 0.48383352160453796, 0.5124784111976624, 0.4847390055656433, 0.5088987350463867, 0.4313338100910187, 0.3545651137828827, 0.3059863746166229, 0.27459388971328735, 0.21776092052459717, 0.19659531116485596, 0.16968728601932526, 0.1289156824350357, 0.09207413345575333, 0.06940362602472305, 0.04702363908290863, 0.0004396617296151817, -0.07306979596614838, -0.14443962275981903, -0.1695534735918045, -0.11509932577610016, -0.051984068006277084, -0.027528071776032448, 0.05653934180736542, 0.11428116261959076, -0.021033940836787224, -0.059353649616241455, -0.06782715767621994, -0.04817613959312439, -0.03780864551663399, -0.042736493051052094, -0.08370665460824966, -0.12086854130029678, -0.13288821280002594, -0.1212051585316658, -0.13012628257274628, -0.2084495574235916, -0.26657629013061523, -0.25093764066696167, -0.21481838822364807, -0.2012873888015747, -0.26395127177238464, -0.28640496730804443, -0.29018816351890564, -0.2698923349380493, -0.2173791229724884, -0.24024057388305664, -0.2686995565891266, -0.26017776131629944, -0.22583672404289246, -0.15000472962856293, -0.10330665856599808, -0.12318775057792664, -0.0828954428434372, -0.12011487036943436, -0.22195404767990112, -0.2533922493457794, -0.22458644211292267, -0.1397467702627182, -0.14011545479297638, -0.20628158748149872, -0.319306343793869, -0.3879757821559906, -0.4145509600639343, -0.42965829372406006, -0.42200812697410583, -0.4305669069290161, -0.4421459138393402, -0.41937199234962463, -0.37862449884414673, -0.31826648116111755, -0.2206541895866394, -0.14685215055942535, -0.07409176230430603, 0.015769941732287407, 0.08828558772802353, 0.14469949901103973, 0.1960599571466446, 0.13911668956279755, 0.1660871058702469, 0.1666651964187622, 0.22195759415626526, 0.20043615996837616, 0.17531241476535797, 0.21988990902900696, 0.253876268863678, 0.23189224302768707, 0.20127753913402557, 0.1850454956293106, 0.2155625820159912, 0.2539447546005249, 0.2867480218410492]
