0.030991453677415848 CrossValid 110.07615661621094 CrossValidLossesBy500 649.4955444335938 474.5193176269531 309.91680908203125 212.34942626953125 159.85874938964844 135.46566772460938 125.25017547607422 120.93063354492188 118.72129821777344 117.45247650146484 116.58497619628906 115.96562957763672 115.49310302734375 115.03311157226562 114.62548065185547 114.27561950683594 113.99771118164062 113.60999298095703 113.34231567382812 113.04598999023438 112.80224609375 112.49730682373047 112.2886962890625 112.06488037109375 111.83476257324219 111.65422058105469 111.5120849609375 111.29510498046875 111.12818145751953 111.0101547241211 110.85342407226562 110.71771240234375 110.57904815673828 110.50165557861328 110.37081909179688 110.26737213134766 110.22120666503906 110.11119079589844 110.05765533447266 109.99195861816406 109.91548919677734 109.86444854736328 109.875 109.79986572265625 109.82646179199219 109.76978302001953 109.74508666992188 109.7508773803711 109.71821594238281 109.69342041015625 109.71832275390625 109.68460845947266 109.67876434326172 109.7044906616211 109.71107482910156 109.72981262207031 109.72039794921875 109.75675964355469 109.79205322265625 109.78984069824219 109.80990600585938 109.88548278808594 109.89274597167969 109.94522094726562 109.91703033447266 109.95641326904297 109.94437408447266 110.01931762695312 110.02234649658203 110.013916015625 110.01850128173828 110.044189453125 110.04727172851562 110.06340026855469 110.11241149902344 110.07615661621094
38000 LossesBy500_1 0.22609445452690125 0.16403773427009583 0.10557741671800613 0.07106602191925049 0.05230651795864105 0.04325786232948303 0.03916472569108009 0.03719495236873627 0.036049552261829376 0.03530538082122803 0.03476860001683235 0.034368518739938736 0.034050293266773224 0.03378112241625786 0.03354637324810028 0.033352505415678024 0.033192820847034454 0.03301072493195534 0.03287481889128685 0.03273845836520195 0.03262165188789368 0.03249010071158409 0.032389961183071136 0.03229527547955513 0.032201867550611496 0.0321173332631588 0.0320482961833477 0.031961631029844284 0.03189240023493767 0.03184129297733307 0.0317726768553257 0.031716328114271164 0.03166062757372856 0.03163054957985878 0.03157466650009155 0.0315275602042675 0.03150316700339317 0.031460173428058624 0.03143039718270302 0.031396880745887756 0.03136436268687248 0.0313342846930027 0.031327929347753525 0.031289104372262955 0.0312858447432518 0.03125792741775513 0.03123505972325802 0.03122691810131073 0.031204165890812874 0.031182726845145226 0.031178945675492287 0.031153179705142975 0.031138621270656586 0.031131945550441742 0.0311193335801363 0.031110119074583054 0.03109017387032509 0.031086515635252 0.031081346794962883 0.03106212615966797 0.031051333993673325 0.03105892613530159 0.03104628063738346 0.031048567965626717 0.03102691099047661 0.031028706580400467 0.03101435862481594 0.03103107586503029 0.03102290630340576 0.031012050807476044 0.031005581840872765 0.03100684843957424 0.030999450013041496 0.030998652800917625 0.031009281054139137 0.030991453677415848
sigma2_stimulus 	 [5.074377059936523, 2.804603099822998]
log_motor_var 	 [7.393853664398193]
sigma_logit 	 [-6.402767181396484, -6.533960819244385, -7.260003089904785]
mixture_logit 	 [-4.692249298095703]
prior 	 [1.0]
volume 	 [0.18721318244934082, 0.27060800790786743, 0.2158885896205902, 0.18952885270118713, 0.16251781582832336, 0.19501879811286926, 0.33955228328704834, 0.3756835460662842, 0.32153692841529846, 0.34700706601142883, 0.44487348198890686, 0.35683557391166687, 0.31328755617141724, 0.2603663504123688, 0.22087834775447845, 0.23490628600120544, 0.20792381465435028, 0.18341706693172455, 0.13116562366485596, 0.027837365865707397, -0.05359669029712677, -0.13345831632614136, -0.1987486034631729, -0.18979579210281372, -0.206955224275589, -0.25817185640335083, -0.2950645685195923, -0.3099059462547302, -0.26765176653862, -0.20189103484153748, -0.2107865810394287, -0.23409566283226013, -0.24111777544021606, -0.25947263836860657, -0.2532358169555664, -0.23594391345977783, -0.2536340653896332, -0.2713777720928192, -0.25237536430358887, -0.2295110672712326, -0.20440815389156342, -0.21260406076908112, -0.22758716344833374, -0.2150164544582367, -0.1373123824596405, -0.106052927672863, -0.12597277760505676, -0.10387630015611649, -0.0722120925784111, -0.12297168374061584, -0.16354434192180634, -0.1042885109782219, -0.07950537651777267, -0.0913681760430336, -0.10185948759317398, -0.07285962253808975, -0.12064002454280853, -0.16955755650997162, -0.15290392935276031, -0.04847917705774307, 0.045436859130859375, 0.01828230731189251, 0.05885816365480423, 0.06977348029613495, -0.011588036082684994, -0.008473793976008892, 0.05499789118766785, 0.059767384082078934, 0.08476725965738297, 0.10060276091098785, 0.1002509817481041, 0.07064605504274368, 0.08065879344940186, 0.14163915812969208, 0.21001406013965607, 0.27261093258857727, 0.29556965827941895, 0.3314654231071472, 0.30363816022872925, 0.298989862203598, 0.28717437386512756, 0.30634811520576477, 0.34842097759246826, 0.2760922610759735, 0.29541608691215515, 0.37246185541152954, 0.3962996006011963, 0.3413556218147278, 0.3620515465736389, 0.4363155961036682, 0.4329591691493988, 0.424232542514801, 0.5025582313537598, 0.3993602693080902, 0.359840989112854, 0.35155364871025085, 0.304104745388031, 0.26700201630592346, 0.24121041595935822, 0.15026544034481049, 0.0944398045539856, 0.08284364640712738, 0.08873483538627625, 0.07158560305833817, -0.0012012835359200835, -0.04955482482910156, -0.07543643563985825, -0.10366622358560562, -0.08438995480537415, -0.054795041680336, 0.010201756842434406, 0.1365348994731903, 0.06729623675346375, 0.04084691405296326, 0.00300932046957314, -0.036398570984601974, -0.042314231395721436, -0.030934665352106094, -0.04315672442317009, -0.04964973405003548, -0.09159067273139954, -0.10152696073055267, -0.0759691521525383, -0.09021465480327606, -0.17476122081279755, -0.1688404679298401, -0.16817717254161835, -0.13807053864002228, -0.1801953911781311, -0.23468366265296936, -0.25542065501213074, -0.2571415901184082, -0.21005265414714813, -0.1815800666809082, -0.24302938580513, -0.2683023512363434, -0.2532845437526703, -0.1829937994480133, -0.13398656249046326, -0.13554668426513672, -0.14542321860790253, -0.15799415111541748, -0.2061711549758911, -0.3015857934951782, -0.3336344361305237, -0.2817056179046631, -0.21298444271087646, -0.18484415113925934, -0.18574988842010498, -0.2071499079465866, -0.2680993676185608, -0.2876627743244171, -0.28095996379852295, -0.3027292490005493, -0.3184930384159088, -0.34020912647247314, -0.3204009532928467, -0.2758069336414337, -0.21373993158340454, -0.12418022751808167, -0.08675678074359894, -0.008639057166874409, 0.09744132310152054, 0.1410732865333557, 0.16540026664733887, 0.09193703532218933, 0.06232723221182823, 0.07354549318552017, 0.05640114098787308, 0.08254905790090561, 0.00975401047617197, -0.007917729206383228, 0.015988782048225403, 0.06788479536771774, 0.03934197127819061, 0.03673183545470238, 0.06597596406936646, 0.05455532670021057, 0.13707686960697174, 0.1470596045255661]
