0.03587072342634201 CrossValid 90.55715942382812 CrossValidLossesBy500 647.5711669921875 470.97088623046875 302.3568115234375 201.9919891357422 147.09765625 120.3814697265625 108.19538879394531 102.40814208984375 99.3843765258789 97.52252197265625 96.22660827636719 95.34133911132812 94.70934295654297 94.26066589355469 93.94645690917969 93.6533203125 93.44795989990234 93.30387115478516 93.12909698486328 92.98748779296875 92.91665649414062 92.7744369506836 92.71310424804688 92.56272888183594 92.47968292236328 92.39762878417969 92.35768127441406 92.29365539550781 92.1974868774414 92.09635162353516 92.01881408691406 91.98173522949219 91.92735290527344 91.85758972167969 91.78827667236328 91.72959899902344 91.68109893798828 91.64871978759766 91.56937408447266 91.55866241455078 91.4798355102539 91.4566879272461 91.42710876464844 91.36439514160156 91.28668975830078 91.25456237792969 91.19380187988281 91.1673583984375 91.16966247558594 91.11083984375 91.07804870605469 91.06306457519531 91.04048156738281 90.97151184082031 90.94440460205078 90.93878936767578 90.85118103027344 90.88260650634766 90.86251831054688 90.83834838867188 90.7626724243164 90.74826049804688 90.76139068603516 90.73811340332031 90.699951171875 90.68834686279297 90.68270111083984 90.70262145996094 90.64891815185547 90.65386962890625 90.62738037109375 90.64718627929688 90.64278411865234 90.60752868652344 90.58617401123047 90.60519409179688 90.55715942382812
38500 LossesBy500_1 0.22630999982357025 0.1652303785085678 0.1071324497461319 0.07264910638332367 0.0539640374481678 0.04505473002791405 0.0411074124276638 0.03929867967963219 0.038394562900066376 0.03785833343863487 0.037493765354156494 0.037252120673656464 0.037084486335515976 0.036967840045690536 0.03688990697264671 0.03681221976876259 0.03676002472639084 0.036725472658872604 0.0366772785782814 0.03663966804742813 0.03662366047501564 0.03658264875411987 0.036567628383636475 0.036521948873996735 0.036499038338661194 0.03647557273507118 0.03646650165319443 0.0364486426115036 0.036418963223695755 0.036387789994478226 0.03636399656534195 0.036354292184114456 0.036338262259960175 0.03631627932190895 0.036294206976890564 0.036276333034038544 0.03626115992665291 0.036251626908779144 0.03622552007436752 0.03622276335954666 0.03619682043790817 0.036189354956150055 0.03618050366640091 0.036159105598926544 0.0361325703561306 0.03612181544303894 0.03610114008188248 0.03609180822968483 0.036092933267354965 0.036072202026844025 0.03606029972434044 0.03605549782514572 0.03604738414287567 0.036022793501615524 0.036013029515743256 0.036010727286338806 0.035980042070150375 0.03599090129137039 0.03598368912935257 0.035975027829408646 0.03594876080751419 0.03594301640987396 0.035947054624557495 0.035938411951065063 0.03592444583773613 0.03592055290937424 0.03591729700565338 0.035924237221479416 0.03590499982237816 0.035906072705984116 0.035896334797143936 0.0359029583632946 0.03590105473995209 0.035888172686100006 0.03588071092963219 0.03588705137372017 0.03587072342634201
sigma2_stimulus 	 [4.188652038574219, 2.797224998474121]
log_motor_var 	 [7.324025630950928]
sigma_logit 	 [-6.383617877960205, -6.424159526824951, -7.463266372680664]
mixture_logit 	 [-4.490152359008789]
prior 	 [-0.09285012632608414, -0.10193660855293274, -0.10781486332416534, -0.10973019897937775, -0.10718794912099838, -0.1000577062368393, -0.0885746031999588, -0.07332143932580948, -0.055162813514471054, -0.03512117266654968, -0.014242165721952915, 0.006559773348271847, 0.026634711772203445, 0.04565658047795296, 0.06358907371759415, 0.0805506482720375, 0.09662699699401855, 0.11169357597827911, 0.1253545582294464, 0.13693541288375854, 0.1455981284379959, 0.15052014589309692, 0.151171013712883, 0.1473122537136078, 0.13930094242095947, 0.1279112994670868, 0.11432120949029922, 0.0998120903968811, 0.08566959947347641, 0.07289214432239532, 0.06216428801417351, 0.05378412827849388, 0.04773325100541115, 0.04375298321247101, 0.04144821688532829, 0.040418196469545364, 0.04035831615328789, 0.04116141423583031, 0.04287809878587723, 0.04568817839026451, 0.04973777011036873, 0.0550200529396534, 0.06127500534057617, 0.06795697659254074, 0.07427673786878586, 0.07937157899141312, 0.08240839838981628, 0.08274941891431808, 0.08007516711950302, 0.07440733164548874, 0.06610196083784103, 0.055723439902067184, 0.04401416704058647, 0.031715042889118195, 0.019488507881760597, 0.007804456632584333, -0.0031140854116529226, -0.013303900137543678, -0.023009037598967552, -0.03257859870791435, -0.04233827441930771, -0.05248872935771942, -0.06300943344831467, -0.07368732243776321, -0.08415989577770233, -0.09400784224271774, -0.10296432673931122, -0.11086779832839966, -0.11785569041967392, -0.12426353991031647, -0.13057976961135864, -0.13726003468036652, -0.1446620523929596, -0.15280383825302124, -0.16143667697906494, -0.16997124254703522, -0.17763827741146088, -0.18368734419345856, -0.187569722533226, -0.18908074498176575, -0.18838506937026978, -0.18597598373889923, -0.18268069624900818, -0.17937935888767242, -0.1769733428955078, -0.17623449862003326, -0.177580788731575, -0.18096990883350372, -0.18593484163284302, -0.19163291156291962, -0.1970338374376297, -0.20108142495155334, -0.20306864380836487, -0.20266109704971313, -0.19999654591083527, -0.1955823451280594, -0.1900763362646103, -0.1840657889842987, -0.17779605090618134, -0.17120103538036346, -0.16384361684322357, -0.1551131010055542, -0.1444624662399292, -0.13153932988643646, -0.1162949874997139, -0.09903193265199661, -0.08044905960559845, -0.0616595484316349, -0.04411637410521507, -0.02945435605943203, -0.019149791449308395, -0.014153221622109413, -0.014559898525476456, -0.019478943198919296, -0.02716100960969925, -0.03534252569079399, -0.041684847325086594, -0.04416167736053467, -0.04142139479517937, -0.03298817574977875, -0.019326236099004745, -0.00175202707760036, 0.01785382069647312, 0.03746349364519119, 0.05537525936961174, 0.07056578248739243, 0.0828150287270546, 0.09255878627300262, 0.10055302828550339, 0.10748808830976486, 0.11373751610517502, 0.1192585900425911, 0.123688705265522, 0.12654389441013336, 0.12747445702552795, 0.12635281682014465, 0.12338710576295853, 0.11903156340122223, 0.11392012983560562, 0.10873328149318695, 0.10415052622556686, 0.10087763518095016, 0.09964867681264877, 0.10113255679607391, 0.10588866472244263, 0.11421181261539459, 0.12590615451335907, 0.1402101367712021, 0.15579022467136383, 0.17082658410072327, 0.18341484665870667, 0.19189651310443878, 0.1953330785036087, 0.1937212496995926, 0.18785828351974487, 0.1790260374546051, 0.1686151623725891, 0.15763252973556519, 0.14669741690158844, 0.135984867811203, 0.12535670399665833, 0.11469689011573792, 0.10388949513435364, 0.09296248108148575, 0.08200662583112717, 0.07112669944763184, 0.06048376113176346, 0.050129082053899765, 0.040103595703840256, 0.030381301417946815, 0.020865168422460556, 0.011389149352908134, 0.0017411765875294805, -0.008319958113133907, -0.019017944112420082, -0.030504487454891205, -0.04279520362615585, -0.05570860579609871, -0.06883100420236588, -0.08149325847625732]
volume 	 [0.0, 0.0, 0.0, 0.0, 0.0, 0.0, 0.0, 0.0, 0.0, 0.0, 0.0, 0.0, 0.0, 0.0, 0.0, 0.0, 0.0, 0.0, 0.0, 0.0, 0.0, 0.0, 0.0, 0.0, 0.0, 0.0, 0.0, 0.0, 0.0, 0.0, 0.0, 0.0, 0.0, 0.0, 0.0, 0.0, 0.0, 0.0, 0.0, 0.0, 0.0, 0.0, 0.0, 0.0, 0.0, 0.0, 0.0, 0.0, 0.0, 0.0, 0.0, 0.0, 0.0, 0.0, 0.0, 0.0, 0.0, 0.0, 0.0, 0.0, 0.0, 0.0, 0.0, 0.0, 0.0, 0.0, 0.0, 0.0, 0.0, 0.0, 0.0, 0.0, 0.0, 0.0, 0.0, 0.0, 0.0, 0.0, 0.0, 0.0, 0.0, 0.0, 0.0, 0.0, 0.0, 0.0, 0.0, 0.0, 0.0, 0.0, 0.0, 0.0, 0.0, 0.0, 0.0, 0.0, 0.0, 0.0, 0.0, 0.0, 0.0, 0.0, 0.0, 0.0, 0.0, 0.0, 0.0, 0.0, 0.0, 0.0, 0.0, 0.0, 0.0, 0.0, 0.0, 0.0, 0.0, 0.0, 0.0, 0.0, 0.0, 0.0, 0.0, 0.0, 0.0, 0.0, 0.0, 0.0, 0.0, 0.0, 0.0, 0.0, 0.0, 0.0, 0.0, 0.0, 0.0, 0.0, 0.0, 0.0, 0.0, 0.0, 0.0, 0.0, 0.0, 0.0, 0.0, 0.0, 0.0, 0.0, 0.0, 0.0, 0.0, 0.0, 0.0, 0.0, 0.0, 0.0, 0.0, 0.0, 0.0, 0.0, 0.0, 0.0, 0.0, 0.0, 0.0, 0.0, 0.0, 0.0, 0.0, 0.0, 0.0, 0.0, 0.0, 0.0, 0.0, 0.0, 0.0, 0.0]
