0.036429110914468765 CrossValid 88.8897933959961 CrossValidLossesBy500 649.0562744140625 472.92120361328125 302.70098876953125 201.26004028320312 145.66763305664062 118.32322692871094 105.68643188476562 99.75663757324219 96.56593322753906 94.65377044677734 93.42086791992188 92.56428527832031 91.96430206298828 91.5454330444336 91.19438934326172 91.00994873046875 90.7586669921875 90.64427185058594 90.4861068725586 90.37081146240234 90.20657348632812 90.13040161132812 89.98614501953125 89.92306518554688 89.84080505371094 89.71546173095703 89.63253784179688 89.54804992675781 89.45370483398438 89.40306091308594 89.30548095703125 89.28639221191406 89.19734191894531 89.1497802734375 89.14639282226562 89.12545013427734 89.10073852539062 89.06156921386719 89.0197982788086 89.02899932861328 88.97319030761719 88.98440551757812 88.91909790039062 88.92789459228516 88.92327880859375 88.92597961425781 88.8953628540039 88.8897933959961
24000 LossesBy500_4 0.22648826241493225 0.16594670712947845 0.10755673795938492 0.07289093732833862 0.054165322333574295 0.045230306684970856 0.04126419126987457 0.03947928547859192 0.03854314610362053 0.03799143806099892 0.03763853758573532 0.0373915396630764 0.03721943497657776 0.037099700421094894 0.03699755668640137 0.03694897145032883 0.03687574714422226 0.03684896230697632 0.036806389689445496 0.03677850589156151 0.03673365339636803 0.03671899065375328 0.03668058663606644 0.03667033836245537 0.03665325790643692 0.03662026673555374 0.03660265728831291 0.03658374398946762 0.03656056523323059 0.03655239939689636 0.03652564436197281 0.03652671352028847 0.03650093451142311 0.03648964315652847 0.03649400547146797 0.036490511149168015 0.03648533672094345 0.036474063992500305 0.03646154701709747 0.03646719083189964 0.036449551582336426 0.036455146968364716 0.03643380105495453 0.036438487470149994 0.036438290029764175 0.03643983602523804 0.036430422216653824 0.036429110914468765
sigma2_stimulus 	 [4.160833358764648, 2.7790637016296387]
log_motor_var 	 [7.415598392486572]
sigma_logit 	 [-6.413643836975098, -6.449899196624756, -7.498503684997559]
mixture_logit 	 [-4.315270900726318]
prior 	 [-0.015552027150988579, -0.014620469883084297, -0.013110737316310406, -0.011048905551433563, -0.008429726585745811, -0.005239103455096483, -0.0014609653735533357, 0.0029282663017511368, 0.00796543713659048, 0.013690642081201077, 0.020112531259655952, 0.027162468060851097, 0.034677136689424515, 0.04239478334784508, 0.04999653249979019, 0.057165004312992096, 0.0636296197772026, 0.06913655251264572, 0.07339932024478912, 0.07610424607992172, 0.07690233737230301, 0.07548937201499939, 0.07173434644937515, 0.06583459675312042, 0.05826444551348686, 0.049769047647714615, 0.04117210581898689, 0.03322507068514824, 0.026489708572626114, 0.02128724753856659, 0.017690522596240044, 0.015586256980895996, 0.0147142568603158, 0.014738515019416809, 0.015294854529201984, 0.01603194698691368, 0.01665670983493328, 0.016981150954961777, 0.016953108832240105, 0.016660071909427643, 0.016279734671115875, 0.015996478497982025, 0.01592504233121872, 0.016073791310191154, 0.01636427827179432, 0.016683438792824745, 0.016918130218982697, 0.01695808209478855, 0.016661671921610832, 0.015816640108823776, 0.014144398272037506, 0.011360316537320614, 0.007254286203533411, 0.0017765191150829196, -0.0049311015754938126, -0.012563247233629227, -0.020726708695292473, -0.02903774380683899, -0.03717928007245064, -0.04491972550749779, -0.05210792273283005, -0.058612626045942307, -0.06432811170816422, -0.06922511756420135, -0.07334773987531662, -0.07691069692373276, -0.0801774188876152, -0.08341606706380844, -0.08684505522251129, -0.09051952511072159, -0.0943775400519371, -0.09822002798318863, -0.10182750225067139, -0.10495173186063766, -0.10734117776155472, -0.10875726491212845, -0.10903163254261017, -0.10808457434177399, -0.10595104098320007, -0.10286755114793777, -0.0991644337773323, -0.0953344777226448, -0.09183607995510101, -0.08909163624048233, -0.08731326460838318, -0.08656179904937744, -0.08668496459722519, -0.08744491636753082, -0.08849555253982544, -0.08950942009687424, -0.09017481654882431, -0.0902327373623848, -0.0895325243473053, -0.08802627772092819, -0.08575006574392319, -0.08282476663589478, -0.07935140281915665, -0.07545269280672073, -0.07122083008289337, -0.06674477458000183, -0.06210571900010109, -0.05740360543131828, -0.05271992087364197, -0.04809506610035896, -0.04354965314269066, -0.039102159440517426, -0.03485378250479698, -0.031003715470433235, -0.027848904952406883, -0.025718694552779198, -0.024860108271241188, -0.025330517441034317, -0.026930825784802437, -0.029214879497885704, -0.03157616779208183, -0.03335550054907799, -0.03394824638962746, -0.03289666399359703, -0.02992701530456543, -0.02497059479355812, -0.018154513090848923, -0.009779357351362705, -0.0002785269170999527, 0.009848943911492825, 0.020114809274673462, 0.030111931264400482, 0.039541926234960556, 0.04819139093160629, 0.055868539959192276, 0.0623442679643631, 0.0673382356762886, 0.07057051360607147, 0.07186025381088257, 0.071158766746521, 0.06864220649003983, 0.06460311263799667, 0.059403449296951294, 0.05341183766722679, 0.04699819162487984, 0.04055294394493103, 0.034563131630420685, 0.02966427244246006, 0.02657713182270527, 0.02604105696082115, 0.02864757366478443, 0.03470002859830856, 0.04407704621553421, 0.05622470751404762, 0.07020068168640137, 0.08480487763881683, 0.09873278439044952, 0.11079953610897064, 0.12007194757461548, 0.12600791454315186, 0.12843845784664154, 0.12762826681137085, 0.12409337610006332, 0.1184907853603363, 0.11146596074104309, 0.10353662073612213, 0.09504764527082443, 0.08621550351381302, 0.07718878239393234, 0.0681600347161293, 0.05936316028237343, 0.051082395017147064, 0.0435510016977787, 0.036879684776067734, 0.0309747327119112, 0.025564756244421005, 0.020294537767767906, 0.014864297583699226, 0.009174227714538574, 0.003377261571586132, -0.00217989319935441, -0.007077402900904417, -0.010972434654831886, -0.013694155029952526, -0.015260377898812294, -0.015816764906048775]
volume 	 [0.0, 0.0, 0.0, 0.0, 0.0, 0.0, 0.0, 0.0, 0.0, 0.0, 0.0, 0.0, 0.0, 0.0, 0.0, 0.0, 0.0, 0.0, 0.0, 0.0, 0.0, 0.0, 0.0, 0.0, 0.0, 0.0, 0.0, 0.0, 0.0, 0.0, 0.0, 0.0, 0.0, 0.0, 0.0, 0.0, 0.0, 0.0, 0.0, 0.0, 0.0, 0.0, 0.0, 0.0, 0.0, 0.0, 0.0, 0.0, 0.0, 0.0, 0.0, 0.0, 0.0, 0.0, 0.0, 0.0, 0.0, 0.0, 0.0, 0.0, 0.0, 0.0, 0.0, 0.0, 0.0, 0.0, 0.0, 0.0, 0.0, 0.0, 0.0, 0.0, 0.0, 0.0, 0.0, 0.0, 0.0, 0.0, 0.0, 0.0, 0.0, 0.0, 0.0, 0.0, 0.0, 0.0, 0.0, 0.0, 0.0, 0.0, 0.0, 0.0, 0.0, 0.0, 0.0, 0.0, 0.0, 0.0, 0.0, 0.0, 0.0, 0.0, 0.0, 0.0, 0.0, 0.0, 0.0, 0.0, 0.0, 0.0, 0.0, 0.0, 0.0, 0.0, 0.0, 0.0, 0.0, 0.0, 0.0, 0.0, 0.0, 0.0, 0.0, 0.0, 0.0, 0.0, 0.0, 0.0, 0.0, 0.0, 0.0, 0.0, 0.0, 0.0, 0.0, 0.0, 0.0, 0.0, 0.0, 0.0, 0.0, 0.0, 0.0, 0.0, 0.0, 0.0, 0.0, 0.0, 0.0, 0.0, 0.0, 0.0, 0.0, 0.0, 0.0, 0.0, 0.0, 0.0, 0.0, 0.0, 0.0, 0.0, 0.0, 0.0, 0.0, 0.0, 0.0, 0.0, 0.0, 0.0, 0.0, 0.0, 0.0, 0.0, 0.0, 0.0, 0.0, 0.0, 0.0, 0.0]
