0.03052489645779133 CrossValid 124.04644012451172 CrossValidLossesBy500 772.5541381835938 679.6162109375 546.9259643554688 435.41448974609375 349.86029052734375 286.7675476074219 239.83567810058594 205.03802490234375 179.79762268066406 162.24575805664062 150.42477416992188 142.30931091308594 137.0760040283203 133.59326171875 131.24774169921875 129.50950622558594 128.24325561523438 127.35611724853516 126.67851257324219 125.87751007080078 125.06146240234375 124.45503234863281 124.10673522949219 123.97642517089844 123.65803527832031 123.49774169921875 123.32640075683594 123.53115844726562 123.16783905029297 122.90754699707031 122.63351440429688 122.63965606689453 122.60374450683594 122.4732437133789 122.53855895996094 122.48944091796875 122.2512435913086 122.2585678100586 122.20228576660156 122.13761138916016 122.26312255859375 122.12593841552734 122.19114685058594 122.20622253417969 122.20052337646484 122.1223373413086 122.25041961669922 122.18244171142578 122.266845703125 122.32074737548828 122.34562683105469 122.36064910888672 122.3370590209961 122.44548797607422 122.49695587158203 122.57862091064453 122.58831024169922 122.7568130493164 122.73250579833984 122.79218292236328 122.81641387939453 122.90914916992188 122.947998046875 122.99403381347656 123.05016326904297 123.06928253173828 123.13230895996094 123.21089935302734 123.30154418945312 123.24260711669922 123.38694763183594 123.45509338378906 123.4166259765625 123.5722885131836 123.4674301147461 123.5220947265625 123.47917938232422 123.54698181152344 123.57201385498047 123.64971160888672 123.7015151977539 123.75712585449219 123.82439422607422 123.99271392822266 123.84376525878906 123.93966674804688 123.86200714111328 123.80292510986328 123.87138366699219 123.95906066894531 124.003173828125 124.0072021484375 123.97406005859375 123.9932861328125 124.10098266601562 124.04644012451172
48000 LossesBy500_1 0.2505636513233185 0.22188198566436768 0.1792958378791809 0.14284572005271912 0.11480586975812912 0.09395402669906616 0.07821393013000488 0.06641523540019989 0.057731788605451584 0.051566410809755325 0.047293521463871 0.04426467418670654 0.04221011698246002 0.04076000675559044 0.03970774635672569 0.038879793137311935 0.03822191804647446 0.037706680595874786 0.03727661818265915 0.03681502118706703 0.036361441016197205 0.035981956869363785 0.03569407016038895 0.03548489511013031 0.03522564843297005 0.03502458706498146 0.03482602536678314 0.03475301340222359 0.034504976123571396 0.034289877861738205 0.034072279930114746 0.033948447555303574 0.033811114728450775 0.033644407987594604 0.03354386240243912 0.033412184566259384 0.03322289139032364 0.033118005841970444 0.03299492225050926 0.03287370130419731 0.032815638929605484 0.032678816467523575 0.0326070636510849 0.03252088651061058 0.0324283204972744 0.03231465816497803 0.03226752206683159 0.032160576432943344 0.03209824860095978 0.03203395754098892 0.03196491673588753 0.031890034675598145 0.03180396556854248 0.031765468418598175 0.031709861010313034 0.031667742878198624 0.031605515629053116 0.03159766644239426 0.03152739629149437 0.03148813173174858 0.03144007921218872 0.03141602501273155 0.03137461096048355 0.031338609755039215 0.03130687028169632 0.03126183897256851 0.031235255300998688 0.031211061403155327 0.03119393065571785 0.031125016510486603 0.031124362722039223 0.031098445877432823 0.031040990725159645 0.031047780066728592 0.03096134401857853 0.03094077669084072 0.03088461235165596 0.030876239761710167 0.03084644116461277 0.030832573771476746 0.030817145481705666 0.030798623338341713 0.030786581337451935 0.03080642968416214 0.030724219977855682 0.030723901465535164 0.03066307306289673 0.030614811927080154 0.030613448470830917 0.030613601207733154 0.0306057371199131 0.030586764216423035 0.030555441975593567 0.030542748048901558 0.030557580292224884 0.03052489645779133
sigma2_stimulus 	 [5.158925533294678, 2.890718460083008]
log_motor_var 	 [7.634824275970459]
sigma_logit 	 [-6.403105735778809, -6.474014759063721, -7.202838897705078]
mixture_logit 	 [-4.505970001220703]
prior 	 [1.0]
volume 	 [0.3671005666255951, 0.28735098242759705, 0.2536369860172272, 0.1793360859155655, 0.13670095801353455, 0.23139335215091705, 0.27468955516815186, 0.2697300314903259, 0.25522157549858093, 0.28240495920181274, 0.25448158383369446, 0.36861279606819153, 0.37409767508506775, 0.29849863052368164, 0.22947140038013458, 0.17903560400009155, 0.225883349776268, 0.1836637556552887, 0.16586937010288239, 0.12061972171068192, 0.027203114703297615, -0.03921777009963989, -0.09583985805511475, -0.123310886323452, -0.15800045430660248, -0.21366684138774872, -0.2764641046524048, -0.3239724636077881, -0.33228248357772827, -0.28641432523727417, -0.2768419086933136, -0.3019199073314667, -0.31743907928466797, -0.3186974823474884, -0.3060559928417206, -0.30188775062561035, -0.2890777885913849, -0.30655279755592346, -0.313931941986084, -0.27950549125671387, -0.24733369052410126, -0.21235160529613495, -0.22509920597076416, -0.23502790927886963, -0.1882549673318863, -0.12282831221818924, -0.16070017218589783, -0.12037445604801178, -0.09340331703424454, -0.08898802846670151, -0.14337939023971558, -0.09722079336643219, -0.061903055757284164, -0.11423829942941666, -0.10553108155727386, -0.0734807476401329, -0.1408194899559021, -0.15545085072517395, -0.10285526514053345, -0.0014277732698246837, -0.005040945950895548, 0.054909609258174896, 0.06720563024282455, -0.027002235874533653, -0.01567627117037773, 0.0854039192199707, 0.10935784876346588, 0.08320417255163193, 0.06590741127729416, 0.09053671360015869, 0.09916941076517105, 0.10779786854982376, 0.18460004031658173, 0.18702541291713715, 0.20679320394992828, 0.21533870697021484, 0.25071123242378235, 0.25205305218696594, 0.27646589279174805, 0.30612048506736755, 0.29427891969680786, 0.321016788482666, 0.3079979717731476, 0.2569076418876648, 0.2939528822898865, 0.338550865650177, 0.3497738242149353, 0.3205423951148987, 0.3486943244934082, 0.43165600299835205, 0.45229607820510864, 0.4168025851249695, 0.4529971480369568, 0.4323718547821045, 0.37026840448379517, 0.34762364625930786, 0.3065377175807953, 0.26399001479148865, 0.25260528922080994, 0.2507956624031067, 0.16283518075942993, 0.1368878185749054, 0.12565740942955017, 0.11237990111112595, 0.07999672740697861, -0.0019996403716504574, -0.0007662871503271163, -0.05403876677155495, -0.06081671267747879, -0.03479808196425438, 0.011148566380143166, 0.06737595796585083, -0.03847566619515419, -0.06060951203107834, -0.12142264097929001, -0.10369649529457092, -0.11977200955152512, -0.10906358808279037, -0.1201116219162941, -0.11649440228939056, -0.12139717489480972, -0.17728041112422943, -0.14959970116615295, -0.15675629675388336, -0.20146749913692474, -0.2553558051586151, -0.22759772837162018, -0.22355617582798004, -0.1836123764514923, -0.23767438530921936, -0.24087274074554443, -0.24925298988819122, -0.21818703413009644, -0.17895105481147766, -0.23994484543800354, -0.2361803948879242, -0.25901973247528076, -0.22651313245296478, -0.18884500861167908, -0.21855497360229492, -0.24132204055786133, -0.2202983796596527, -0.22559289634227753, -0.3360820710659027, -0.3764209449291229, -0.35099270939826965, -0.2831876575946808, -0.24366161227226257, -0.2589569091796875, -0.2653587758541107, -0.33639076352119446, -0.3567788600921631, -0.33723390102386475, -0.30012667179107666, -0.283730685710907, -0.287253201007843, -0.2605176270008087, -0.2167767882347107, -0.155891552567482, -0.06289185583591461, -0.05803225189447403, 0.020564058795571327, 0.10113261640071869, 0.10918323695659637, 0.19603046774864197, 0.13157770037651062, 0.1482112556695938, 0.18594010174274445, 0.19250208139419556, 0.22191478312015533, 0.14593100547790527, 0.14017491042613983, 0.2137448489665985, 0.17819878458976746, 0.16170887649059296, 0.1870887726545334, 0.12501214444637299, 0.18232640624046326, 0.1949201226234436, 0.2399764060974121]
