0.03083202801644802 CrossValid 104.05162048339844 CrossValidLossesBy500 648.410888671875 473.06646728515625 306.4964904785156 209.34130859375 157.404541015625 133.2593994140625 122.87152862548828 118.1675033569336 115.65340423583984 114.08480072021484 113.01907348632812 112.16234588623047 111.50086975097656 110.94811248779297 110.44368743896484 110.03933715820312 109.68024444580078 109.3303451538086 108.98419952392578 108.67913055419922 108.36956787109375 108.1202163696289 107.80536651611328 107.5460205078125 107.35343170166016 107.14167785644531 106.95346069335938 106.7374496459961 106.55677795410156 106.440185546875 106.24092864990234 106.12982940673828 106.02377319335938 105.83956909179688 105.71311950683594 105.64702606201172 105.48242950439453 105.41621398925781 105.34820556640625 105.25513458251953 105.15866088867188 105.08706665039062 105.00033569335938 104.93830108642578 104.91423797607422 104.81208038330078 104.78511810302734 104.76686096191406 104.68258666992188 104.63473510742188 104.64903259277344 104.59449768066406 104.56072998046875 104.5269546508789 104.47284698486328 104.42732238769531 104.42536163330078 104.41877746582031 104.40497589111328 104.34525299072266 104.37059020996094 104.31430053710938 104.26701354980469 104.30496978759766 104.2831039428711 104.2349853515625 104.21553039550781 104.1822280883789 104.18517303466797 104.16796112060547 104.18089294433594 104.1685791015625 104.17559814453125 104.15303039550781 104.12432861328125 104.13937377929688 104.1207275390625 104.14450073242188 104.11943054199219 104.08464813232422 104.09226989746094 104.09567260742188 104.0709228515625 104.09886932373047 104.0797119140625 104.05223846435547 104.05162048339844
43500 LossesBy500_0 0.22623734176158905 0.16488055884838104 0.10639546066522598 0.07158151268959045 0.052550189197063446 0.0434449166059494 0.039353907108306885 0.037399061024188995 0.0363062284886837 0.03559098392724991 0.03508586809039116 0.034684501588344574 0.03436841443181038 0.03410731256008148 0.033872462809085846 0.03368227556347847 0.03351108729839325 0.0333489365875721 0.03319484740495682 0.033057503402233124 0.03292027488350868 0.032807573676109314 0.032675422728061676 0.032565124332904816 0.03247551620006561 0.032380539923906326 0.03229543939232826 0.03219898045063019 0.03211411461234093 0.032053057104349136 0.03196199983358383 0.03190496563911438 0.03184837847948074 0.03176850080490112 0.031712450087070465 0.031673721969127655 0.03160436078906059 0.03156581521034241 0.031529225409030914 0.03148388862609863 0.03144015371799469 0.03140566498041153 0.03136470913887024 0.03132909536361694 0.03130815923213959 0.03126204013824463 0.03124566562473774 0.03122761845588684 0.031189721077680588 0.031163625419139862 0.031157970428466797 0.03112584352493286 0.03110174648463726 0.031088441610336304 0.03106476180255413 0.031040409579873085 0.03103303536772728 0.0310240238904953 0.03100602515041828 0.03098227083683014 0.030986730009317398 0.030965104699134827 0.030944297090172768 0.030954135581851006 0.030942710116505623 0.030922772362828255 0.03091385029256344 0.03089894726872444 0.030897321179509163 0.03089003823697567 0.0308915376663208 0.030885864049196243 0.030886229127645493 0.03087749145925045 0.030866090208292007 0.030869189649820328 0.03086230717599392 0.03086916171014309 0.0308600552380085 0.030846869572997093 0.030848508700728416 0.030850056558847427 0.030840246006846428 0.0308506041765213 0.030843213200569153 0.03083316795527935 0.03083202801644802
sigma2_stimulus 	 [5.023967266082764, 2.829932689666748]
log_motor_var 	 [7.4155354499816895]
sigma_logit 	 [-6.422514915466309, -6.500325679779053, -7.2308807373046875]
mixture_logit 	 [-4.690615653991699]
prior 	 [0.016661392524838448, 0.008334074169397354, 0.004723766818642616, 0.006310470402240753, 0.012956826947629452, 0.023985520005226135, 0.03849358111619949, 0.0556841678917408, 0.07503747195005417, 0.09607493132352829, 0.11796451359987259, 0.1390809416770935, 0.15703634917736053, 0.16929055750370026, 0.17392000555992126, 0.17042255401611328, 0.15991619229316711, 0.14481572806835175, 0.12807239592075348, 0.11248452216386795, 0.10013320297002792, 0.0921608954668045, 0.08862775564193726, 0.08878489583730698, 0.09122072905302048, 0.09423734247684479, 0.09612024575471878, 0.09549754858016968, 0.09151653200387955, 0.08393818140029907, 0.07311588525772095, 0.05988101661205292, 0.04537096247076988, 0.030819594860076904, 0.017370283603668213, 0.005966320633888245, -0.0027465925086289644, -0.008470227010548115, -0.011272218078374863, -0.011583669111132622, -0.010167369619011879, -0.008040019311010838, -0.006348088849335909, -0.006194081157445908, -0.008450070396065712, -0.013598107732832432, -0.021639760583639145, -0.032109346240758896, -0.04417230933904648, -0.056792132556438446, -0.06890575587749481, -0.0795489251613617, -0.08798176050186157, -0.09374280273914337, -0.0967547595500946, -0.0973249301314354, -0.09619851410388947, -0.09446565061807632, -0.09331278502941132, -0.09380465000867844, -0.09660734981298447, -0.10179916024208069, -0.10889517515897751, -0.11701344698667526, -0.1252315193414688, -0.13283738493919373, -0.1394548863172531, -0.1448250561952591, -0.14867278933525085, -0.15055610239505768, -0.1498274803161621, -0.14592893421649933, -0.13874965906143188, -0.12884521484375, -0.11745372414588928, -0.10629543662071228, -0.09712179750204086, -0.09126035869121552, -0.08944220095872879, -0.09168428182601929, -0.09738640487194061, -0.10548895597457886, -0.11448061466217041, -0.12258781492710114, -0.12797945737838745, -0.12910372018814087, -0.12528833746910095, -0.11696428805589676, -0.10579369962215424, -0.094419926404953, -0.08566661179065704, -0.08154667168855667, -0.08249793946743011, -0.08718205243349075, -0.09317036718130112, -0.09795480966567993, -0.0998322069644928, -0.09832410514354706, -0.09410420805215836, -0.08852799236774445, -0.0831616148352623, -0.07928307354450226, -0.07765960693359375, -0.07830467820167542, -0.08070366084575653, -0.08390500396490097, -0.08679348230361938, -0.08831247687339783, -0.08763416856527328, -0.08410921692848206, -0.07739502936601639, -0.0674695298075676, -0.05473434180021286, -0.04000358656048775, -0.02456883154809475, -0.00995929166674614, 0.0023426648695021868, 0.011293667368590832, 0.01656804420053959, 0.018625453114509583, 0.01850670948624611, 0.017454886808991432, 0.016500789672136307, 0.01620209403336048, 0.016568917781114578, 0.0172311682254076, 0.017708670347929, 0.017705673351883888, 0.017302563413977623, 0.017016585916280746, 0.01765914261341095, 0.020139427855610847, 0.025231393054127693, 0.03338577598333359, 0.04466266185045242, 0.058768339455127716, 0.07511462271213531, 0.09293556213378906, 0.1113523617386818, 0.1294424682855606, 0.14616186916828156, 0.16038209199905396, 0.17084068059921265, 0.1762121021747589, 0.17533642053604126, 0.1675398200750351, 0.15277403593063354, 0.1320030242204666, 0.10693933069705963, 0.0799674540758133, 0.05355577915906906, 0.02989044226706028, 0.010517002083361149, -0.00377387716434896, -0.01288558915257454, -0.017235858365893364, -0.017543427646160126, -0.014616779051721096, -0.009223831817507744, -0.0020215753465890884, 0.006446547340601683, 0.015742899850010872, 0.025544628500938416, 0.03568016737699509, 0.046202652156353, 0.05732604116201401, 0.06932105123996735, 0.0822160467505455, 0.09549874067306519, 0.10799243301153183, 0.11802235245704651, 0.12382489442825317, 0.12413927167654037, 0.11862992495298386, 0.10800070315599442, 0.09362931549549103, 0.07716760784387589, 0.06009451672434807, 0.04361099749803543, 0.028781434521079063]
volume 	 [0.2628597617149353, 0.3204978406429291, 0.24875596165657043, 0.2100037932395935, 0.19206470251083374, 0.23531058430671692, 0.36848729848861694, 0.3785669207572937, 0.3077605068683624, 0.35930585861206055, 0.3906542658805847, 0.4917101562023163, 0.4879658818244934, 0.43174222111701965, 0.36989372968673706, 0.32161054015159607, 0.3011179566383362, 0.2998710572719574, 0.22947147488594055, 0.07722169160842896, -0.005651911720633507, -0.07298071682453156, -0.1369294673204422, -0.14920556545257568, -0.19411128759384155, -0.24739643931388855, -0.27198612689971924, -0.2997645139694214, -0.3054824769496918, -0.28111085295677185, -0.2912482023239136, -0.3173082172870636, -0.3253597319126129, -0.3214850127696991, -0.3128179609775543, -0.3005526065826416, -0.27116483449935913, -0.2556496858596802, -0.26592594385147095, -0.25769996643066406, -0.23585554957389832, -0.22173674404621124, -0.2376713901758194, -0.25356101989746094, -0.1915857046842575, -0.10999378561973572, -0.13393057882785797, -0.14067915081977844, -0.11278249323368073, -0.11892246454954147, -0.17735229432582855, -0.13694003224372864, -0.07466229796409607, -0.09620260447263718, -0.1305229812860489, -0.1156155988574028, -0.16595414280891418, -0.2356225699186325, -0.22667820751667023, -0.113135926425457, 0.019880177453160286, 0.02515346370637417, 0.10221203416585922, 0.0860813781619072, -0.006929637864232063, 0.00033861069823615253, 0.04559129476547241, 0.04361245408654213, 0.065641388297081, 0.05573321506381035, 0.045773010700941086, 0.03558637201786041, 0.06571154296398163, 0.12274239957332611, 0.18709588050842285, 0.21485278010368347, 0.2266942709684372, 0.24876563251018524, 0.2126948982477188, 0.2303563803434372, 0.25293341279029846, 0.2835327088832855, 0.3345758616924286, 0.2677629888057709, 0.2730998396873474, 0.31295642256736755, 0.34002867341041565, 0.3284030556678772, 0.35448846220970154, 0.45972996950149536, 0.5256198048591614, 0.46208953857421875, 0.516051173210144, 0.41364243626594543, 0.3704064190387726, 0.3523886501789093, 0.2953096330165863, 0.2176462560892105, 0.19197599589824677, 0.14964155852794647, 0.09846390038728714, 0.04776238650083542, 0.024325862526893616, 0.02725474163889885, -0.00675550289452076, -0.05062921717762947, -0.09276916086673737, -0.09012597799301147, -0.04147343337535858, -0.039197053760290146, -0.0014951415359973907, 0.0967649593949318, 0.05210881307721138, -0.03619091585278511, -0.06400059908628464, -0.052071213722229004, -0.02897881530225277, -0.03402087837457657, -0.03179353103041649, -0.08692745864391327, -0.12619708478450775, -0.12227392941713333, -0.10188312083482742, -0.09859350323677063, -0.14682112634181976, -0.12423277646303177, -0.13127638399600983, -0.10897202789783478, -0.15939961373806, -0.2107987403869629, -0.23738840222358704, -0.250373899936676, -0.2287554144859314, -0.2057695984840393, -0.24219268560409546, -0.24258002638816833, -0.24064865708351135, -0.19931821525096893, -0.16798505187034607, -0.16056254506111145, -0.14698739349842072, -0.14016513526439667, -0.18054284155368805, -0.28247857093811035, -0.3050163984298706, -0.2543174624443054, -0.19490313529968262, -0.15779227018356323, -0.1500183492898941, -0.21513622999191284, -0.30390554666519165, -0.33687952160835266, -0.3535694181919098, -0.35408228635787964, -0.3436139225959778, -0.3494527041912079, -0.3328830599784851, -0.2951218783855438, -0.2181250900030136, -0.10590215027332306, -0.08205059915781021, -0.036989476531744, 0.0527837760746479, 0.11069439351558685, 0.17377136647701263, 0.14660191535949707, 0.10268367826938629, 0.144664004445076, 0.12052379548549652, 0.13982409238815308, 0.09694162756204605, 0.05729323625564575, 0.06797265261411667, 0.08701389282941818, 0.07025305181741714, 0.09765410423278809, 0.10112123191356659, 0.11377258598804474, 0.18389691412448883, 0.1868661493062973]
