0.03435787558555603 CrossValid 124.9244613647461 CrossValidLossesBy500 680.8816528320312 500.55096435546875 326.5567626953125 224.04345703125 168.97998046875 143.997802734375 133.51998901367188 129.29379272460938 127.12703704833984 126.1965103149414 125.64847564697266 125.31783294677734 125.09276580810547 125.07583618164062 124.99327850341797 124.9361801147461 124.93370056152344 124.94072723388672 124.93680572509766 124.96903228759766 124.97322082519531 124.98021697998047 124.93482971191406 124.94169616699219 124.93600463867188 124.92803192138672 124.95372009277344 124.9748764038086 124.93984985351562 124.97840118408203 124.92937469482422 124.95124053955078 124.95671081542969 124.96166229248047 124.95506286621094 124.9581069946289 124.9758071899414 124.96475982666016 124.9358139038086 124.94810485839844 124.91024780273438 124.92567443847656 124.92879486083984 124.95954895019531 124.93219757080078 124.91348266601562 124.94188690185547 124.9291000366211 124.90577697753906 124.94229888916016 124.95452880859375 124.97122955322266 124.91680145263672 124.91264343261719 124.90602111816406 124.95642852783203 124.97408294677734 124.96184539794922 124.9380874633789 124.9522476196289 124.95958709716797 124.93651580810547 124.95431518554688 124.94593048095703 124.9144058227539 124.95188903808594 124.95354461669922 124.96605682373047 124.93749237060547 124.93488311767578 124.95442962646484 124.93423461914062 124.93762969970703 124.95936584472656 124.99021911621094 124.94988250732422 124.97498321533203 124.98847961425781 124.94414520263672 124.9303970336914 124.93834686279297 124.97354125976562 124.9472427368164 124.95487213134766 124.93681335449219 124.95252990722656 124.98568725585938 124.99495697021484 124.9932632446289 124.94644165039062 124.9474868774414 124.93629455566406 124.95703887939453 124.97455596923828 124.93882751464844 124.96923828125 124.9313735961914 124.92228698730469 124.92130279541016 124.95252990722656 124.97505187988281 124.96505737304688 124.93668365478516 124.9244613647461
52000 LossesBy500_4 0.22536511719226837 0.16540689766407013 0.10712702572345734 0.07233963161706924 0.053277283906936646 0.04427378997206688 0.04021652042865753 0.03836856037378311 0.03730975463986397 0.036737412214279175 0.03635142371058464 0.036081429570913315 0.03588026389479637 0.035771097987890244 0.03566034883260727 0.035570256412029266 0.03550790622830391 0.03545878827571869 0.03541092574596405 0.03538011386990547 0.03534332290291786 0.035311371088027954 0.03526425361633301 0.03523636609315872 0.03520640358328819 0.03517680987715721 0.03516049683094025 0.03514319658279419 0.035107385367155075 0.035098008811473846 0.0350593663752079 0.03504563868045807 0.035026468336582184 0.035007718950510025 0.03498594090342522 0.03496742993593216 0.034955207258462906 0.0349326990544796 0.0349046066403389 0.03489124774932861 0.03486091271042824 0.03484874963760376 0.0348329171538353 0.03482680395245552 0.03480059280991554 0.03477836400270462 0.034771282225847244 0.03475123643875122 0.03472775220870972 0.034724161028862 0.034712567925453186 0.03470325469970703 0.0346706360578537 0.034654196351766586 0.03463679924607277 0.03463971987366676 0.03463340178132057 0.034618400037288666 0.034598950296640396 0.03459268435835838 0.034583285450935364 0.03456522524356842 0.03455950692296028 0.03454603999853134 0.034524671733379364 0.03452659025788307 0.03451865166425705 0.03451398387551308 0.03449653461575508 0.03448723256587982 0.03448541462421417 0.034470878541469574 0.03446349874138832 0.034462522715330124 0.03446487709879875 0.034445032477378845 0.03444632515311241 0.03444591164588928 0.0344252847135067 0.03441629558801651 0.034413743764162064 0.034420210868120193 0.03440716490149498 0.034405190497636795 0.03439522162079811 0.03439633175730705 0.034404147416353226 0.034404151141643524 0.034401919692754745 0.03438413143157959 0.034382034093141556 0.034376613795757294 0.03438093140721321 0.03438491001725197 0.03437168896198273 0.03438018262386322 0.034366898238658905 0.03436245024204254 0.0343613401055336 0.03437068685889244 0.03437687084078789 0.034373119473457336 0.034362923353910446 0.03435787558555603
sigma2_stimulus 	 [4.206398963928223, 2.761483907699585]
log_motor_var 	 [7.3930134773254395]
sigma_logit 	 [-6.419253349304199, -6.452287673950195, -7.467439651489258]
mixture_logit 	 [-4.615859508514404]
prior 	 [-0.12450947612524033, -0.1317635178565979, -0.13509806990623474, -0.13400964438915253, -0.12819616496562958, -0.11774007230997086, -0.10290460288524628, -0.08416908234357834, -0.062212374061346054, -0.03780834749341011, -0.011742030270397663, 0.01524891797453165, 0.04256289079785347, 0.06978452205657959, 0.09653253108263016, 0.12242986261844635, 0.14692151546478271, 0.1691017597913742, 0.18798315525054932, 0.20239777863025665, 0.21140433847904205, 0.2144366204738617, 0.21148300170898438, 0.2032424956560135, 0.19089889526367188, 0.17595095932483673, 0.16015702486038208, 0.14497719705104828, 0.13158930838108063, 0.12057658284902573, 0.11205953359603882, 0.10570399463176727, 0.1008862629532814, 0.09685995429754257, 0.09293409436941147, 0.08870473504066467, 0.08406173437833786, 0.0792309045791626, 0.07476046681404114, 0.07133910804986954, 0.06958179175853729, 0.0698729082942009, 0.07216387987136841, 0.07598605006933212, 0.08045221865177155, 0.0844753161072731, 0.08693800121545792, 0.08692296594381332, 0.08389937877655029, 0.07775747030973434, 0.06884028017520905, 0.057761214673519135, 0.0452594980597496, 0.03210831433534622, 0.018887721002101898, 0.005936870817095041, -0.006701170466840267, -0.01926988549530506, -0.03221096470952034, -0.04603338614106178, -0.061132173985242844, -0.07765056937932968, -0.09530286490917206, -0.11355508118867874, -0.13144391775131226, -0.14804230630397797, -0.1624085158109665, -0.17401859164237976, -0.18277202546596527, -0.18909065425395966, -0.19376859068870544, -0.1976311355829239, -0.2015356421470642, -0.20595407485961914, -0.21107187867164612, -0.21658170223236084, -0.22191424667835236, -0.22648240625858307, -0.22984999418258667, -0.2319357544183731, -0.23293671011924744, -0.2332562804222107, -0.23353300988674164, -0.23431548476219177, -0.23587566614151, -0.2383744865655899, -0.24168549478054047, -0.245291605591774, -0.24855175614356995, -0.2506682872772217, -0.2507784068584442, -0.24833573400974274, -0.24294379353523254, -0.23483267426490784, -0.2246496081352234, -0.21343301236629486, -0.20231793820858002, -0.19218899309635162, -0.18334828317165375, -0.17558972537517548, -0.16796445846557617, -0.1594221591949463, -0.14875778555870056, -0.1352342963218689, -0.11861009895801544, -0.09923659265041351, -0.07809002697467804, -0.056666869670152664, -0.036858782172203064, -0.02058151364326477, -0.00945347547531128, -0.004346723668277264, -0.005103543400764465, -0.010488121770322323, -0.018422221764922142, -0.02643308788537979, -0.03209562972187996, -0.033518481999635696, -0.029583236202597618, -0.020121552050113678, -0.005866512656211853, 0.011718397960066795, 0.030791940167546272, 0.049586378037929535, 0.0668414756655693, 0.08211170881986618, 0.09564535319805145, 0.10818669199943542, 0.12052740901708603, 0.13302701711654663, 0.1455945372581482, 0.15739409625530243, 0.1674356311559677, 0.17474982142448425, 0.17881062626838684, 0.17954304814338684, 0.17736144363880157, 0.17294824123382568, 0.16721899807453156, 0.16084592044353485, 0.15464982390403748, 0.14921975135803223, 0.1453317254781723, 0.1435747742652893, 0.1444912999868393, 0.14830993115901947, 0.15483807027339935, 0.16338373720645905, 0.1729343831539154, 0.18210718035697937, 0.18955491483211517, 0.19436214864253998, 0.19600066542625427, 0.19464081525802612, 0.19071578979492188, 0.18468108773231506, 0.1768699586391449, 0.16727091372013092, 0.15560504794120789, 0.14172998070716858, 0.1257038712501526, 0.10804911702871323, 0.08957424759864807, 0.07130756229162216, 0.054150745272636414, 0.03876987099647522, 0.02550644613802433, 0.014325764030218124, 0.004923082422465086, -0.003221896942704916, -0.010746166110038757, -0.018327997997403145, -0.02660897746682167, -0.03610294312238693, -0.04708905518054962, -0.059565745294094086, -0.07322724163532257, -0.08743958175182343, -0.10136207193136215, -0.1140594333410263]
volume 	 [0.0, 0.0, 0.0, 0.0, 0.0, 0.0, 0.0, 0.0, 0.0, 0.0, 0.0, 0.0, 0.0, 0.0, 0.0, 0.0, 0.0, 0.0, 0.0, 0.0, 0.0, 0.0, 0.0, 0.0, 0.0, 0.0, 0.0, 0.0, 0.0, 0.0, 0.0, 0.0, 0.0, 0.0, 0.0, 0.0, 0.0, 0.0, 0.0, 0.0, 0.0, 0.0, 0.0, 0.0, 0.0, 0.0, 0.0, 0.0, 0.0, 0.0, 0.0, 0.0, 0.0, 0.0, 0.0, 0.0, 0.0, 0.0, 0.0, 0.0, 0.0, 0.0, 0.0, 0.0, 0.0, 0.0, 0.0, 0.0, 0.0, 0.0, 0.0, 0.0, 0.0, 0.0, 0.0, 0.0, 0.0, 0.0, 0.0, 0.0, 0.0, 0.0, 0.0, 0.0, 0.0, 0.0, 0.0, 0.0, 0.0, 0.0, 0.0, 0.0, 0.0, 0.0, 0.0, 0.0, 0.0, 0.0, 0.0, 0.0, 0.0, 0.0, 0.0, 0.0, 0.0, 0.0, 0.0, 0.0, 0.0, 0.0, 0.0, 0.0, 0.0, 0.0, 0.0, 0.0, 0.0, 0.0, 0.0, 0.0, 0.0, 0.0, 0.0, 0.0, 0.0, 0.0, 0.0, 0.0, 0.0, 0.0, 0.0, 0.0, 0.0, 0.0, 0.0, 0.0, 0.0, 0.0, 0.0, 0.0, 0.0, 0.0, 0.0, 0.0, 0.0, 0.0, 0.0, 0.0, 0.0, 0.0, 0.0, 0.0, 0.0, 0.0, 0.0, 0.0, 0.0, 0.0, 0.0, 0.0, 0.0, 0.0, 0.0, 0.0, 0.0, 0.0, 0.0, 0.0, 0.0, 0.0, 0.0, 0.0, 0.0, 0.0, 0.0, 0.0, 0.0, 0.0, 0.0, 0.0]
