0.03548872843384743 CrossValid 86.30123901367188 CrossValidLossesBy500 647.8685302734375 470.7342834472656 301.5245056152344 200.5645751953125 145.17910766601562 118.01749420166016 105.55175018310547 99.54776000976562 96.35372924804688 94.44869232177734 93.22988891601562 92.3670883178711 91.80055236816406 91.2980728149414 90.98982238769531 90.71272277832031 90.48771667480469 90.34911346435547 90.190185546875 90.00984191894531 89.86734771728516 89.77616882324219 89.61203002929688 89.4937744140625 89.42289733886719 89.29375457763672 89.22760772705078 89.12174987792969 89.048828125 88.92556762695312 88.85359191894531 88.75028991699219 88.71073913574219 88.60591888427734 88.56132507324219 88.44766998291016 88.42164611816406 88.31229400634766 88.24615478515625 88.22209167480469 88.16717529296875 88.0754165649414 88.02063751220703 87.94413757324219 87.9028549194336 87.84811401367188 87.79692077636719 87.77022552490234 87.68053436279297 87.63213348388672 87.61753845214844 87.59255981445312 87.48878479003906 87.48577880859375 87.42274475097656 87.40724182128906 87.34696960449219 87.32242584228516 87.24991607666016 87.21797180175781 87.21028137207031 87.14509582519531 87.10175323486328 87.06938171386719 87.02958679199219 87.02365112304688 86.97640991210938 86.94339752197266 86.88681030273438 86.8569564819336 86.84041595458984 86.80225372314453 86.748291015625 86.76611328125 86.70966339111328 86.6960220336914 86.6583251953125 86.62287902832031 86.61140441894531 86.60033416748047 86.60061645507812 86.5372314453125 86.5279769897461 86.55026245117188 86.49968719482422 86.50714874267578 86.50220489501953 86.44660949707031 86.42843627929688 86.42786407470703 86.44420623779297 86.41661071777344 86.38985443115234 86.43144989013672 86.37722778320312 86.3836898803711 86.3641128540039 86.40255737304688 86.34102630615234 86.38651275634766 86.36116027832031 86.34362030029297 86.3591537475586 86.32195281982422 86.33594512939453 86.32067108154297 86.32310485839844 86.30123901367188
54000 LossesBy500_1 0.22638534009456635 0.16524390876293182 0.10709384083747864 0.07259029895067215 0.05396677181124687 0.04510907083749771 0.04120589792728424 0.03939399868249893 0.03845599666237831 0.0379042774438858 0.03755402937531471 0.037304092198610306 0.03714130073785782 0.0369919016957283 0.036903172731399536 0.036821164190769196 0.03675498813390732 0.03671838715672493 0.0366736501455307 0.036621809005737305 0.0365825816988945 0.03656143695116043 0.036514826118946075 0.03648322448134422 0.03646775707602501 0.03643232211470604 0.036418404430150986 0.036389969289302826 0.03637246787548065 0.03633708134293556 0.03631925210356712 0.0362902507185936 0.036283016204833984 0.03625253215432167 0.036242082715034485 0.03620798513293266 0.03620350733399391 0.036170411854982376 0.036151450127363205 0.036147311329841614 0.03613148629665375 0.03610285371541977 0.036086928099393845 0.03606325760483742 0.03605130687355995 0.036035072058439255 0.03601904958486557 0.036011531949043274 0.03598250076174736 0.03596687689423561 0.035963013768196106 0.035955484956502914 0.03592097759246826 0.035920243710279465 0.035899702459573746 0.03589482232928276 0.035874880850315094 0.035866521298885345 0.035841673612594604 0.03583112731575966 0.035828523337841034 0.0358060859143734 0.03579085320234299 0.035779766738414764 0.03576529771089554 0.035763345658779144 0.03574598953127861 0.035734549164772034 0.03571337088942528 0.03570299595594406 0.03569677099585533 0.0356820710003376 0.03566284105181694 0.035668328404426575 0.035648368299007416 0.035642802715301514 0.035629115998744965 0.03561563417315483 0.03561058267951012 0.035606324672698975 0.035605352371931076 0.0355825237929821 0.03557800501585007 0.03558523207902908 0.035566773265600204 0.03556838631629944 0.03556583821773529 0.035545527935028076 0.03553885966539383 0.03553780913352966 0.03554265573620796 0.03553314507007599 0.03552335128188133 0.03553737699985504 0.035517603158950806 0.035519618541002274 0.03551267832517624 0.035525184124708176 0.035503800958395004 0.03551928699016571 0.03551053628325462 0.035504456609487534 0.035510193556547165 0.03549734503030777 0.03550151735544205 0.03549615293741226 0.03549649938941002 0.03548872843384743
sigma2_stimulus 	 [4.213892459869385, 2.7904670238494873]
log_motor_var 	 [7.414984703063965]
sigma_logit 	 [-6.395732879638672, -6.429108142852783, -7.44743537902832]
mixture_logit 	 [-4.523246765136719]
prior 	 [-0.1666456013917923, -0.18216092884540558, -0.19183489680290222, -0.1948770135641098, -0.19082693755626678, -0.17976611852645874, -0.16210168600082397, -0.13855299353599548, -0.10997750610113144, -0.07741538435220718, -0.042017485946416855, -0.005242150742560625, 0.03114035725593567, 0.06506317853927612, 0.09443861246109009, 0.11746054887771606, 0.13311457633972168, 0.141402930021286, 0.14335983991622925, 0.14086970686912537, 0.13607825338840485, 0.1312578022480011, 0.1281767189502716, 0.1280481219291687, 0.1314152628183365, 0.13813501596450806, 0.14728528261184692, 0.15762247145175934, 0.16758942604064941, 0.17576415836811066, 0.18111936748027802, 0.18339866399765015, 0.1829688996076584, 0.18068769574165344, 0.1776254028081894, 0.1746690571308136, 0.1723596751689911, 0.17082396149635315, 0.16986332833766937, 0.1689794361591339, 0.16752371191978455, 0.16463860869407654, 0.15936073660850525, 0.15077468752861023, 0.13816915452480316, 0.12135078758001328, 0.10059761255979538, 0.07681189477443695, 0.05125933885574341, 0.025286171585321426, 8.907806477509439e-05, -0.02344934269785881, -0.04482312127947807, -0.06388948857784271, -0.08085449784994125, -0.09615319222211838, -0.11050437390804291, -0.12458013743162155, -0.1390713006258011, -0.15425552427768707, -0.17001603543758392, -0.1857479214668274, -0.20051901042461395, -0.21339496970176697, -0.2235407680273056, -0.23048698902130127, -0.2341761738061905, -0.23478835821151733, -0.2326010912656784, -0.22801382839679718, -0.2214430719614029, -0.21352867782115936, -0.2051241099834442, -0.19739589095115662, -0.1915525645017624, -0.18879233300685883, -0.1897878795862198, -0.19470135867595673, -0.20302711427211761, -0.21374018490314484, -0.22554129362106323, -0.23704244196414948, -0.24700793623924255, -0.2544168531894684, -0.25858771800994873, -0.2591269314289093, -0.2560727000236511, -0.24980278313159943, -0.24114643037319183, -0.23111127316951752, -0.22096984088420868, -0.2118404060602188, -0.20469960570335388, -0.20004835724830627, -0.197968527674675, -0.19797196984291077, -0.1993807554244995, -0.20128782093524933, -0.20285581052303314, -0.20357699692249298, -0.20315316319465637, -0.20161685347557068, -0.19908767938613892, -0.19564850628376007, -0.19131553173065186, -0.1859336793422699, -0.1792137771844864, -0.1708545833826065, -0.16051867604255676, -0.14779865741729736, -0.13231083750724792, -0.11372415721416473, -0.09197165817022324, -0.06742459535598755, -0.041126903146505356, -0.014824957586824894, 0.009309344924986362, 0.029149377718567848, 0.04321734979748726, 0.05111164227128029, 0.053611304610967636, 0.0523475743830204, 0.049287065863609314, 0.046167969703674316, 0.04415057599544525, 0.04379504919052124, 0.04515006020665169, 0.048097774386405945, 0.05260462686419487, 0.0588902123272419, 0.06745478510856628, 0.07901754230260849, 0.094289131462574, 0.11383546888828278, 0.1379171758890152, 0.1663758009672165, 0.19861987233161926, 0.23372751474380493, 0.27049222588539124, 0.30735453963279724, 0.3425402343273163, 0.3735661506652832, 0.39768147468566895, 0.41161757707595825, 0.4124690592288971, 0.3985416889190674, 0.3702903389930725, 0.33029648661613464, 0.2831565737724304, 0.23434960842132568, 0.18887734413146973, 0.15065348148345947, 0.12181289494037628, 0.10277782380580902, 0.09266246110200882, 0.08977208286523819, 0.09223736077547073, 0.09837647527456284, 0.10696332156658173, 0.11713355034589767, 0.12813647091388702, 0.13910989463329315, 0.14907453954219818, 0.1566905677318573, 0.16090437769889832, 0.16090108454227448, 0.15633556246757507, 0.14734148979187012, 0.1342141032218933, 0.11735794693231583, 0.09714610129594803, 0.07389561831951141, 0.0480751097202301, 0.020269015803933144, -0.008803311735391617, -0.03836103901267052, -0.06764305382966995, -0.09593816846609116, -0.12247228622436523, -0.14637866616249084]
volume 	 [0.0, 0.0, 0.0, 0.0, 0.0, 0.0, 0.0, 0.0, 0.0, 0.0, 0.0, 0.0, 0.0, 0.0, 0.0, 0.0, 0.0, 0.0, 0.0, 0.0, 0.0, 0.0, 0.0, 0.0, 0.0, 0.0, 0.0, 0.0, 0.0, 0.0, 0.0, 0.0, 0.0, 0.0, 0.0, 0.0, 0.0, 0.0, 0.0, 0.0, 0.0, 0.0, 0.0, 0.0, 0.0, 0.0, 0.0, 0.0, 0.0, 0.0, 0.0, 0.0, 0.0, 0.0, 0.0, 0.0, 0.0, 0.0, 0.0, 0.0, 0.0, 0.0, 0.0, 0.0, 0.0, 0.0, 0.0, 0.0, 0.0, 0.0, 0.0, 0.0, 0.0, 0.0, 0.0, 0.0, 0.0, 0.0, 0.0, 0.0, 0.0, 0.0, 0.0, 0.0, 0.0, 0.0, 0.0, 0.0, 0.0, 0.0, 0.0, 0.0, 0.0, 0.0, 0.0, 0.0, 0.0, 0.0, 0.0, 0.0, 0.0, 0.0, 0.0, 0.0, 0.0, 0.0, 0.0, 0.0, 0.0, 0.0, 0.0, 0.0, 0.0, 0.0, 0.0, 0.0, 0.0, 0.0, 0.0, 0.0, 0.0, 0.0, 0.0, 0.0, 0.0, 0.0, 0.0, 0.0, 0.0, 0.0, 0.0, 0.0, 0.0, 0.0, 0.0, 0.0, 0.0, 0.0, 0.0, 0.0, 0.0, 0.0, 0.0, 0.0, 0.0, 0.0, 0.0, 0.0, 0.0, 0.0, 0.0, 0.0, 0.0, 0.0, 0.0, 0.0, 0.0, 0.0, 0.0, 0.0, 0.0, 0.0, 0.0, 0.0, 0.0, 0.0, 0.0, 0.0, 0.0, 0.0, 0.0, 0.0, 0.0, 0.0, 0.0, 0.0, 0.0, 0.0, 0.0, 0.0]
