0.03113168478012085 CrossValid 115.02562713623047 CrossValidLossesBy500 649.5396118164062 474.16558837890625 309.8160095214844 212.57264709472656 160.4187774658203 136.26705932617188 126.37092590332031 122.23692321777344 120.33052825927734 119.3879165649414 118.84085083007812 118.43071746826172 118.1117935180664 117.8936538696289 117.66260528564453 117.4004135131836 117.15777587890625 116.99839782714844 116.84317016601562 116.61923217773438 116.49325561523438 116.35149383544922 116.16549682617188 115.9731216430664 115.77838897705078 115.5701675415039 115.41160583496094 115.29649353027344 115.14701843261719 115.05796813964844 114.94441223144531 114.8662109375 114.7500991821289 114.66789245605469 114.6204833984375 114.53865051269531 114.42587280273438 114.34880065917969 114.3119888305664 114.25102233886719 114.2088394165039 114.16705322265625 114.102783203125 114.10211944580078 114.08794403076172 114.0807876586914 114.06268310546875 114.04888916015625 114.06448364257812 114.07958221435547 114.08903503417969 114.06316375732422 114.09428405761719 114.0738754272461 114.15984344482422 114.15998077392578 114.17768859863281 114.20744323730469 114.26197814941406 114.29832458496094 114.33295440673828 114.3849868774414 114.43309020996094 114.48245239257812 114.5406723022461 114.56941986083984 114.6401138305664 114.6235122680664 114.69508361816406 114.7468490600586 114.7313003540039 114.75750732421875 114.75270080566406 114.82269287109375 114.81916809082031 114.82115936279297 114.85987091064453 114.8786392211914 114.86088562011719 114.93917846679688 114.94098663330078 114.95274353027344 114.93475341796875 114.94584655761719 114.9776382446289 115.00680541992188 114.98497772216797 115.03440856933594 115.01898956298828 115.03523254394531 115.01060485839844 115.02671813964844 115.0433578491211 115.03628540039062 115.02250671386719 115.02562713623047
48000 LossesBy500_0 0.22610831260681152 0.16392087936401367 0.10553321242332458 0.07112504541873932 0.05246619135141373 0.043484605848789215 0.03946905583143234 0.03754103556275368 0.03646654635667801 0.03580136224627495 0.035328906029462814 0.03496788442134857 0.03467923402786255 0.034455787390470505 0.03425956144928932 0.0340702086687088 0.03390275314450264 0.033774442970752716 0.03365268558263779 0.03352117910981178 0.03341727331280708 0.03332090005278587 0.033214982599020004 0.03310871869325638 0.033005863428115845 0.03289758786559105 0.032808464020490646 0.03273642063140869 0.03264877200126648 0.032577116042375565 0.03250260651111603 0.03244028612971306 0.032360706478357315 0.032299429178237915 0.03224240615963936 0.032185446470975876 0.03210899606347084 0.03205140307545662 0.03200877457857132 0.031950630247592926 0.031913284212350845 0.031873010098934174 0.031820978969335556 0.03178221732378006 0.03174299746751785 0.0317077562212944 0.03167244419455528 0.031631238758563995 0.03160383179783821 0.03157844766974449 0.0315525196492672 0.031523413956165314 0.031502947211265564 0.031463585793972015 0.03146032989025116 0.03142940625548363 0.03140879049897194 0.03138839453458786 0.03136778622865677 0.03134908154606819 0.031339164823293686 0.031329382210969925 0.0313049778342247 0.031285978853702545 0.03128323704004288 0.03126506507396698 0.031262800097465515 0.031233271583914757 0.03122865781188011 0.031239651143550873 0.031224004924297333 0.031213315203785896 0.031193967908620834 0.03120153583586216 0.031189968809485435 0.031177427619695663 0.031178118661046028 0.03117399662733078 0.031161345541477203 0.03117934800684452 0.031170746311545372 0.031167490407824516 0.031153753399848938 0.031149020418524742 0.031152311712503433 0.031155472621321678 0.03114323318004608 0.031155627220869064 0.031146440654993057 0.03114842064678669 0.03113730438053608 0.031140180304646492 0.03114316798746586 0.03113909251987934 0.03113207034766674 0.03113168478012085
sigma2_stimulus 	 [5.111381530761719, 2.855583667755127]
log_motor_var 	 [7.427164554595947]
sigma_logit 	 [-6.371692657470703, -6.513372898101807, -7.259441375732422]
mixture_logit 	 [-4.71832799911499]
prior 	 [1.0]
volume 	 [0.29971757531166077, 0.37090906500816345, 0.3311571478843689, 0.2979285717010498, 0.2693295478820801, 0.2874357998371124, 0.38203954696655273, 0.43712279200553894, 0.4000054597854614, 0.4152449667453766, 0.5158898830413818, 0.67207932472229, 0.6168749332427979, 0.5500707626342773, 0.46310898661613464, 0.4380172789096832, 0.38459843397140503, 0.2966495454311371, 0.21616500616073608, 0.05232653021812439, -0.05384437367320061, -0.163239985704422, -0.24444061517715454, -0.23951131105422974, -0.24579642713069916, -0.2955778241157532, -0.3313426375389099, -0.34526458382606506, -0.31162029504776, -0.2274330109357834, -0.20128992199897766, -0.23056091368198395, -0.230641707777977, -0.2665688991546631, -0.2790966033935547, -0.26942721009254456, -0.2932630181312561, -0.3091210424900055, -0.2949048578739166, -0.2779860496520996, -0.2579494118690491, -0.28021499514579773, -0.2923494875431061, -0.2611957788467407, -0.17296601831912994, -0.1808626651763916, -0.1793760061264038, -0.14755994081497192, -0.11378097534179688, -0.201580211520195, -0.1949663907289505, -0.13848043978214264, -0.15653596818447113, -0.16190972924232483, -0.14814181625843048, -0.15822796523571014, -0.2100050151348114, -0.22397856414318085, -0.1755347102880478, -0.04062270373106003, -0.002920994069427252, -0.030704308301210403, 0.05422978475689888, -0.016142161563038826, -0.05539129674434662, -0.025329720228910446, 0.026405034586787224, 0.034827642142772675, 0.05556090921163559, 0.04935619607567787, 0.01923471875488758, 0.005936737172305584, 0.030253442004323006, 0.07354636490345001, 0.16156752407550812, 0.21918246150016785, 0.2991669178009033, 0.3200559914112091, 0.2915980815887451, 0.29302623867988586, 0.29079872369766235, 0.3060901463031769, 0.32903173565864563, 0.24666406214237213, 0.2807445526123047, 0.360821932554245, 0.40442100167274475, 0.3768908381462097, 0.399908185005188, 0.4933627247810364, 0.48605209589004517, 0.4691772162914276, 0.4922342300415039, 0.3765755295753479, 0.3248962461948395, 0.2859507203102112, 0.2506226897239685, 0.20326367020606995, 0.17635589838027954, 0.12782008945941925, 0.08357291668653488, 0.04296102002263069, 0.03076636604964733, 0.022894620895385742, -0.01652892492711544, -0.08137001842260361, -0.17092512547969818, -0.2264111489057541, -0.20438575744628906, -0.12450063228607178, -0.0776384249329567, -0.03247539699077606, 0.1096339151263237, 0.1368977129459381, 0.0709981620311737, 0.033468395471572876, 0.0006602560169994831, 0.053832195699214935, 0.02433105744421482, -0.048115670680999756, -0.0875249058008194, -0.11199729889631271, -0.0944274514913559, -0.10096590220928192, -0.20808212459087372, -0.23416146636009216, -0.20654578506946564, -0.17183516919612885, -0.16991651058197021, -0.24784629046916962, -0.2807082533836365, -0.2915099859237671, -0.26503273844718933, -0.19461184740066528, -0.23806902766227722, -0.28387898206710815, -0.2787775993347168, -0.22023333609104156, -0.12988324463367462, -0.09930063039064407, -0.0997466966509819, -0.09797252714633942, -0.1496376395225525, -0.25020912289619446, -0.25328996777534485, -0.1882120817899704, -0.13767395913600922, -0.15032656490802765, -0.1933792531490326, -0.285717248916626, -0.3282117545604706, -0.3432193398475647, -0.38326510787010193, -0.39974507689476013, -0.4175114035606384, -0.41760167479515076, -0.37973007559776306, -0.3274843096733093, -0.2512420117855072, -0.16723205149173737, -0.11263811588287354, -0.02954414300620556, 0.06585606932640076, 0.10840488225221634, 0.12821760773658752, 0.07289817184209824, 0.05109834298491478, 0.08619800209999084, 0.09617945551872253, 0.13682818412780762, 0.08210994303226471, 0.07926568388938904, 0.12213371694087982, 0.16345709562301636, 0.13821683824062347, 0.14291605353355408, 0.14771655201911926, 0.18866373598575592, 0.22766023874282837, 0.23895834386348724]
