0.03127266466617584 CrossValid 113.72953033447266 CrossValidLossesBy500 649.524658203125 474.0457763671875 310.4961853027344 215.00738525390625 165.05931091308594 142.7510223388672 133.63780212402344 129.75267028808594 127.78824615478516 126.65668487548828 125.80451202392578 125.1198501586914 124.53675079345703 124.06854248046875 123.59141540527344 123.24754333496094 122.86732482910156 122.52143859863281 122.16004180908203 121.83949279785156 121.51756286621094 121.16616821289062 120.93172454833984 120.62539672851562 120.33831024169922 120.03279113769531 119.79850769042969 119.5348129272461 119.26973724365234 119.01854705810547 118.76741790771484 118.54420471191406 118.33745574951172 118.0730972290039 117.88783264160156 117.67333984375 117.48564910888672 117.29319763183594 117.12076568603516 116.90474700927734 116.77132415771484 116.58174133300781 116.43168640136719 116.29769134521484 116.0838851928711 115.97825622558594 115.82880401611328 115.68876647949219 115.58966064453125 115.41885375976562 115.34770202636719 115.22016906738281 115.1221923828125 114.98733520507812 114.88644409179688 114.84228515625 114.724853515625 114.6415023803711 114.57301330566406 114.5193099975586 114.43282318115234 114.36672973632812 114.31493377685547 114.23757934570312 114.17926025390625 114.1189193725586 114.09827423095703 114.01229095458984 113.99528503417969 113.95486450195312 113.95980834960938 113.92961883544922 113.91725158691406 113.87680053710938 113.8803482055664 113.83761596679688 113.84058380126953 113.81654357910156 113.78894805908203 113.76557159423828 113.7671890258789 113.7669448852539 113.7865219116211 113.78262329101562 113.72953033447266
42500 LossesBy500_4 0.2261941134929657 0.16402332484722137 0.10557632893323898 0.07089303433895111 0.05208525434136391 0.04312718287110329 0.039125435054302216 0.037230003625154495 0.036189306527376175 0.03555388003587723 0.03508871793746948 0.03473411127924919 0.034448739141225815 0.034229665994644165 0.03402268514037132 0.0338733047246933 0.03372867777943611 0.0335984006524086 0.03347090259194374 0.03335841745138168 0.033252909779548645 0.03313744068145752 0.0330614410340786 0.032963868230581284 0.03287519887089729 0.03278182074427605 0.03270893543958664 0.032633472234010696 0.0325591005384922 0.032487910240888596 0.032414209097623825 0.03235615789890289 0.03230235353112221 0.032229747623205185 0.03218384087085724 0.03213014826178551 0.03208406642079353 0.032037653028964996 0.03199765831232071 0.03193812072277069 0.03191256895661354 0.03186589479446411 0.03182993829250336 0.03180043771862984 0.0317426435649395 0.03172299265861511 0.03168885037302971 0.03165630251169205 0.031639404594898224 0.03159603476524353 0.03158598393201828 0.03155643492937088 0.03153623640537262 0.03150442987680435 0.03148345276713371 0.03147946298122406 0.031452279537916183 0.031434766948223114 0.03142233192920685 0.03141434118151665 0.0313953161239624 0.03138354793190956 0.03137598931789398 0.031358882784843445 0.03134828433394432 0.03133676201105118 0.03133878856897354 0.03131568804383278 0.03131664916872978 0.03130830451846123 0.03131428360939026 0.03130777180194855 0.03130774572491646 0.0312972366809845 0.03130277246236801 0.03129187226295471 0.031295523047447205 0.03128983452916145 0.031282830983400345 0.031276799738407135 0.031279489398002625 0.031282272189855576 0.03129036724567413 0.03129051998257637 0.03127266466617584
sigma2_stimulus 	 [4.918957710266113, 2.865844488143921]
log_motor_var 	 [7.4226813316345215]
sigma_logit 	 [-6.423260688781738, -6.463839054107666, -7.233912944793701]
mixture_logit 	 [-4.727120876312256]
prior 	 [1.0]
volume 	 [0.3154561221599579, 0.30780524015426636, 0.2763120234012604, 0.2495601624250412, 0.20452100038528442, 0.2490912675857544, 0.3559127151966095, 0.35441747307777405, 0.31728485226631165, 0.35787683725357056, 0.3980790674686432, 0.524534285068512, 0.495125412940979, 0.4578353464603424, 0.41640815138816833, 0.3794465661048889, 0.36941468715667725, 0.27696025371551514, 0.18380430340766907, 0.08208029717206955, -0.026683105155825615, -0.11325819790363312, -0.20747803151607513, -0.21556256711483002, -0.233969047665596, -0.3120558261871338, -0.35436856746673584, -0.36347413063049316, -0.34272515773773193, -0.27387505769729614, -0.22227191925048828, -0.2455696314573288, -0.25621452927589417, -0.2714211046695709, -0.29303571581840515, -0.29710379242897034, -0.2651480436325073, -0.24335893988609314, -0.2560615837574005, -0.25482168793678284, -0.2334371656179428, -0.2193060964345932, -0.20368628203868866, -0.19441039860248566, -0.14381858706474304, -0.1303674429655075, -0.13135147094726562, -0.07205938547849655, 0.0111544793471694, -0.08576253801584244, -0.06777247041463852, -0.07598236203193665, -0.09432057291269302, -0.1079302653670311, -0.0979076623916626, -0.17684991657733917, -0.21607740223407745, -0.2327946424484253, -0.16708479821681976, -0.07920637726783752, -0.07687781751155853, -0.040485456585884094, 0.008577213622629642, -0.07948888838291168, -0.11519814282655716, -0.07352813333272934, -0.009183727204799652, 0.012400660663843155, 0.04894105717539787, 0.06604078412055969, 0.08622121810913086, 0.0784776508808136, 0.09418236464262009, 0.12560045719146729, 0.19421879947185516, 0.2234683334827423, 0.2879983186721802, 0.26721155643463135, 0.2203720360994339, 0.23466500639915466, 0.2338743805885315, 0.252148300409317, 0.28469616174697876, 0.22665920853614807, 0.2534042000770569, 0.33454349637031555, 0.38184449076652527, 0.3828414976596832, 0.409740149974823, 0.49406349658966064, 0.4815196990966797, 0.43454593420028687, 0.45678412914276123, 0.3555738031864166, 0.27914294600486755, 0.3103128671646118, 0.33747535943984985, 0.3068208396434784, 0.2197769582271576, 0.17074261605739594, 0.14156562089920044, 0.08917731046676636, 0.07191891968250275, 0.07720696181058884, 0.05201816186308861, -0.016499392688274384, -0.0970991924405098, -0.13437341153621674, -0.08326324075460434, -0.010420840233564377, -0.0050726886838674545, 0.01919015310704708, 0.07734732329845428, -0.005578015930950642, -0.039954427629709244, -0.05909423157572746, -0.0380079410970211, 0.015246219001710415, 0.004656842909753323, -0.05600936338305473, -0.1179284006357193, -0.14049671590328217, -0.11784059554338455, -0.10381922125816345, -0.16445906460285187, -0.1932132989168167, -0.1669321209192276, -0.15732890367507935, -0.15099520981311798, -0.21594201028347015, -0.22782227396965027, -0.2579158544540405, -0.24212221801280975, -0.21042059361934662, -0.24911391735076904, -0.24373406171798706, -0.24981802701950073, -0.20245888829231262, -0.1673850119113922, -0.18083307147026062, -0.18598692119121552, -0.1852092295885086, -0.24118462204933167, -0.3249753713607788, -0.34491536021232605, -0.2979610562324524, -0.20303554832935333, -0.1352677196264267, -0.15526068210601807, -0.25100141763687134, -0.32761138677597046, -0.35331955552101135, -0.3733489215373993, -0.3724114000797272, -0.3766735792160034, -0.37384361028671265, -0.3306386172771454, -0.27597635984420776, -0.20460283756256104, -0.12686918675899506, -0.08590898662805557, -0.0483490452170372, -0.0010607822332531214, 0.02976580522954464, 0.1012115404009819, 0.06558321416378021, 0.04737318679690361, 0.08155929297208786, 0.10583119839429855, 0.1860644370317459, 0.1546756625175476, 0.1352640986442566, 0.18197637796401978, 0.17703557014465332, 0.17030125856399536, 0.18033845722675323, 0.1742885261774063, 0.17229536175727844, 0.18874777853488922, 0.21613043546676636]
