0.03104938194155693 CrossValid 112.96162414550781 CrossValidLossesBy500 649.623291015625 475.0121154785156 310.5902404785156 215.20555114746094 164.1500244140625 141.46507263183594 131.55543518066406 126.96736145019531 124.42584991455078 122.79301452636719 121.51049041748047 120.52777862548828 119.6822509765625 118.93115234375 118.31073760986328 117.7643051147461 117.33143615722656 116.81421661376953 116.42332458496094 116.03608703613281 115.69893646240234 115.39212799072266 115.14598846435547 114.90799713134766 114.74929809570312 114.52796936035156 114.33234405517578 114.21307373046875 114.10684204101562 114.00055694580078 113.94224548339844 113.82596588134766 113.71914672851562 113.67147064208984 113.60081481933594 113.57228088378906 113.52233123779297 113.45856475830078 113.41702270507812 113.39205169677734 113.31522369384766 113.32100677490234 113.20950317382812 113.1760025024414 113.15620422363281 113.10153198242188 113.10379028320312 113.0796127319336 113.06227111816406 113.07662963867188 113.0344009399414 113.04833221435547 113.0054702758789 113.03691864013672 112.9852066040039 113.00619506835938 113.0207290649414 112.98320007324219 113.00563049316406 113.00398254394531 112.98971557617188 113.03071594238281 112.98938751220703 112.99275970458984 112.97816467285156 112.99494934082031 112.9852066040039 112.99137878417969 112.98274230957031 112.97691345214844 113.00479888916016 112.99864196777344 112.99746704101562 112.98701477050781 112.97175598144531 112.9922866821289 112.98953247070312 112.96162414550781
39000 LossesBy500_2 0.22622989118099213 0.1643730252981186 0.10563386231660843 0.07101012766361237 0.05187474191188812 0.042847178876399994 0.03864152356982231 0.03657420352101326 0.0353962779045105 0.03464391827583313 0.03408634662628174 0.03367721289396286 0.03334590047597885 0.03306752070784569 0.03284606710076332 0.03265755996108055 0.03251313790678978 0.03234356641769409 0.03222120553255081 0.032099638134241104 0.031995028257369995 0.031898993998765945 0.03182172402739525 0.0317440927028656 0.031693290919065475 0.03161752596497536 0.03155011311173439 0.03150796517729759 0.03146912157535553 0.03143052011728287 0.031408801674842834 0.03136724978685379 0.0313287153840065 0.0313117690384388 0.03128581866621971 0.03127364441752434 0.031256236135959625 0.031231068074703217 0.03121347539126873 0.031202685087919235 0.031178900972008705 0.031180117279291153 0.03114602342247963 0.03113420121371746 0.031128356233239174 0.03110981360077858 0.03111235611140728 0.03110308013856411 0.031096303835511208 0.031100153923034668 0.031084302812814713 0.031088538467884064 0.03107268363237381 0.03108340874314308 0.031064234673976898 0.031071899458765984 0.03107599727809429 0.03106289729475975 0.031070105731487274 0.03106885589659214 0.031063402071595192 0.031077861785888672 0.031062791123986244 0.03106364607810974 0.031058162450790405 0.031064096838235855 0.03106066584587097 0.03106229566037655 0.031059155240654945 0.031056424602866173 0.031065810471773148 0.031063828617334366 0.031063370406627655 0.03105931356549263 0.031053444370627403 0.031060609966516495 0.031059518456459045 0.03104938194155693
sigma2_stimulus 	 [4.843588829040527, 2.8073270320892334]
log_motor_var 	 [7.451927185058594]
sigma_logit 	 [-6.449182987213135, -6.4804606437683105, -7.234557151794434]
mixture_logit 	 [-4.635706424713135]
prior 	 [1.0]
volume 	 [0.10897184163331985, 0.13633838295936584, 0.13607078790664673, 0.09672320634126663, 0.06326578557491302, 0.21275149285793304, 0.18973781168460846, 0.162075936794281, 0.1574845314025879, 0.13545037806034088, 0.23928160965442657, 0.20979920029640198, 0.14725139737129211, 0.11861377209424973, 0.08541075140237808, 0.10145799070596695, 0.11311199516057968, 0.11140777915716171, 0.07180913537740707, 0.05103917047381401, -0.008531172759830952, -0.06779047846794128, -0.1263321340084076, -0.15680593252182007, -0.14722634851932526, -0.22030185163021088, -0.27857735753059387, -0.2989282011985779, -0.2825477123260498, -0.22077235579490662, -0.18714269995689392, -0.22001662850379944, -0.2430063933134079, -0.2534535527229309, -0.25522080063819885, -0.24844054877758026, -0.22032293677330017, -0.19282275438308716, -0.1965765655040741, -0.18522246181964874, -0.15993940830230713, -0.12810741364955902, -0.11320626735687256, -0.09998847544193268, -0.07477811723947525, -0.03690982237458229, -0.04519696533679962, -0.03403453156352043, 0.02039126306772232, 0.029117526486516, -0.018348833546042442, 0.01799674518406391, 0.024931203573942184, -0.00920102559030056, -0.001596669084392488, 0.01100947242230177, -0.06786762923002243, -0.1331436187028885, -0.1341496706008911, -0.05960555374622345, -0.004648814909160137, -0.011524319648742676, 0.054370976984500885, 0.049424126744270325, -0.03381390497088432, -0.026011990383267403, 0.06479111313819885, 0.10222037136554718, 0.13938342034816742, 0.1824820637702942, 0.18327344954013824, 0.18102651834487915, 0.1825534850358963, 0.1997634619474411, 0.25662946701049805, 0.24174746870994568, 0.24867403507232666, 0.2384306639432907, 0.18457798659801483, 0.2016160488128662, 0.17580512166023254, 0.19923733174800873, 0.2411644160747528, 0.21907678246498108, 0.2293424755334854, 0.32233282923698425, 0.3538983166217804, 0.32454925775527954, 0.3487687408924103, 0.40521374344825745, 0.38275405764579773, 0.3560173511505127, 0.40136441588401794, 0.305921733379364, 0.2878369390964508, 0.3504643738269806, 0.3448016941547394, 0.3039073646068573, 0.2738056778907776, 0.1915428191423416, 0.1466401219367981, 0.1310591697692871, 0.13288824260234833, 0.11623571068048477, 0.028449121862649918, 0.025551237165927887, -0.009815447963774204, -0.02570008486509323, -0.009655429050326347, 0.012872438877820969, 0.04558083415031433, -0.017448581755161285, -0.03070700541138649, -0.02140217274427414, -0.031717490404844284, -0.059438176453113556, -0.04731033742427826, -0.004745848476886749, 0.007475773338228464, -0.028955290094017982, -0.09034943580627441, -0.08435604721307755, -0.05523780360817909, -0.06343377381563187, -0.10328320413827896, -0.08027125895023346, -0.09707385301589966, -0.07228910177946091, -0.11567743122577667, -0.13509827852249146, -0.16024404764175415, -0.18302886188030243, -0.14971789717674255, -0.17267879843711853, -0.1894206404685974, -0.20020504295825958, -0.1913631111383438, -0.16492880880832672, -0.1622304618358612, -0.1966247260570526, -0.20550908148288727, -0.210679292678833, -0.24882639944553375, -0.32596293091773987, -0.3660266399383545, -0.3429608643054962, -0.2788054049015045, -0.182691290974617, -0.1406974047422409, -0.14748302102088928, -0.20598125457763672, -0.251384973526001, -0.24776996672153473, -0.24056124687194824, -0.22092074155807495, -0.23761595785617828, -0.2198476493358612, -0.18107222020626068, -0.11731407791376114, -0.053375449031591415, -0.04116617143154144, 0.003142466302961111, 0.03143054619431496, 0.034117694944143295, 0.11707257479429245, 0.047150712460279465, 0.02809719182550907, 0.0460561104118824, 0.024824175983667374, 0.0825115367770195, 0.03712686151266098, -0.004636866040527821, 0.015371444635093212, 0.00698822271078825, -0.023752598091959953, -0.01650482416152954, 0.01598830707371235, -0.01582033559679985, 0.029356280341744423, 0.037778232246637344]
