0.03497999161481857 CrossValid 125.94801330566406 CrossValidLossesBy500 714.6726684570312 670.41259765625 599.1909790039062 505.6733703613281 413.87908935546875 338.97869873046875 278.9190673828125 232.04318237304688 197.97625732421875 173.7773895263672 157.80178833007812 147.56179809570312 141.21636962890625 137.2589874267578 134.77894592285156 133.10984802246094 132.28501892089844 131.45150756835938 130.83444213867188 130.39739990234375 130.21018981933594 129.69784545898438 129.37881469726562 129.03982543945312 129.01467895507812 128.89935302734375 128.90576171875 128.91307067871094 128.92117309570312 128.75469970703125 128.71385192871094 128.65431213378906 128.60345458984375 128.6048126220703 128.65174865722656 128.42747497558594 128.52688598632812 128.36825561523438 128.39141845703125 128.4801483154297 128.18077087402344 128.17481994628906 128.16925048828125 128.14845275878906 128.11761474609375 127.95121002197266 127.85647583007812 127.87786865234375 127.84394073486328 127.77133178710938 127.70077514648438 127.65591430664062 127.56439208984375 127.53169250488281 127.510986328125 127.47061157226562 127.37120056152344 127.3517837524414 127.29362487792969 127.14476776123047 127.17066192626953 127.08732604980469 127.12545776367188 127.07327270507812 127.02862548828125 126.98960876464844 126.88841247558594 126.95901489257812 126.82392120361328 126.80961608886719 126.75515747070312 126.50894165039062 126.54926300048828 126.39114379882812 126.25267791748047 126.29660034179688 126.2758560180664 126.22266387939453 126.1379623413086 126.13923645019531 126.07679748535156 126.0451431274414 126.08274841308594 126.09579467773438 126.1048812866211 126.11029052734375 126.10577392578125 126.07036590576172 126.02517700195312 126.0477523803711 126.00029754638672 126.02374267578125 125.97293090820312 126.01811218261719 126.00163269042969 126.0137710571289 126.03695678710938 126.0037612915039 126.03794860839844 126.03378295898438 126.01383972167969 125.94090270996094 125.99195861816406 125.94801330566406
52000 LossesBy500_1 0.2486225664615631 0.23285596072673798 0.20750941336154938 0.17414093017578125 0.14133059978485107 0.11465710401535034 0.09365110099315643 0.07727013528347015 0.06515000015497208 0.056524328887462616 0.050696536898612976 0.04679934307932854 0.04425527900457382 0.04256603121757507 0.04142097011208534 0.040583059191703796 0.04006558284163475 0.03956145420670509 0.03915373980998993 0.03882690146565437 0.03860601410269737 0.038284532725811005 0.03804739564657211 0.037816114723682404 0.03770320117473602 0.03757002577185631 0.037486184388399124 0.037409331649541855 0.03734182193875313 0.037216901779174805 0.03714299947023392 0.037066079676151276 0.03699610382318497 0.036949269473552704 0.03691646084189415 0.03679900988936424 0.0367916114628315 0.03669864684343338 0.03667030856013298 0.03666212782263756 0.03653110936284065 0.03649651259183884 0.03646455705165863 0.03643353655934334 0.036392584443092346 0.03631066903471947 0.036252208054065704 0.036233026534318924 0.0361991748213768 0.03615260124206543 0.03610435128211975 0.036068618297576904 0.036019016057252884 0.035986803472042084 0.03595636412501335 0.03592672571539879 0.035874105989933014 0.035850878804922104 0.03581372648477554 0.03574461489915848 0.03573361411690712 0.035689130425453186 0.03568572551012039 0.03565337136387825 0.035618916153907776 0.03558841720223427 0.0355386845767498 0.03554733097553253 0.03548787534236908 0.03546999394893646 0.035439588129520416 0.035349778831005096 0.03535155951976776 0.03529255464673042 0.03523749113082886 0.03524048253893852 0.035225652158260345 0.0351983867585659 0.0351640060544014 0.03515994921326637 0.03513006865978241 0.03510991111397743 0.0351138561964035 0.03511037677526474 0.03510824218392372 0.0351041704416275 0.0350952073931694 0.035076942294836044 0.03505467623472214 0.03505583107471466 0.03503480926156044 0.03503834083676338 0.035015568137168884 0.03502636402845383 0.03501678258180618 0.03501776233315468 0.035022374242544174 0.03500835970044136 0.03501828387379646 0.03501597046852112 0.03500697389245033 0.034980010241270065 0.03499584645032883 0.03497999161481857
sigma2_stimulus 	 [4.605576992034912, 2.8721556663513184]
log_motor_var 	 [7.651388168334961]
sigma_logit 	 [-6.386911392211914, -6.518463134765625, -7.365276336669922]
mixture_logit 	 [-4.41632604598999]
prior 	 [1.0]
volume 	 [0.29106956720352173, 0.26413655281066895, 0.2544233202934265, 0.20367100834846497, 0.18122361600399017, 0.19377575814723969, 0.30175989866256714, 0.3558191955089569, 0.345260888338089, 0.2884962856769562, 0.30364927649497986, 0.39642220735549927, 0.4507390260696411, 0.37853336334228516, 0.38047248125076294, 0.3120637536048889, 0.2398051917552948, 0.19430868327617645, 0.13352490961551666, 0.14305728673934937, 0.11808977276086807, 0.035578396171331406, -0.012587839737534523, -0.09175769239664078, -0.18229016661643982, -0.2222706526517868, -0.19937996566295624, -0.20253214240074158, -0.2517346441745758, -0.26994723081588745, -0.2239292711019516, -0.158316969871521, -0.14492370188236237, -0.21301151812076569, -0.21997559070587158, -0.1963028907775879, -0.18695847690105438, -0.16646744310855865, -0.2385323941707611, -0.20241454243659973, -0.16511817276477814, -0.19011256098747253, -0.22158797085285187, -0.1866452842950821, -0.11024586856365204, -0.1584175080060959, -0.14413444697856903, -0.06330287456512451, -0.16043004393577576, -0.15493075549602509, -0.13647343218326569, -0.14931043982505798, -0.13290086388587952, -0.09054047614336014, -0.16655781865119934, -0.1509123295545578, -0.16726380586624146, -0.041345126926898956, -0.05098066106438637, -0.03441508859395981, -0.0094014136120677, -0.08248826116323471, -0.08399257063865662, -0.07284342497587204, -0.016937538981437683, 0.03358469903469086, 0.0012200953206047416, -0.027715396136045456, -0.035406921058893204, 0.01749018020927906, 0.026553655043244362, 0.0032410037238150835, -0.008677174337208271, 0.014982020482420921, 0.0938963070511818, 0.12228536605834961, 0.14038246870040894, 0.1640658974647522, 0.17456704378128052, 0.1974480152130127, 0.1959531307220459, 0.19728952646255493, 0.1062202900648117, 0.1258191466331482, 0.2109740674495697, 0.29128602147102356, 0.272647887468338, 0.24631276726722717, 0.29758116602897644, 0.35626035928726196, 0.3350372612476349, 0.2846551239490509, 0.309068888425827, 0.28208982944488525, 0.18622823059558868, 0.1137724295258522, 0.12656284868717194, 0.13709819316864014, 0.12088237702846527, 0.11901742219924927, 0.1042487621307373, 0.053686730563640594, 0.028249990195035934, 0.006639944855123758, -0.021616585552692413, -0.028014058247208595, -0.06209854409098625, -0.08053074777126312, -0.18782877922058105, -0.18117016553878784, -0.1551649123430252, -0.07913203537464142, -0.035653918981552124, -0.03921424224972725, 0.056455742567777634, 0.03424286097288132, -0.00013230736658442765, -0.04115442931652069, 0.053580209612846375, 0.09473889321088791, -0.003411609912291169, -0.06562918424606323, -0.07490522414445877, -0.12379533052444458, -0.0856606513261795, -0.1786096692085266, -0.26489534974098206, -0.23105488717556, -0.14854608476161957, -0.10431963205337524, -0.19128087162971497, -0.22769545018672943, -0.2215084731578827, -0.17742949724197388, -0.05834127590060234, -0.15004992485046387, -0.15943102538585663, -0.12837651371955872, -0.015499291941523552, -0.0007012553396634758, 0.027865193784236908, -0.016499128192663193, -0.16681300103664398, -0.16328833997249603, -0.16561880707740784, -0.10095390677452087, -0.11516589671373367, -0.1824093908071518, -0.22268211841583252, -0.2259484827518463, -0.2685143053531647, -0.28706982731819153, -0.28083667159080505, -0.2893100082874298, -0.3130398392677307, -0.2436722368001938, -0.18144658207893372, -0.13804925978183746, -0.09914366900920868, -0.018088487908244133, 0.013634619303047657, 0.031142638996243477, 0.020066184923052788, 0.0012585085351020098, -0.008610766381025314, 0.040989749133586884, 0.12789404392242432, 0.1277085840702057, 0.09826046973466873, 0.038797419518232346, 0.09935226291418076, 0.15545468032360077, 0.10666000097990036, 0.10249938070774078, 0.1396850347518921, 0.1519077718257904, 0.15292693674564362, 0.13441018760204315, 0.13564828038215637, 0.19815751910209656]
