0.031866829842329025 CrossValid 106.35992431640625 CrossValidLossesBy500 731.5194091796875 676.0884399414062 616.4677124023438 561.3289184570312 454.97314453125 358.9447326660156 288.66693115234375 238.30331420898438 202.29803466796875 176.57693481445312 158.67530822753906 146.5164031982422 138.3511962890625 133.02935791015625 129.24452209472656 126.4139175415039 124.44105529785156 122.84600067138672 121.73229217529297 120.77056884765625 119.89203643798828 119.33491516113281 118.49788665771484 117.90103912353516 117.46218872070312 117.11599731445312 116.70350646972656 116.21395874023438 116.04303741455078 115.46875762939453 115.11760711669922 114.7508773803711 114.50830078125 113.96636199951172 113.63333892822266 113.20491027832031 112.9279556274414 112.55392456054688 112.18253326416016 111.92816162109375 111.58323669433594 111.31163024902344 111.06262969970703 110.71781921386719 110.53514099121094 110.27143859863281 110.01627349853516 109.81703186035156 109.51862335205078 109.32923126220703 109.20621490478516 108.92804718017578 108.74462127685547 108.62086486816406 108.38935089111328 108.24029541015625 108.20625305175781 108.06303405761719 108.15187072753906 108.16437530517578 107.97042846679688 107.93407440185547 107.81126403808594 107.97474670410156 107.64100646972656 107.14846801757812 106.87725830078125 106.92906188964844 106.817626953125 106.86774444580078 106.85977172851562 106.76956176757812 106.63957214355469 106.60197448730469 106.54818725585938 106.48833465576172 106.53580474853516 106.59905242919922 106.46778106689453 106.47930908203125 106.5550537109375 106.49706268310547 106.51595306396484 106.38082885742188 106.45697021484375 106.50045776367188 106.3910903930664 106.50399017333984 106.45747375488281 106.42930603027344 106.39160919189453 106.431884765625 106.35992431640625
46500 LossesBy500_1 0.2555828392505646 0.2361416071653366 0.212101012468338 0.19107015430927277 0.15561923384666443 0.12285451591014862 0.09863798320293427 0.08097416162490845 0.06812100857496262 0.05879582092165947 0.05219997838139534 0.04764951020479202 0.044552646577358246 0.04250060021877289 0.04103204235434532 0.03993280604481697 0.03914898633956909 0.038508158177137375 0.0380425788462162 0.03763553127646446 0.0372629314661026 0.0370059534907341 0.03665915131568909 0.03639845922589302 0.036195408552885056 0.036027126014232635 0.035837236791849136 0.03562859073281288 0.03552493453025818 0.03529603034257889 0.0351455993950367 0.034996405243873596 0.034893590956926346 0.03470175340771675 0.03458332642912865 0.03443640097975731 0.03434229642152786 0.03421701490879059 0.03409082069993019 0.034005191177129745 0.033885978162288666 0.033793170005083084 0.033707063645124435 0.03359033167362213 0.033527862280607224 0.033438872545957565 0.033351875841617584 0.03328382968902588 0.03317970037460327 0.03311321139335632 0.03306921198964119 0.03296641260385513 0.03289886191487312 0.03285115212202072 0.03276330605149269 0.03270317614078522 0.03268367797136307 0.032626859843730927 0.03265239670872688 0.03265036270022392 0.032571982592344284 0.03255122900009155 0.032499127089977264 0.03254975751042366 0.03241981565952301 0.03223046660423279 0.03212670236825943 0.03213932365179062 0.032095182687044144 0.03210757300257683 0.03210074082016945 0.03206291422247887 0.032011378556489944 0.03199531510472298 0.03197167068719864 0.03194497525691986 0.03195768967270851 0.03197488188743591 0.03192704916000366 0.031927600502967834 0.03195079043507576 0.031929031014442444 0.03193327412009239 0.03188430517911911 0.03190900757908821 0.03192342817783356 0.03188357129693031 0.031921591609716415 0.03190405294299126 0.03189365193247795 0.03187999501824379 0.0318935364484787 0.031866829842329025
sigma2_stimulus 	 [4.903639316558838, 2.8674235343933105]
log_motor_var 	 [7.749727249145508]
sigma_logit 	 [-6.396531105041504, -6.477118492126465, -7.199193954467773]
mixture_logit 	 [-4.422841548919678]
prior 	 [1.0]
volume 	 [0.2604992091655731, 0.20762361586093903, 0.15658043324947357, 0.11991330236196518, 0.10917039960622787, 0.15041084587574005, 0.27995234727859497, 0.2857847809791565, 0.22870969772338867, 0.2941797971725464, 0.2764712870121002, 0.3861643075942993, 0.3217644989490509, 0.28548872470855713, 0.2798705995082855, 0.21019211411476135, 0.19680006802082062, 0.14972282946109772, 0.19286435842514038, 0.14913614094257355, 0.08277755975723267, -0.011007464490830898, -0.04635818302631378, -0.10984370112419128, -0.12844163179397583, -0.16612400114536285, -0.2103663682937622, -0.2219529151916504, -0.2652222812175751, -0.25444695353507996, -0.23904378712177277, -0.2687947452068329, -0.2961099445819855, -0.2980082631111145, -0.27770569920539856, -0.2751409709453583, -0.2393621951341629, -0.23406177759170532, -0.25374341011047363, -0.22435550391674042, -0.20752200484275818, -0.19897304475307465, -0.20897500216960907, -0.2207278609275818, -0.10758742690086365, -0.11026936024427414, -0.15086284279823303, -0.13609421253204346, -0.06769099086523056, -0.14098531007766724, -0.1572996973991394, -0.033375103026628494, -0.08969944715499878, -0.11684760451316833, -0.09235579520463943, -0.0990169420838356, -0.18508879840373993, -0.20220601558685303, -0.0988808423280716, -0.002870125463232398, -0.020015181973576546, 0.04150227829813957, 0.05085714906454086, -0.044183820486068726, -0.030371129512786865, 0.046584613621234894, 0.06645356118679047, 0.06820841878652573, 0.07716456800699234, 0.06668359041213989, 0.08390343934297562, 0.09429589658975601, 0.12831827998161316, 0.15062572062015533, 0.18439769744873047, 0.16823285818099976, 0.22107838094234467, 0.19039088487625122, 0.20034490525722504, 0.23127490282058716, 0.24933011829853058, 0.27074676752090454, 0.258363276720047, 0.193128302693367, 0.26816704869270325, 0.2984590530395508, 0.2887677848339081, 0.25091201066970825, 0.3078991770744324, 0.40961581468582153, 0.4550197124481201, 0.3566037118434906, 0.3895129859447479, 0.37510332465171814, 0.26095008850097656, 0.26454871892929077, 0.2737840712070465, 0.23404546082019806, 0.18848450481891632, 0.18489418923854828, 0.13627953827381134, 0.1155104786157608, 0.09045317769050598, 0.048515647649765015, 0.06019233912229538, 0.022118447348475456, -0.001604994758963585, -0.03765981271862984, -0.02791682630777359, -0.03923400864005089, -0.027947762981057167, 0.0063279843889176846, 0.04436766356229782, -0.033940285444259644, -0.06450136005878448, -0.09235843271017075, -0.07865731418132782, -0.04284120351076126, -0.07236684858798981, -0.04375851899385452, -0.08399461209774017, -0.1470559686422348, -0.12902836501598358, -0.12238729000091553, -0.12498467415571213, -0.17204582691192627, -0.11625444144010544, -0.1656762659549713, -0.10237216204404831, -0.19370697438716888, -0.20943185687065125, -0.23201227188110352, -0.22686783969402313, -0.17842712998390198, -0.2212325483560562, -0.20641130208969116, -0.2372444123029709, -0.22591543197631836, -0.200851708650589, -0.20687754452228546, -0.20176930725574493, -0.2021186351776123, -0.198586106300354, -0.3137836158275604, -0.32836300134658813, -0.26791056990623474, -0.21819442510604858, -0.18677246570587158, -0.18015702068805695, -0.206976056098938, -0.28349968791007996, -0.27617573738098145, -0.2726999521255493, -0.23532581329345703, -0.23718586564064026, -0.2191278487443924, -0.19698482751846313, -0.1394439935684204, -0.033280156552791595, -0.07094967365264893, -0.023768369108438492, 0.04965878650546074, 0.07314340770244598, 0.13928203284740448, 0.1030203178524971, 0.09757529199123383, 0.16362357139587402, 0.15994590520858765, 0.17488782107830048, 0.1257804036140442, 0.06987050920724869, 0.0746525377035141, 0.10883549600839615, 0.0631362795829773, 0.083753302693367, 0.1312209963798523, 0.07820440083742142, 0.12620867788791656, 0.12513411045074463, 0.1562758982181549]
