0.033812783658504486 CrossValid 124.55207061767578 CrossValidLossesBy500 649.3985595703125 474.06378173828125 310.114990234375 215.25820922851562 165.2417449951172 143.10650634765625 134.1589813232422 130.53472900390625 128.93753051757812 127.97650909423828 127.4025650024414 127.08263397216797 126.8869857788086 126.69861602783203 126.6236572265625 126.57852172851562 126.45995330810547 126.32556915283203 126.28282928466797 126.18748474121094 126.13582611083984 126.07905578613281 126.02197265625 125.95541381835938 125.88338470458984 125.81167602539062 125.79312133789062 125.70783233642578 125.6762924194336 125.63082885742188 125.57280731201172 125.5362548828125 125.4940185546875 125.42835998535156 125.35984802246094 125.35569763183594 125.29165649414062 125.2679443359375 125.23259735107422 125.19004821777344 125.15050506591797 125.13392639160156 125.049072265625 125.07535552978516 124.99928283691406 124.98004150390625 124.93868255615234 124.95393371582031 124.90283966064453 124.90142059326172 124.86015319824219 124.8841323852539 124.82801818847656 124.81795501708984 124.7759017944336 124.77061462402344 124.77085876464844 124.76627349853516 124.74559020996094 124.76194763183594 124.74616241455078 124.71977996826172 124.71489715576172 124.68216705322266 124.67691802978516 124.63485717773438 124.66177368164062 124.65814971923828 124.64701843261719 124.65193939208984 124.60926818847656 124.64000701904297 124.633544921875 124.6017837524414 124.5887222290039 124.6169204711914 124.5849380493164 124.58964538574219 124.55207061767578
39500 LossesBy500_1 0.22619891166687012 0.16411469876766205 0.10555130988359451 0.07110726088285446 0.05228637158870697 0.043395522981882095 0.0394509956240654 0.037638794630765915 0.03670957684516907 0.03610998019576073 0.035715579986572266 0.03545662760734558 0.03527449816465378 0.03511924669146538 0.035021569579839706 0.034946803003549576 0.03485872596502304 0.03477231785655022 0.03472409024834633 0.034662120044231415 0.03461972996592522 0.034577805548906326 0.034539252519607544 0.03449881076812744 0.03445812687277794 0.03441942110657692 0.03440015763044357 0.034358177334070206 0.034336864948272705 0.03431057929992676 0.03428167477250099 0.03426074609160423 0.03423801437020302 0.03420765697956085 0.03417687118053436 0.03416842594742775 0.03414002060890198 0.03412593901157379 0.034108296036720276 0.03408882021903992 0.034070346504449844 0.03406090289354324 0.0340271033346653 0.03403254970908165 0.03400280326604843 0.0339934267103672 0.03397659957408905 0.03397912159562111 0.033959172666072845 0.033957093954086304 0.0339411199092865 0.033948007971048355 0.03392747789621353 0.033922966569662094 0.03390713781118393 0.0339042991399765 0.03390303999185562 0.03390038385987282 0.0338924415409565 0.03389753773808479 0.033890798687934875 0.033880412578582764 0.03387821093201637 0.033866263926029205 0.03386356309056282 0.033847782760858536 0.03385676443576813 0.03385491296648979 0.03385027125477791 0.03385135158896446 0.033835653215646744 0.03384598717093468 0.03384369984269142 0.03383204713463783 0.033826712518930435 0.03383628651499748 0.033824753016233444 0.03382617235183716 0.033812783658504486
sigma2_stimulus 	 [4.1699442863464355, 2.767244815826416]
log_motor_var 	 [7.4220404624938965]
sigma_logit 	 [-6.438988208770752, -6.445633888244629, -7.472426891326904]
mixture_logit 	 [-4.60061502456665]
prior 	 [0.12636002898216248, 0.13373130559921265, 0.13431735336780548, 0.12747429311275482, 0.11292555183172226, 0.09086816012859344, 0.062032368034124374, 0.027721930295228958, -0.010208736173808575, -0.04948551580309868, -0.08761564642190933, -0.12211874127388, -0.15074074268341064, -0.17164036631584167, -0.1834714263677597, -0.18544839322566986, -0.17736491560935974, -0.1595766395330429, -0.1329318732023239, -0.09871616214513779, -0.05857691541314125, -0.014391278848052025, 0.0318443737924099, 0.07816817611455917, 0.12280390411615372, 0.1642005741596222, 0.20123200118541718, 0.2330305427312851, 0.25913313031196594, 0.2792731821537018, 0.29335638880729675, 0.3014012575149536, 0.30346375703811646, 0.29969048500061035, 0.29036515951156616, 0.2758290767669678, 0.2568184435367584, 0.23416315019130707, 0.20899204909801483, 0.18244154751300812, 0.15561139583587646, 0.12942445278167725, 0.10448532551527023, 0.08109878748655319, 0.05931060016155243, 0.038953717797994614, 0.019825413823127747, 0.0017605283064767718, -0.015284750610589981, -0.031207235530018806, -0.045781806111335754, -0.058729138225317, -0.06979653239250183, -0.07883081585168839, -0.08584454655647278, -0.09103715419769287, -0.09476502239704132, -0.09748554974794388, -0.09966515749692917, -0.1017012819647789, -0.10386696457862854, -0.10626737773418427, -0.10894518345594406, -0.11187125742435455, -0.11514496058225632, -0.11897589266300201, -0.1237049475312233, -0.1297673135995865, -0.13754451274871826, -0.1472354531288147, -0.15868344902992249, -0.171297088265419, -0.18418480455875397, -0.19606061279773712, -0.20558598637580872, -0.21148309111595154, -0.21281851828098297, -0.2091035544872284, -0.20047371089458466, -0.18771399557590485, -0.17233331501483917, -0.15618956089019775, -0.14146557450294495, -0.13008108735084534, -0.12353123724460602, -0.12242116779088974, -0.12649230659008026, -0.13463012874126434, -0.14525651931762695, -0.1565694361925125, -0.1669725626707077, -0.17538674175739288, -0.181179016828537, -0.18435101211071014, -0.18533547222614288, -0.18482041358947754, -0.18345335125923157, -0.18175873160362244, -0.17989230155944824, -0.17759482562541962, -0.17434349656105042, -0.169381245970726, -0.1620110720396042, -0.15177930891513824, -0.13868127763271332, -0.12321706861257553, -0.10647447407245636, -0.0899493470788002, -0.07535046339035034, -0.06424129754304886, -0.05776536464691162, -0.05629587545990944, -0.059357382357120514, -0.06567741185426712, -0.07342327386140823, -0.08046948164701462, -0.08480029553174973, -0.08471351861953735, -0.07908428460359573, -0.06741788238286972, -0.04994767904281616, -0.027540570124983788, -0.001619287533685565, 0.026046009734272957, 0.05361057072877884, 0.07945811748504639, 0.10242679715156555, 0.12203400582075119, 0.13836044073104858, 0.15195965766906738, 0.16349537670612335, 0.17342916131019592, 0.1818993091583252, 0.18861734867095947, 0.19291293621063232, 0.19419123232364655, 0.1921076476573944, 0.1869073063135147, 0.17949488759040833, 0.17130595445632935, 0.164094015955925, 0.15950651466846466, 0.15874694287776947, 0.1624227911233902, 0.170407235622406, 0.18192724883556366, 0.19566932320594788, 0.21003876626491547, 0.22331388294696808, 0.23378688097000122, 0.23986536264419556, 0.24019448459148407, 0.23362822830677032, 0.21953703463077545, 0.19781643152236938, 0.1691150814294815, 0.13487207889556885, 0.09716149419546127, 0.05844295397400856, 0.021160660311579704, -0.012519537471234798, -0.0410003662109375, -0.06336015462875366, -0.07935991883277893, -0.08932334929704666, -0.09396767616271973, -0.09417906403541565, -0.09082161635160446, -0.08455207198858261, -0.07577843964099884, -0.06460621953010559, -0.0509924478828907, -0.03482520952820778, -0.016116667538881302, 0.004877765197306871, 0.02757202833890915, 0.05103711411356926, 0.07406209409236908, 0.09524229913949966, 0.11312351375818253]
volume 	 [0.0, 0.0, 0.0, 0.0, 0.0, 0.0, 0.0, 0.0, 0.0, 0.0, 0.0, 0.0, 0.0, 0.0, 0.0, 0.0, 0.0, 0.0, 0.0, 0.0, 0.0, 0.0, 0.0, 0.0, 0.0, 0.0, 0.0, 0.0, 0.0, 0.0, 0.0, 0.0, 0.0, 0.0, 0.0, 0.0, 0.0, 0.0, 0.0, 0.0, 0.0, 0.0, 0.0, 0.0, 0.0, 0.0, 0.0, 0.0, 0.0, 0.0, 0.0, 0.0, 0.0, 0.0, 0.0, 0.0, 0.0, 0.0, 0.0, 0.0, 0.0, 0.0, 0.0, 0.0, 0.0, 0.0, 0.0, 0.0, 0.0, 0.0, 0.0, 0.0, 0.0, 0.0, 0.0, 0.0, 0.0, 0.0, 0.0, 0.0, 0.0, 0.0, 0.0, 0.0, 0.0, 0.0, 0.0, 0.0, 0.0, 0.0, 0.0, 0.0, 0.0, 0.0, 0.0, 0.0, 0.0, 0.0, 0.0, 0.0, 0.0, 0.0, 0.0, 0.0, 0.0, 0.0, 0.0, 0.0, 0.0, 0.0, 0.0, 0.0, 0.0, 0.0, 0.0, 0.0, 0.0, 0.0, 0.0, 0.0, 0.0, 0.0, 0.0, 0.0, 0.0, 0.0, 0.0, 0.0, 0.0, 0.0, 0.0, 0.0, 0.0, 0.0, 0.0, 0.0, 0.0, 0.0, 0.0, 0.0, 0.0, 0.0, 0.0, 0.0, 0.0, 0.0, 0.0, 0.0, 0.0, 0.0, 0.0, 0.0, 0.0, 0.0, 0.0, 0.0, 0.0, 0.0, 0.0, 0.0, 0.0, 0.0, 0.0, 0.0, 0.0, 0.0, 0.0, 0.0, 0.0, 0.0, 0.0, 0.0, 0.0, 0.0, 0.0, 0.0, 0.0, 0.0, 0.0, 0.0]
