0.0296945720911026 CrossValid 111.9138412475586 CrossValidLossesBy500 112.85090637207031 112.47698211669922 112.18489074707031 111.80213928222656 111.9138412475586
2500 LossesBy500 0.030721275135874748 0.030108703300356865 0.029832540079951286 0.02971431240439415 0.0296945720911026
sigma2_stimulus 	 [3.8650331497192383, 2.73325777053833]
log_motor_var 	 [6.804950714111328]
sigma_logit 	 [-6.728142261505127, -6.859104156494141, -8.126948356628418]
mixture_logit 	 [-4.683016300201416]
prior 	 [0.3870280385017395, 0.32400956749916077, 0.2862345576286316, 0.30765578150749207, 0.34787705540657043, 0.3343423306941986, 0.2573034465312958, 0.1858273446559906, 0.17791207134723663, 0.22122983634471893, 0.2529637813568115, 0.23412466049194336, 0.19118405878543854, 0.1669173538684845, 0.169109508395195, 0.17887039482593536, 0.18504874408245087, 0.19379578530788422, 0.21029241383075714, 0.22762815654277802, 0.23420743644237518, 0.2257433980703354, 0.21275384724140167, 0.21684527397155762, 0.250257283449173, 0.2954002022743225, 0.31745094060897827, 0.3087839186191559, 0.3003799319267273, 0.31700947880744934, 0.3468383550643921, 0.36317166686058044, 0.3592725694179535, 0.3451041579246521, 0.3259891867637634, 0.3046485483646393, 0.2897842824459076, 0.2840651869773865, 0.27332594990730286, 0.24603259563446045, 0.21576102077960968, 0.2021905481815338, 0.19899681210517883, 0.18157847225666046, 0.14527399837970734, 0.11178263276815414, 0.09254457801580429, 0.07233145833015442, 0.036546528339385986, -0.0011374823516234756, -0.02042245678603649, -0.029942426830530167, -0.0633922591805458, -0.13054782152175903, -0.1956811100244522, -0.21993237733840942, -0.20511631667613983, -0.19294098019599915, -0.21535256505012512, -0.26835358142852783, -0.3287868797779083, -0.3746098279953003, -0.3923572897911072, -0.38294702768325806, -0.3731476664543152, -0.3967821002006531, -0.45412030816078186, -0.5056414008140564, -0.5206236839294434, -0.513274610042572, -0.5228058695793152, -0.5564570426940918, -0.5832037925720215, -0.5899291634559631, -0.6080176830291748, -0.6593837141990662, -0.7070614695549011, -0.6995960474014282, -0.6427536010742188, -0.6061871647834778, -0.6481428742408752, -0.7296985983848572, -0.7651313543319702, -0.7237708568572998, -0.6528770923614502, -0.6245502829551697, -0.6523827910423279, -0.6849550008773804, -0.679446816444397, -0.6358517408370972, -0.5871292948722839, -0.573716938495636, -0.6084029674530029, -0.6555559635162354, -0.6625309586524963, -0.6138705611228943, -0.5495004653930664, -0.5251759886741638, -0.5462272763252258, -0.5678093433380127, -0.5549688339233398, -0.5113024115562439, -0.46102502942085266, -0.4232442378997803, -0.40514859557151794, -0.4039284586906433, -0.4049330949783325, -0.3903302550315857, -0.35721510648727417, -0.3177987337112427, -0.2807503342628479, -0.24934540688991547, -0.23858508467674255, -0.2607731223106384, -0.2867763340473175, -0.2649654150009155, -0.18851034343242645, -0.12083689868450165, -0.12453693151473999, -0.16360518336296082, -0.14956997334957123, -0.056403178721666336, 0.0442957878112793, 0.06241300329566002, 0.02203700877726078, 0.029688110575079918, 0.12992851436138153, 0.24802489578723907, 0.2671971619129181, 0.19885075092315674, 0.1672029197216034, 0.23806503415107727, 0.35321107506752014, 0.3930360972881317, 0.33227455615997314, 0.2682756781578064, 0.27775049209594727, 0.34725624322891235, 0.40908947587013245, 0.41951510310173035, 0.3947398364543915, 0.37354376912117004, 0.3824935257434845, 0.42880597710609436, 0.4938742518424988, 0.5344210863113403, 0.5188845992088318, 0.472079336643219, 0.4492589235305786, 0.4723806083202362, 0.510918378829956, 0.5189061760902405, 0.4897764027118683, 0.46488046646118164, 0.47431883215904236, 0.5022833943367004, 0.5077869892120361, 0.4795515239238739, 0.45000913739204407, 0.4483768343925476, 0.455149382352829, 0.4277746379375458, 0.36068347096443176, 0.30760475993156433, 0.3139255940914154, 0.3623811602592468, 0.39059826731681824, 0.3605891466140747, 0.3111394941806793, 0.2936180531978607, 0.31355729699134827, 0.3380778431892395, 0.3473570644855499, 0.3500121831893921, 0.3482789695262909, 0.33122268319129944, 0.3098299503326416, 0.3185913562774658, 0.3660549521446228, 0.4065888822078705]
volume 	 [0.8360170125961304, 0.8779093027114868, 0.8659398555755615, 0.7959327697753906, 0.7286293506622314, 0.7156715989112854, 0.7560980916023254, 0.790223240852356, 0.7584735751152039, 0.7383129596710205, 0.7619168758392334, 0.760441243648529, 0.6866801977157593, 0.5559626221656799, 0.44604596495628357, 0.36734628677368164, 0.27279695868492126, 0.12876002490520477, 0.0025670169852674007, -0.08913762122392654, -0.19551201164722443, -0.2991051971912384, -0.39387047290802, -0.44551870226860046, -0.4482118785381317, -0.4251473546028137, -0.407062828540802, -0.397973895072937, -0.3748997747898102, -0.3114526867866516, -0.20199930667877197, -0.09806971251964569, -0.05564875900745392, -0.08476521074771881, -0.12870599329471588, -0.15228807926177979, -0.15800903737545013, -0.16835574805736542, -0.22199536859989166, -0.24371175467967987, -0.21363282203674316, -0.20434929430484772, -0.22584101557731628, -0.24301697313785553, -0.23504115641117096, -0.22409400343894958, -0.2252451479434967, -0.21534337103366852, -0.20046059787273407, -0.22930258512496948, -0.28655681014060974, -0.31904372572898865, -0.336876779794693, -0.35433128476142883, -0.3745259940624237, -0.412395179271698, -0.44149017333984375, -0.4299526810646057, -0.4078659117221832, -0.37942469120025635, -0.32588493824005127, -0.2764725685119629, -0.25006309151649475, -0.2171560823917389, -0.16074903309345245, -0.11285334825515747, -0.1402496099472046, -0.13569135963916779, -0.08963990211486816, -0.026260191574692726, 0.043503835797309875, 0.12103474140167236, 0.09924615174531937, 0.07245340198278427, 0.07752916216850281, 0.11873207241296768, 0.21144604682922363, 0.2599005103111267, 0.24672700464725494, 0.23408085107803345, 0.22729219496250153, 0.2394663393497467, 0.27038171887397766, 0.31093865633010864, 0.43689990043640137, 0.5916968584060669, 0.6874237060546875, 0.7086741924285889, 0.7491138577461243, 0.7181697487831116, 0.6057281494140625, 0.50761878490448, 0.3853394687175751, 0.29496142268180847, 0.20372824370861053, 0.1305626779794693, 0.10922203212976456, 0.10080962628126144, 0.10360752046108246, 0.10656191408634186, 0.026990214362740517, -0.057576876133680344, -0.1076602190732956, -0.1418420523405075, -0.19496110081672668, -0.29025545716285706, -0.3376426696777344, -0.33238932490348816, -0.317115843296051, -0.31470346450805664, -0.3026381731033325, -0.2516171634197235, -0.16345840692520142, -0.11124048382043839, -0.13111580908298492, -0.11229810118675232, -0.0818934217095375, -0.012117432430386543, -0.03462250903248787, -0.036228083074092865, -0.027351023629307747, -0.08686550706624985, -0.14226223528385162, -0.16915790736675262, -0.18012665212154388, -0.16330118477344513, -0.11870770156383514, -0.0732947513461113, -0.05524665489792824, -0.05125599354505539, -0.052086882293224335, -0.05898717790842056, -0.10761289298534393, -0.2138625681400299, -0.31194576621055603, -0.32427316904067993, -0.29008030891418457, -0.23668378591537476, -0.1890081912279129, -0.12548956274986267, -0.02941497601568699, -0.0513853020966053, -0.09663556516170502, -0.166362926363945, -0.2277107685804367, -0.26832452416419983, -0.2990584671497345, -0.3285077214241028, -0.3549079895019531, -0.35982102155685425, -0.3746216893196106, -0.40660935640335083, -0.4391888678073883, -0.48006561398506165, -0.5222200155258179, -0.5344626903533936, -0.5206223130226135, -0.4984666705131531, -0.47577908635139465, -0.45449718832969666, -0.43717971444129944, -0.42722052335739136, -0.4094977080821991, -0.35934409499168396, -0.28092533349990845, -0.1915816366672516, -0.1292646825313568, -0.037109628319740295, 0.05238495022058487, 0.1059468612074852, 0.13046641647815704, 0.18219879269599915, 0.26084524393081665, 0.3583385944366455, 0.4049278795719147, 0.44487231969833374, 0.5415121912956238, 0.6213352680206299, 0.6649214625358582, 0.7419018745422363]
========
sigma2_stimulus	1.9936123862862587e-07	log_motor_var	0.003666818607598543	sigma_logit	7.144990377128124e-08	mixture_logit	3.763489075936377e-09	prior	1.0174553608521819e-05	volume	3.8484358810819685e-08
