0.03234158083796501 CrossValid 83.71617126464844 CrossValidLossesBy500 649.3516845703125 474.2257995605469 309.56805419921875 210.5753173828125 156.69122314453125 130.266357421875 118.10267639160156 111.96062469482422 108.0851821899414 105.29502868652344 103.18022155761719 101.45391082763672 99.67037963867188 98.2715835571289 97.3214340209961 96.51250457763672 95.75611877441406 95.01587677001953 94.29418182373047 93.90744018554688 93.27171325683594 92.81227111816406 92.32231140136719 91.91204833984375 91.54661560058594 91.1772689819336 90.78634643554688 90.5121078491211 90.18023681640625 89.86614227294922 89.58901977539062 89.31985473632812 89.0530014038086 88.79655456542969 88.56946563720703 88.31450653076172 88.138427734375 87.8887710571289 87.69442749023438 87.4996337890625 87.30892944335938 87.09596252441406 86.9393539428711 86.79608154296875 86.65164947509766 86.42411041259766 86.28663635253906 86.15812683105469 86.01802062988281 85.87904357910156 85.77772521972656 85.67852783203125 85.51019287109375 85.41673278808594 85.30249786376953 85.17654418945312 85.10075378417969 85.00745391845703 84.9422836303711 84.84086608886719 84.7603759765625 84.68890380859375 84.59452056884766 84.53511047363281 84.45587158203125 84.4021224975586 84.37448120117188 84.27046203613281 84.2406997680664 84.219482421875 84.13076782226562 84.10186767578125 84.01922607421875 84.00032806396484 83.97306060791016 83.95728302001953 83.87171936035156 83.87295532226562 83.83995819091797 83.83570098876953 83.80038452148438 83.81819152832031 83.81876373291016 83.77407836914062 83.79719543457031 83.76385498046875 83.77874755859375 83.71617126464844
44000 LossesBy500_1 0.22608399391174316 0.16409409046173096 0.10597319155931473 0.07159466296434402 0.053115371614694595 0.04423213005065918 0.0403287373483181 0.038548048585653305 0.03756207972764969 0.03693954274058342 0.03651032596826553 0.03617328405380249 0.03578295558691025 0.03549307584762573 0.03531467169523239 0.03515303134918213 0.03500150516629219 0.03483071178197861 0.03466906026005745 0.03459737077355385 0.034443121403455734 0.0343417264521122 0.034223057329654694 0.03413188084959984 0.03404965624213219 0.033959414809942245 0.033869482576847076 0.033811330795288086 0.033726826310157776 0.03364931419491768 0.033582888543605804 0.033520668745040894 0.033455368131399155 0.03339178115129471 0.03333919495344162 0.0332774855196476 0.033241089433431625 0.033181965351104736 0.03313756361603737 0.0330938845872879 0.03304778039455414 0.032996077090501785 0.03296240046620369 0.0329347662627697 0.03290344029664993 0.032846108078956604 0.03282495588064194 0.0327940508723259 0.032767154276371 0.03274008631706238 0.03272207826375961 0.03270350396633148 0.032659418880939484 0.032652221620082855 0.03263090178370476 0.03260066732764244 0.0325874462723732 0.03257431462407112 0.032566919922828674 0.032545335590839386 0.0325327105820179 0.03252171352505684 0.03250110521912575 0.03249429911375046 0.032477911561727524 0.03247065469622612 0.03247017785906792 0.03244759514927864 0.032444071024656296 0.032443638890981674 0.032421596348285675 0.03242122381925583 0.03239868953824043 0.03239786997437477 0.032395437359809875 0.03239687159657478 0.03237020969390869 0.0323757566511631 0.032368216663599014 0.0323684886097908 0.03236033767461777 0.032369133085012436 0.03237135335803032 0.03235674649477005 0.03236575052142143 0.032355956733226776 0.032362159341573715 0.03234158083796501
sigma2_stimulus 	 [4.959794998168945, 2.9084227085113525]
log_motor_var 	 [7.456665515899658]
sigma_logit 	 [-6.401324272155762, -6.4415283203125, -7.1996355056762695]
mixture_logit 	 [-4.676990985870361]
prior 	 [1.0]
volume 	 [0.31913405656814575, 0.40192675590515137, 0.34201115369796753, 0.3269669711589813, 0.29195159673690796, 0.32605716586112976, 0.4736255407333374, 0.48611366748809814, 0.43456393480300903, 0.4491860270500183, 0.48237115144729614, 0.5607328414916992, 0.4843575954437256, 0.44432616233825684, 0.3673925995826721, 0.3465564548969269, 0.310076504945755, 0.25565385818481445, 0.14425800740718842, 0.004609609954059124, -0.09855940192937851, -0.1846913844347, -0.26315954327583313, -0.26033806800842285, -0.235890731215477, -0.27843672037124634, -0.32057541608810425, -0.3446159362792969, -0.3408482074737549, -0.2814623713493347, -0.2280847728252411, -0.23794399201869965, -0.2284797877073288, -0.23722167313098907, -0.2549453675746918, -0.2633257210254669, -0.2583502531051636, -0.2479071170091629, -0.23684442043304443, -0.24960581958293915, -0.24638988077640533, -0.2725266218185425, -0.27715402841567993, -0.2585359811782837, -0.18733495473861694, -0.1828778088092804, -0.1720849573612213, -0.11644598841667175, -0.0355587862432003, -0.13837814331054688, -0.13179980218410492, -0.07121466845273972, -0.08614421635866165, -0.13846218585968018, -0.13387790322303772, -0.1865617334842682, -0.23588362336158752, -0.251753568649292, -0.20221541821956635, -0.07495716214179993, -0.031072579324245453, -0.019345950335264206, 0.0410323329269886, -0.03494995832443237, -0.06073882058262825, -0.01190424244850874, 0.04866752400994301, 0.04420870542526245, 0.03891879320144653, 0.025633802637457848, 0.03460852429270744, 0.032451022416353226, 0.08344756811857224, 0.1460752785205841, 0.2028791606426239, 0.2226879745721817, 0.2752844989299774, 0.2626400887966156, 0.2377467304468155, 0.29102715849876404, 0.3018828332424164, 0.3072139322757721, 0.32024842500686646, 0.2521422803401947, 0.29336705803871155, 0.3271455466747284, 0.34747523069381714, 0.304688960313797, 0.32984286546707153, 0.4296644330024719, 0.4605817198753357, 0.41154900193214417, 0.44928640127182007, 0.381819486618042, 0.2871008515357971, 0.30118563771247864, 0.27925899624824524, 0.23964647948741913, 0.20831893384456635, 0.1821562945842743, 0.15929833054542542, 0.08414831012487411, 0.05738735571503639, 0.08769810199737549, 0.0646708607673645, 0.012367176823318005, -0.05956444889307022, -0.11782241612672806, -0.08733101189136505, -0.020585425198078156, 0.0009245441178791225, 0.0600433424115181, 0.12735261023044586, -0.0008207253995351493, -0.0431213416159153, -0.06521435081958771, -0.04453659802675247, -0.03176536783576012, -0.02996162138879299, -0.08841198682785034, -0.11852091550827026, -0.1308274269104004, -0.10583039373159409, -0.10225583612918854, -0.1839693784713745, -0.21140536665916443, -0.1784345805644989, -0.1487068086862564, -0.1501622200012207, -0.24238424003124237, -0.2890712320804596, -0.3117177486419678, -0.27962976694107056, -0.23037461936473846, -0.2613888084888458, -0.2722163498401642, -0.26380854845046997, -0.21822188794612885, -0.16493070125579834, -0.18423344194889069, -0.18456397950649261, -0.146922305226326, -0.19706080853939056, -0.2893359363079071, -0.3063867688179016, -0.26216262578964233, -0.20372937619686127, -0.1454681158065796, -0.15241821110248566, -0.24704590439796448, -0.32538902759552, -0.34931978583335876, -0.3666119873523712, -0.34520968794822693, -0.3363645374774933, -0.34849512577056885, -0.3360320031642914, -0.3105980157852173, -0.24192729592323303, -0.16082414984703064, -0.0968552902340889, -0.03162152320146561, 0.009281042031943798, 0.05084852874279022, 0.12255310267210007, 0.06973955035209656, 0.0375409871339798, 0.0687791034579277, 0.07189946621656418, 0.14496293663978577, 0.145929217338562, 0.12921179831027985, 0.14819811284542084, 0.18507853150367737, 0.16139307618141174, 0.15421858429908752, 0.15049199759960175, 0.1808098405599594, 0.2414284646511078, 0.25084081292152405]
