0.034502819180488586 CrossValid 124.70487213134766 CrossValidLossesBy500 680.641357421875 499.31512451171875 325.63330078125 223.6163330078125 168.83468627929688 143.63470458984375 133.18753051757812 128.9108428955078 127.08181762695312 126.09840393066406 125.55753326416016 125.24915313720703 125.1246566772461 125.02415466308594 124.93148040771484 124.95126342773438 124.93771362304688 124.95599365234375 124.96591186523438 124.94245910644531 124.92901611328125 124.95421600341797 124.97796630859375 124.95681762695312 124.9155502319336 124.90554809570312 124.90020751953125 124.92729949951172 124.9254379272461 124.91014099121094 124.91529846191406 124.91328430175781 124.92625427246094 124.87117767333984 124.91876220703125 124.87064361572266 124.85985565185547 124.89816284179688 124.85740661621094 124.89911651611328 124.86955261230469 124.84342956542969 124.86697387695312 124.87132263183594 124.87789154052734 124.85749053955078 124.84583282470703 124.85641479492188 124.81805419921875 124.8213119506836 124.85431671142578 124.84005737304688 124.82698822021484 124.81044006347656 124.80546569824219 124.8146743774414 124.82036590576172 124.7750473022461 124.77598571777344 124.78968811035156 124.77285766601562 124.8018798828125 124.7552490234375 124.79612731933594 124.75442504882812 124.78519439697266 124.74540710449219 124.78251647949219 124.72740173339844 124.78292083740234 124.77896881103516 124.7258529663086 124.77928161621094 124.72384643554688 124.77764892578125 124.7472152709961 124.759765625 124.7691650390625 124.7357406616211 124.70487213134766
40000 LossesBy500_0 0.22524547576904297 0.16495263576507568 0.10679395496845245 0.07218190282583237 0.053224120289087296 0.04415729641914368 0.04011651873588562 0.03825544938445091 0.037309110164642334 0.03672076016664505 0.0363401398062706 0.03607924282550812 0.03591248393058777 0.03577795252203941 0.035666607320308685 0.035604078322649 0.03554186969995499 0.035497527569532394 0.03545640781521797 0.03540928661823273 0.03536975756287575 0.035346101969480515 0.035324886441230774 0.03529108688235283 0.035251542925834656 0.035224225372076035 0.035199377685785294 0.03518633916974068 0.0351644791662693 0.03513915091753006 0.03512132167816162 0.03510182350873947 0.03508758917450905 0.03505123406648636 0.03504987433552742 0.035016875714063644 0.034996453672647476 0.03499253839254379 0.0349634625017643 0.03496170789003372 0.034936293959617615 0.03491254895925522 0.03490545600652695 0.03489266708493233 0.03488044813275337 0.03485935553908348 0.03484112024307251 0.034831151366233826 0.0348043292760849 0.034792572259902954 0.03478969633579254 0.03477349877357483 0.03475533053278923 0.03473661467432976 0.0347224585711956 0.03471280261874199 0.03470234200358391 0.034674596041440964 0.03466283157467842 0.034655459225177765 0.03463812544941902 0.034635499119758606 0.034608498215675354 0.03461061418056488 0.03458729386329651 0.03458870202302933 0.034568365663290024 0.03457336127758026 0.03454967960715294 0.03456199914216995 0.03455619513988495 0.03453424200415611 0.03454701229929924 0.034524641931056976 0.03453897684812546 0.03452608734369278 0.03452690318226814 0.034528009593486786 0.03451494127511978 0.034502819180488586
sigma2_stimulus 	 [4.202585220336914, 2.763251543045044]
log_motor_var 	 [7.393481254577637]
sigma_logit 	 [-6.420295715332031, -6.453009605407715, -7.470581531524658]
mixture_logit 	 [-4.598372936248779]
prior 	 [-0.07439427077770233, -0.06950400769710541, -0.06355226039886475, -0.05704043433070183, -0.05035395175218582, -0.043643902987241745, -0.03681726008653641, -0.02948070503771305, -0.02103845775127411, -0.010796814225614071, 0.0018540102755650878, 0.01726408116519451, 0.03540501371026039, 0.05585912987589836, 0.07786644250154495, 0.10045202076435089, 0.12250935286283493, 0.142893448472023, 0.16040439903736115, 0.17391161620616913, 0.18234173953533173, 0.18499189615249634, 0.18175266683101654, 0.17317071557044983, 0.1604805439710617, 0.14543582499027252, 0.12979206442832947, 0.11513424664735794, 0.10253866761922836, 0.0925397202372551, 0.08510392159223557, 0.07979141920804977, 0.07580461353063583, 0.07226885855197906, 0.06836334615945816, 0.06346791237592697, 0.057365722954273224, 0.05028681829571724, 0.04288647323846817, 0.03611253574490547, 0.030964480713009834, 0.02824687957763672, 0.02836873009800911, 0.031269293278455734, 0.03647657483816147, 0.043254751712083817, 0.050775568932294846, 0.0581979937851429, 0.06473609060049057, 0.06964438408613205, 0.07221738994121552, 0.071860671043396, 0.06815962493419647, 0.06102580577135086, 0.05067062750458717, 0.03757729008793831, 0.022368956357240677, 0.005675734486430883, -0.01192886009812355, -0.029927803203463554, -0.04780412092804909, -0.06501378118991852, -0.08101735264062881, -0.09537890553474426, -0.1079227551817894, -0.11876049637794495, -0.12827765941619873, -0.13701185584068298, -0.14546915888786316, -0.15402038395404816, -0.16273915767669678, -0.17157518863677979, -0.18027183413505554, -0.18852700293064117, -0.19600015878677368, -0.2023623287677765, -0.207388237118721, -0.21097762882709503, -0.21314765512943268, -0.21422651410102844, -0.21462617814540863, -0.21497710049152374, -0.21580034494400024, -0.21749347448349, -0.22014865279197693, -0.22355274856090546, -0.22728243470191956, -0.23085054755210876, -0.23377111554145813, -0.23561343550682068, -0.23605351150035858, -0.23482704162597656, -0.2316826730966568, -0.22651267051696777, -0.21925048530101776, -0.2099262773990631, -0.19869840145111084, -0.1857292205095291, -0.1712803989648819, -0.15569141507148743, -0.13931870460510254, -0.1226363256573677, -0.1060900017619133, -0.09004384279251099, -0.07483343034982681, -0.06074463948607445, -0.04811011254787445, -0.03734008967876434, -0.02893274649977684, -0.023336272686719894, -0.020799454301595688, -0.021183723583817482, -0.02385820262134075, -0.027752995491027832, -0.03152446448802948, -0.03382411599159241, -0.03355523943901062, -0.0300289299339056, -0.023059673607349396, -0.012909756042063236, -0.00017811132420320064, 0.014357795007526875, 0.029907939955592155, 0.045831408351659775, 0.06173233687877655, 0.07749176025390625, 0.09315818548202515, 0.10876413434743881, 0.12411573529243469, 0.1386481076478958, 0.1514386087656021, 0.16134750843048096, 0.1674450784921646, 0.16915090382099152, 0.1664184182882309, 0.1597335785627365, 0.14976917207241058, 0.13742825388908386, 0.1235622763633728, 0.10912281274795532, 0.09521058946847916, 0.08310188353061676, 0.07424821704626083, 0.07007866352796555, 0.07176262885332108, 0.07991625368595123, 0.09443409740924835, 0.11436404287815094, 0.13791674375534058, 0.1626400500535965, 0.1858232319355011, 0.20488789677619934, 0.2177446484565735, 0.2232886403799057, 0.22146178781986237, 0.21315661072731018, 0.19983768463134766, 0.1832149624824524, 0.1646832674741745, 0.14520707726478577, 0.12529011070728302, 0.10520007461309433, 0.08513282239437103, 0.0654725655913353, 0.04680125415325165, 0.02978445775806904, 0.01497699785977602, 0.0025880765169858932, -0.007629291154444218, -0.016336068511009216, -0.024397142231464386, -0.032585058361291885, -0.041291896253824234, -0.05041085183620453, -0.059381477534770966, -0.06738399714231491, -0.07362250238656998, -0.07751984894275665, -0.0788363590836525, -0.07767364382743835]
volume 	 [0.0, 0.0, 0.0, 0.0, 0.0, 0.0, 0.0, 0.0, 0.0, 0.0, 0.0, 0.0, 0.0, 0.0, 0.0, 0.0, 0.0, 0.0, 0.0, 0.0, 0.0, 0.0, 0.0, 0.0, 0.0, 0.0, 0.0, 0.0, 0.0, 0.0, 0.0, 0.0, 0.0, 0.0, 0.0, 0.0, 0.0, 0.0, 0.0, 0.0, 0.0, 0.0, 0.0, 0.0, 0.0, 0.0, 0.0, 0.0, 0.0, 0.0, 0.0, 0.0, 0.0, 0.0, 0.0, 0.0, 0.0, 0.0, 0.0, 0.0, 0.0, 0.0, 0.0, 0.0, 0.0, 0.0, 0.0, 0.0, 0.0, 0.0, 0.0, 0.0, 0.0, 0.0, 0.0, 0.0, 0.0, 0.0, 0.0, 0.0, 0.0, 0.0, 0.0, 0.0, 0.0, 0.0, 0.0, 0.0, 0.0, 0.0, 0.0, 0.0, 0.0, 0.0, 0.0, 0.0, 0.0, 0.0, 0.0, 0.0, 0.0, 0.0, 0.0, 0.0, 0.0, 0.0, 0.0, 0.0, 0.0, 0.0, 0.0, 0.0, 0.0, 0.0, 0.0, 0.0, 0.0, 0.0, 0.0, 0.0, 0.0, 0.0, 0.0, 0.0, 0.0, 0.0, 0.0, 0.0, 0.0, 0.0, 0.0, 0.0, 0.0, 0.0, 0.0, 0.0, 0.0, 0.0, 0.0, 0.0, 0.0, 0.0, 0.0, 0.0, 0.0, 0.0, 0.0, 0.0, 0.0, 0.0, 0.0, 0.0, 0.0, 0.0, 0.0, 0.0, 0.0, 0.0, 0.0, 0.0, 0.0, 0.0, 0.0, 0.0, 0.0, 0.0, 0.0, 0.0, 0.0, 0.0, 0.0, 0.0, 0.0, 0.0, 0.0, 0.0, 0.0, 0.0, 0.0, 0.0]
