0.03221016004681587 CrossValid 84.59861755371094 CrossValidLossesBy500 647.623291015625 468.60955810546875 299.5362548828125 198.9693603515625 143.75674438476562 116.68955993652344 104.3173599243164 98.30374145507812 95.04446411132812 92.99270629882812 91.68701934814453 90.69630432128906 89.95308685302734 89.43153381347656 88.97425842285156 88.5411376953125 88.23258972167969 87.9576644897461 87.67414855957031 87.3587646484375 87.19112396240234 86.9462890625 86.75251007080078 86.52080535888672 86.32170104980469 86.17627716064453 86.03966522216797 85.88504791259766 85.7296142578125 85.60813903808594 85.49535369873047 85.36397552490234 85.29261779785156 85.17669677734375 85.06535339355469 84.98534393310547 84.92076110839844 84.84254455566406 84.8249740600586 84.75599670410156 84.70686340332031 84.61151123046875 84.6085205078125 84.53945922851562 84.52925109863281 84.47103881835938 84.388427734375 84.37916564941406 84.32135009765625 84.30038452148438 84.28194427490234 84.23168182373047 84.19713592529297 84.16130065917969 84.12857818603516 84.12464141845703 84.10197448730469 84.12422180175781 84.09054565429688 84.06561279296875 84.07897186279297 84.01555633544922 84.02040100097656 84.04655456542969 84.01819610595703 84.01300811767578 84.00725555419922 84.01997375488281 84.04570770263672 84.08222961425781 84.07066345214844 84.05948638916016 84.0964126586914 84.1312255859375 84.15464782714844 84.15457153320312 84.16104125976562 84.20941162109375 84.27120208740234 84.28446960449219 84.3143310546875 84.35077667236328 84.35713195800781 84.40711212158203 84.39838409423828 84.4698257446289 84.47504425048828 84.48248291015625 84.4839096069336 84.49638366699219 84.55988311767578 84.52242279052734 84.54542541503906 84.55720520019531 84.59634399414062 84.62142181396484 84.61558532714844 84.61217498779297 84.59346771240234 84.64480590820312 84.59674835205078 84.59861755371094
51000 LossesBy500_0 0.22635860741138458 0.16451074182987213 0.10636087507009506 0.0719534382224083 0.05333873629570007 0.04445701465010643 0.040509942919015884 0.0386216975748539 0.03758442774415016 0.03690512105822563 0.036448244005441666 0.0360795296728611 0.035788580775260925 0.03556232899427414 0.03535788878798485 0.03517128527164459 0.03501785919070244 0.03487759828567505 0.03473716601729393 0.03460366651415825 0.03450901061296463 0.034388467669487 0.03428703173995018 0.034170784056186676 0.03406843543052673 0.03398449346423149 0.03390811011195183 0.03381993994116783 0.0337335504591465 0.0336592011153698 0.03358394652605057 0.033507637679576874 0.033451177179813385 0.03338317573070526 0.033314142376184464 0.033253658562898636 0.033201634883880615 0.03314264863729477 0.033106591552495956 0.03305288031697273 0.03300878033041954 0.032950714230537415 0.03292527049779892 0.032881952822208405 0.0328560508787632 0.03281579166650772 0.0327717624604702 0.03275080770254135 0.032716210931539536 0.03269437327980995 0.03267492353916168 0.03264332190155983 0.03261883556842804 0.03259586542844772 0.03257623314857483 0.03256508335471153 0.032546740025281906 0.03254542499780655 0.032520879060029984 0.03250434622168541 0.03249918669462204 0.03246743977069855 0.03245842456817627 0.03245667740702629 0.03243592381477356 0.032421987503767014 0.03240721672773361 0.03239799663424492 0.03239459916949272 0.0323924794793129 0.03237343952059746 0.03235354647040367 0.032350268214941025 0.03234463557600975 0.032335441559553146 0.03231731429696083 0.03230037912726402 0.03229765221476555 0.032299745827913284 0.032288625836372375 0.03228326886892319 0.0322803296148777 0.032265856862068176 0.03226759284734726 0.03225238248705864 0.03226489573717117 0.032256681472063065 0.03224961459636688 0.0322403647005558 0.03223460540175438 0.03224753588438034 0.03222651779651642 0.03222721815109253 0.03222522512078285 0.032233014702796936 0.03223750367760658 0.03223221376538277 0.03222709521651268 0.03221733123064041 0.0322318859398365 0.03221220150589943 0.03221016004681587
sigma2_stimulus 	 [5.088045597076416, 2.877237319946289]
log_motor_var 	 [7.415865421295166]
sigma_logit 	 [-6.41995906829834, -6.447272777557373, -7.252810478210449]
mixture_logit 	 [-4.5983805656433105]
prior 	 [1.0]
volume 	 [0.37778472900390625, 0.41352254152297974, 0.39808639883995056, 0.3514755964279175, 0.3064136207103729, 0.3630276918411255, 0.4710436165332794, 0.44462963938713074, 0.3944968283176422, 0.4505654275417328, 0.5027733445167542, 0.6234558820724487, 0.5830763578414917, 0.5415048003196716, 0.42735639214515686, 0.43918120861053467, 0.33714115619659424, 0.2186705470085144, 0.10422296077013016, -0.05333159863948822, -0.16107484698295593, -0.25190871953964233, -0.3063148558139801, -0.2990694046020508, -0.31048762798309326, -0.35939672589302063, -0.39981746673583984, -0.4247009754180908, -0.4119061529636383, -0.346359521150589, -0.28396448493003845, -0.2973566949367523, -0.30929234623908997, -0.3087882697582245, -0.3239792585372925, -0.3236739933490753, -0.2856963872909546, -0.25685155391693115, -0.2604963481426239, -0.2629910707473755, -0.2500843107700348, -0.24635371565818787, -0.2485019415616989, -0.23955774307250977, -0.15827812254428864, -0.11315473914146423, -0.13880187273025513, -0.08755211532115936, -0.004795210901647806, -0.096457339823246, -0.1086491048336029, -0.08413995057344437, -0.11584348231554031, -0.14949840307235718, -0.1354302167892456, -0.19602414965629578, -0.23557384312152863, -0.2425665557384491, -0.1936584860086441, -0.09206546097993851, -0.07429925352334976, -0.05908888950943947, 0.01598246395587921, -0.03999258205294609, -0.058953460305929184, -0.011352088302373886, 0.060549233108758926, 0.044268153607845306, 0.04612650349736214, 0.0662807747721672, 0.061851866543293, 0.02050650678575039, 0.05650177597999573, 0.11801871657371521, 0.18649600446224213, 0.2336885631084442, 0.282804399728775, 0.28829315304756165, 0.27034813165664673, 0.2937408983707428, 0.2718522846698761, 0.31026744842529297, 0.3193330764770508, 0.2531905770301819, 0.2863315939903259, 0.35911884903907776, 0.42961937189102173, 0.38247987627983093, 0.39636024832725525, 0.47375574707984924, 0.474826455116272, 0.44896426796913147, 0.44130751490592957, 0.35059571266174316, 0.27492767572402954, 0.2662140727043152, 0.24459603428840637, 0.2087022364139557, 0.1679266095161438, 0.14486102759838104, 0.12542323768138885, 0.0912451520562172, 0.093557208776474, 0.10305610299110413, 0.07292336225509644, -0.006013441365212202, -0.09376237541437149, -0.14266905188560486, -0.11596862226724625, -0.06433794647455215, -0.05185085907578468, 0.020624782890081406, 0.09947889298200607, -0.01628466509282589, -0.0642055943608284, -0.06670551002025604, -0.029362604022026062, 0.003045374061912298, -0.001466047833673656, -0.019329411908984184, -0.0367891788482666, -0.08678946644067764, -0.10229877382516861, -0.10393000394105911, -0.18370038270950317, -0.19323106110095978, -0.1837402582168579, -0.1558995097875595, -0.21904230117797852, -0.28845852613449097, -0.3074268400669098, -0.3207900822162628, -0.2726344168186188, -0.2014210820198059, -0.24290920794010162, -0.29146280884742737, -0.3068375289440155, -0.2332608848810196, -0.16874666512012482, -0.16499517858028412, -0.17199119925498962, -0.16456010937690735, -0.2096540927886963, -0.28889942169189453, -0.2956292927265167, -0.2637467682361603, -0.19557809829711914, -0.15484248101711273, -0.17902301251888275, -0.28676435351371765, -0.359746515750885, -0.3722757399082184, -0.39175763726234436, -0.40233314037323, -0.4120751619338989, -0.416709840297699, -0.3843662440776825, -0.34773531556129456, -0.3011515140533447, -0.21990421414375305, -0.1600729525089264, -0.1033240258693695, -0.03959871083498001, 0.04013243690133095, 0.10717852413654327, 0.22026875615119934, 0.1712469756603241, 0.2100358009338379, 0.17530757188796997, 0.2054641842842102, 0.209193617105484, 0.1809389740228653, 0.1973034143447876, 0.26416876912117004, 0.24038688838481903, 0.23390433192253113, 0.2504826486110687, 0.28832197189331055, 0.2859404981136322, 0.2873138189315796]
