0.031748197972774506 CrossValid 81.89785766601562 CrossValidLossesBy500 648.0781860351562 471.22802734375 302.1470642089844 201.02044677734375 145.09542846679688 117.33749389648438 104.53800964355469 97.72088623046875 94.38483428955078 92.40928649902344 90.38380432128906 89.05621337890625 88.23783111572266 87.4405746459961 86.88121795654297 86.3599853515625 85.99130249023438 85.57778930664062 85.26029968261719 84.93571472167969 84.65717315673828 84.47279357910156 84.24357604980469 84.03533172607422 83.861328125 83.69635009765625 83.54650115966797 83.36898040771484 83.27742004394531 83.18582153320312 83.03857421875 82.97124481201172 82.88619995117188 82.78276062011719 82.6932144165039 82.65555572509766 82.58536529541016 82.47927856445312 82.47488403320312 82.40909576416016 82.36991882324219 82.2829818725586 82.28247833251953 82.22230529785156 82.18049621582031 82.17916870117188 82.14773559570312 82.12322998046875 82.09658813476562 82.05287170410156 82.02751922607422 82.00421142578125 82.02195739746094 81.97823333740234 81.95703887939453 81.98918151855469 81.96212768554688 81.96438598632812 81.97433471679688 81.95559692382812 81.9443359375 81.90959167480469 81.94500732421875 81.93421936035156 81.97122192382812 81.96815490722656 81.95142364501953 81.90888977050781 81.90033721923828 81.96188354492188 81.90154266357422 81.90640258789062 81.93905639648438 81.89784240722656 81.92118072509766 81.95223999023438 81.93867492675781 81.96553039550781 81.89785766601562
39500 LossesBy500_4 0.22633954882621765 0.16534171998500824 0.1072070524096489 0.07257669419050217 0.05369272083044052 0.04456044360995293 0.04045628011226654 0.03829074278473854 0.03720841184258461 0.03653427213430405 0.03584513068199158 0.035359207540750504 0.035032276064157486 0.03471656143665314 0.03447675704956055 0.03424864262342453 0.034076448529958725 0.03389139100909233 0.033737968653440475 0.03358950838446617 0.03345940634608269 0.03334912657737732 0.03323932737112045 0.03313377872109413 0.03304106369614601 0.03294927254319191 0.03286449611186981 0.032771557569503784 0.03271038085222244 0.03265100717544556 0.03257462754845619 0.03252667933702469 0.032476719468832016 0.0324208028614521 0.03237125277519226 0.03234287351369858 0.03230230510234833 0.032250192016363144 0.03223508968949318 0.032199177891016006 0.032173458486795425 0.03213032707571983 0.03211814537644386 0.032085854560136795 0.032059893012046814 0.032047368586063385 0.03202332556247711 0.03200465440750122 0.03198469802737236 0.031961020082235336 0.031940776854753494 0.03192098066210747 0.03192339837551117 0.03189833089709282 0.03188222274184227 0.031883250921964645 0.03186822682619095 0.031862467527389526 0.031859174370765686 0.031844738870859146 0.03183438628911972 0.031815167516469955 0.031820349395275116 0.03181077539920807 0.03181857615709305 0.0318126454949379 0.03180297836661339 0.031784214079380035 0.03177666291594505 0.031793758273124695 0.031769972294569016 0.03176772594451904 0.03177598491311073 0.03175825625658035 0.031763214617967606 0.031772274523973465 0.03176587074995041 0.031773004680871964 0.031748197972774506
sigma2_stimulus 	 [4.988417148590088, 2.8185181617736816]
log_motor_var 	 [7.3926873207092285]
sigma_logit 	 [-6.4400458335876465, -6.490146160125732, -7.264892578125]
mixture_logit 	 [-4.551522254943848]
prior 	 [0.05002276599407196, 0.03297610208392143, 0.020050354301929474, 0.012819155119359493, 0.012203309684991837, 0.018435074016451836, 0.031023802235722542, 0.04880068451166153, 0.07007767260074615, 0.09292802959680557, 0.11553672701120377, 0.13634543120861053, 0.15406355261802673, 0.16763192415237427, 0.17619815468788147, 0.17933262884616852, 0.17711152136325836, 0.1702738106250763, 0.1599777638912201, 0.14756350219249725, 0.13425874710083008, 0.1208629459142685, 0.10779184848070145, 0.09509311616420746, 0.08265627920627594, 0.07033652812242508, 0.05813053995370865, 0.04620560258626938, 0.03486855328083038, 0.02445451356470585, 0.015239113010466099, 0.007328417152166367, 0.0006501334719359875, -0.005001907702535391, -0.00988325010985136, -0.014219044707715511, -0.018160531297326088, -0.02178516611456871, -0.025120601058006287, -0.02817557565867901, -0.030965952202677727, -0.033521320670843124, -0.03589397296309471, -0.038186583667993546, -0.04058174416422844, -0.043351005762815475, -0.046875547617673874, -0.05150775983929634, -0.057459257543087006, -0.06466440111398697, -0.07270653545856476, -0.08090571314096451, -0.0885014683008194, -0.09484777599573135, -0.09957616031169891, -0.10269109159708023, -0.10446128249168396, -0.10533927381038666, -0.10581722855567932, -0.10631978511810303, -0.10721172392368317, -0.10872548818588257, -0.11095493286848068, -0.1138419657945633, -0.11709275096654892, -0.12016031891107559, -0.1223122775554657, -0.12281633913516998, -0.12115783989429474, -0.11721204221248627, -0.11127246171236038, -0.10401129722595215, -0.09617265313863754, -0.08845986425876617, -0.0814509317278862, -0.07570121437311172, -0.07177800685167313, -0.07020437717437744, -0.0712115690112114, -0.07453633099794388, -0.07946769148111343, -0.08506651222705841, -0.09050112962722778, -0.0951915830373764, -0.09879105538129807, -0.10100042819976807, -0.10150047391653061, -0.10006140917539597, -0.09670549631118774, -0.09192205220460892, -0.08658365905284882, -0.08182200789451599, -0.0786900445818901, -0.07785869389772415, -0.07944422215223312, -0.08300940692424774, -0.08778054267168045, -0.09287454187870026, -0.09746494889259338, -0.10083591192960739, -0.10226460546255112, -0.10107989609241486, -0.09671282023191452, -0.08895687758922577, -0.07810275256633759, -0.06498131155967712, -0.05084776505827904, -0.03710072860121727, -0.02507520653307438, -0.01588483713567257, -0.010349863208830357, -0.00893538910895586, -0.011638481169939041, -0.017881382256746292, -0.026489943265914917, -0.03584696725010872, -0.044178105890750885, -0.04994107037782669, -0.05213638022542, -0.05049007013440132, -0.045402877032756805, -0.037809859961271286, -0.02884271927177906, -0.019617732614278793, -0.011008180677890778, -0.003563458798453212, 0.0025010784156620502, 0.007253807969391346, 0.01097033265978098, 0.014037826098501682, 0.01685623824596405, 0.019755888730287552, 0.022937117144465446, 0.026460295543074608, 0.03026837855577469, 0.03421875089406967, 0.03814329206943512, 0.04183918237686157, 0.04512150213122368, 0.04783212020993233, 0.04987993836402893, 0.051291272044181824, 0.0522216334939003, 0.052974600344896317, 0.05391458049416542, 0.05539574474096298, 0.05765542760491371, 0.060735173523426056, 0.06445581465959549, 0.06843072921037674, 0.07220017910003662, 0.07532251626253128, 0.07749581336975098, 0.07863997668027878, 0.07886037975549698, 0.0783892348408699, 0.07751182466745377, 0.07647735625505447, 0.07548458874225616, 0.07468117773532867, 0.07427580654621124, 0.07455682009458542, 0.0758887454867363, 0.0786154568195343, 0.08285543322563171, 0.0884019061923027, 0.0946873351931572, 0.10098504275083542, 0.10666157305240631, 0.11144864559173584, 0.11544851213693619, 0.11897032707929611, 0.12211336195468903, 0.12448053807020187, 0.1250552088022232, 0.12247811257839203, 0.11555548012256622, 0.10378191620111465, 0.08776041120290756, 0.06909157335758209]
volume 	 [0.23566368222236633, 0.27373698353767395, 0.25770455598831177, 0.2036266326904297, 0.15793316066265106, 0.26939865946769714, 0.3216841518878937, 0.27493229508399963, 0.26838305592536926, 0.29985541105270386, 0.39182063937187195, 0.39097923040390015, 0.34178784489631653, 0.32208365201950073, 0.23978742957115173, 0.25770899653434753, 0.236733540892601, 0.19211754202842712, 0.11859775334596634, 0.02360512688755989, -0.08237584680318832, -0.1490558534860611, -0.21053791046142578, -0.21496033668518066, -0.22322578728199005, -0.27201467752456665, -0.3207264244556427, -0.3570977747440338, -0.35838213562965393, -0.3081885278224945, -0.25997301936149597, -0.2737250030040741, -0.29140472412109375, -0.2922302782535553, -0.2905389964580536, -0.28056779503822327, -0.24684467911720276, -0.21009884774684906, -0.21052005887031555, -0.20676279067993164, -0.19572202861309052, -0.16909217834472656, -0.1727726310491562, -0.17272640764713287, -0.13370206952095032, -0.05830714851617813, -0.07484446465969086, -0.07799842953681946, -0.01691947504878044, -0.023963430896401405, -0.08261702209711075, -0.0589810349047184, -0.04543610289692879, -0.08115921914577484, -0.10087699443101883, -0.1012231782078743, -0.1551174372434616, -0.1979457587003708, -0.17564159631729126, -0.09709537029266357, -0.0250433050096035, -0.024405887350440025, 0.03843958303332329, 0.05888845771551132, -0.008682097308337688, 0.010671502910554409, 0.10108949989080429, 0.10315433144569397, 0.08660227060317993, 0.10935927927494049, 0.1242619976401329, 0.08312118053436279, 0.08904518932104111, 0.1636084020137787, 0.22084292769432068, 0.24949540197849274, 0.2622579038143158, 0.28024524450302124, 0.26065874099731445, 0.2822653353214264, 0.2501606345176697, 0.2924494743347168, 0.30486002564430237, 0.24454425275325775, 0.27531901001930237, 0.35386285185813904, 0.39688682556152344, 0.32523900270462036, 0.3449621796607971, 0.3976564407348633, 0.3803955912590027, 0.37711888551712036, 0.39850160479545593, 0.3204454481601715, 0.27458348870277405, 0.30630773305892944, 0.2868102788925171, 0.25101420283317566, 0.2253924161195755, 0.1839873492717743, 0.11694411933422089, 0.10397352278232574, 0.11792014539241791, 0.12516213953495026, 0.036796148866415024, -0.014547296799719334, -0.060782622545957565, -0.06765076518058777, -0.048172738403081894, -0.0313703715801239, 0.04186171665787697, 0.08011180907487869, -0.0033136093989014626, -0.0346817672252655, -0.048782456666231155, -0.05642794817686081, -0.0521937794983387, -0.05066559463739395, -0.025726981461048126, -0.031815286725759506, -0.07313308864831924, -0.09630154818296432, -0.1063002347946167, -0.12552210688591003, -0.1555347591638565, -0.14588472247123718, -0.1539691984653473, -0.13874244689941406, -0.21419912576675415, -0.24481220543384552, -0.26960647106170654, -0.2582760751247406, -0.1896335482597351, -0.16841615736484528, -0.22783295810222626, -0.2638368308544159, -0.24271517992019653, -0.17291109263896942, -0.15623097121715546, -0.18260109424591064, -0.18518343567848206, -0.19493567943572998, -0.24098223447799683, -0.32106882333755493, -0.3390534818172455, -0.3110356628894806, -0.258868932723999, -0.1996297687292099, -0.17957641184329987, -0.2066318243741989, -0.2868102490901947, -0.31386440992355347, -0.30192118883132935, -0.2953413724899292, -0.29171231389045715, -0.306253582239151, -0.287287175655365, -0.25509223341941833, -0.22115156054496765, -0.14039790630340576, -0.10151564329862595, -0.055167123675346375, 0.017860567197203636, 0.07203895598649979, 0.11459020525217056, 0.18416999280452728, 0.14438791573047638, 0.18096959590911865, 0.11149901151657104, 0.1277279406785965, 0.11507900804281235, 0.07387670129537582, 0.08534679561853409, 0.14417721331119537, 0.11472280323505402, 0.10878796875476837, 0.15891149640083313, 0.16262848675251007, 0.20831826329231262, 0.17513878643512726]
