0.030416278168559074 CrossValid 111.82228088378906 CrossValidLossesBy500 648.85888671875 475.371826171875 312.0345458984375 216.54002380371094 166.3379364013672 143.4430694580078 134.00840759277344 129.69534301757812 127.53633117675781 126.09996795654297 124.77812957763672 124.05531311035156 123.1658706665039 122.55130004882812 122.05876159667969 121.56719970703125 120.9943618774414 120.31110382080078 119.873779296875 119.38973999023438 119.01275634765625 118.58935546875 118.26109313964844 117.95306396484375 117.62804412841797 117.28741455078125 117.01155090332031 116.71910858154297 116.44923400878906 116.2527084350586 116.01131439208984 115.80204772949219 115.59357452392578 115.4166259765625 115.19690704345703 115.02381134033203 114.81977844238281 114.67506408691406 114.52470397949219 114.35582733154297 114.22463989257812 114.03181457519531 113.94718933105469 113.819091796875 113.71690368652344 113.58021545410156 113.47761535644531 113.36003112792969 113.29547119140625 113.19963073730469 113.11314392089844 113.04112243652344 112.9754409790039 112.90764617919922 112.81719207763672 112.76082611083984 112.71916198730469 112.6471176147461 112.63294219970703 112.56607055664062 112.53379821777344 112.46528625488281 112.44468688964844 112.40428924560547 112.36798095703125 112.3351821899414 112.30685424804688 112.28948974609375 112.24507141113281 112.20536804199219 112.18309020996094 112.13790130615234 112.09678649902344 112.08988952636719 112.06938934326172 112.03739929199219 112.00469207763672 112.04339599609375 112.00347900390625 111.9727554321289 111.98429870605469 111.92797088623047 111.98336791992188 111.93228912353516 111.93482971191406 111.92431640625 111.91698455810547 111.93091583251953 111.89891052246094 111.91201782226562 111.89968872070312 111.90161895751953 111.89755249023438 111.86375427246094 111.89653015136719 111.86837768554688 111.87986755371094 111.85169982910156 111.88824462890625 111.84561157226562 111.86038208007812 111.84932708740234 111.84538269042969 111.8763198852539 111.88240814208984 111.8688735961914 111.84278106689453 111.84707641601562 111.82231903076172 111.82228088378906
55000 LossesBy500_0 0.2260524481534958 0.16452185809612274 0.10612029582262039 0.07142149657011032 0.052527155727148056 0.0433710552752018 0.03926680609583855 0.03723859786987305 0.036148834973573685 0.03542342409491539 0.03481576219201088 0.034455668181180954 0.03408387303352356 0.033818259835243225 0.03361785411834717 0.03342794254422188 0.03322989121079445 0.033012788742780685 0.03286862000823021 0.03271270915865898 0.03259403631091118 0.032460909336805344 0.03235435485839844 0.03226112201809883 0.03215956687927246 0.0320550873875618 0.03197493776679039 0.03188721463084221 0.0318082720041275 0.03174852579832077 0.0316765122115612 0.0316162072122097 0.03155655413866043 0.03150606527924538 0.03143788129091263 0.03138832747936249 0.031330060213804245 0.03128984570503235 0.031249798834323883 0.031200900673866272 0.031167544424533844 0.03111202083528042 0.031091125681996346 0.031053781509399414 0.031028607860207558 0.03098929114639759 0.030961504206061363 0.03092837706208229 0.030912678688764572 0.030886735767126083 0.03086242265999317 0.03084397315979004 0.030826004222035408 0.03080775775015354 0.030777135863900185 0.030760319903492928 0.030749492347240448 0.030728155747056007 0.03072436898946762 0.03070402704179287 0.030695104971528053 0.030672810971736908 0.030668454244732857 0.030654506757855415 0.030643027275800705 0.03063182719051838 0.030623197555541992 0.03061622940003872 0.030600177124142647 0.03058580681681633 0.03057466261088848 0.030558308586478233 0.030543142929673195 0.030538368970155716 0.030531002208590508 0.030517449602484703 0.030506527051329613 0.030516784638166428 0.030501432716846466 0.030488204210996628 0.030492572113871574 0.03047080896794796 0.030488502234220505 0.03046918287873268 0.030468331649899483 0.03046370856463909 0.030459264293313026 0.03046349063515663 0.030451884493231773 0.03045518696308136 0.030449435114860535 0.030449464917182922 0.030448080971837044 0.030435385182499886 0.03044663928449154 0.03043556585907936 0.03043951280415058 0.030429000034928322 0.03044133447110653 0.030425971373915672 0.030431028455495834 0.030426159501075745 0.030425071716308594 0.030435582622885704 0.03043767437338829 0.030432816594839096 0.03042338229715824 0.030425021424889565 0.030416395515203476 0.030416278168559074
sigma2_stimulus 	 [5.015342712402344, 2.8409347534179688]
log_motor_var 	 [7.456376075744629]
sigma_logit 	 [-6.445883274078369, -6.4860405921936035, -7.233443737030029]
mixture_logit 	 [-4.744772434234619]
prior 	 [0.10373082011938095, 0.09361670166254044, 0.08621799200773239, 0.08270298689603806, 0.08341597020626068, 0.08788814395666122, 0.0953378975391388, 0.105094775557518, 0.11708284914493561, 0.1316128820180893, 0.14869527518749237, 0.1673923134803772, 0.18534912168979645, 0.19937200844287872, 0.2066071331501007, 0.2055869698524475, 0.19675153493881226, 0.18229363858699799, 0.16504725813865662, 0.1477828472852707, 0.13261039555072784, 0.12066732347011566, 0.11228601634502411, 0.10713186115026474, 0.10445985943078995, 0.10324365645647049, 0.10237543284893036, 0.10087968409061432, 0.09797676652669907, 0.09318405389785767, 0.08633200079202652, 0.07760652899742126, 0.06747356057167053, 0.05660870671272278, 0.04574533924460411, 0.03556852415204048, 0.026585768908262253, 0.01908925175666809, 0.01313863880932331, 0.008557640947401524, 0.004943304229527712, 0.0016853222623467445, -0.001991226337850094, -0.006921357475221157, -0.013851655647158623, -0.023267501965165138, -0.03524874523282051, -0.049429066479206085, -0.06504388898611069, -0.08106231689453125, -0.09638140350580215, -0.11003351211547852, -0.1212167739868164, -0.12953069806098938, -0.13493254780769348, -0.1377381980419159, -0.13859878480434418, -0.13845311105251312, -0.13824355602264404, -0.13891325891017914, -0.14108648896217346, -0.14474822580814362, -0.14955703914165497, -0.15480752289295197, -0.15964935719966888, -0.16361461579799652, -0.16639618575572968, -0.1679118573665619, -0.1680036336183548, -0.16630631685256958, -0.16215457022190094, -0.15501056611537933, -0.14469322562217712, -0.13180427253246307, -0.11789143830537796, -0.10496249049901962, -0.09518442302942276, -0.09023886919021606, -0.09097510576248169, -0.09735136479139328, -0.10846564173698425, -0.12270141392946243, -0.13791602849960327, -0.15159378945827484, -0.16144169867038727, -0.1656675487756729, -0.16363470256328583, -0.15603624284267426, -0.14494577050209045, -0.13344556093215942, -0.12456430494785309, -0.12056001275777817, -0.12196186929941177, -0.12756425142288208, -0.13496749103069305, -0.14155855774879456, -0.14547307789325714, -0.14562448859214783, -0.1422511786222458, -0.13614802062511444, -0.1286667436361313, -0.12125355750322342, -0.11507689952850342, -0.11076097935438156, -0.1083657294511795, -0.1074386015534401, -0.10710442811250687, -0.10642363876104355, -0.10449932515621185, -0.10061640292406082, -0.09434164315462112, -0.08553586155176163, -0.07447241246700287, -0.06189807504415512, -0.04889337345957756, -0.03677486628293991, -0.026775788515806198, -0.019680239260196686, -0.015601594932377338, -0.013968008570373058, -0.013733153231441975, -0.01374637521803379, -0.013131833635270596, -0.011509883217513561, -0.008994431234896183, -0.0060021053068339825, -0.0029399232007563114, 6.238579953787848e-05, 0.0033027133904397488, 0.007468440569937229, 0.01344070304185152, 0.02202366478741169, 0.033702701330184937, 0.04851631447672844, 0.06601477414369583, 0.08543587476015091, 0.10589850693941116, 0.1265239119529724, 0.1464824378490448, 0.16514378786087036, 0.18175484240055084, 0.19532757997512817, 0.2046012580394745, 0.20805515348911285, 0.20412637293338776, 0.19185514748096466, 0.17122119665145874, 0.14346185326576233, 0.11101128160953522, 0.07706430554389954, 0.04497342184185982, 0.01752447336912155, -0.003476836020126939, -0.017342519015073776, -0.024378996342420578, -0.02561156079173088, -0.022395825013518333, -0.016096891835331917, -0.007850135676562786, 0.0015466241165995598, 0.01161106862127781, 0.022076625376939774, 0.03277601674199104, 0.043627601116895676, 0.05462152510881424, 0.06589210778474808, 0.07772260904312134, 0.09025954455137253, 0.10349155217409134, 0.11689985543489456, 0.1295238435268402, 0.1401580274105072, 0.14770562946796417, 0.15165649354457855, 0.15195155143737793, 0.14899347722530365, 0.14342151582241058, 0.13561558723449707, 0.1259378045797348, 0.11497508734464645]
volume 	 [0.27236080169677734, 0.28873229026794434, 0.23849982023239136, 0.22405864298343658, 0.17144055664539337, 0.19821994006633759, 0.30721670389175415, 0.302387535572052, 0.26388320326805115, 0.30580824613571167, 0.3470960855484009, 0.5326796174049377, 0.49468275904655457, 0.4361697733402252, 0.38697636127471924, 0.36614641547203064, 0.33002129197120667, 0.28908488154411316, 0.19007715582847595, 0.09332296997308731, -0.0179115179926157, -0.1003592312335968, -0.17861837148666382, -0.18486660718917847, -0.2248333990573883, -0.30392253398895264, -0.3423927128314972, -0.34684446454048157, -0.3255836069583893, -0.25986939668655396, -0.21125923097133636, -0.2378079742193222, -0.2666492462158203, -0.2887873947620392, -0.2988129258155823, -0.29098501801490784, -0.2680823504924774, -0.2341790795326233, -0.2451798915863037, -0.2552918791770935, -0.23434850573539734, -0.20203280448913574, -0.19329839944839478, -0.17867223918437958, -0.14741036295890808, -0.09907224774360657, -0.10793531686067581, -0.08725779503583908, -0.021930856630206108, -0.03964880853891373, -0.10058555752038956, -0.042199719697237015, -0.08868452906608582, -0.10743129253387451, -0.11553530395030975, -0.13015682995319366, -0.2062465399503708, -0.25036343932151794, -0.24025118350982666, -0.14626286923885345, -0.06895413249731064, -0.0756589025259018, -0.0008529912447556853, 0.00474541075527668, -0.0902298241853714, -0.09756085276603699, -0.02043546549975872, 0.020592639222741127, 0.048616014420986176, 0.08884263038635254, 0.11123688519001007, 0.11144538968801498, 0.10075971484184265, 0.14675694704055786, 0.215528205037117, 0.2794176936149597, 0.2817610502243042, 0.310956209897995, 0.2500240206718445, 0.25893718004226685, 0.2335255742073059, 0.251407265663147, 0.29391172528266907, 0.26158982515335083, 0.26631802320480347, 0.3477989733219147, 0.39485588669776917, 0.3945697247982025, 0.4103446900844574, 0.49739977717399597, 0.49512627720832825, 0.4642297625541687, 0.5028001666069031, 0.39370784163475037, 0.36322611570358276, 0.4118014872074127, 0.39965519309043884, 0.29160788655281067, 0.2352229505777359, 0.17600558698177338, 0.11655580997467041, 0.0886453315615654, 0.0967266708612442, 0.09514753520488739, 0.015084726735949516, -0.04177504777908325, -0.08003012835979462, -0.054821450263261795, 0.0020664401818066835, 0.00419584522023797, 0.03034832701086998, 0.07579411566257477, -0.001103321323171258, -0.028201082721352577, -0.05759946256875992, -0.06720979511737823, -0.05363274738192558, -0.03158089891076088, -0.04780041426420212, -0.10827197879552841, -0.14404745399951935, -0.1137913167476654, -0.0904790610074997, -0.11368966102600098, -0.15909257531166077, -0.1287480890750885, -0.14405956864356995, -0.12123796343803406, -0.18732663989067078, -0.21407964825630188, -0.23814049363136292, -0.2567306458950043, -0.21892297267913818, -0.2392895668745041, -0.2642268240451813, -0.2560290992259979, -0.2509516179561615, -0.19880379736423492, -0.18655747175216675, -0.208965465426445, -0.21311794221401215, -0.22396515309810638, -0.27705666422843933, -0.36051395535469055, -0.3820386230945587, -0.3412029445171356, -0.25042837858200073, -0.14820103347301483, -0.12982957065105438, -0.17960138618946075, -0.27326712012290955, -0.3173203468322754, -0.3317025899887085, -0.32923653721809387, -0.33648619055747986, -0.3504583239555359, -0.32308429479599, -0.27533242106437683, -0.20211564004421234, -0.11605821549892426, -0.07747259736061096, -0.015861161053180695, 0.03360738605260849, 0.05557344853878021, 0.12496060878038406, 0.09450405836105347, 0.062375396490097046, 0.08680354058742523, 0.0677756667137146, 0.13760709762573242, 0.10008279979228973, 0.06970042735338211, 0.10517940670251846, 0.10544709861278534, 0.09404013305902481, 0.11498019099235535, 0.1301763504743576, 0.12305236607789993, 0.16911232471466064, 0.18384170532226562]
