0.0344056636095047 CrossValid 119.30846405029297 CrossValidLossesBy500 650.130859375 476.753173828125 312.12518310546875 214.2178955078125 161.5911865234375 137.54412841796875 127.74689483642578 123.90299224853516 122.296630859375 121.55259704589844 121.22666931152344 121.08883666992188 121.07527160644531 121.0573501586914 121.08441925048828 121.12157440185547 121.15606689453125 121.16693115234375 121.19535064697266 121.17562866210938 121.15847778320312 121.140380859375 121.15473937988281 121.13760375976562 121.1154556274414 121.05030822753906 121.0737533569336 121.01610565185547 120.98018646240234 120.98406982421875 120.9715576171875 120.90127563476562 120.89812469482422 120.87782287597656 120.80609130859375 120.8262939453125 120.76824188232422 120.74775695800781 120.6908187866211 120.6773681640625 120.67564392089844 120.6220932006836 120.59278869628906 120.56611633300781 120.52598571777344 120.51185607910156 120.48844909667969 120.45117950439453 120.44271850585938 120.41439819335938 120.34397888183594 120.32939910888672 120.28719329833984 120.27677917480469 120.23591613769531 120.23050689697266 120.20455932617188 120.17143249511719 120.13287353515625 120.11060333251953 120.09452819824219 120.04340362548828 120.01943969726562 120.01236724853516 119.94921875 119.92799377441406 119.90918731689453 119.89730834960938 119.8659439086914 119.83738708496094 119.78396606445312 119.77886962890625 119.74996185302734 119.69495391845703 119.71114349365234 119.66322326660156 119.64593505859375 119.64108276367188 119.62092590332031 119.57730102539062 119.54383850097656 119.55996704101562 119.54341888427734 119.53054809570312 119.4783706665039 119.50289916992188 119.46810150146484 119.45390319824219 119.43328857421875 119.42390441894531 119.42863464355469 119.41765594482422 119.3960189819336 119.39344024658203 119.40583801269531 119.38948059082031 119.37315368652344 119.37991333007812 119.38307189941406 119.36827087402344 119.3578872680664 119.30846405029297
51000 LossesBy500_0 0.22640357911586761 0.16496185958385468 0.1064913421869278 0.07185035943984985 0.05303353816270828 0.04408041387796402 0.04010837897658348 0.03828712925314903 0.03733104467391968 0.0367540568113327 0.03638511896133423 0.03613622859120369 0.0359712615609169 0.03583740442991257 0.0357435941696167 0.035673655569553375 0.035617876797914505 0.035566505044698715 0.03553006052970886 0.03548366203904152 0.0354454331099987 0.03541034460067749 0.03539092838764191 0.035363368690013885 0.035335954278707504 0.03529546409845352 0.03528813645243645 0.035253796726465225 0.03522813320159912 0.035216957330703735 0.035201892256736755 0.035167135298252106 0.03515611216425896 0.03514045476913452 0.035106759518384933 0.035105012357234955 0.03507727012038231 0.03506215661764145 0.03503536060452461 0.03502390906214714 0.035017214715480804 0.03499218448996544 0.034976858645677567 0.03496136888861656 0.03494241461157799 0.034932639449834824 0.034919507801532745 0.034902311861515045 0.03489493951201439 0.034880850464105606 0.03485258296132088 0.03484256565570831 0.03482494130730629 0.03481735661625862 0.03479986637830734 0.03479458764195442 0.03478237986564636 0.03476778045296669 0.03475085273385048 0.034740522503852844 0.03473192825913429 0.034711699932813644 0.0347004272043705 0.03469538316130638 0.034670788794755936 0.03466106206178665 0.034652914851903915 0.03464611992239952 0.03463318198919296 0.034621041268110275 0.03460048511624336 0.03459727391600609 0.03458517789840698 0.034563496708869934 0.034567903727293015 0.034549638628959656 0.03454260900616646 0.03453877195715904 0.03453030809760094 0.034513723105192184 0.034500978887081146 0.034504860639572144 0.03449804708361626 0.034493908286094666 0.034475263208150864 0.034483958035707474 0.034469932317733765 0.03446308150887489 0.03445501625537872 0.034451909363269806 0.0344533808529377 0.03444886580109596 0.03443993628025055 0.03443865105509758 0.034442223608493805 0.03443553298711777 0.03442972153425217 0.03443185240030289 0.03443261981010437 0.03442681208252907 0.0344231016933918 0.0344056636095047
sigma2_stimulus 	 [4.2271409034729, 2.7673532962799072]
log_motor_var 	 [7.320902347564697]
sigma_logit 	 [-6.368273735046387, -6.4849534034729, -7.45582914352417]
mixture_logit 	 [-4.662517070770264]
prior 	 [-0.16951455175876617, -0.18888840079307556, -0.20087695121765137, -0.20383793115615845, -0.19680537283420563, -0.17947562038898468, -0.15253596007823944, -0.11754760146141052, -0.0767933577299118, -0.03305298835039139, 0.010857761837542057, 0.05246151611208916, 0.08992544561624527, 0.12213249504566193, 0.14855536818504333, 0.16920074820518494, 0.184200718998909, 0.1939539760351181, 0.19896939396858215, 0.19980861246585846, 0.19728925824165344, 0.192252978682518, 0.18557320535182953, 0.1780461072921753, 0.17032282054424286, 0.16281461715698242, 0.15566155314445496, 0.14895440638065338, 0.1425328105688095, 0.13634248077869415, 0.1302572637796402, 0.12438642978668213, 0.11886929720640182, 0.11409766227006912, 0.1106506884098053, 0.10918954014778137, 0.11036752164363861, 0.11455046385526657, 0.12166862934827805, 0.13110467791557312, 0.14168645441532135, 0.15202347934246063, 0.1605217307806015, 0.16579893231391907, 0.16667285561561584, 0.162373885512352, 0.15244601666927338, 0.1369745135307312, 0.11653856933116913, 0.09236045926809311, 0.06614004075527191, 0.03976644575595856, 0.014972700737416744, -0.00700722262263298, -0.025609556585550308, -0.04092671722173691, -0.05354278162121773, -0.06435342133045197, -0.07436651736497879, -0.08454687148332596, -0.09586072713136673, -0.10897461324930191, -0.12420996278524399, -0.14132359623908997, -0.15937140583992004, -0.17703990638256073, -0.19276827573776245, -0.20536425709724426, -0.2142964005470276, -0.21987372636795044, -0.22309118509292603, -0.22532744705677032, -0.22778154909610748, -0.2311747968196869, -0.23562408983707428, -0.24070990085601807, -0.24569261074066162, -0.24988892674446106, -0.25277572870254517, -0.25411853194236755, -0.2539169192314148, -0.2525731027126312, -0.2504951059818268, -0.24829338490962982, -0.2465372085571289, -0.24557536840438843, -0.24539688229560852, -0.24556133151054382, -0.24534070491790771, -0.2439187914133072, -0.24071209132671356, -0.23562873899936676, -0.22916322946548462, -0.22236692905426025, -0.21658162772655487, -0.21305236220359802, -0.2125733643770218, -0.2150837779045105, -0.21976101398468018, -0.2249860167503357, -0.22866573929786682, -0.2286853939294815, -0.22330453991889954, -0.21145103871822357, -0.1930030882358551, -0.16875682771205902, -0.14036604762077332, -0.10991960018873215, -0.07981407642364502, -0.05234236270189285, -0.02944839373230934, -0.012604366056621075, -0.00256955623626709, 0.0007787974900566041, -0.0014700611354783177, -0.007368667051196098, -0.01445847749710083, -0.020274750888347626, -0.022830750793218613, -0.020963992923498154, -0.014437830075621605, -0.0038352396804839373, 0.00965522788465023, 0.024519018828868866, 0.03919161111116409, 0.05231689289212227, 0.06300514191389084, 0.07104137539863586, 0.07693146914243698, 0.08182960003614426, 0.08719255775213242, 0.09437668323516846, 0.10428062081336975, 0.11708786338567734, 0.13230611383914948, 0.14895902574062347, 0.16599121689796448, 0.18243126571178436, 0.19767433404922485, 0.21137772500514984, 0.22323183715343475, 0.2329064905643463, 0.23980391025543213, 0.24328789114952087, 0.24276649951934814, 0.23784790933132172, 0.22863104939460754, 0.2157171070575714, 0.20022130012512207, 0.18366114795207977, 0.16777461767196655, 0.15427367389202118, 0.14456124603748322, 0.139468252658844, 0.13911274075508118, 0.14278072118759155, 0.14914140105247498, 0.15659035742282867, 0.16342104971408844, 0.16825632750988007, 0.1702667623758316, 0.1691029965877533, 0.16484828293323517, 0.15769566595554352, 0.14789831638336182, 0.13561727106571198, 0.12107229232788086, 0.10467352718114853, 0.08706334233283997, 0.06903223693370819, 0.05133034661412239, 0.034314025193452835, 0.017757561057806015, 0.0008463065023534, -0.01757631078362465, -0.03855875879526138, -0.0625886544585228, -0.08928323537111282, -0.11738015711307526, -0.14489807188510895]
volume 	 [0.0, 0.0, 0.0, 0.0, 0.0, 0.0, 0.0, 0.0, 0.0, 0.0, 0.0, 0.0, 0.0, 0.0, 0.0, 0.0, 0.0, 0.0, 0.0, 0.0, 0.0, 0.0, 0.0, 0.0, 0.0, 0.0, 0.0, 0.0, 0.0, 0.0, 0.0, 0.0, 0.0, 0.0, 0.0, 0.0, 0.0, 0.0, 0.0, 0.0, 0.0, 0.0, 0.0, 0.0, 0.0, 0.0, 0.0, 0.0, 0.0, 0.0, 0.0, 0.0, 0.0, 0.0, 0.0, 0.0, 0.0, 0.0, 0.0, 0.0, 0.0, 0.0, 0.0, 0.0, 0.0, 0.0, 0.0, 0.0, 0.0, 0.0, 0.0, 0.0, 0.0, 0.0, 0.0, 0.0, 0.0, 0.0, 0.0, 0.0, 0.0, 0.0, 0.0, 0.0, 0.0, 0.0, 0.0, 0.0, 0.0, 0.0, 0.0, 0.0, 0.0, 0.0, 0.0, 0.0, 0.0, 0.0, 0.0, 0.0, 0.0, 0.0, 0.0, 0.0, 0.0, 0.0, 0.0, 0.0, 0.0, 0.0, 0.0, 0.0, 0.0, 0.0, 0.0, 0.0, 0.0, 0.0, 0.0, 0.0, 0.0, 0.0, 0.0, 0.0, 0.0, 0.0, 0.0, 0.0, 0.0, 0.0, 0.0, 0.0, 0.0, 0.0, 0.0, 0.0, 0.0, 0.0, 0.0, 0.0, 0.0, 0.0, 0.0, 0.0, 0.0, 0.0, 0.0, 0.0, 0.0, 0.0, 0.0, 0.0, 0.0, 0.0, 0.0, 0.0, 0.0, 0.0, 0.0, 0.0, 0.0, 0.0, 0.0, 0.0, 0.0, 0.0, 0.0, 0.0, 0.0, 0.0, 0.0, 0.0, 0.0, 0.0, 0.0, 0.0, 0.0, 0.0, 0.0, 0.0]
