0.03033163771033287 CrossValid 127.1410140991211 CrossValidLossesBy500 679.5620727539062 496.0406188964844 322.9922180175781 221.61175537109375 167.29742431640625 142.26820373535156 131.78822326660156 127.37568664550781 125.28060150146484 124.1710205078125 123.50093078613281 123.14202880859375 122.92719268798828 122.79327392578125 122.73983764648438 122.7081527709961 122.68598175048828 122.70769500732422 122.78275299072266 122.84453582763672 122.82523345947266 122.87479400634766 123.009765625 123.06935119628906 123.174560546875 123.24901580810547 123.37688446044922 123.48609924316406 123.6231460571289 123.73009490966797 123.8683853149414 124.00321197509766 124.12562561035156 124.2756576538086 124.39307403564453 124.54528045654297 124.66555786132812 124.79468536376953 124.92378234863281 125.03076934814453 125.15611267089844 125.26720428466797 125.3633041381836 125.54877471923828 125.59171295166016 125.68425750732422 125.76956939697266 125.8268814086914 125.91841125488281 126.02727508544922 126.0838623046875 126.16850280761719 126.25146484375 126.29989624023438 126.39794921875 126.44922637939453 126.5124740600586 126.59365844726562 126.65312957763672 126.70259857177734 126.8156967163086 126.81752014160156 126.86309814453125 126.88461303710938 126.98077392578125 127.0272216796875 127.01558685302734 127.07292175292969 127.12379455566406 127.11373901367188 127.1410140991211
35500 LossesBy500_0 0.22525319457054138 0.16399265825748444 0.10583046078681946 0.0712408497929573 0.05228632315993309 0.04314437136054039 0.038965605199337006 0.03692532703280449 0.035748519003391266 0.034970883280038834 0.03439357131719589 0.03396337106823921 0.033611346036195755 0.0333128497004509 0.03306306153535843 0.03283742815256119 0.03263171389698982 0.03245501220226288 0.03230314329266548 0.032158013433218 0.031996842473745346 0.0318639799952507 0.03176521137356758 0.031646788120269775 0.03154772147536278 0.03144380822777748 0.03136168047785759 0.03127763792872429 0.031206462532281876 0.031129058450460434 0.031066330149769783 0.03100636415183544 0.03094610944390297 0.030899329110980034 0.03084682859480381 0.030809486284852028 0.030766425654292107 0.030730051919817924 0.03069695085287094 0.030661355704069138 0.030635066330432892 0.030613411217927933 0.030583569779992104 0.03058652952313423 0.030554959550499916 0.030541108921170235 0.03052731789648533 0.030505171045660973 0.03049537166953087 0.03049309179186821 0.030473295599222183 0.03046509437263012 0.030457129701972008 0.03043908067047596 0.030438605695962906 0.03042205609381199 0.0304113756865263 0.030407259240746498 0.03039662539958954 0.030382966622710228 0.030392156913876534 0.030370594933629036 0.030362607911229134 0.030347825959324837 0.0303588155657053 0.030358092859387398 0.030337639153003693 0.03034079447388649 0.030345642939209938 0.030332840979099274 0.03033163771033287
sigma2_stimulus 	 [5.09002685546875, 2.8242080211639404]
log_motor_var 	 [7.3934149742126465]
sigma_logit 	 [-6.444377422332764, -6.502864837646484, -7.251265048980713]
mixture_logit 	 [-4.628355503082275]
prior 	 [1.0]
volume 	 [0.2680759131908417, 0.26138266921043396, 0.22179704904556274, 0.15770184993743896, 0.1386452615261078, 0.24680142104625702, 0.2910420596599579, 0.29422077536582947, 0.30804768204689026, 0.2691585123538971, 0.33736494183540344, 0.3384080231189728, 0.26299214363098145, 0.21684770286083221, 0.19460920989513397, 0.21958419680595398, 0.2172619104385376, 0.2063097208738327, 0.14825674891471863, 0.052373819053173065, -0.03635571151971817, -0.09132210910320282, -0.12995173037052155, -0.1356033980846405, -0.2015584409236908, -0.2767101228237152, -0.32699859142303467, -0.3468177020549774, -0.3114617168903351, -0.2723148763179779, -0.285013347864151, -0.29677391052246094, -0.29460206627845764, -0.2942291498184204, -0.2935439944267273, -0.2923319637775421, -0.2932124435901642, -0.30230334401130676, -0.2922862768173218, -0.26340973377227783, -0.22461949288845062, -0.2019817978143692, -0.21201226115226746, -0.21363358199596405, -0.16234014928340912, -0.09500639140605927, -0.11087857931852341, -0.08812642842531204, -0.0590735487639904, -0.05839923024177551, -0.10851452499628067, -0.08756578713655472, -0.03605518490076065, -0.08576437830924988, -0.09734881669282913, -0.07142986357212067, -0.11824741959571838, -0.1650501787662506, -0.14467111229896545, -0.06968013942241669, 0.030322419479489326, 0.04040096700191498, 0.11210256069898605, 0.09885340929031372, 0.019196979701519012, 0.05168749392032623, 0.14119552075862885, 0.11579984426498413, 0.09876013547182083, 0.09058772772550583, 0.09927791357040405, 0.09467160701751709, 0.14480169117450714, 0.21818584203720093, 0.2394353449344635, 0.24683649837970734, 0.2612810730934143, 0.2718893587589264, 0.2544751763343811, 0.2945842146873474, 0.288379967212677, 0.31881430745124817, 0.34810104966163635, 0.29443809390068054, 0.3096556067466736, 0.34285417199134827, 0.36783963441848755, 0.33871206641197205, 0.3559834063053131, 0.4230143427848816, 0.4493396580219269, 0.43356963992118835, 0.500556230545044, 0.4180941581726074, 0.3604688048362732, 0.3581163287162781, 0.3073202669620514, 0.25939127802848816, 0.2600122392177582, 0.18160395324230194, 0.1283155083656311, 0.11100839823484421, 0.09511890262365341, 0.07912783324718475, 0.0022869487293064594, -0.024737022817134857, -0.058448150753974915, -0.06535667181015015, -0.04184119775891304, -0.008335696533322334, 0.0722002163529396, 0.07207682728767395, -0.029617030173540115, -0.0636514276266098, -0.07496260106563568, -0.08065228909254074, -0.08206191658973694, -0.08189868181943893, -0.07019879668951035, -0.09427415579557419, -0.12451375275850296, -0.1232210099697113, -0.1151249036192894, -0.1373387724161148, -0.19887042045593262, -0.2266390174627304, -0.21842823922634125, -0.1885295957326889, -0.19954629242420197, -0.234386146068573, -0.23928751051425934, -0.23998384177684784, -0.20445676147937775, -0.1757243573665619, -0.21135284006595612, -0.22119185328483582, -0.22151760756969452, -0.17683102190494537, -0.1284356564283371, -0.13909748196601868, -0.16386765241622925, -0.1493462771177292, -0.17738966643810272, -0.27740857005119324, -0.33554717898368835, -0.3263171911239624, -0.26982593536376953, -0.21659676730632782, -0.21590130031108856, -0.2395746260881424, -0.31166744232177734, -0.3575359880924225, -0.3558264970779419, -0.3404889702796936, -0.3220011591911316, -0.3288027048110962, -0.32680976390838623, -0.28939348459243774, -0.24587613344192505, -0.16581858694553375, -0.0866101086139679, -0.03930165618658066, 0.055254362523555756, 0.12010060250759125, 0.1462864875793457, 0.21146714687347412, 0.14534606039524078, 0.15068881213665009, 0.13319772481918335, 0.16907496750354767, 0.14130763709545135, 0.09929586201906204, 0.1245589479804039, 0.16082417964935303, 0.1217179223895073, 0.11605384200811386, 0.09747956693172455, 0.10093583166599274, 0.16620467603206635, 0.17821989953517914]
