0.03152540698647499 CrossValid 82.37297058105469 CrossValidLossesBy500 647.8953857421875 470.4535217285156 301.46722412109375 200.33787536621094 144.8353729248047 117.64813995361328 104.48843383789062 98.13731384277344 94.51332092285156 92.30247497558594 90.82894134521484 89.64974212646484 88.8772201538086 88.19078826904297 87.66413879394531 87.21832275390625 86.78521728515625 86.44552612304688 86.11479187011719 85.7730484008789 85.50198364257812 85.26251220703125 85.0124740600586 84.80351257324219 84.54033660888672 84.40585327148438 84.2427978515625 84.06918334960938 83.97208404541016 83.83964538574219 83.66661071777344 83.58796691894531 83.4595947265625 83.36141967773438 83.25049591064453 83.13948059082031 83.07901000976562 82.99275970458984 82.9329833984375 82.8764419555664 82.8198471069336 82.7136001586914 82.65653228759766 82.5990219116211 82.57392883300781 82.56409454345703 82.49140930175781 82.5002670288086 82.43759155273438 82.3729248046875 82.37350463867188 82.36019897460938 82.3554916381836 82.31036376953125 82.29444122314453 82.30228424072266 82.30518341064453 82.27032470703125 82.27616119384766 82.27311706542969 82.23501586914062 82.2433090209961 82.26648712158203 82.28123474121094 82.27771759033203 82.2710189819336 82.28881072998047 82.32240295410156 82.3179702758789 82.30421447753906 82.3331298828125 82.33867645263672 82.31565856933594 82.33026123046875 82.3743667602539 82.33111572265625 82.38719177246094 82.3602066040039 82.39456176757812 82.38195037841797 82.37055206298828 82.39885711669922 82.38783264160156 82.42703247070312 82.38717651367188 82.38947296142578 82.38441467285156 82.39298248291016 82.38568115234375 82.42146301269531 82.42314147949219 82.39317321777344 82.39876556396484 82.42035675048828 82.43463134765625 82.40231323242188 82.37297058105469
48500 LossesBy500_0 0.22635383903980255 0.16506467759609222 0.10694451630115509 0.07233874499797821 0.05361435189843178 0.044670842587947845 0.040457550436258316 0.038448333740234375 0.03728711977601051 0.036552026867866516 0.03603408858180046 0.03560108318924904 0.03529427945613861 0.035014450550079346 0.03478720039129257 0.034590452909469604 0.03439521789550781 0.03423571214079857 0.03408238664269447 0.03393033146858215 0.033795956522226334 0.03367242217063904 0.03355821222066879 0.033447571098804474 0.033320266753435135 0.033236533403396606 0.03314324840903282 0.03305011987686157 0.03297828137874603 0.0328948050737381 0.03280682861804962 0.03275177255272865 0.03267773985862732 0.03262186050415039 0.03256111964583397 0.032497234642505646 0.03244777023792267 0.03240209072828293 0.03236282244324684 0.03232806921005249 0.032295335084199905 0.0322444923222065 0.032209064811468124 0.032174158841371536 0.03215095028281212 0.032133471220731735 0.03209465369582176 0.03208360821008682 0.03204863518476486 0.03201179951429367 0.03199824318289757 0.03198014944791794 0.031964320689439774 0.031935062259435654 0.03191440552473068 0.031903255730867386 0.03188890591263771 0.03186165168881416 0.031848326325416565 0.03183278068900108 0.0318039208650589 0.03178989514708519 0.03178153187036514 0.03177116811275482 0.03175332769751549 0.031735241413116455 0.03172450512647629 0.03172057121992111 0.031702615320682526 0.031681813299655914 0.03167680650949478 0.031662944704294205 0.03164083883166313 0.03163168579339981 0.03163251280784607 0.03160545602440834 0.031615033745765686 0.031595729291439056 0.031600017100572586 0.03158902749419212 0.03157878667116165 0.031582172960042953 0.031573694199323654 0.03158164396882057 0.03156441077589989 0.031561896204948425 0.03155588358640671 0.03155578300356865 0.03154880926012993 0.031558338552713394 0.03155602514743805 0.03154248371720314 0.03154192492365837 0.03154706954956055 0.031549885869026184 0.03153698891401291 0.03152540698647499
sigma2_stimulus 	 [5.077201843261719, 2.8381757736206055]
log_motor_var 	 [7.415187358856201]
sigma_logit 	 [-6.433535099029541, -6.497036933898926, -7.262153625488281]
mixture_logit 	 [-4.581672668457031]
prior 	 [0.08225513249635696, 0.07663805037736893, 0.07261554151773453, 0.07061681151390076, 0.07084117084741592, 0.07316434383392334, 0.07737631350755692, 0.08362536877393723, 0.09262236207723618, 0.10525976121425629, 0.12177082151174545, 0.14099538326263428, 0.16015402972698212, 0.17555800080299377, 0.18407273292541504, 0.1842639297246933, 0.17684787511825562, 0.16412444412708282, 0.1489715427160263, 0.13387037813663483, 0.12051983922719955, 0.1097220852971077, 0.10158935934305191, 0.09576156735420227, 0.09160221368074417, 0.08835997432470322, 0.08525337278842926, 0.08156274259090424, 0.07672372460365295, 0.07037042826414108, 0.06235849857330322, 0.052812233567237854, 0.042085323482751846, 0.03073030151426792, 0.01938551664352417, 0.008659522980451584, -0.0009796390077099204, -0.00925843883305788, -0.016106588765978813, -0.021631062030792236, -0.02608209289610386, -0.02982679195702076, -0.03331650421023369, -0.037041421979665756, -0.04147738590836525, -0.04699896275997162, -0.053809259086847305, -0.06188229098916054, -0.07094363868236542, -0.08048734813928604, -0.08993177860975266, -0.0985928550362587, -0.10595748573541641, -0.11172071844339371, -0.11591031402349472, -0.11888011544942856, -0.1213279739022255, -0.12413376569747925, -0.12811952829360962, -0.13388022780418396, -0.1414726823568344, -0.15038201212882996, -0.1596909910440445, -0.1681160181760788, -0.17463190853595734, -0.1785641312599182, -0.17969459295272827, -0.1781504601240158, -0.17426033318042755, -0.16816936433315277, -0.16002008318901062, -0.14994485676288605, -0.1383693665266037, -0.1261892169713974, -0.11467745900154114, -0.10530713200569153, -0.0992765873670578, -0.09719538688659668, -0.0990694984793663, -0.10441743582487106, -0.11235553026199341, -0.12159135192632675, -0.13044458627700806, -0.13694314658641815, -0.1392272561788559, -0.1362379789352417, -0.12811900675296783, -0.11643317341804504, -0.10391058027744293, -0.0937545970082283, -0.08872714638710022, -0.09029487520456314, -0.09825977683067322, -0.11087873578071594, -0.1254354566335678, -0.13898277282714844, -0.14899995923042297, -0.15394990146160126, -0.15339264273643494, -0.14808036386966705, -0.1397593915462494, -0.13058479130268097, -0.1225392147898674, -0.1168098896741867, -0.113686203956604, -0.11253368109464645, -0.11222225427627563, -0.11147482693195343, -0.10918986052274704, -0.1045566275715828, -0.09707675129175186, -0.08659197390079498, -0.07330041378736496, -0.057863131165504456, -0.04138730466365814, -0.025425000116229057, -0.011581594124436378, -0.001186678186058998, 0.005099119618535042, 0.00745347049087286, 0.0067860702984035015, 0.004396920092403889, 0.0015499914297834039, -0.0008600512519478798, -0.0024344518315047026, -0.0031839804723858833, -0.003300331300124526, -0.002899925224483013, -0.001843092730268836, 0.00030735868494957685, 0.004189399071037769, 0.010463405400514603, 0.019631750881671906, 0.03192262724041939, 0.04726221412420273, 0.06527464836835861, 0.08539281040430069, 0.10688439011573792, 0.12890371680259705, 0.15052522718906403, 0.17065127193927765, 0.18804332613945007, 0.20130759477615356, 0.20904697477817535, 0.20999400317668915, 0.2033921182155609, 0.1893453150987625, 0.1688290238380432, 0.14376571774482727, 0.11664285510778427, 0.09005565941333771, 0.06622850894927979, 0.04665109142661095, 0.03203234821557999, 0.022365178912878036, 0.017145996913313866, 0.01566624455153942, 0.01723378524184227, 0.02132480777800083, 0.027594873681664467, 0.035809364169836044, 0.045720331370830536, 0.05696507915854454, 0.06912650913000107, 0.08184057474136353, 0.0949021726846695, 0.10830578207969666, 0.12203963845968246, 0.135749951004982, 0.14844338595867157, 0.15851643681526184, 0.16411514580249786, 0.16391414403915405, 0.15776875615119934, 0.14689306914806366, 0.13349968194961548, 0.11988643556833267, 0.10767809301614761, 0.09749578684568405, 0.08916198462247849]
volume 	 [0.32211580872535706, 0.3469852805137634, 0.31849491596221924, 0.26795247197151184, 0.2213747203350067, 0.278006374835968, 0.37951233983039856, 0.343502938747406, 0.30151045322418213, 0.35294437408447266, 0.3882063925266266, 0.49147987365722656, 0.5041696429252625, 0.5163357853889465, 0.4230142831802368, 0.42875924706459045, 0.35996344685554504, 0.24972735345363617, 0.15579073131084442, -0.002872154116630554, -0.10894732922315598, -0.19042357802391052, -0.24580234289169312, -0.24771623313426971, -0.26324212551116943, -0.3113173842430115, -0.3540098965167999, -0.3827754557132721, -0.3794954717159271, -0.3257032036781311, -0.2686544358730316, -0.27676132321357727, -0.29776206612586975, -0.30403846502304077, -0.3068811297416687, -0.29996785521507263, -0.2663555145263672, -0.22705809772014618, -0.2351449877023697, -0.24077551066875458, -0.22976545989513397, -0.20490112900733948, -0.21139922738075256, -0.21309158205986023, -0.171192929148674, -0.09225325286388397, -0.10303783416748047, -0.10155283659696579, -0.034721244126558304, -0.05460534617304802, -0.11602099239826202, -0.08462409675121307, -0.09262924641370773, -0.13062503933906555, -0.1525980532169342, -0.15521295368671417, -0.2117956429719925, -0.24586033821105957, -0.223196879029274, -0.13969261944293976, -0.055828757584095, -0.05749198794364929, 0.0034349290654063225, 0.03388412669301033, -0.02928163856267929, -0.015750929713249207, 0.0702458992600441, 0.07811600714921951, 0.05936231464147568, 0.07966648787260056, 0.10242870450019836, 0.054086312651634216, 0.055329617112874985, 0.1349668800830841, 0.20463910698890686, 0.2596729099750519, 0.2763589918613434, 0.2969472408294678, 0.27859729528427124, 0.300655335187912, 0.26726865768432617, 0.3098723292350769, 0.3231855630874634, 0.2602691650390625, 0.28716373443603516, 0.3640545606613159, 0.42191559076309204, 0.3554475009441376, 0.36924660205841064, 0.4377182722091675, 0.4318194091320038, 0.42983582615852356, 0.43329963088035583, 0.34969866275787354, 0.3019801676273346, 0.30958864092826843, 0.28387251496315, 0.23671190440654755, 0.19952954351902008, 0.1654534935951233, 0.1067110002040863, 0.08594001829624176, 0.10911785066127777, 0.1117585152387619, 0.033246058970689774, -0.037783391773700714, -0.09714457392692566, -0.10056492686271667, -0.06147848069667816, -0.052691757678985596, 0.007297202944755554, 0.10320955514907837, 0.0069772242568433285, -0.04307083413004875, -0.05714916065335274, -0.0526961125433445, -0.050382811576128006, -0.04757827892899513, -0.029665784910321236, -0.04637570679187775, -0.08168049156665802, -0.1013660579919815, -0.10521955788135529, -0.13605378568172455, -0.1700822412967682, -0.1589798629283905, -0.155751571059227, -0.15064987540245056, -0.23957917094230652, -0.2750600278377533, -0.29941433668136597, -0.2889455258846283, -0.2175237238407135, -0.18862025439739227, -0.2519436776638031, -0.28623151779174805, -0.27513667941093445, -0.19090765714645386, -0.16566690802574158, -0.18039721250534058, -0.1797625720500946, -0.18859633803367615, -0.23927921056747437, -0.3170819580554962, -0.32267650961875916, -0.2936580777168274, -0.22959819436073303, -0.177202969789505, -0.16666358709335327, -0.2371370941400528, -0.32079896330833435, -0.33861565589904785, -0.3406810760498047, -0.34239432215690613, -0.34850192070007324, -0.3628459572792053, -0.3419961929321289, -0.31204119324684143, -0.27250391244888306, -0.1905917525291443, -0.13873395323753357, -0.0921943411231041, -0.018738551065325737, 0.056605517864227295, 0.11349064111709595, 0.23785758018493652, 0.1800421178340912, 0.20082351565361023, 0.14856861531734467, 0.15007832646369934, 0.15733566880226135, 0.12413178384304047, 0.1272459775209427, 0.20365753769874573, 0.17568601667881012, 0.1701507866382599, 0.20725908875465393, 0.2351382076740265, 0.2600455582141876, 0.2424185574054718]
