0.03754517436027527 CrossValid 85.09803009033203 CrossValidLossesBy500 708.8741455078125 663.0918579101562 590.2891845703125 493.93316650390625 398.9313659667969 321.05975341796875 259.28472900390625 210.94378662109375 174.99830627441406 149.41891479492188 131.78887939453125 119.91901397705078 111.83419799804688 106.35832214355469 102.56732177734375 99.74212646484375 97.70709991455078 96.17269897460938 95.48326110839844 94.5274658203125 93.6727523803711 92.84819793701172 92.1974105834961 91.68878936767578 91.13572692871094 90.87474060058594 90.45746612548828 90.25440979003906 89.76820373535156 89.52720642089844 89.2449722290039 88.9904556274414 88.88443756103516 88.6514892578125 88.43202209472656 88.26495361328125 88.08003997802734 88.0604248046875 87.78315734863281 87.77714538574219 87.72184753417969 87.71768188476562 87.65342712402344 87.470458984375 87.33977508544922 87.36189270019531 87.34059143066406 87.16896057128906 87.19913482666016 86.80479431152344 86.62761688232422 86.22503662109375 86.08279418945312 86.01292419433594 85.91607666015625 85.93607330322266 85.890869140625 85.84931945800781 85.70794677734375 85.51397705078125 85.54232788085938 85.52799987792969 85.536376953125 85.48595428466797 85.4889144897461 85.48294830322266 85.36490631103516 85.35167694091797 85.38179779052734 85.35693359375 85.31596374511719 85.27565002441406 85.286376953125 85.2454605102539 85.22377014160156 85.16329956054688 85.24275207519531 85.22454071044922 85.22982788085938 85.23129272460938 85.09803009033203
40500 LossesBy500_4 0.24912907183170319 0.23334664106369019 0.20829176902770996 0.17518764734268188 0.1426025629043579 0.11598919332027435 0.09484732151031494 0.07827124744653702 0.06611961871385574 0.05752794072031975 0.05168803781270981 0.04786348342895508 0.045341767370700836 0.043693359941244125 0.04258937016129494 0.04178435727953911 0.041222646832466125 0.04081004485487938 0.040667012333869934 0.04041747376322746 0.040190402418375015 0.03996347263455391 0.03978569433093071 0.03965169936418533 0.0394950807094574 0.03943553939461708 0.03931620717048645 0.03926841914653778 0.03911841660737991 0.0390503890812397 0.038965266197919846 0.03888709843158722 0.038861148059368134 0.038787126541137695 0.03871767967939377 0.03866467997431755 0.03860501945018768 0.0386015847325325 0.03850676119327545 0.03850783035159111 0.038490939885377884 0.038489699363708496 0.03846846520900726 0.03840473294258118 0.03835861757397652 0.038369111716747284 0.038359884172677994 0.03830042853951454 0.038310907781124115 0.0381714403629303 0.038108550012111664 0.03796577826142311 0.03791451454162598 0.037890177220106125 0.03785436227917671 0.03786018118262291 0.03784371539950371 0.037827711552381516 0.03777680546045303 0.03770828992128372 0.037715811282396317 0.03771005570888519 0.037712015211582184 0.037694405764341354 0.037693124264478683 0.03769010677933693 0.037649139761924744 0.03764377906918526 0.03765302523970604 0.037643592804670334 0.03762694448232651 0.03761377930641174 0.037615641951560974 0.03760038688778877 0.03759297728538513 0.037570539861917496 0.037597935646772385 0.03758959099650383 0.03759105131030083 0.03759162127971649 0.03754517436027527
sigma2_stimulus 	 [4.3832011222839355, 2.8529443740844727]
log_motor_var 	 [7.785075664520264]
sigma_logit 	 [-6.423290252685547, -6.495436191558838, -7.397084712982178]
mixture_logit 	 [-4.18026876449585]
prior 	 [1.0]
volume 	 [0.19611196219921112, 0.1646411120891571, 0.1562923938035965, 0.12802420556545258, 0.1090506762266159, 0.11561664193868637, 0.20524124801158905, 0.24129699170589447, 0.22959695756435394, 0.24675391614437103, 0.2482980489730835, 0.3029112219810486, 0.3297722041606903, 0.2526986300945282, 0.25669145584106445, 0.2262543886899948, 0.16784583032131195, 0.1387711763381958, 0.0800953358411789, 0.06732919812202454, 0.10121166706085205, 0.03408128768205643, -0.01168868038803339, -0.05454059690237045, -0.10007496923208237, -0.13985002040863037, -0.1468045860528946, -0.1300613433122635, -0.17782172560691833, -0.2363520711660385, -0.17724904417991638, -0.11111932247877121, -0.08762890845537186, -0.19285684823989868, -0.19627869129180908, -0.17202900350093842, -0.15109407901763916, -0.10737445205450058, -0.19271908700466156, -0.15730413794517517, -0.1376456767320633, -0.16622984409332275, -0.18005232512950897, -0.1432660073041916, -0.0412285178899765, -0.1066707968711853, -0.10191203653812408, 0.0010725450702011585, -0.10207101702690125, -0.0947418138384819, -0.08384206146001816, -0.09090418368577957, -0.08060251921415329, -0.056959714740514755, -0.1253337562084198, -0.10493002831935883, -0.1193060651421547, -0.000889440590981394, -0.04258589819073677, -0.002803588518872857, 0.04994846507906914, -0.05197426676750183, -0.03789692744612694, -0.020679591223597527, 0.017789335921406746, 0.041896626353263855, -0.018790235742926598, -0.008855961263179779, 0.017288733273744583, 0.05007685348391533, 0.05895697697997093, 0.031268179416656494, 0.014914529398083687, 0.06116001307964325, 0.0827365443110466, 0.07856696099042892, 0.06397125869989395, 0.11010821908712387, 0.10995824635028839, 0.1409248411655426, 0.16865767538547516, 0.15716171264648438, 0.08344374597072601, 0.11515220999717712, 0.172522634267807, 0.20187366008758545, 0.18293261528015137, 0.17196771502494812, 0.21175073087215424, 0.23368319869041443, 0.2232377827167511, 0.17418096959590912, 0.20081469416618347, 0.21309226751327515, 0.1769249141216278, 0.0797637552022934, 0.08801712095737457, 0.13593651354312897, 0.14869660139083862, 0.10685791820287704, 0.07851988822221756, 0.05208046734333038, 0.045799560844898224, 0.032761670649051666, 0.013222532346844673, 0.02766014263033867, 0.004604980815201998, -0.0016462685307487845, -0.09439585357904434, -0.08723985403776169, -0.10591921955347061, -0.02780202589929104, -0.01783224567770958, -0.02247864007949829, 0.05728078633546829, -0.058300524950027466, -0.044087257236242294, -0.07028105109930038, 0.037268202751874924, 0.04517313838005066, -0.029743991792201996, -0.05477558448910713, -0.07151920348405838, -0.11990829557180405, -0.08090592920780182, -0.1119815856218338, -0.19440744817256927, -0.18222975730895996, -0.12399572134017944, -0.09730178862810135, -0.17319311201572418, -0.18145085871219635, -0.17349354922771454, -0.15644747018814087, -0.05331118032336235, -0.12142425030469894, -0.13752348721027374, -0.11774001270532608, -0.03335285186767578, -0.021721523255109787, -0.025646746158599854, -0.06203756481409073, -0.14449356496334076, -0.1449996829032898, -0.12067566812038422, -0.06385858356952667, -0.04115563631057739, -0.09582646191120148, -0.16626574099063873, -0.18111324310302734, -0.2127431184053421, -0.20805853605270386, -0.18530353903770447, -0.21525703370571136, -0.2697385549545288, -0.1904701143503189, -0.1420881301164627, -0.08566109091043472, -0.07512789964675903, -0.03142590820789337, -0.022906269878149033, 0.041132405400276184, 0.01746416836977005, 0.0068147554993629456, 0.0030899671837687492, 0.05395548418164253, 0.1278071105480194, 0.13470056653022766, 0.07346144318580627, 0.024649029597640038, 0.0875510573387146, 0.08925700187683105, 0.05021416395902634, 0.09031053632497787, 0.096478670835495, 0.09971782565116882, 0.08303152769804001, 0.07914759963750839, 0.07479629665613174, 0.11026853322982788]
