0.03157766908407211 CrossValid 97.85935974121094 CrossValidLossesBy500 648.3242797851562 471.3000183105469 304.2676696777344 205.8463592529297 152.70672607421875 127.92919921875 117.11674499511719 112.01564025878906 109.14401245117188 107.25083923339844 105.91857147216797 104.86256408691406 104.06822204589844 103.32742309570312 102.75492858886719 102.19319915771484 101.80055236816406 101.32400512695312 100.99210357666016 100.68159484863281 100.34014892578125 100.10791015625 99.85856628417969 99.68458557128906 99.46299743652344 99.32453918457031 99.20780944824219 99.10225677490234 98.94004821777344 98.84740447998047 98.79763793945312 98.70526123046875 98.63076782226562 98.51705932617188 98.50424194335938 98.40300750732422 98.34732055664062 98.3074951171875 98.27186584472656 98.23653411865234 98.20143127441406 98.15225219726562 98.1431884765625 98.06812286376953 98.07979583740234 98.02349853515625 98.01316833496094 98.03384399414062 97.9713134765625 98.00053405761719 97.97341918945312 97.93030548095703 97.95639038085938 97.94845581054688 97.90499114990234 97.90870666503906 97.93757629394531 97.9020004272461 97.90055847167969 97.93061065673828 97.92436218261719 97.89686584472656 97.88746643066406 97.88339233398438 97.91403198242188 97.88289642333984 97.87523651123047 97.85935974121094
34000 LossesBy500_0 0.22617414593696594 0.16419483721256256 0.10580125451087952 0.07128352671861649 0.05238648131489754 0.04330760985612869 0.039184123277664185 0.03715525567531586 0.03598668798804283 0.03521355614066124 0.0346701443195343 0.034243177622556686 0.03392750397324562 0.03364422544836998 0.033422984182834625 0.033215876668691635 0.03306570276618004 0.03289608657360077 0.03277810662984848 0.03267078474164009 0.032551124691963196 0.03247019648551941 0.032380908727645874 0.03231572359800339 0.03223613277077675 0.0321824736893177 0.032128725200891495 0.03208047151565552 0.032023049890995026 0.03198309242725372 0.03195611387491226 0.03191952034831047 0.03189002722501755 0.031842634081840515 0.031816329807043076 0.031777866184711456 0.031755778938531876 0.031739503145217896 0.03172553703188896 0.03171195462346077 0.031699564307928085 0.031681422144174576 0.031678248196840286 0.03165106475353241 0.03165793418884277 0.031638629734516144 0.031635548919439316 0.0316423736512661 0.03162061795592308 0.03163141384720802 0.031621597707271576 0.03160649538040161 0.03161514177918434 0.03161182999610901 0.031596533954143524 0.031597256660461426 0.03160741552710533 0.031594451516866684 0.031593505293130875 0.03160345181822777 0.03160122409462929 0.031591422855854034 0.03158823400735855 0.03158675134181976 0.03159710764884949 0.031585901975631714 0.03158264979720116 0.03157766908407211
sigma2_stimulus 	 [4.918510437011719, 2.7962896823883057]
log_motor_var 	 [7.432509899139404]
sigma_logit 	 [-6.438419342041016, -6.497829914093018, -7.2134108543396]
mixture_logit 	 [-4.570952415466309]
prior 	 [1.0]
volume 	 [0.06911244243383408, 0.19871875643730164, 0.16428649425506592, 0.10106528550386429, 0.09078777581453323, 0.1932152807712555, 0.21940943598747253, 0.20149151980876923, 0.18766172230243683, 0.19708433747291565, 0.28493791818618774, 0.23025581240653992, 0.17164373397827148, 0.14831502735614777, 0.09321161359548569, 0.10199422389268875, 0.0966806411743164, 0.09412343800067902, 0.048865906894207, 0.03418460488319397, -0.05944881588220596, -0.09610313177108765, -0.14155562222003937, -0.15117782354354858, -0.12774886190891266, -0.1885826289653778, -0.2368212193250656, -0.252273291349411, -0.2422775775194168, -0.20721435546875, -0.2209673970937729, -0.26442649960517883, -0.2751922309398651, -0.26464495062828064, -0.2490626573562622, -0.22798630595207214, -0.20877605676651, -0.21506965160369873, -0.21545545756816864, -0.18914587795734406, -0.1591803878545761, -0.1560671180486679, -0.16627497971057892, -0.15099748969078064, -0.1135152205824852, -0.03493039682507515, -0.04788414016366005, -0.05206754803657532, -0.014451452530920506, 0.015194881707429886, -0.002156781731173396, 0.02831118181347847, 0.07632382959127426, 0.031452734023332596, 0.002816301304847002, -0.007005056831985712, -0.06964854151010513, -0.13452492654323578, -0.12074632197618484, -0.03755969554185867, 0.04497843608260155, 0.03214433416724205, 0.08104811608791351, 0.08097822219133377, 0.02327415719628334, 0.06513466686010361, 0.15376123785972595, 0.14265809953212738, 0.15585917234420776, 0.1478070318698883, 0.14233963191509247, 0.12734131515026093, 0.13157232105731964, 0.16848908364772797, 0.21164178848266602, 0.2210565209388733, 0.21880432963371277, 0.21888986229896545, 0.19239480793476105, 0.2250518500804901, 0.2170586735010147, 0.24803303182125092, 0.29615017771720886, 0.23199544847011566, 0.243269681930542, 0.31906604766845703, 0.3296454846858978, 0.3065948486328125, 0.3112478256225586, 0.40570181608200073, 0.40500950813293457, 0.375477135181427, 0.42595815658569336, 0.3412937521934509, 0.2993488013744354, 0.32895490527153015, 0.2960048317909241, 0.258022665977478, 0.30009207129478455, 0.23850516974925995, 0.1629638671875, 0.14074857532978058, 0.14335697889328003, 0.1257101595401764, 0.036210186779499054, 0.0136080551892519, -0.04201172664761543, -0.05422797054052353, -0.0315181128680706, 0.003780983155593276, 0.05654960870742798, 0.0018703184323385358, -0.0045486814342439175, -0.024021893739700317, -0.02373562939465046, -0.031099332496523857, -0.015577076934278011, -0.030617794021964073, -0.03203684091567993, -0.02955007739365101, -0.09818501025438309, -0.10649503767490387, -0.08117593824863434, -0.06263668090105057, -0.10737079381942749, -0.10363878309726715, -0.12449115514755249, -0.09689480811357498, -0.15148112177848816, -0.18723580241203308, -0.20537111163139343, -0.20890158414840698, -0.17300888895988464, -0.13444432616233826, -0.1571568101644516, -0.1930491030216217, -0.1947840452194214, -0.16123944520950317, -0.15198937058448792, -0.17583666741847992, -0.18166068196296692, -0.17029228806495667, -0.2004835605621338, -0.285862535238266, -0.3321336805820465, -0.30788132548332214, -0.2434130758047104, -0.16659940779209137, -0.15712390840053558, -0.18595775961875916, -0.2436637133359909, -0.2798083424568176, -0.2626175284385681, -0.2408701330423355, -0.21827590465545654, -0.24248720705509186, -0.24361415207386017, -0.23095814883708954, -0.1706129014492035, -0.07640168070793152, -0.049401551485061646, 0.031115926802158356, 0.06894365698099136, 0.0602128766477108, 0.12286222726106644, 0.049000535160303116, 0.03933488577604294, 0.03840344771742821, 0.008550447411835194, 0.04540736973285675, -0.014643045142292976, -0.05628858879208565, -0.040569402277469635, -0.011271059513092041, -0.056640200316905975, -0.06506555527448654, -0.006078755017369986, -0.036727748811244965, 0.036824971437454224, 0.043597180396318436]
