0.030642574653029442 CrossValid 127.55401611328125 CrossValidLossesBy500 789.9652099609375 748.30859375 746.7871704101562 745.3928833007812 743.5723266601562 741.968994140625 740.1358642578125 738.0599365234375 735.6322021484375 732.7692260742188 729.3213500976562 710.2969360351562 665.897216796875 621.5747680664062 523.8838500976562 468.70660400390625 346.035888671875 275.4216613769531 228.59201049804688 196.2819061279297 174.10198974609375 159.01419067382812 148.9669647216797 142.13638305664062 137.6237030029297 134.31710815429688 131.8428497314453 129.90267944335938 128.71543884277344 127.84225463867188 127.0931625366211 126.68064880371094 126.11270141601562 125.8406982421875 125.5444107055664 125.34420013427734 125.10399627685547 124.95911407470703 124.966552734375 124.97647857666016 124.84428405761719 124.81954956054688 124.92028045654297 125.0696029663086 125.17234802246094 125.22639465332031 125.23624420166016 125.34593200683594 125.42774200439453 125.49275970458984 125.67971801757812 125.6479721069336 125.65190887451172 125.80477905273438 125.8775634765625 125.84797668457031 126.013671875 126.12973022460938 126.16714477539062 126.29365539550781 126.40151977539062 126.54022216796875 126.62420654296875 126.68277740478516 126.86508178710938 126.8758316040039 126.9865493774414 127.10274505615234 127.18644714355469 127.23617553710938 127.39332580566406 127.46390533447266 127.51534271240234 127.58826446533203 127.44823455810547 127.47755432128906 127.53218841552734 127.64645385742188 127.60546112060547 127.55228424072266 127.52458953857422 127.57962036132812 127.68492126464844 127.57450866699219 127.5898208618164 127.62046813964844 127.59965515136719 127.62147521972656 127.55401611328125
44500 LossesBy500_0 0.25615909695625305 0.24120759963989258 0.2404807060956955 0.23984991014003754 0.2392275184392929 0.23867084085941315 0.23808734118938446 0.23747551441192627 0.23680436611175537 0.23606520891189575 0.23530209064483643 0.22961285710334778 0.2173675149679184 0.20139393210411072 0.17218689620494843 0.15486180782318115 0.11299768835306168 0.08931354433298111 0.07348477840423584 0.06238070875406265 0.05457334220409393 0.04912063851952553 0.0453668087720871 0.0427091121673584 0.040851570665836334 0.039417654275894165 0.038279954344034195 0.037339530885219574 0.03666260465979576 0.036106184124946594 0.03560691326856613 0.03523426875472069 0.03483334183692932 0.0345432311296463 0.03426021710038185 0.034019578248262405 0.033769894391298294 0.033557940274477005 0.03339393436908722 0.033227577805519104 0.033015165477991104 0.03284265100955963 0.032716359943151474 0.0326123908162117 0.03250015154480934 0.032381948083639145 0.032258290797472 0.03217475861310959 0.032090749591588974 0.03200573846697807 0.031966112554073334 0.0318477489054203 0.031751710921525955 0.031708456575870514 0.03164162114262581 0.03154320642352104 0.0315122976899147 0.03146513178944588 0.031395379453897476 0.03135861083865166 0.03131673485040665 0.03128807619214058 0.03124375455081463 0.031193099915981293 0.031187593936920166 0.031127143651247025 0.03110322915017605 0.03108339197933674 0.031054861843585968 0.03101830743253231 0.03102051466703415 0.031004464253783226 0.030984187498688698 0.030973084270954132 0.030895564705133438 0.03087221086025238 0.03086020052433014 0.03086651675403118 0.030831366777420044 0.030795257538557053 0.030764732509851456 0.030760178342461586 0.030772997066378593 0.030723892152309418 0.030716778710484505 0.030712438747286797 0.03068825975060463 0.030680987983942032 0.030642574653029442
sigma2_stimulus 	 [5.024238586425781, 2.8538615703582764]
log_motor_var 	 [7.658255577087402]
sigma_logit 	 [-6.43700647354126, -6.495860576629639, -7.17549991607666]
mixture_logit 	 [-4.419483661651611]
prior 	 [1.0]
volume 	 [0.17589524388313293, 0.11528890579938889, 0.032233450561761856, -0.02390415221452713, 0.09699589014053345, 0.11942989379167557, 0.10585588961839676, 0.10293255746364594, 0.1530171036720276, 0.09429456293582916, 0.16306352615356445, 0.18628834187984467, 0.16587944328784943, 0.13684295117855072, 0.1017603799700737, 0.06363466382026672, 0.11049223691225052, 0.07987408339977264, 0.10612871497869492, 0.04330303519964218, 0.0315687321126461, -0.05962427332997322, -0.09034917503595352, -0.12899042665958405, -0.12615330517292023, -0.16204780340194702, -0.2235965132713318, -0.28033050894737244, -0.29585006833076477, -0.2505621314048767, -0.23037977516651154, -0.26398926973342896, -0.2817284166812897, -0.2697138488292694, -0.2661080062389374, -0.2710685133934021, -0.25347888469696045, -0.2686408460140228, -0.27669888734817505, -0.2456541657447815, -0.20827671885490417, -0.18937408924102783, -0.20389197766780853, -0.2188863456249237, -0.1834793984889984, -0.11896653473377228, -0.15351666510105133, -0.12967120110988617, -0.10450941324234009, -0.07709669321775436, -0.11436057090759277, -0.11639199405908585, -0.01907489448785782, -0.05758089944720268, -0.08258993178606033, -0.022777818143367767, -0.021586520597338676, -0.1070043072104454, -0.07442621141672134, -0.020388172939419746, 0.028613092377781868, 0.04091662913560867, 0.08749246597290039, 0.03769291192293167, -0.01979270949959755, 0.04890468344092369, 0.16039419174194336, 0.09703478962182999, 0.12024562805891037, 0.14283213019371033, 0.1422738879919052, 0.11877717822790146, 0.20314954221248627, 0.23339807987213135, 0.22495798766613007, 0.22383534908294678, 0.21103593707084656, 0.2129971981048584, 0.20507028698921204, 0.23938731849193573, 0.2048649936914444, 0.2425384223461151, 0.254358172416687, 0.19003787636756897, 0.2169247567653656, 0.2486361563205719, 0.28678175806999207, 0.30160942673683167, 0.3489898145198822, 0.5198880434036255, 0.5451754927635193, 0.49057137966156006, 0.5327638387680054, 0.3493025600910187, 0.24536238610744476, 0.2497488111257553, 0.20548485219478607, 0.20459668338298798, 0.22440823912620544, 0.22013990581035614, 0.16643701493740082, 0.1577230989933014, 0.14046697318553925, 0.14281624555587769, 0.0718364492058754, 0.039968933910131454, 0.02051210217177868, -0.03226560354232788, -0.03390423581004143, -0.009930187836289406, 0.05264607444405556, 0.03363700956106186, -0.05683867633342743, -0.053864672780036926, -0.08485180884599686, -0.07106264680624008, -0.08554060757160187, -0.06797154992818832, -0.07843656837940216, -0.07573598623275757, -0.10101158171892166, -0.13421258330345154, -0.10881776362657547, -0.10858495533466339, -0.14375650882720947, -0.1850343495607376, -0.16213078796863556, -0.14873695373535156, -0.1320408433675766, -0.1703770011663437, -0.1812685877084732, -0.18763615190982819, -0.1534426063299179, -0.11736822128295898, -0.1796022355556488, -0.18101443350315094, -0.20042374730110168, -0.1821962296962738, -0.15038254857063293, -0.18241605162620544, -0.2095988392829895, -0.18919803202152252, -0.17292526364326477, -0.27913570404052734, -0.3341161012649536, -0.31813445687294006, -0.26395198702812195, -0.2121885120868683, -0.22522684931755066, -0.22153548896312714, -0.2675461173057556, -0.2990579903125763, -0.2756893038749695, -0.23930290341377258, -0.20847272872924805, -0.21339020133018494, -0.19624063372612, -0.15798701345920563, -0.11601202934980392, -0.027713794261217117, -0.034511715173721313, 0.03564557805657387, 0.11210326850414276, 0.1149095743894577, 0.1868751049041748, 0.10706234723329544, 0.11046013981103897, 0.13739393651485443, 0.12688720226287842, 0.17618681490421295, 0.11952393501996994, 0.08568326383829117, 0.16120010614395142, 0.13270103931427002, 0.12730960547924042, 0.17316564917564392, 0.1442425549030304, 0.2607787549495697, 0.24520815908908844, 0.30597013235092163]
