0.03528399020433426 CrossValid 108.13189697265625 CrossValidLossesBy500 649.2784423828125 472.96368408203125 305.88641357421875 207.52783203125 155.09458923339844 130.93553161621094 120.75411224365234 116.38379669189453 114.01559448242188 112.82661437988281 112.02847290039062 111.48448181152344 111.1301498413086 110.85206604003906 110.65298461914062 110.39395141601562 110.20479583740234 110.04777526855469 109.8642578125 109.76455688476562 109.6426773071289 109.48261260986328 109.37255096435547 109.22264862060547 109.11587524414062 108.98705291748047 108.93731689453125 108.839599609375 108.75495910644531 108.66972351074219 108.62657165527344 108.53899383544922 108.46642303466797 108.42648315429688 108.40099334716797 108.35952758789062 108.31595611572266 108.31132507324219 108.28401184082031 108.24910736083984 108.18828582763672 108.2313003540039 108.20906829833984 108.16098022460938 108.15592193603516 108.13189697265625
23000 LossesBy500_4 0.22655725479125977 0.1648387908935547 0.10642793774604797 0.07190561294555664 0.053223997354507446 0.04434435814619064 0.04042626544833183 0.0386321097612381 0.03761102259159088 0.037055570632219315 0.036677878350019455 0.03642035648226738 0.036251407116651535 0.03612709417939186 0.03604188933968544 0.0359443724155426 0.03587751090526581 0.035824693739414215 0.03576582297682762 0.035737425088882446 0.03570177033543587 0.035653598606586456 0.03562302887439728 0.03557955101132393 0.03554995357990265 0.03551291674375534 0.035503312945365906 0.03547588735818863 0.03545274958014488 0.03542902693152428 0.03541947528719902 0.03539328649640083 0.03537281975150108 0.035363953560590744 0.03535863384604454 0.035347145050764084 0.035334471613168716 0.03533618524670601 0.03532860055565834 0.03531882166862488 0.035299159586429596 0.035314999520778656 0.035308510065078735 0.035292357206344604 0.03529168665409088 0.03528399020433426
sigma2_stimulus 	 [4.150717735290527, 2.7512407302856445]
log_motor_var 	 [7.414290904998779]
sigma_logit 	 [-6.43490743637085, -6.478420734405518, -7.482667446136475]
mixture_logit 	 [-4.348639011383057]
prior 	 [-0.014699182473123074, -0.01957923173904419, -0.024982498958706856, -0.03093738667666912, -0.037162017077207565, -0.043061330914497375, -0.04785089194774628, -0.05073636770248413, -0.05111641436815262, -0.048758793622255325, -0.0438682958483696, -0.03705412149429321, -0.029222114011645317, -0.021363582462072372, -0.014361877925693989, -0.008808419108390808, -0.004900919273495674, -0.0024325090926140547, -0.0008634006953798234, 0.0005484943394549191, 0.002598529914394021, 0.006000627763569355, 0.011288054287433624, 0.01875866949558258, 0.0284595750272274, 0.04020317643880844, 0.053613029420375824, 0.06816244125366211, 0.0832267478108406, 0.09814783185720444, 0.11226595193147659, 0.12498565018177032, 0.13578981161117554, 0.14429619908332825, 0.15021906793117523, 0.15336844325065613, 0.15361666679382324, 0.15082141757011414, 0.14490273594856262, 0.13582195341587067, 0.12367598712444305, 0.1088150143623352, 0.09180504828691483, 0.0734485536813736, 0.0547010712325573, 0.03653266653418541, 0.0198120828717947, 0.005179625004529953, -0.007029579486697912, -0.01683104783296585, -0.02457975596189499, -0.030899792909622192, -0.03655282035470009, -0.04226328805088997, -0.04852117970585823, -0.0554460734128952, -0.06274191290140152, -0.06978150457143784, -0.07582008838653564, -0.08023300766944885, -0.0827123150229454, -0.08337553590536118, -0.0827404037117958, -0.08158417791128159, -0.08068874478340149, -0.08061673492193222, -0.08163084089756012, -0.08362369984388351, -0.08616895228624344, -0.08874627947807312, -0.09084400534629822, -0.09210775792598724, -0.09240549057722092, -0.09188212454319, -0.0909184142947197, -0.09006813168525696, -0.08997087925672531, -0.09115107357501984, -0.09390608221292496, -0.09816396236419678, -0.10343283414840698, -0.10893017798662186, -0.11372727900743484, -0.11701644957065582, -0.11827608197927475, -0.11743444949388504, -0.11483805626630783, -0.11116072535514832, -0.10724892467260361, -0.10387574881315231, -0.1015797033905983, -0.10050114244222641, -0.10044095665216446, -0.10087526589632034, -0.10115009546279907, -0.10060261189937592, -0.09875170141458511, -0.0954023152589798, -0.09071068465709686, -0.0851936936378479, -0.07964082062244415, -0.07500220835208893, -0.07217343896627426, -0.07173576205968857, -0.07383185625076294, -0.07798302173614502, -0.08317772299051285, -0.08799057453870773, -0.09086797386407852, -0.09040370583534241, -0.08562637865543365, -0.07614202052354813, -0.06224285811185837, -0.04483400657773018, -0.025345632806420326, -0.005520656704902649, 0.012823794968426228, 0.028059203177690506, 0.038987353444099426, 0.04504235088825226, 0.046370793133974075, 0.043807629495859146, 0.03871612995862961, 0.03270578384399414, 0.027332445606589317, 0.02383255772292614, 0.022926684468984604, 0.02476128749549389, 0.02899901568889618, 0.03499466925859451, 0.04204588383436203, 0.04962768405675888, 0.057534538209438324, 0.06593655049800873, 0.07525332272052765, 0.08595213294029236, 0.09833670407533646, 0.112322136759758, 0.12734462320804596, 0.14235718548297882, 0.15598972141742706, 0.1668483465909958, 0.1736910343170166, 0.17578010261058807, 0.1729249656200409, 0.16542388498783112, 0.15390422940254211, 0.13910581171512604, 0.12184522300958633, 0.10285438597202301, 0.08293607831001282, 0.06302038580179214, 0.04421341046690941, 0.027722550556063652, 0.014703495427966118, 0.006059826817363501, 0.0022498047910630703, 0.0031613304745405912, 0.008104663342237473, 0.015924589708447456, 0.02520696260035038, 0.03453071787953377, 0.04270349070429802, 0.048918046057224274, 0.052809856832027435, 0.054377321153879166, 0.05389077216386795, 0.051746662706136703, 0.04836104437708855, 0.044086799025535583, 0.03919552266597748, 0.0338653028011322, 0.028217656537890434, 0.022351518273353577, 0.016385981813073158, 0.010473920032382011, 0.004787117708474398, -0.0005370667204260826, -0.005461810156702995, -0.010098516941070557]
volume 	 [0.0, 0.0, 0.0, 0.0, 0.0, 0.0, 0.0, 0.0, 0.0, 0.0, 0.0, 0.0, 0.0, 0.0, 0.0, 0.0, 0.0, 0.0, 0.0, 0.0, 0.0, 0.0, 0.0, 0.0, 0.0, 0.0, 0.0, 0.0, 0.0, 0.0, 0.0, 0.0, 0.0, 0.0, 0.0, 0.0, 0.0, 0.0, 0.0, 0.0, 0.0, 0.0, 0.0, 0.0, 0.0, 0.0, 0.0, 0.0, 0.0, 0.0, 0.0, 0.0, 0.0, 0.0, 0.0, 0.0, 0.0, 0.0, 0.0, 0.0, 0.0, 0.0, 0.0, 0.0, 0.0, 0.0, 0.0, 0.0, 0.0, 0.0, 0.0, 0.0, 0.0, 0.0, 0.0, 0.0, 0.0, 0.0, 0.0, 0.0, 0.0, 0.0, 0.0, 0.0, 0.0, 0.0, 0.0, 0.0, 0.0, 0.0, 0.0, 0.0, 0.0, 0.0, 0.0, 0.0, 0.0, 0.0, 0.0, 0.0, 0.0, 0.0, 0.0, 0.0, 0.0, 0.0, 0.0, 0.0, 0.0, 0.0, 0.0, 0.0, 0.0, 0.0, 0.0, 0.0, 0.0, 0.0, 0.0, 0.0, 0.0, 0.0, 0.0, 0.0, 0.0, 0.0, 0.0, 0.0, 0.0, 0.0, 0.0, 0.0, 0.0, 0.0, 0.0, 0.0, 0.0, 0.0, 0.0, 0.0, 0.0, 0.0, 0.0, 0.0, 0.0, 0.0, 0.0, 0.0, 0.0, 0.0, 0.0, 0.0, 0.0, 0.0, 0.0, 0.0, 0.0, 0.0, 0.0, 0.0, 0.0, 0.0, 0.0, 0.0, 0.0, 0.0, 0.0, 0.0, 0.0, 0.0, 0.0, 0.0, 0.0, 0.0, 0.0, 0.0, 0.0, 0.0, 0.0, 0.0]
