0.036885250359773636 CrossValid 110.23146057128906 CrossValidLossesBy500 110.20625305175781 110.23146057128906
1000 LossesBy500 0.03692568093538284 0.036885250359773636
sigma2_stimulus 	 [3.421823501586914, 2.551527738571167]
log_motor_var 	 [7.123655796051025]
sigma_logit 	 [-7.3334150314331055, -7.357931613922119, -9.230720520019531]
mixture_logit 	 [-4.489955902099609]
prior 	 [1.0]
volume 	 [0.7516456842422485, 0.7461406588554382, 0.6781601905822754, 0.5610590577125549, 0.46643319725990295, 0.44189757108688354, 0.49391642212867737, 0.5881363153457642, 0.6410820484161377, 0.6365390419960022, 0.6192424893379211, 0.6651124954223633, 0.752747654914856, 0.7545484304428101, 0.7257936596870422, 0.6579049229621887, 0.5463591814041138, 0.4413319528102875, 0.3649083375930786, 0.30863431096076965, 0.22473518550395966, 0.11978615075349808, -0.03914644569158554, -0.21598398685455322, -0.3541269898414612, -0.45503169298171997, -0.5023477077484131, -0.5577142238616943, -0.6249964237213135, -0.6540654301643372, -0.6076360940933228, -0.5195913910865784, -0.485199898481369, -0.517869770526886, -0.5517904162406921, -0.5093830823898315, -0.4524969160556793, -0.42313116788864136, -0.4964061379432678, -0.46992364525794983, -0.45519179105758667, -0.5049166083335876, -0.5242395997047424, -0.5042372941970825, -0.5339230895042419, -0.5826934576034546, -0.5689361095428467, -0.4802803695201874, -0.4506922960281372, -0.39191049337387085, -0.3945732116699219, -0.39916032552719116, -0.40032991766929626, -0.5051247477531433, -0.5795428156852722, -0.6392632722854614, -0.6538052558898926, -0.6345013976097107, -0.5947127342224121, -0.5172209739685059, -0.4618659019470215, -0.44727930426597595, -0.4031916856765747, -0.35735225677490234, -0.34397077560424805, -0.36407002806663513, -0.4089049696922302, -0.4034211039543152, -0.341867595911026, -0.246698260307312, -0.16601163148880005, -0.14988841116428375, -0.1758221834897995, -0.1683952957391739, -0.16921468079090118, -0.17626088857650757, -0.163066565990448, -0.12624777853488922, -0.1081879660487175, -0.07585480809211731, -0.0015960187884047627, 0.05461215227842331, 0.05240027233958244, 0.1344853937625885, 0.2863129675388336, 0.40333133935928345, 0.4540327787399292, 0.4486071467399597, 0.48796024918556213, 0.5398975014686584, 0.5524681210517883, 0.5143204927444458, 0.46120569109916687, 0.41764262318611145, 0.3295597434043884, 0.2108730673789978, 0.1187107115983963, 0.06640645116567612, -0.004661212675273418, -0.06363759934902191, -0.06827423721551895, -0.08733734488487244, -0.1895163655281067, -0.2800755202770233, -0.33388108015060425, -0.3832210898399353, -0.4596518874168396, -0.5663368105888367, -0.6722978353500366, -0.7244791984558105, -0.7238450646400452, -0.6754021644592285, -0.6025140881538391, -0.5518784523010254, -0.5080492496490479, -0.42460981011390686, -0.39318418502807617, -0.388172447681427, -0.29546260833740234, -0.19458873569965363, -0.14923237264156342, -0.2434411495923996, -0.2997545897960663, -0.3369523882865906, -0.3726999759674072, -0.36701375246047974, -0.4119534194469452, -0.4119287431240082, -0.33405089378356934, -0.262849897146225, -0.3044375777244568, -0.3630032539367676, -0.37115684151649475, -0.3340892791748047, -0.2920704782009125, -0.32987716794013977, -0.36844244599342346, -0.32471394538879395, -0.31077754497528076, -0.3340300917625427, -0.31111323833465576, -0.4549655020236969, -0.5300571322441101, -0.5610606670379639, -0.5894937515258789, -0.5578559041023254, -0.5481220483779907, -0.617914617061615, -0.6195173263549805, -0.6349334120750427, -0.6786345839500427, -0.730158269405365, -0.8133666515350342, -0.9014696478843689, -0.9421544671058655, -0.919682502746582, -0.8367185592651367, -0.7081582546234131, -0.5589956641197205, -0.3820672333240509, -0.19884687662124634, -0.08408373594284058, 0.04540298134088516, 0.018356626853346825, 0.02062630094587803, 0.07428888976573944, 0.17744725942611694, 0.23706713318824768, 0.1653238832950592, 0.11687617748975754, 0.150079146027565, 0.16172266006469727, 0.1815807819366455, 0.2798019051551819, 0.40729957818984985, 0.4861157536506653, 0.559013307094574, 0.5744323134422302, 0.6053598523139954, 0.6897683143615723]
========
sigma2_stimulus	2.392596798017621e-06	log_motor_var	0.009447624906897545	sigma_logit	2.3674147087149322e-07	mixture_logit	8.772531145950779e-08	volume	8.970018825493753e-07
