0.03564651682972908 CrossValid 97.0597152709961 CrossValidLossesBy500 649.172607421875 475.73419189453125 310.8144836425781 211.4075927734375 156.99891662597656 130.65460205078125 118.6279296875 112.58109283447266 109.03150939941406 106.67033386230469 104.88471221923828 103.56688690185547 102.56208801269531 101.8288803100586 101.26425170898438 100.81002807617188 100.42547607421875 100.09272766113281 99.86695861816406 99.6642837524414 99.496337890625 99.34310913085938 99.17781066894531 99.09089660644531 99.00881958007812 98.90936279296875 98.79826354980469 98.69966125488281 98.63784790039062 98.55033874511719 98.49125671386719 98.42063903808594 98.35603332519531 98.31340026855469 98.24673461914062 98.17704772949219 98.14262390136719 98.07897186279297 98.00098419189453 97.92671203613281 97.93451690673828 97.87767791748047 97.79439544677734 97.77118682861328 97.71194458007812 97.65099334716797 97.65721130371094 97.60334014892578 97.60503387451172 97.58241271972656 97.53266143798828 97.51071166992188 97.50442504882812 97.44539642333984 97.45689392089844 97.41849517822266 97.3959732055664 97.38499450683594 97.37195587158203 97.34974670410156 97.32028198242188 97.34104919433594 97.30616760253906 97.29458618164062 97.26956939697266 97.26475524902344 97.21781921386719 97.26105499267578 97.18594360351562 97.20059204101562 97.18672180175781 97.16075134277344 97.15284729003906 97.13172912597656 97.15974426269531 97.13595581054688 97.17013549804688 97.09544372558594 97.13031005859375 97.10951232910156 97.1039810180664 97.13027954101562 97.0597152709961
41500 LossesBy500_4 0.22618360817432404 0.16474777460098267 0.10652069002389908 0.07199214398860931 0.053360406309366226 0.04451777786016464 0.04066498577594757 0.03891103342175484 0.0380244255065918 0.037524543702602386 0.03718044236302376 0.036952126771211624 0.03678811714053154 0.03667990863323212 0.03659891337156296 0.036531176418066025 0.03646804764866829 0.03640701621770859 0.036371298134326935 0.036334943026304245 0.03630310297012329 0.03627007454633713 0.036230187863111496 0.03621390461921692 0.036196958273649216 0.03617142513394356 0.036140598356723785 0.03611336648464203 0.036097992211580276 0.036073002964258194 0.036057248711586 0.03603678196668625 0.03601892292499542 0.03600744903087616 0.03598833456635475 0.03596740588545799 0.035958997905254364 0.0359397828578949 0.035915449261665344 0.035892974585294724 0.03589882329106331 0.03588133305311203 0.03585478290915489 0.035849083214998245 0.035831041634082794 0.03581191971898079 0.03581665828824043 0.03580037131905556 0.0358036570250988 0.03579661250114441 0.03578108176589012 0.035774946212768555 0.03577288240194321 0.03575444966554642 0.03575989603996277 0.03574768453836441 0.03574174642562866 0.03573906421661377 0.03573610633611679 0.03572947531938553 0.03572016954421997 0.035727791488170624 0.035717274993658066 0.035713911056518555 0.03570571914315224 0.035705700516700745 0.03568923845887184 0.035705842077732086 0.03568050637841225 0.03568707033991814 0.03568270802497864 0.03567485138773918 0.035673052072525024 0.03566613793373108 0.03567621111869812 0.03566894307732582 0.035680897533893585 0.0356559231877327 0.035668157041072845 0.03566203638911247 0.035661034286022186 0.03567027673125267 0.03564651682972908
sigma2_stimulus 	 [4.153397083282471, 2.79677677154541]
log_motor_var 	 [7.327386379241943]
sigma_logit 	 [-6.400497913360596, -6.437498569488525, -7.4276556968688965]
mixture_logit 	 [-4.521451473236084]
prior 	 [-0.09531135857105255, -0.10438399016857147, -0.1086309626698494, -0.10724503546953201, -0.09976862370967865, -0.08619771152734756, -0.06710119545459747, -0.043563973158597946, -0.017190324142575264, 0.010105744004249573, 0.03639856353402138, 0.060058195143938065, 0.08000713586807251, 0.09581209719181061, 0.10758224129676819, 0.11573556065559387, 0.12085866928100586, 0.12343782931566238, 0.12394712120294571, 0.12269052118062973, 0.11999541521072388, 0.11618030071258545, 0.11158798635005951, 0.10656215250492096, 0.10138828307390213, 0.09623375535011292, 0.09124922752380371, 0.08647584170103073, 0.08199054002761841, 0.07783786207437515, 0.07408150285482407, 0.0707695335149765, 0.0679197832942009, 0.06552503257989883, 0.06371070444583893, 0.06263232976198196, 0.06255446374416351, 0.06373370438814163, 0.06631939113140106, 0.07030680775642395, 0.07538453489542007, 0.08103519678115845, 0.08655029535293579, 0.09103691577911377, 0.09349896013736725, 0.09299299865961075, 0.0886608436703682, 0.08007146418094635, 0.06727591156959534, 0.050994519144296646, 0.03241218626499176, 0.01304420456290245, -0.005637435708194971, -0.022464485839009285, -0.03673408180475235, -0.04821779951453209, -0.05711111053824425, -0.0639331042766571, -0.06935854256153107, -0.07418497651815414, -0.0792190432548523, -0.08510847389698029, -0.09212911128997803, -0.10019710659980774, -0.10869432240724564, -0.11673735082149506, -0.12342052161693573, -0.12814803421497345, -0.1307821422815323, -0.13180270791053772, -0.1320156306028366, -0.13243092596530914, -0.13376758992671967, -0.13641557097434998, -0.140294149518013, -0.14487393200397491, -0.14955279231071472, -0.153772234916687, -0.15701209008693695, -0.15901751816272736, -0.15989777445793152, -0.15983325242996216, -0.1593431979417801, -0.1589876115322113, -0.1592784821987152, -0.16058650612831116, -0.16285556554794312, -0.16571177542209625, -0.16849617660045624, -0.17037621140480042, -0.1706586480140686, -0.16893796622753143, -0.16541354358196259, -0.16053727269172668, -0.15520735085010529, -0.15047982335090637, -0.14724954962730408, -0.14592058956623077, -0.1464284509420395, -0.1480659544467926, -0.14967034757137299, -0.14984659850597382, -0.1474122852087021, -0.14147856831550598, -0.13183531165122986, -0.11882632970809937, -0.1033066138625145, -0.08647675812244415, -0.06962423026561737, -0.05402425304055214, -0.04073883220553398, -0.0305912047624588, -0.0240042582154274, -0.02088683284819126, -0.020564213395118713, -0.02183803729712963, -0.023216333240270615, -0.02324136160314083, -0.02080720104277134, -0.015371609479188919, -0.007022321689873934, 0.0036573840770870447, 0.015779636800289154, 0.028368361294269562, 0.040512535721063614, 0.051514457911252975, 0.06091456487774849, 0.06854449212551117, 0.07457894086837769, 0.07943876832723618, 0.0836973711848259, 0.0879322811961174, 0.09254083782434464, 0.09770584106445312, 0.10331179201602936, 0.10916061699390411, 0.11507854610681534, 0.12100094556808472, 0.1269804686307907, 0.13311821222305298, 0.13937167823314667, 0.14549028873443604, 0.1509322077035904, 0.15513302385807037, 0.15749679505825043, 0.15757869184017181, 0.155411496758461, 0.15112799406051636, 0.1452694833278656, 0.1385449320077896, 0.1317729651927948, 0.12576015293598175, 0.12108571082353592, 0.11808266490697861, 0.11669420450925827, 0.1164788007736206, 0.11668770760297775, 0.11646725982427597, 0.11504245549440384, 0.11193288117647171, 0.10708694159984589, 0.10084721446037292, 0.09372265636920929, 0.0862930566072464, 0.07889408618211746, 0.07154721766710281, 0.06410424411296844, 0.05628819018602371, 0.04794448986649513, 0.03912525251507759, 0.030036550015211105, 0.020835576578974724, 0.011463784612715244, 0.0015719443326815963, -0.009382383897900581, -0.021882083266973495, -0.03607502579689026, -0.051593270152807236, -0.0675155445933342, -0.08256284147500992]
volume 	 [0.0, 0.0, 0.0, 0.0, 0.0, 0.0, 0.0, 0.0, 0.0, 0.0, 0.0, 0.0, 0.0, 0.0, 0.0, 0.0, 0.0, 0.0, 0.0, 0.0, 0.0, 0.0, 0.0, 0.0, 0.0, 0.0, 0.0, 0.0, 0.0, 0.0, 0.0, 0.0, 0.0, 0.0, 0.0, 0.0, 0.0, 0.0, 0.0, 0.0, 0.0, 0.0, 0.0, 0.0, 0.0, 0.0, 0.0, 0.0, 0.0, 0.0, 0.0, 0.0, 0.0, 0.0, 0.0, 0.0, 0.0, 0.0, 0.0, 0.0, 0.0, 0.0, 0.0, 0.0, 0.0, 0.0, 0.0, 0.0, 0.0, 0.0, 0.0, 0.0, 0.0, 0.0, 0.0, 0.0, 0.0, 0.0, 0.0, 0.0, 0.0, 0.0, 0.0, 0.0, 0.0, 0.0, 0.0, 0.0, 0.0, 0.0, 0.0, 0.0, 0.0, 0.0, 0.0, 0.0, 0.0, 0.0, 0.0, 0.0, 0.0, 0.0, 0.0, 0.0, 0.0, 0.0, 0.0, 0.0, 0.0, 0.0, 0.0, 0.0, 0.0, 0.0, 0.0, 0.0, 0.0, 0.0, 0.0, 0.0, 0.0, 0.0, 0.0, 0.0, 0.0, 0.0, 0.0, 0.0, 0.0, 0.0, 0.0, 0.0, 0.0, 0.0, 0.0, 0.0, 0.0, 0.0, 0.0, 0.0, 0.0, 0.0, 0.0, 0.0, 0.0, 0.0, 0.0, 0.0, 0.0, 0.0, 0.0, 0.0, 0.0, 0.0, 0.0, 0.0, 0.0, 0.0, 0.0, 0.0, 0.0, 0.0, 0.0, 0.0, 0.0, 0.0, 0.0, 0.0, 0.0, 0.0, 0.0, 0.0, 0.0, 0.0, 0.0, 0.0, 0.0, 0.0, 0.0, 0.0]
