0.03235165774822235 CrossValid 66.32254028320312 CrossValidLossesBy500 646.536865234375 468.3803405761719 297.25189208984375 193.31808471679688 134.6871795654297 104.97242736816406 90.88964080810547 83.4926986694336 79.28001403808594 76.67237854003906 74.81797790527344 73.49779510498047 72.48600769042969 71.7115249633789 70.98149108886719 70.38691711425781 69.93974304199219 69.54668426513672 69.16499328613281 68.8239974975586 68.5860595703125 68.3650131225586 68.17652893066406 68.00030517578125 67.85322570800781 67.73779296875 67.56251525878906 67.52930450439453 67.44100952148438 67.34696960449219 67.29592895507812 67.19595336914062 67.186767578125 67.13130187988281 67.10548400878906 67.08636474609375 67.0072021484375 66.9510498046875 66.92958068847656 66.89701843261719 66.8419189453125 66.85607147216797 66.80870819091797 66.78112030029297 66.76988220214844 66.73470306396484 66.74100494384766 66.72099304199219 66.71536254882812 66.66608428955078 66.66924285888672 66.67388916015625 66.65333557128906 66.63700866699219 66.61376953125 66.57959747314453 66.58059692382812 66.54910278320312 66.56044006347656 66.52311706542969 66.49697875976562 66.5003433227539 66.48231506347656 66.47007751464844 66.42377471923828 66.4427719116211 66.43563842773438 66.40021514892578 66.43685150146484 66.41065979003906 66.37068939208984 66.36714935302734 66.3828125 66.34762573242188 66.36827087402344 66.39717102050781 66.36595916748047 66.35440063476562 66.32823181152344 66.36064147949219 66.32254028320312
40500 LossesBy500_1 0.22632724046707153 0.16521526873111725 0.10719502717256546 0.07271834462881088 0.053963854908943176 0.04491044580936432 0.04085629805922508 0.038804251700639725 0.037628695368766785 0.03688327968120575 0.03633221611380577 0.035923294723033905 0.03559714928269386 0.03533842787146568 0.035089150071144104 0.03487497195601463 0.03469931334257126 0.03453661873936653 0.03437117487192154 0.03421403467655182 0.034089405089616776 0.033971160650253296 0.033865414559841156 0.033763378858566284 0.03366928547620773 0.033586643636226654 0.033484816551208496 0.03343147784471512 0.03335784003138542 0.033280834555625916 0.03322240337729454 0.03314830735325813 0.03310013189911842 0.03304971382021904 0.033009063452482224 0.032970670610666275 0.03292366862297058 0.03288004547357559 0.032848719507455826 0.032818909734487534 0.03278065100312233 0.03276596963405609 0.03273099660873413 0.032704610377550125 0.032681629061698914 0.03265569731593132 0.032644324004650116 0.032623328268527985 0.032599516212940216 0.03257542848587036 0.03256851062178612 0.03255675360560417 0.03254155442118645 0.03253113105893135 0.032513152807950974 0.03249331936240196 0.03249109163880348 0.03247369825839996 0.032475002110004425 0.03245869651436806 0.03244742378592491 0.03244730457663536 0.03243805840611458 0.03243066370487213 0.03241178020834923 0.03241562098264694 0.032410990446805954 0.032396864145994186 0.032407794147729874 0.03239605203270912 0.032380640506744385 0.03237755596637726 0.032381463795900345 0.03236717730760574 0.03237376734614372 0.0323818139731884 0.032369643449783325 0.03236519545316696 0.03235482797026634 0.03236580640077591 0.03235165774822235
sigma2_stimulus 	 [4.97208833694458, 2.8203189373016357]
log_motor_var 	 [7.414665699005127]
sigma_logit 	 [-6.441813945770264, -6.473820686340332, -7.213533401489258]
mixture_logit 	 [-4.562971591949463]
prior 	 [0.03309791907668114, 0.01463496033102274, -0.00025081075727939606, -0.009625449776649475, -0.01208135113120079, -0.006943930871784687, 0.005566477309912443, 0.02428104355931282, 0.04722236469388008, 0.07197587937116623, 0.09617269784212112, 0.11798451840877533, 0.13633517920970917, 0.15084534883499146, 0.1615646779537201, 0.16869711875915527, 0.17254333198070526, 0.173317551612854, 0.17140327394008636, 0.16707271337509155, 0.16064706444740295, 0.15235228836536407, 0.14229324460029602, 0.13048610091209412, 0.11706932634115219, 0.10226262360811234, 0.08649367839097977, 0.07035031914710999, 0.054490089416503906, 0.03950243070721626, 0.025841061025857925, 0.013758569955825806, 0.003350235288962722, -0.005394831299781799, -0.012519815005362034, -0.018066177144646645, -0.0220780149102211, -0.02464187890291214, -0.025912942364811897, -0.0261281356215477, -0.025594355538487434, -0.024664415046572685, -0.02373240515589714, -0.023239094763994217, -0.023690784350037575, -0.025657478719949722, -0.02969607152044773, -0.03621787205338478, -0.04531635716557503, -0.05662290006875992, -0.06931572407484055, -0.0822364091873169, -0.09419267624616623, -0.10416842252016068, -0.11152221262454987, -0.11608380079269409, -0.11799082159996033, -0.11758933961391449, -0.11527727544307709, -0.11143453419208527, -0.10654257237911224, -0.1011330634355545, -0.09594622254371643, -0.09168018400669098, -0.08894579857587814, -0.08788499981164932, -0.0881495252251625, -0.08901112526655197, -0.08968149125576019, -0.089615598320961, -0.0886664167046547, -0.08699774742126465, -0.08484499156475067, -0.08234091848134995, -0.07959816604852676, -0.07685714215040207, -0.07461736351251602, -0.07352296262979507, -0.07404464483261108, -0.07622537016868591, -0.0796845406293869, -0.08393079787492752, -0.0886499211192131, -0.09372935444116592, -0.09901825338602066, -0.10401994735002518, -0.10784591734409332, -0.10951653867959976, -0.10843539983034134, -0.10480356216430664, -0.09970040619373322, -0.09479638934135437, -0.09178787469863892, -0.09173746407032013, -0.09469663351774216, -0.09964543581008911, -0.10496096312999725, -0.10896668583154678, -0.11038829386234283, -0.10852852463722229, -0.10318417102098465, -0.09445005655288696, -0.08263306319713593, -0.06821917742490768, -0.05192450061440468, -0.03471869230270386, -0.017752470448613167, -0.0022339976858347654, 0.010686663910746574, 0.01996324397623539, 0.024706337600946426, 0.024290205910801888, 0.018578844144940376, 0.008148673921823502, -0.005620559677481651, -0.02070946991443634, -0.0348554402589798, -0.04604935273528099, -0.052976787090301514, -0.055224016308784485, -0.05330364778637886, -0.048395946621894836, -0.041994333267211914, -0.035541534423828125, -0.03011559508740902, -0.026241382583975792, -0.023895060643553734, -0.022597264498472214, -0.021600449457764626, -0.02008035220205784, -0.01732560805976391, -0.012839565984904766, -0.006428397726267576, 0.001809965237043798, 0.01152237318456173, 0.022170715034008026, 0.03310307860374451, 0.04363434761762619, 0.05311500281095505, 0.06101556867361069, 0.06700797379016876, 0.07104111462831497, 0.07335510104894638, 0.07441098242998123, 0.07478708028793335, 0.07497554272413254, 0.07530859857797623, 0.07579772919416428, 0.07621157169342041, 0.07613307237625122, 0.0751631036400795, 0.07302025705575943, 0.06971075385808945, 0.06549850106239319, 0.060892924666404724, 0.056496068835258484, 0.0528489351272583, 0.05034465715289116, 0.049175653606653214, 0.04940509423613548, 0.05102293938398361, 0.054056502878665924, 0.058587025851011276, 0.06466048955917358, 0.07216183841228485, 0.08067011088132858, 0.08945158123970032, 0.09760105609893799, 0.10434121638536453, 0.10926145315170288, 0.11245810985565186, 0.11432052403688431, 0.11519959568977356, 0.11501956731081009, 0.1131717711687088, 0.10864897072315216, 0.10047046840190887, 0.08811197429895401, 0.07186882197856903, 0.05291334539651871]
volume 	 [0.12127634882926941, 0.19998037815093994, 0.16218644380569458, 0.15599527955055237, 0.11207505315542221, 0.11878613382577896, 0.27831336855888367, 0.29088109731674194, 0.23962339758872986, 0.29013603925704956, 0.32270315289497375, 0.45606791973114014, 0.37659984827041626, 0.3367845118045807, 0.24429097771644592, 0.2451980859041214, 0.2156842201948166, 0.20530815422534943, 0.12888304889202118, 0.04032069817185402, -0.048226527869701385, -0.10536787658929825, -0.17008531093597412, -0.1848544031381607, -0.21471627056598663, -0.27009424567222595, -0.31118181347846985, -0.3309418559074402, -0.3098485767841339, -0.24878722429275513, -0.22981932759284973, -0.2507886290550232, -0.2551642656326294, -0.27160775661468506, -0.2855440676212311, -0.2687511444091797, -0.22958491742610931, -0.20090557634830475, -0.19910402595996857, -0.19266648590564728, -0.1796942502260208, -0.18374010920524597, -0.19846975803375244, -0.1978914737701416, -0.15001006424427032, -0.1042545810341835, -0.13792330026626587, -0.14682801067829132, -0.1146121397614479, -0.09445656090974808, -0.12505404651165009, -0.10997521132230759, -0.029099926352500916, -0.0748216062784195, -0.11382728070020676, -0.07230442017316818, -0.05104586109519005, -0.13366560637950897, -0.15747320652008057, -0.09843111783266068, 0.04911452531814575, 0.09982459992170334, 0.12173286825418472, 0.16016820073127747, 0.0630762055516243, 0.033123359084129333, 0.11177144944667816, 0.12234251201152802, 0.12708647549152374, 0.1530158519744873, 0.14457917213439941, 0.12339381873607635, 0.1705298274755478, 0.2513965964317322, 0.27550920844078064, 0.2896620035171509, 0.3304390609264374, 0.3267691135406494, 0.3079977035522461, 0.33480122685432434, 0.30167150497436523, 0.29999202489852905, 0.29515358805656433, 0.22895072400569916, 0.2849280536174774, 0.3486948013305664, 0.34420305490493774, 0.30017298460006714, 0.35126158595085144, 0.4126729369163513, 0.41880878806114197, 0.428096204996109, 0.48823294043540955, 0.3740245997905731, 0.35919874906539917, 0.42789244651794434, 0.348592609167099, 0.2616495192050934, 0.23906534910202026, 0.17276877164840698, 0.12013927847146988, 0.10434985160827637, 0.09373487532138824, 0.07569148391485214, -0.0065828971564769745, -0.03541754186153412, -0.07698647677898407, -0.09169089049100876, -0.06168701499700546, -0.01161946076899767, 0.05123976245522499, 0.07590597122907639, 0.008646143600344658, -0.014668614603579044, -0.03216426447033882, -0.034636057913303375, -0.013906622305512428, -0.007563010323792696, 0.0037221768870949745, -0.05576246231794357, -0.10373008251190186, -0.06084643304347992, -0.07576969265937805, -0.14532941579818726, -0.20300418138504028, -0.20208527147769928, -0.19874893128871918, -0.15863829851150513, -0.20592917501926422, -0.22435961663722992, -0.2380826622247696, -0.25773313641548157, -0.23166225850582123, -0.21594466269016266, -0.23966990411281586, -0.2219761461019516, -0.20198574662208557, -0.1437947303056717, -0.12946133315563202, -0.16622233390808105, -0.16628524661064148, -0.15394362807273865, -0.20300787687301636, -0.31570300459861755, -0.3404465317726135, -0.2896045744419098, -0.19744490087032318, -0.1692970246076584, -0.20404569804668427, -0.25657665729522705, -0.32375869154930115, -0.3401605188846588, -0.33687010407447815, -0.3280068635940552, -0.3159615397453308, -0.3257209062576294, -0.31376755237579346, -0.29441431164741516, -0.2580397427082062, -0.1703227013349533, -0.11868171393871307, -0.06802256405353546, 0.010457034222781658, 0.07568074762821198, 0.12634800374507904, 0.12501093745231628, 0.09656546264886856, 0.12766999006271362, 0.10511405020952225, 0.19401322305202484, 0.1125158742070198, 0.05423405021429062, 0.05484014004468918, 0.03561355173587799, -0.016473151743412018, -0.017969366163015366, -0.002764970064163208, -0.002459275536239147, 0.09414303302764893, 0.07984406501054764]
