0.030803197994828224 CrossValid 103.56451416015625 CrossValidLossesBy500 648.6971435546875 472.5580749511719 306.32177734375 209.15435791015625 157.78965759277344 133.8069305419922 123.4791259765625 118.75057220458984 116.2672119140625 114.8756332397461 113.89862823486328 113.13703155517578 112.46747589111328 111.93450164794922 111.45575714111328 111.11144256591797 110.72342681884766 110.39900970458984 110.0903549194336 109.77457427978516 109.51454162597656 109.2347183227539 109.03683471679688 108.77877807617188 108.55902862548828 108.30892181396484 108.10772705078125 107.87738800048828 107.70301818847656 107.48500061035156 107.31803131103516 107.11619567871094 106.96826934814453 106.7857894897461 106.61418151855469 106.5008544921875 106.33956909179688 106.25971221923828 106.10111236572266 105.97639465332031 105.87372589111328 105.7732925415039 105.61782836914062 105.53888702392578 105.43395233154297 105.34270477294922 105.21440124511719 105.11324310302734 105.0268325805664 104.93766784667969 104.87970733642578 104.79653930664062 104.73100280761719 104.67645263671875 104.56542205810547 104.5321273803711 104.4377670288086 104.40750122070312 104.34371185302734 104.28816223144531 104.27863311767578 104.2095947265625 104.15440368652344 104.1374282836914 104.07810974121094 104.05123138427734 104.02494049072266 103.97947692871094 103.98666381835938 103.90473937988281 103.9143295288086 103.87207794189453 103.81585693359375 103.83403015136719 103.83987426757812 103.78758239746094 103.77873992919922 103.74091339111328 103.64736938476562 103.70376586914062 103.66828155517578 103.68666076660156 103.635009765625 103.67852020263672 103.63165283203125 103.61670684814453 103.59610748291016 103.60122680664062 103.61042022705078 103.60144805908203 103.56451416015625
45500 LossesBy500_3 0.22631023824214935 0.1646890789270401 0.1063036173582077 0.07147659361362457 0.05261293053627014 0.04357820004224777 0.03951650485396385 0.03756509721279144 0.03648604825139046 0.035829462110996246 0.03535594418644905 0.03498237952589989 0.034673333168029785 0.03442244976758957 0.034200649708509445 0.034032486379146576 0.03386082500219345 0.03371168673038483 0.03357063606381416 0.03342840448021889 0.03330552205443382 0.033180370926856995 0.03308824449777603 0.032970935106277466 0.03287551552057266 0.03276723623275757 0.032678283751010895 0.03257995843887329 0.03250380977988243 0.03241556137800217 0.032341573387384415 0.032259538769721985 0.03219832852482796 0.03211994096636772 0.032047152519226074 0.03199899569153786 0.031927816569805145 0.03188776969909668 0.031823743134737015 0.03177250176668167 0.03173079341650009 0.031687621027231216 0.03162901848554611 0.03159625083208084 0.03155519440770149 0.031520288437604904 0.031474482268095016 0.031437333673238754 0.03140662983059883 0.0313715897500515 0.03134765475988388 0.03131522238254547 0.031289324164390564 0.031265873461961746 0.031221916899085045 0.031210344284772873 0.03117457404732704 0.031157510355114937 0.031133204698562622 0.031111713498830795 0.03110213205218315 0.031073134392499924 0.031054696068167686 0.03104436583817005 0.031022068113088608 0.03101087175309658 0.030998138710856438 0.03097352758049965 0.03097328543663025 0.03094165213406086 0.030943777412176132 0.03092588111758232 0.03090156614780426 0.03090686723589897 0.03090217150747776 0.030884256586432457 0.030883846804499626 0.030871320515871048 0.030845874920487404 0.030858900398015976 0.03084254451096058 0.030847536399960518 0.030828436836600304 0.03084491565823555 0.030828110873699188 0.030823571607470512 0.030815357342362404 0.030817542225122452 0.030820012092590332 0.030817078426480293 0.030803197994828224
sigma2_stimulus 	 [4.992971897125244, 2.857160806655884]
log_motor_var 	 [7.456331729888916]
sigma_logit 	 [-6.416663646697998, -6.481278419494629, -7.245223522186279]
mixture_logit 	 [-4.709453105926514]
prior 	 [0.07668832689523697, 0.08697563409805298, 0.09572706371545792, 0.10012460500001907, 0.09855970740318298, 0.09120681136846542, 0.07978435605764389, 0.06681667268276215, 0.05465744435787201, 0.045000769197940826, 0.038599420338869095, 0.03544223681092262, 0.03495963290333748, 0.0363004244863987, 0.038557786494493484, 0.0409763865172863, 0.04311147704720497, 0.04488197714090347, 0.046545062214136124, 0.04857908934354782, 0.051536209881305695, 0.05593017488718033, 0.062142133712768555, 0.07036109268665314, 0.08051707595586777, 0.09231475740671158, 0.10518800467252731, 0.1184023842215538, 0.1311110556125641, 0.14242039620876312, 0.15155470371246338, 0.15793831646442413, 0.16124778985977173, 0.16141630709171295, 0.15858660638332367, 0.15303494036197662, 0.1450491100549698, 0.1348739117383957, 0.12268771231174469, 0.10859199613332748, 0.09268985688686371, 0.07516808807849884, 0.056325048208236694, 0.0366436243057251, 0.016756724566221237, -0.0025766610633581877, -0.020567234605550766, -0.03649264574050903, -0.0498104952275753, -0.06026766449213028, -0.06798020750284195, -0.07344480603933334, -0.0775030106306076, -0.08117949217557907, -0.08550577610731125, -0.091275155544281, -0.09891584515571594, -0.10838751494884491, -0.11925982683897018, -0.13088743388652802, -0.14255821704864502, -0.15363821387290955, -0.16378290951251984, -0.1726844757795334, -0.18021953105926514, -0.1863415539264679, -0.19091036915779114, -0.19381849467754364, -0.19484345614910126, -0.19383138418197632, -0.19052761793136597, -0.18476299941539764, -0.17640553414821625, -0.16556058824062347, -0.15273118019104004, -0.139026939868927, -0.1262640655040741, -0.11659735441207886, -0.11189915239810944, -0.11305791139602661, -0.11930663138628006, -0.1282675713300705, -0.1365794986486435, -0.1410091519355774, -0.13956822454929352, -0.1322215497493744, -0.12107650935649872, -0.10973402112722397, -0.10214615613222122, -0.10117878019809723, -0.10747536271810532, -0.11926602572202682, -0.13310417532920837, -0.14511226117610931, -0.15218527615070343, -0.1526769995689392, -0.1466147005558014, -0.1354692578315735, -0.1218222826719284, -0.10875754803419113, -0.09932444989681244, -0.09585315734148026, -0.0994831845164299, -0.10989774018526077, -0.12540586292743683, -0.14331568777561188, -0.16045036911964417, -0.173637256026268, -0.18030627071857452, -0.17851978540420532, -0.16740165650844574, -0.14704695343971252, -0.11869073659181595, -0.08446382731199265, -0.04725893959403038, -0.010423854924738407, 0.02268136478960514, 0.04911765456199646, 0.06684374064207077, 0.07507764548063278, 0.07443548738956451, 0.06677573919296265, 0.05481331795454025, 0.04155389964580536, 0.029801174998283386, 0.021704763174057007, 0.01852513663470745, 0.020564349368214607, 0.02728153206408024, 0.037574902176856995, 0.05015040934085846, 0.06390807777643204, 0.07820269465446472, 0.09305276721715927, 0.1090007796883583, 0.12691935896873474, 0.14763478934764862, 0.17150567471981049, 0.19812805950641632, 0.2261449694633484, 0.25325748324394226, 0.276619553565979, 0.2931930422782898, 0.300502747297287, 0.2969217300415039, 0.2821727991104126, 0.25704917311668396, 0.22342431545257568, 0.18372513353824615, 0.1406382918357849, 0.096794992685318, 0.05456193909049034, 0.015885844826698303, -0.017722031101584435, -0.04519365355372429, -0.06588274985551834, -0.0795324519276619, -0.08625209331512451, -0.08648284524679184, -0.08088526129722595, -0.07030372321605682, -0.05568033456802368, -0.03796100988984108, -0.018122784793376923, 0.002863966627046466, 0.023967361077666283, 0.044108837842941284, 0.06219727173447609, 0.07725292444229126, 0.08849049359560013, 0.09545689821243286, 0.09800175577402115, 0.09636741876602173, 0.09118873625993729, 0.08356241881847382, 0.07505837082862854, 0.06760223954916, 0.06314066052436829, 0.0631311908364296, 0.06797869503498077]
volume 	 [0.32779350876808167, 0.37130600214004517, 0.31268376111984253, 0.27862152457237244, 0.26725128293037415, 0.32169803977012634, 0.44928810000419617, 0.44377100467681885, 0.3671841025352478, 0.425143837928772, 0.46148625016212463, 0.5378802418708801, 0.5106084942817688, 0.4460983872413635, 0.39424028992652893, 0.35504695773124695, 0.3342995047569275, 0.2940134108066559, 0.22125467658042908, 0.06437860429286957, -0.03699731081724167, -0.10442672669887543, -0.18413329124450684, -0.19391869008541107, -0.21268397569656372, -0.266131192445755, -0.2897687256336212, -0.30403828620910645, -0.31030258536338806, -0.27655816078186035, -0.26533791422843933, -0.29391756653785706, -0.3077287971973419, -0.30375880002975464, -0.2958086431026459, -0.2924678921699524, -0.26409009099006653, -0.2501535713672638, -0.2694060504436493, -0.2644056975841522, -0.24063174426555634, -0.2394869476556778, -0.257299542427063, -0.2716101408004761, -0.20041504502296448, -0.13026630878448486, -0.1644434779882431, -0.16819079220294952, -0.13520105183124542, -0.1438179314136505, -0.20516422390937805, -0.15250691771507263, -0.10811660438776016, -0.11741761863231659, -0.14946579933166504, -0.13430282473564148, -0.2032361924648285, -0.258135586977005, -0.2458648383617401, -0.12374483048915863, 0.000816465588286519, -0.0026530087925493717, 0.08154276013374329, 0.02021654322743416, -0.052141305059194565, -0.03980935737490654, -0.002477221190929413, -0.0014052698388695717, 0.022954009473323822, 0.01131657138466835, 0.006886126007884741, -0.004412702284753323, 0.027219004929065704, 0.08345098793506622, 0.15184397995471954, 0.18530602753162384, 0.2214166522026062, 0.23674333095550537, 0.20444265007972717, 0.2249951958656311, 0.25936567783355713, 0.28994250297546387, 0.3384617567062378, 0.2641976773738861, 0.2809389531612396, 0.3211768865585327, 0.35804152488708496, 0.3636022210121155, 0.39179739356040955, 0.5000662803649902, 0.5663461089134216, 0.48959457874298096, 0.5154167413711548, 0.4158079922199249, 0.3647215664386749, 0.310952752828598, 0.2629711925983429, 0.18258872628211975, 0.15276403725147247, 0.13502155244350433, 0.08940030634403229, 0.026354137808084488, 0.002856462961062789, 0.002107999986037612, -0.022979436442255974, -0.06831938028335571, -0.1430497020483017, -0.15894968807697296, -0.09711337089538574, -0.0643230602145195, -0.05831904336810112, 0.032570045441389084, 0.10957984626293182, -0.03223152458667755, -0.07439400255680084, -0.06929627060890198, -0.018302597105503082, -0.0023485245183110237, -0.01355447806417942, -0.07666000723838806, -0.12360552698373795, -0.1193343922495842, -0.09443241357803345, -0.09870146960020065, -0.14795441925525665, -0.11974851787090302, -0.1029960960149765, -0.07800770550966263, -0.12311092019081116, -0.19002167880535126, -0.21743141114711761, -0.2363148331642151, -0.2174271047115326, -0.19144070148468018, -0.2276419848203659, -0.23546084761619568, -0.2359154224395752, -0.19866709411144257, -0.14716821908950806, -0.12437622994184494, -0.10753209888935089, -0.08062051981687546, -0.11920240521430969, -0.22389474511146545, -0.23655563592910767, -0.18512827157974243, -0.12631988525390625, -0.1106223315000534, -0.14603495597839355, -0.2611570358276367, -0.33781591057777405, -0.375292032957077, -0.4077737033367157, -0.40658602118492126, -0.40141406655311584, -0.4092422425746918, -0.393929660320282, -0.3486550748348236, -0.26829421520233154, -0.16526351869106293, -0.12621106207370758, -0.08307403326034546, -0.002174071269109845, 0.06015416979789734, 0.12771210074424744, 0.13828736543655396, 0.08517731726169586, 0.13059461116790771, 0.1284596472978592, 0.1656777262687683, 0.15364651381969452, 0.11015690863132477, 0.12670567631721497, 0.1607189029455185, 0.1470537632703781, 0.16556696593761444, 0.15860885381698608, 0.18357418477535248, 0.22366082668304443, 0.23509183526039124]
