0.03505823388695717 CrossValid 113.26648712158203 CrossValidLossesBy500 648.4012451171875 472.9783630371094 307.07244873046875 210.2924041748047 158.61216735839844 134.75442504882812 124.70156860351562 120.46440887451172 118.30374145507812 117.10457611083984 116.45358276367188 115.96558380126953 115.74128723144531 115.50596618652344 115.35610961914062 115.26791381835938 115.16301727294922 115.13618469238281 115.01223754882812 114.94478607177734 114.85069274902344 114.79824829101562 114.74736022949219 114.66251373291016 114.57042694091797 114.52558898925781 114.4312744140625 114.39004516601562 114.33213806152344 114.28800964355469 114.2364730834961 114.14100646972656 114.05960845947266 113.99781036376953 113.93765258789062 113.89019775390625 113.84697723388672 113.80451202392578 113.7193832397461 113.6622085571289 113.5927505493164 113.55986785888672 113.5468978881836 113.48104858398438 113.44762420654297 113.41497802734375 113.41930389404297 113.37157440185547 113.3705825805664 113.32554626464844 113.32827758789062 113.347900390625 113.27854919433594 113.31011962890625 113.26648712158203
27500 LossesBy500_1 0.2262880802154541 0.1649528294801712 0.10669999569654465 0.07200556993484497 0.053071070462465286 0.04410591721534729 0.040171656757593155 0.0384138748049736 0.03746818006038666 0.03690590336918831 0.03656488656997681 0.036304160952568054 0.03615322336554527 0.036013856530189514 0.035915907472372055 0.03584993630647659 0.03578490391373634 0.03575356304645538 0.03569331020116806 0.03565577417612076 0.03561224788427353 0.03558498993515968 0.03556060418486595 0.03552496060729027 0.03548844903707504 0.03546962887048721 0.03543420135974884 0.03541799262166023 0.035395942628383636 0.03538012504577637 0.03536193072795868 0.03532857820391655 0.0353010930120945 0.03528063744306564 0.03526049107313156 0.035245466977357864 0.0352325364947319 0.0352199450135231 0.03519231081008911 0.035174645483493805 0.03515320643782616 0.035144902765750885 0.03514246270060539 0.035121455788612366 0.03511196747422218 0.03510267660021782 0.035105567425489426 0.0350898802280426 0.0350908562541008 0.03507602587342262 0.03507787361741066 0.035085272043943405 0.035061366856098175 0.035073213279247284 0.03505823388695717
sigma2_stimulus 	 [4.16220235824585, 2.751556396484375]
log_motor_var 	 [7.393157958984375]
sigma_logit 	 [-6.410964012145996, -6.468103885650635, -7.474704742431641]
mixture_logit 	 [-4.4986419677734375]
prior 	 [-0.10314595699310303, -0.11201024055480957, -0.11663704365491867, -0.11646490544080734, -0.11127011477947235, -0.1012302115559578, -0.08688843995332718, -0.069077268242836, -0.04884568229317665, -0.02733626589179039, -0.00574721721932292, 0.014734623022377491, 0.032982584089040756, 0.04801592603325844, 0.05911706015467644, 0.06595335155725479, 0.06866875290870667, 0.06792588531970978, 0.06482677161693573, 0.060753848403692245, 0.0571780689060688, 0.05540911480784416, 0.05636865273118019, 0.06043585017323494, 0.0673745721578598, 0.07636506855487823, 0.08613960444927216, 0.09525623172521591, 0.10238707065582275, 0.10662710666656494, 0.10764781385660172, 0.10570799559354782, 0.10156083106994629, 0.0962292030453682, 0.09078723937273026, 0.08619515597820282, 0.08319099992513657, 0.08225235342979431, 0.0834333598613739, 0.0863955095410347, 0.09028080105781555, 0.09385485202074051, 0.09567219763994217, 0.09441810101270676, 0.08924471586942673, 0.08001924306154251, 0.06733902543783188, 0.05230662226676941, 0.036243319511413574, 0.02034830115735531, 0.0055241710506379604, -0.007652780972421169, -0.0188768208026886, -0.02804146334528923, -0.03521348163485527, -0.04068382829427719, -0.04498966038227081, -0.04888554662466049, -0.05321802198886871, -0.0587029829621315, -0.06571684032678604, -0.07419388741254807, -0.08370048552751541, -0.09357886761426926, -0.10318507999181747, -0.1120167151093483, -0.11971556395292282, -0.12605972588062286, -0.1308167576789856, -0.13376475870609283, -0.13477319478988647, -0.13390235602855682, -0.13148744404315948, -0.1282625049352646, -0.12509793043136597, -0.12284427136182785, -0.12206675857305527, -0.12295779585838318, -0.1252814382314682, -0.1285260021686554, -0.132188618183136, -0.13575714826583862, -0.13890647888183594, -0.14134953916072845, -0.14279356598854065, -0.14291509985923767, -0.14132678508758545, -0.13780201971530914, -0.13226115703582764, -0.12502765655517578, -0.11669545620679855, -0.10815739631652832, -0.10032284259796143, -0.09397538006305695, -0.08957400918006897, -0.08718995749950409, -0.08656583726406097, -0.0871986374258995, -0.08853926509618759, -0.09011121094226837, -0.0915650948882103, -0.09265527874231339, -0.09323765337467194, -0.09319140017032623, -0.09237907826900482, -0.09066545963287354, -0.08791738748550415, -0.08398190140724182, -0.07873668521642685, -0.07201170921325684, -0.06357986479997635, -0.05329013988375664, -0.041116863489151, -0.027366168797016144, -0.012760230340063572, 0.0015982127515599132, 0.0144367516040802, 0.024648699909448624, 0.031628526747226715, 0.03546633943915367, 0.03689185902476311, 0.03699452802538872, 0.036862194538116455, 0.03726164996623993, 0.038498327136039734, 0.04044326767325401, 0.042723093181848526, 0.04494626075029373, 0.046916257590055466, 0.04873728007078171, 0.05081390216946602, 0.05377260223031044, 0.05829809978604317, 0.06497746706008911, 0.07417136430740356, 0.08591712266206741, 0.09994903206825256, 0.11574055999517441, 0.132595956325531, 0.14968806505203247, 0.16608263552188873, 0.18065151572227478, 0.19200599193572998, 0.19854623079299927, 0.1987256109714508, 0.1914404034614563, 0.17656603455543518, 0.15522554516792297, 0.1296437531709671, 0.1027604341506958, 0.0775386169552803, 0.05635495483875275, 0.0406363345682621, 0.030756106600165367, 0.02622193656861782, 0.026022622361779213, 0.028977975249290466, 0.03403746336698532, 0.040389250963926315, 0.047449953854084015, 0.0547347255051136, 0.06175382062792778, 0.06799439340829849, 0.07293965667486191, 0.07624150067567825, 0.07769019901752472, 0.07721742987632751, 0.0748223289847374, 0.0704183354973793, 0.06386282294988632, 0.05492999032139778, 0.04348592832684517, 0.029601795598864555, 0.01361867692321539, -0.003905003657564521, -0.022289402782917023, -0.04083828628063202, -0.058885615319013596, -0.0757720023393631, -0.09078525006771088]
volume 	 [0.0, 0.0, 0.0, 0.0, 0.0, 0.0, 0.0, 0.0, 0.0, 0.0, 0.0, 0.0, 0.0, 0.0, 0.0, 0.0, 0.0, 0.0, 0.0, 0.0, 0.0, 0.0, 0.0, 0.0, 0.0, 0.0, 0.0, 0.0, 0.0, 0.0, 0.0, 0.0, 0.0, 0.0, 0.0, 0.0, 0.0, 0.0, 0.0, 0.0, 0.0, 0.0, 0.0, 0.0, 0.0, 0.0, 0.0, 0.0, 0.0, 0.0, 0.0, 0.0, 0.0, 0.0, 0.0, 0.0, 0.0, 0.0, 0.0, 0.0, 0.0, 0.0, 0.0, 0.0, 0.0, 0.0, 0.0, 0.0, 0.0, 0.0, 0.0, 0.0, 0.0, 0.0, 0.0, 0.0, 0.0, 0.0, 0.0, 0.0, 0.0, 0.0, 0.0, 0.0, 0.0, 0.0, 0.0, 0.0, 0.0, 0.0, 0.0, 0.0, 0.0, 0.0, 0.0, 0.0, 0.0, 0.0, 0.0, 0.0, 0.0, 0.0, 0.0, 0.0, 0.0, 0.0, 0.0, 0.0, 0.0, 0.0, 0.0, 0.0, 0.0, 0.0, 0.0, 0.0, 0.0, 0.0, 0.0, 0.0, 0.0, 0.0, 0.0, 0.0, 0.0, 0.0, 0.0, 0.0, 0.0, 0.0, 0.0, 0.0, 0.0, 0.0, 0.0, 0.0, 0.0, 0.0, 0.0, 0.0, 0.0, 0.0, 0.0, 0.0, 0.0, 0.0, 0.0, 0.0, 0.0, 0.0, 0.0, 0.0, 0.0, 0.0, 0.0, 0.0, 0.0, 0.0, 0.0, 0.0, 0.0, 0.0, 0.0, 0.0, 0.0, 0.0, 0.0, 0.0, 0.0, 0.0, 0.0, 0.0, 0.0, 0.0, 0.0, 0.0, 0.0, 0.0, 0.0, 0.0]
