0.030524909496307373 CrossValid 79.03572845458984 CrossValidLossesBy500 729.2510375976562 678.9718627929688 600.106201171875 498.12939453125 399.48663330078125 320.4061279296875 259.627197265625 212.72430419921875 177.60989379882812 152.35523986816406 134.85433959960938 122.87564086914062 114.72444915771484 109.03860473632812 104.93102264404297 101.8154296875 99.35597229003906 97.30267333984375 95.53507995605469 94.0697021484375 92.73509216308594 91.59989166259766 90.47708129882812 89.58158874511719 88.78610229492188 88.07884216308594 87.3891830444336 86.89640045166016 86.31380462646484 85.8790512084961 85.37922668457031 85.01367950439453 84.67303466796875 84.33662414550781 84.01129150390625 83.65565490722656 83.42493438720703 83.12310028076172 82.93289184570312 82.76227569580078 82.54865264892578 82.34550476074219 82.16682434082031 82.07779693603516 81.76477813720703 81.71984100341797 81.54751586914062 81.48433685302734 81.35140228271484 81.19184875488281 81.13369750976562 81.2644271850586 81.09178161621094 80.9777603149414 80.5698013305664 80.27005767822266 80.27247619628906 79.9794921875 79.91903686523438 79.875 79.89368438720703 79.74287414550781 79.7256851196289 79.55189514160156 79.4237289428711 79.29965209960938 79.32318878173828 79.29727935791016 79.27696228027344 79.2461166381836 79.3083267211914 79.15169525146484 79.12720489501953 79.13727569580078 79.03572845458984
37500 LossesBy500_1 0.2423008233308792 0.2257308065891266 0.19985276460647583 0.16653187572956085 0.13440631330013275 0.10864429175853729 0.08878208696842194 0.07340022176504135 0.061822034418582916 0.053437240421772 0.04759424924850464 0.043587345629930496 0.040872834622859955 0.039008185267448425 0.03769770264625549 0.036742135882377625 0.036016520112752914 0.03543755039572716 0.03495398536324501 0.03456868231296539 0.03422212228178978 0.033933788537979126 0.03364226222038269 0.033418264240026474 0.03322133049368858 0.03304349258542061 0.032866690307855606 0.03274785727262497 0.03259285166859627 0.03248276561498642 0.032347459346055984 0.03224962204694748 0.03215840458869934 0.0320657454431057 0.03197154402732849 0.03187122568488121 0.031803570687770844 0.031715020537376404 0.031659502536058426 0.03160882741212845 0.031541213393211365 0.03147675842046738 0.03142380341887474 0.031391724944114685 0.03129580616950989 0.03127817064523697 0.031223686411976814 0.031202048063278198 0.03115716204047203 0.03110615909099579 0.0310878474265337 0.03110881708562374 0.031060881912708282 0.03102903999388218 0.030919048935174942 0.030837928876280785 0.03084154799580574 0.03076072223484516 0.030751178041100502 0.0307383481413126 0.030745476484298706 0.030702117830514908 0.0306997112929821 0.030662931501865387 0.03063414804637432 0.030597664415836334 0.030606184154748917 0.03059329465031624 0.030590321868658066 0.030582020059227943 0.030605090782046318 0.030557433143258095 0.03055201843380928 0.03055683523416519 0.030524909496307373
sigma2_stimulus 	 [4.715961456298828, 2.847370147705078]
log_motor_var 	 [7.648932933807373]
sigma_logit 	 [-6.410081386566162, -6.505756855010986, -7.368757724761963]
mixture_logit 	 [-4.384039402008057]
prior 	 [-0.02156822755932808, -0.01977180503308773, -0.01698881760239601, -0.01334012858569622, -0.00902402214705944, -0.004240777343511581, 0.0009003617451526225, 0.006417501717805862, 0.01238990854471922, 0.01881527341902256, 0.02547893300652504, 0.0319179892539978, 0.03750878572463989, 0.04165002703666687, 0.04392237216234207, 0.044217485934495926, 0.04273463040590286, 0.039940088987350464, 0.036436934024095535, 0.03283082693815231, 0.02963382937014103, 0.0271531380712986, 0.025505948811769485, 0.024645548313856125, 0.02441965788602829, 0.024604033678770065, 0.02493361197412014, 0.025113115087151527, 0.024853214621543884, 0.023922793567180634, 0.02221657522022724, 0.019806569442152977, 0.01693984866142273, 0.013989635743200779, 0.011356407776474953, 0.009359274990856647, 0.008153984323143959, 0.007696923799812794, 0.007765056099742651, 0.008023805916309357, 0.008122485131025314, 0.0077871535904705524, 0.00688919797539711, 0.005468966905027628, 0.0037117130123078823, 0.0018866545287892222, 0.0002718895848374814, -0.000910688191652298, -0.001532883383333683, -0.0015660385834053159, -0.0010656608501449227, -0.00015205056115519255, 0.0009982874616980553, 0.0021488347556442022, 0.0030005809385329485, 0.0032128288876265287, 0.0024619244504719973, 0.0005321208736859262, -0.002593039534986019, -0.0066805994138121605, -0.01126877497881651, -0.015755243599414825, -0.019517932087183, -0.02203737013041973, -0.022977465763688087, -0.022248826920986176, -0.020023701712489128, -0.01673041842877865, -0.012987319380044937, -0.009473982267081738, -0.006776654627174139, -0.005243661813437939, -0.004920702427625656, -0.005593492183834314, -0.00691429665312171, -0.008553750813007355, -0.010316821746528149, -0.012185173109173775, -0.014289071783423424, -0.016833467409014702, -0.020008480176329613, -0.02390649914741516, -0.02845543436706066, -0.03337626904249191, -0.038187090307474136, -0.04225051403045654, -0.044874269515275955, -0.04543105512857437, -0.04346467927098274, -0.03879376873373985, -0.03158416599035263, -0.0224058385938406, -0.012232690118253231, -0.002333960263058543, 0.00596527149900794, 0.011604651808738708, 0.01406206376850605, 0.013454231433570385, 0.010420596227049828, 0.005862426478415728, 0.0006596196908503771, -0.00452521163970232, -0.009324601851403713, -0.013636287301778793, -0.0175285916775465, -0.0211176760494709, -0.024473320692777634, -0.027556387707591057, -0.03023194894194603, -0.032322488725185394, -0.033677514642477036, -0.03424237295985222, -0.034079719334840775, -0.03334726393222809, -0.032240163534879684, -0.030886787921190262, -0.029316116124391556, -0.027430230751633644, -0.025060506537556648, -0.022061102092266083, -0.018406039103865623, -0.014238636009395123, -0.009862362407147884, -0.0056739868596196175, -0.002068151021376252, 0.0006532064289785922, 0.0023467245046049356, 0.0030538763385266066, 0.0029827291145920753, 0.002448038198053837, 0.0017850492149591446, 0.0012638700427487493, 0.0010320896981284022, 0.0011032585753127933, 0.0013899763580411673, 0.0017649480141699314, 0.002123347483575344, 0.0024223087821155787, 0.0026835743337869644, 0.0029630677308887243, 0.0033068149350583553, 0.003717399900779128, 0.004150180146098137, 0.0045412275940179825, 0.004853112157434225, 0.00511223915964365, 0.005415864288806915, 0.005901286844164133, 0.0066903517581522465, 0.007834616117179394, 0.009286150336265564, 0.010904772207140923, 0.012497616931796074, 0.013876304030418396, 0.014912078157067299, 0.015575850382447243, 0.015958916395902634, 0.016263440251350403, 0.016760610044002533, 0.017726492136716843, 0.019343482330441475, 0.021633954718708992, 0.02442815713584423, 0.02737955003976822, 0.030045082792639732, 0.03195642679929733, 0.03268178179860115, 0.03184790164232254, 0.029215259477496147, 0.02473258227109909, 0.018629498779773712, 0.011421635746955872, 0.0038282654713839293, -0.003409367287531495, -0.009704496711492538, -0.014729487709701061, -0.018407536670565605, -0.0208224356174469, -0.022104443982243538, -0.022344572469592094]
volume 	 [0.028288064524531364, 0.08698876202106476, 0.10663007199764252, 0.11914956569671631, 0.14926853775978088, 0.15458309650421143, 0.17768168449401855, 0.156965970993042, 0.2052059918642044, 0.20917141437530518, 0.20098595321178436, 0.1683824062347412, 0.17039909958839417, 0.1888311207294464, 0.16498121619224548, 0.1195884570479393, 0.1452830731868744, 0.10064505785703659, 0.0993216261267662, 0.03731461614370346, -0.026490164920687675, -0.04694662243127823, -0.08776790648698807, -0.09369730204343796, -0.12915600836277008, -0.15072032809257507, -0.12217167019844055, -0.15612930059432983, -0.2245682030916214, -0.23212206363677979, -0.1935131549835205, -0.16929535567760468, -0.11959423124790192, -0.20976576209068298, -0.2032380998134613, -0.1593397706747055, -0.16444680094718933, -0.15654894709587097, -0.12818115949630737, -0.16578014194965363, -0.22477436065673828, -0.24108396470546722, -0.20211493968963623, -0.18386678397655487, -0.11568286269903183, -0.14213043451309204, -0.16195660829544067, -0.16735203564167023, -0.0867624580860138, -0.10486014187335968, -0.048230599611997604, -0.053256191313266754, -0.05667833238840103, -0.1076405793428421, -0.07999717444181442, -0.011964407749474049, -0.029910610988736153, -0.0767119824886322, -0.06249862164258957, 0.045272354036569595, 0.052971165627241135, -0.020629404112696648, -0.07522334903478622, -0.06968073546886444, -0.021354874595999718, -0.0077941883355379105, -0.0022908232640475035, 0.021683569997549057, 0.07209570705890656, 0.041193824261426926, 0.05137394741177559, 0.027509227395057678, 0.08613494783639908, 0.14068597555160522, 0.10981335490942001, 0.11500006914138794, 0.21456637978553772, 0.17673051357269287, 0.17812101542949677, 0.1507822871208191, 0.12603619694709778, 0.14787042140960693, 0.228660449385643, 0.19177448749542236, 0.1900443583726883, 0.24572305381298065, 0.2521975338459015, 0.17476288974285126, 0.2173256278038025, 0.32430505752563477, 0.27719688415527344, 0.27598825097084045, 0.2602976858615875, 0.45610424876213074, 0.32127609848976135, 0.3337121605873108, 0.26520881056785583, 0.3183545172214508, 0.28731587529182434, 0.24600721895694733, 0.20845100283622742, 0.1401863545179367, 0.08196111768484116, 0.03365769237279892, -0.012254382483661175, -0.017812779173254967, 0.00411296496167779, -0.06926420331001282, -0.0960361510515213, -0.009545372799038887, -0.017577871680259705, -0.018709691241383553, -0.032956093549728394, -0.03460663929581642, -0.09760987758636475, -0.1535901129245758, -0.10802054405212402, -0.021207626909017563, -8.344485831912607e-05, -0.052827171981334686, -0.04536622762680054, -0.03773790970444679, -0.06098010018467903, -0.11776267737150192, -0.17336273193359375, -0.16994608938694, -0.10343880206346512, -0.0782332494854927, -0.1259971708059311, -0.14178206026554108, -0.15383265912532806, -0.16615447402000427, -0.14156556129455566, -0.05164257064461708, -0.04030828922986984, -0.15564051270484924, -0.16989561915397644, -0.16588075459003448, -0.09806692600250244, -0.11842413246631622, -0.13587886095046997, -0.107395701110363, -0.06392335146665573, -0.14641566574573517, -0.2066703736782074, -0.2555515170097351, -0.26824817061424255, -0.2565425932407379, -0.25047987699508667, -0.25554612278938293, -0.2138807475566864, -0.16120070219039917, -0.21390338242053986, -0.25098204612731934, -0.23352783918380737, -0.21600639820098877, -0.20716629922389984, -0.16072452068328857, -0.12787047028541565, -0.11410912126302719, -0.06951329112052917, -0.030598631128668785, -0.005614731926470995, 0.0059754373505711555, 0.03850814700126648, 0.12797904014587402, 0.1529749184846878, 0.25879180431365967, 0.25296449661254883, 0.3087541162967682, 0.21610908210277557, 0.23443067073822021, 0.14354491233825684, 0.13477380573749542, 0.09969333559274673, 0.0706900879740715, 0.12625238299369812, 0.07537035644054413, 0.09420868009328842, 0.08060348033905029]
