0.03353983908891678 CrossValid 122.41191101074219 CrossValidLossesBy500 793.4022216796875 676.6801147460938 584.6660766601562 484.25689697265625 394.80322265625 324.495849609375 269.4868469238281 226.9830322265625 195.21160888671875 172.6539764404297 157.23875427246094 147.0125732421875 140.4461212158203 135.95223999023438 133.29360961914062 131.74026489257812 130.09799194335938 129.27267456054688 128.52359008789062 128.0288848876953 127.5735092163086 126.84751892089844 126.89226531982422 126.71537017822266 126.46024322509766 126.36771392822266 126.09309387207031 126.0164794921875 125.8966064453125 125.79373168945312 125.62979125976562 125.50421905517578 125.38621520996094 125.22119140625 125.21836853027344 124.95551300048828 124.91166687011719 124.72760772705078 124.65723419189453 124.69329071044922 124.42276000976562 124.37935638427734 124.37713623046875 124.14849853515625 124.0250473022461 124.01754760742188 123.85213470458984 123.79435729980469 123.76811218261719 123.64497375488281 123.64396667480469 123.54385375976562 123.55821228027344 123.49775695800781 123.47955322265625 123.33019256591797 123.30999755859375 123.30254364013672 123.34400939941406 123.28727722167969 123.3203125 123.17096710205078 123.13029479980469 123.1371841430664 123.19456481933594 123.1138687133789 123.05223846435547 122.94642639160156 122.8917465209961 122.871826171875 122.87250518798828 122.90589141845703 122.7590103149414 122.70857238769531 122.41191101074219
37500 LossesBy500_0 0.25649598240852356 0.22255602478981018 0.19304749369621277 0.16036155819892883 0.13092051446437836 0.10767490416765213 0.08923134207725525 0.07480964809656143 0.06388359516859055 0.05598367005586624 0.0504586398601532 0.046688783913850784 0.04416951537132263 0.042373254895210266 0.04121043533086777 0.04044234752655029 0.03966895118355751 0.039187826216220856 0.038752228021621704 0.038418419659137726 0.038113269954919815 0.037734560668468475 0.037620559334754944 0.03744439408183098 0.03725258633494377 0.03712240606546402 0.03693709895014763 0.036824632436037064 0.036703094840049744 0.0365905687212944 0.03646284341812134 0.03635111451148987 0.03624469041824341 0.036126937717199326 0.0360650010406971 0.03592155873775482 0.03585229068994522 0.035740096122026443 0.03566744923591614 0.03563300892710686 0.03549835458397865 0.03544051945209503 0.03539787605404854 0.035279612988233566 0.03519713878631592 0.035154640674591064 0.03505784273147583 0.03499774634838104 0.03494742885231972 0.03486284986138344 0.03481947258114815 0.0347418338060379 0.03470291942358017 0.034636855125427246 0.03458624705672264 0.03449266776442528 0.03444051370024681 0.034396156668663025 0.03436726704239845 0.03430784493684769 0.034279000014066696 0.03419070318341255 0.03414115682244301 0.03410826623439789 0.03409358486533165 0.034034792333841324 0.03398355469107628 0.03391888365149498 0.03387158364057541 0.033836979418992996 0.033810023218393326 0.03379625454545021 0.03371771052479744 0.03367232531309128 0.03353983908891678
sigma2_stimulus 	 [4.801207065582275, 2.9100241661071777]
log_motor_var 	 [7.848378658294678]
sigma_logit 	 [-6.384525775909424, -6.450387001037598, -7.26124382019043]
mixture_logit 	 [-4.385319709777832]
prior 	 [1.0]
volume 	 [0.33282342553138733, 0.26539966464042664, 0.24243085086345673, 0.17878535389900208, 0.16451643407344818, 0.19225606322288513, 0.3279151916503906, 0.36966538429260254, 0.3443242013454437, 0.34016790986061096, 0.31373944878578186, 0.3443809747695923, 0.3605368435382843, 0.35556772351264954, 0.29476144909858704, 0.21391643583774567, 0.17396368086338043, 0.16200660169124603, 0.1351621299982071, 0.14864495396614075, 0.056595031172037125, 0.020242176949977875, -0.07579504698514938, -0.12635552883148193, -0.17452025413513184, -0.17320336401462555, -0.2075279951095581, -0.2595256268978119, -0.3060583770275116, -0.3141385018825531, -0.24982000887393951, -0.22078174352645874, -0.25879451632499695, -0.28150275349617004, -0.2621529996395111, -0.2588752806186676, -0.2533329725265503, -0.2584897577762604, -0.2958216667175293, -0.27384185791015625, -0.2228858768939972, -0.2396848201751709, -0.23669318854808807, -0.23750121891498566, -0.14334344863891602, -0.16518215835094452, -0.16619808971881866, -0.1338668018579483, -0.05660736560821533, -0.15856485068798065, -0.08106347173452377, -0.09063823521137238, -0.07162725925445557, -0.07950323075056076, -0.11205673962831497, -0.15781822800636292, -0.17742162942886353, -0.13313257694244385, -0.03638334944844246, -0.0431976355612278, -0.018922243267297745, -0.03132325038313866, -0.09519461542367935, -0.03920704498887062, 0.01552731916308403, 0.066289983689785, 0.012682197615504265, 0.0017962128622457385, 0.01658950187265873, 0.02545691840350628, 0.0832330584526062, 0.0853518396615982, 0.07081685960292816, 0.06556826829910278, 0.0941016897559166, 0.13220743834972382, 0.14002099633216858, 0.1564253866672516, 0.2261894941329956, 0.2206813097000122, 0.24559734761714935, 0.2907111346721649, 0.19416101276874542, 0.18339811265468597, 0.2160688042640686, 0.2651664912700653, 0.25983473658561707, 0.2342347502708435, 0.2761304974555969, 0.3494352698326111, 0.3457789719104767, 0.3208206295967102, 0.33830690383911133, 0.36772897839546204, 0.2741833031177521, 0.21779875457286835, 0.18896585702896118, 0.2197769731283188, 0.18271185457706451, 0.1614961177110672, 0.13958805799484253, 0.11601988226175308, 0.08512312918901443, 0.05752578005194664, 0.03077082894742489, 0.005390088073909283, -0.012125578708946705, -0.07429271936416626, -0.10412491858005524, -0.08601026237010956, -0.029934225603938103, 6.943976768525317e-05, 0.01201548520475626, 0.06777156889438629, 0.007635680492967367, -0.05325717106461525, -0.09826236218214035, -0.03802056610584259, -0.016812697052955627, -0.035124145448207855, -0.07326527684926987, -0.11059769243001938, -0.13437020778656006, -0.13722112774848938, -0.1077694296836853, -0.19577664136886597, -0.25229451060295105, -0.211616650223732, -0.16207383573055267, -0.179250568151474, -0.2421393245458603, -0.24135535955429077, -0.24772265553474426, -0.18340839445590973, -0.1726256161928177, -0.21455979347229004, -0.2102186530828476, -0.1782606989145279, -0.11244531720876694, -0.08679971098899841, -0.12217384576797485, -0.10558128356933594, -0.15576985478401184, -0.21982237696647644, -0.2185710072517395, -0.1724548637866974, -0.13044247031211853, -0.1351487785577774, -0.22905783355236053, -0.28888654708862305, -0.28868401050567627, -0.29916125535964966, -0.26477867364883423, -0.29059118032455444, -0.29674410820007324, -0.28718826174736023, -0.22535458207130432, -0.15787743031978607, -0.10928614437580109, -0.07514102011919022, 0.009756309911608696, 0.03440815210342407, 0.07888177037239075, 0.08963999152183533, 0.07217179983854294, 0.09790728986263275, 0.14305521547794342, 0.17362135648727417, 0.23434512317180634, 0.1679517924785614, 0.1584017276763916, 0.24006156623363495, 0.19119848310947418, 0.17389750480651855, 0.1647941917181015, 0.15633100271224976, 0.13786569237709045, 0.15704374015331268, 0.15379686653614044, 0.21292200684547424]
