0.03285446763038635 CrossValid 102.76667022705078 CrossValidLossesBy500 106.20651245117188 104.03269958496094 102.26139831542969 102.6738510131836 102.78803253173828 102.76665496826172 102.76667022705078
3500 LossesBy500 0.03377910330891609 0.033685456961393356 0.03298809379339218 0.032881639897823334 0.03286193683743477 0.03285446763038635 0.03285446763038635
sigma2_stimulus 	 [6.958138465881348, 3.0728988647460938]
log_motor_var 	 [6.256340503692627]
sigma_logit 	 [-6.251899242401123, -6.283424377441406, -7.001577377319336]
mixture_logit 	 [-4.5532026290893555]
prior 	 [0.38563522696495056, 0.31279435753822327, 0.28672948479652405, 0.33108633756637573, 0.39059823751449585, 0.3816734552383423, 0.3015148937702179, 0.22617384791374207, 0.21249090135097504, 0.24618558585643768, 0.26959237456321716, 0.24984769523143768, 0.2102067917585373, 0.18623460829257965, 0.1849430650472641, 0.19120348989963531, 0.1965474784374237, 0.20694534480571747, 0.22681057453155518, 0.2460908740758896, 0.25007954239845276, 0.23852989077568054, 0.23001329600811005, 0.24426600337028503, 0.2813512682914734, 0.31800004839897156, 0.3293452262878418, 0.31628847122192383, 0.3013770580291748, 0.30001941323280334, 0.3079378008842468, 0.3140147626399994, 0.3137236535549164, 0.30615901947021484, 0.28872567415237427, 0.26234856247901917, 0.2343616485595703, 0.20996461808681488, 0.18739303946495056, 0.16613498330116272, 0.15154488384723663, 0.14350563287734985, 0.12812440097332, 0.0931333675980568, 0.04816257581114769, 0.014605731703341007, -0.0023797452449798584, -0.019405730068683624, -0.05087664723396301, -0.08971905708312988, -0.12146194279193878, -0.14894400537014008, -0.19075672328472137, -0.25303584337234497, -0.3129730522632599, -0.3397520184516907, -0.32704243063926697, -0.3041035830974579, -0.31423419713974, -0.3723635673522949, -0.4474286437034607, -0.4939380884170532, -0.4932873845100403, -0.4687029719352722, -0.46526849269866943, -0.5042041540145874, -0.559727132320404, -0.5917267203330994, -0.5876477360725403, -0.5706986784934998, -0.5710380673408508, -0.5898480415344238, -0.6062823534011841, -0.6116870641708374, -0.6207534670829773, -0.6451712250709534, -0.6648905277252197, -0.6529380083084106, -0.6127843260765076, -0.5887086987495422, -0.6159656643867493, -0.6717725396156311, -0.698801577091217, -0.6728622317314148, -0.6247519850730896, -0.6062110066413879, -0.63246089220047, -0.6670439839363098, -0.6692027449607849, -0.632582426071167, -0.5888152122497559, -0.5794357657432556, -0.6117314100265503, -0.6493735313415527, -0.649071455001831, -0.6035560965538025, -0.5459060072898865, -0.5171082019805908, -0.5233156681060791, -0.5386694669723511, -0.5402049422264099, -0.5212244987487793, -0.4830641448497772, -0.4335765838623047, -0.3930603861808777, -0.3824910521507263, -0.39550772309303284, -0.3972969055175781, -0.3592936098575592, -0.28736376762390137, -0.2192409336566925, -0.19470663368701935, -0.2189844697713852, -0.25419747829437256, -0.2505701780319214, -0.18897296488285065, -0.10383341461420059, -0.06061023473739624, -0.08183363080024719, -0.1123955175280571, -0.08761581778526306, -0.003959030378609896, 0.07744811475276947, 0.09928187727928162, 0.08500070869922638, 0.10498915612697601, 0.1840948611497879, 0.26831698417663574, 0.2833453416824341, 0.23864899575710297, 0.21890763938426971, 0.277824729681015, 0.38377273082733154, 0.44840002059936523, 0.4242713153362274, 0.360809862613678, 0.33242690563201904, 0.36555755138397217, 0.43276432156562805, 0.48227593302726746, 0.47846293449401855, 0.43177932500839233, 0.39251384139060974, 0.41003161668777466, 0.489044725894928, 0.5717846155166626, 0.579677402973175, 0.5085284113883972, 0.4393264949321747, 0.44008898735046387, 0.5033388137817383, 0.5600590109825134, 0.5545918345451355, 0.510176420211792, 0.48663264513015747, 0.5053403377532959, 0.5365813970565796, 0.5419511795043945, 0.5198474526405334, 0.49311038851737976, 0.4693877100944519, 0.43472662568092346, 0.3876760005950928, 0.35426390171051025, 0.3611053228378296, 0.3996082842350006, 0.4254961311817169, 0.4068429172039032, 0.36306819319725037, 0.33485209941864014, 0.3434222638607025, 0.37627434730529785, 0.4074583053588867, 0.4175226092338562, 0.3972795605659485, 0.3578481674194336, 0.33290359377861023, 0.35205450654029846, 0.4037955105304718, 0.42921799421310425]
volume 	 [0.0, 0.0, 0.0, 0.0, 0.0, 0.0, 0.0, 0.0, 0.0, 0.0, 0.0, 0.0, 0.0, 0.0, 0.0, 0.0, 0.0, 0.0, 0.0, 0.0, 0.0, 0.0, 0.0, 0.0, 0.0, 0.0, 0.0, 0.0, 0.0, 0.0, 0.0, 0.0, 0.0, 0.0, 0.0, 0.0, 0.0, 0.0, 0.0, 0.0, 0.0, 0.0, 0.0, 0.0, 0.0, 0.0, 0.0, 0.0, 0.0, 0.0, 0.0, 0.0, 0.0, 0.0, 0.0, 0.0, 0.0, 0.0, 0.0, 0.0, 0.0, 0.0, 0.0, 0.0, 0.0, 0.0, 0.0, 0.0, 0.0, 0.0, 0.0, 0.0, 0.0, 0.0, 0.0, 0.0, 0.0, 0.0, 0.0, 0.0, 0.0, 0.0, 0.0, 0.0, 0.0, 0.0, 0.0, 0.0, 0.0, 0.0, 0.0, 0.0, 0.0, 0.0, 0.0, 0.0, 0.0, 0.0, 0.0, 0.0, 0.0, 0.0, 0.0, 0.0, 0.0, 0.0, 0.0, 0.0, 0.0, 0.0, 0.0, 0.0, 0.0, 0.0, 0.0, 0.0, 0.0, 0.0, 0.0, 0.0, 0.0, 0.0, 0.0, 0.0, 0.0, 0.0, 0.0, 0.0, 0.0, 0.0, 0.0, 0.0, 0.0, 0.0, 0.0, 0.0, 0.0, 0.0, 0.0, 0.0, 0.0, 0.0, 0.0, 0.0, 0.0, 0.0, 0.0, 0.0, 0.0, 0.0, 0.0, 0.0, 0.0, 0.0, 0.0, 0.0, 0.0, 0.0, 0.0, 0.0, 0.0, 0.0, 0.0, 0.0, 0.0, 0.0, 0.0, 0.0, 0.0, 0.0, 0.0, 0.0, 0.0, 0.0, 0.0, 0.0, 0.0, 0.0, 0.0, 0.0]
========
sigma2_stimulus	4.336391612014268e-06	log_motor_var	0.0019697684329003096	sigma_logit	7.386552169919014e-08	mixture_logit	2.495653461664915e-09	prior	9.021368896355852e-06	volume	0.0
