132.57968139648438 CrossValid 24955.685546875 CrossValidLossesBy500 26246.6796875 24955.40625 24955.80078125 24955.68359375 24955.685546875
2500 LossesBy500 139.80711364746094 132.5824737548828 132.57969665527344 132.57968139648438 132.57968139648438
sigma2_stimulus 	 [0.0]
log_motor_var 	 [7.69794225692749]
sigma_logit 	 [-5.476356029510498, -6.414068222045898]
mixture_logit 	 [-5.463010311126709]
prior_mu 	 [3.2627718448638916, 3.214817523956299, 3.308811902999878, 3.228802442550659, 3.297576904296875, 3.3237948417663574, 3.2575669288635254, 3.282313585281372, 3.2732083797454834, 3.3744559288024902, 3.300607204437256, 3.326127767562866, 3.343658924102783, 3.3742852210998535, 3.4393765926361084, 3.418221950531006, 3.3428547382354736, 3.414929151535034, 3.3027498722076416, 3.4727299213409424, 3.4815287590026855]
prior_s 	 [-1.6884818077087402]
volume 	 [0.0]
========
log_motor_var	5.739275366067886e-07	sigma_logit	7.711350917816162e-07	mixture_logit	4.9476511776447296e-08	prior_mu	9.909272193908691e-07	prior_s	1.94646418094635e-06
