NA CrossValid 24991.791015625 CrossValidLossesBy500 NA
1000000 LossesBy500 NA
sigma2_stimulus 	 [0.0]
log_motor_var 	 [7.673439025878906]
sigma_logit 	 [-5.497079849243164, -6.421037673950195]
mixture_logit 	 [-5.391461372375488]
prior_mu 	 [2.9148871898651123, 2.8660428524017334, 2.9565865993499756, 2.8713128566741943, 2.965097427368164, 2.9740707874298096, 2.9209134578704834, 2.9423441886901855, 2.924297571182251, 3.023796796798706, 2.9580376148223877, 2.985405921936035, 2.9948842525482178, 3.030449628829956, 3.0903139114379883, 3.0776147842407227, 2.9992783069610596, 3.057333469390869, 2.956618070602417, 3.1373703479766846, 3.1388397216796875]
prior_s 	 [-1.702508568763733]
volume 	 [0.0]
