NA CrossValid 25106.109375 CrossValidLossesBy500 NA
1000000 LossesBy500 NA
sigma2_stimulus 	 [0.0]
log_motor_var 	 [7.678360462188721]
sigma_logit 	 [-5.52523136138916, -6.397566318511963]
mixture_logit 	 [-5.33920955657959]
prior_mu 	 [2.830226421356201, 2.7796685695648193, 2.8681094646453857, 2.7846791744232178, 2.864384651184082, 2.883436918258667, 2.8269548416137695, 2.8499650955200195, 2.8406875133514404, 2.9397053718566895, 2.8658835887908936, 2.8944122791290283, 2.9042885303497314, 2.939208745956421, 2.999225378036499, 2.994349241256714, 2.9081249237060547, 2.9796860218048096, 2.8617770671844482, 3.049288034439087, 3.057791233062744]
prior_s 	 [-1.692945957183838]
volume 	 [0.0]
