NA CrossValid 25396.36328125 CrossValidLossesBy500 NA
1000000 LossesBy500 NA
sigma2_stimulus 	 [0.0]
log_motor_var 	 [8.34279727935791]
sigma_logit 	 [-5.396457195281982, -6.201633930206299]
mixture_logit 	 [-4.880098342895508]
prior_mu 	 [-0.10285703092813492, -0.35587069392204285, -0.6510387063026428, -0.35089412331581116, -0.6659417748451233, -0.3423817753791809, -0.6450735330581665, -0.29609134793281555, -1.0495085716247559, -0.7292852401733398, -1.0210410356521606, -0.24028927087783813, -1.610898494720459, -0.19147787988185883, -0.27402493357658386, -0.040146615356206894, -0.4623582363128662, -0.28215059638023376, -2.0060031414031982, -0.8544535040855408, -0.2969423234462738]
prior_s 	 [-3.7544100284576416, -3.3075757026672363, -2.7937605381011963, -3.3072712421417236, -2.7956745624542236, -3.1764907836914062, -2.840790271759033, -3.2966501712799072, -2.484985589981079, -2.638885259628296, -2.4781973361968994, -3.317599058151245, -2.0738494396209717, -3.3398985862731934, -3.1123573780059814, -3.594362735748291, -2.937171697616577, -3.1313493251800537, -1.9307504892349243, -2.4022295475006104, -2.9749951362609863]
volume 	 [0.0]
