132.68154907226562 CrossValid 24795.80078125 CrossValidLossesBy500 26207.720703125 24797.27734375 24795.76953125 24795.80078125
2000 LossesBy500 140.10488891601562 132.68519592285156 132.6815948486328 132.68154907226562
sigma2_stimulus 	 [0.0]
log_motor_var 	 [7.655418872833252]
sigma_logit 	 [-5.485146522521973, -6.424893379211426]
mixture_logit 	 [-5.440357208251953]
prior_mu 	 [3.080617904663086, 3.029524087905884, 3.1172003746032715, 3.0398240089416504, 3.112032651901245, 3.1369986534118652, 3.083005428314209, 3.105097532272339, 3.0875790119171143, 3.187652349472046, 3.1238672733306885, 3.1456048488616943, 3.162454843521118, 3.204676628112793, 3.2468550205230713, 3.2454211711883545, 3.163123369216919, 3.224700450897217, 3.1191070079803467, 3.296975612640381, 3.3091208934783936]
prior_s 	 [-1.703481674194336]
volume 	 [0.0]
========
log_motor_var	4.674342926591635e-05	sigma_logit	0.00030514970421791077	mixture_logit	1.4878809452056885e-05	prior_mu	0.00045897066593170166	prior_s	0.0016157366335391998
