132.44049072265625 CrossValid 25191.71484375 CrossValidLossesBy500 26521.755859375 25192.091796875 25191.759765625 25191.71484375 25191.71484375
2500 LossesBy500 139.663330078125 132.44284057617188 132.4405059814453 132.44049072265625 132.44049072265625
sigma2_stimulus 	 [0.0]
log_motor_var 	 [7.6905999183654785]
sigma_logit 	 [-5.478260517120361, -6.413511276245117]
mixture_logit 	 [-5.520800590515137]
prior_mu 	 [3.2616326808929443, 3.214559555053711, 3.3066887855529785, 3.2223918437957764, 3.302845001220703, 3.3157448768615723, 3.263537645339966, 3.2861273288726807, 3.2689461708068848, 3.372093677520752, 3.3063228130340576, 3.3291234970092773, 3.344604015350342, 3.3759655952453613, 3.435239791870117, 3.4189834594726562, 3.3427693843841553, 3.412271022796631, 3.297274351119995, 3.4872350692749023, 3.49261474609375]
prior_s 	 [-1.6855413913726807]
volume 	 [0.0]
========
log_motor_var	1.0384246706962585e-07	sigma_logit	2.000480890274048e-06	mixture_logit	3.119930624961853e-08	prior_mu	1.2367963790893555e-06	prior_s	1.691281795501709e-06
