NA CrossValid 25191.501953125 CrossValidLossesBy500 NA
1000000 LossesBy500 NA
sigma2_stimulus 	 [0.0]
log_motor_var 	 [8.461216926574707]
sigma_logit 	 [-5.375811576843262, -6.185301780700684]
mixture_logit 	 [-4.940066337585449]
prior_mu 	 [-0.10389146208763123, -0.35227346420288086, -1.1723301410675049, -0.35911303758621216, -0.9309470057487488, -0.47421807050704956, -0.9147810935974121, -0.2294119894504547, -0.8244797587394714, -0.7739927768707275, -0.530733048915863, -0.3409966230392456, -0.5631181597709656, -0.3460518419742584, -0.5569986701011658, -0.09151632338762283, -0.28303083777427673, -0.3346438407897949, -2.201554775238037, -0.6883379220962524, -0.15948568284511566]
prior_s 	 [-3.750434160232544, -3.322852611541748, -2.3281757831573486, -3.2643373012542725, -2.540618896484375, -2.9813015460968018, -2.5973567962646484, -3.4050848484039307, -2.6656033992767334, -2.589550256729126, -2.902863025665283, -3.1535985469818115, -2.8358805179595947, -3.073612928390503, -2.7415378093719482, -3.469568967819214, -3.1730401515960693, -3.0337018966674805, -1.8238695859909058, -2.5466537475585938, -3.165393590927124]
volume 	 [0.0]
