132.68016052246094 CrossValid 24796.986328125 CrossValidLossesBy500 26286.328125 24797.0390625 24796.986328125
1500 LossesBy500 140.48294067382812 132.68576049804688 132.68016052246094
sigma2_stimulus 	 [0.0]
log_motor_var 	 [7.656874656677246]
sigma_logit 	 [-5.51116943359375, -6.414371967315674]
mixture_logit 	 [-5.399104118347168]
prior_mu 	 [2.9159324169158936, 2.8655824661254883, 2.952909231185913, 2.876516580581665, 2.947075605392456, 2.9739701747894287, 2.9181339740753174, 2.9408626556396484, 2.922940254211426, 3.023721933364868, 2.9586033821105957, 2.981685161590576, 2.9959073066711426, 3.0401127338409424, 3.0814595222473145, 3.080867052078247, 2.9982664585113525, 3.05793833732605, 2.9522507190704346, 3.1325554847717285, 3.1460142135620117]
prior_s 	 [-1.706540584564209]
volume 	 [0.0]
========
log_motor_var	0.0012346523581072688	sigma_logit	0.0014689471572637558	mixture_logit	0.00020001654047518969	prior_mu	0.006578255444765091	prior_s	0.0348111093044281
