NA CrossValid 24791.21875 CrossValidLossesBy500 NA
1000000 LossesBy500 NA
sigma2_stimulus 	 [0.0]
log_motor_var 	 [7.677976131439209]
sigma_logit 	 [-5.524295330047607, -6.3940749168396]
mixture_logit 	 [-5.295437812805176]
prior_mu 	 [2.8295376300811768, 2.7768547534942627, 2.863920211791992, 2.7855305671691895, 2.8580856323242188, 2.881575107574463, 2.825669527053833, 2.849090337753296, 2.8308157920837402, 2.9337050914764404, 2.869982957839966, 2.8911075592041016, 2.90737247467041, 2.950655937194824, 2.9947614669799805, 2.9933390617370605, 2.9071242809295654, 2.97133731842041, 2.8621249198913574, 3.050356149673462, 3.0665550231933594]
prior_s 	 [-1.6936218738555908]
volume 	 [0.0]
