NA CrossValid 25540.388671875 CrossValidLossesBy500 NA
1000000 LossesBy500 NA
sigma2_stimulus 	 [0.0]
log_motor_var 	 [10.091835021972656]
sigma_logit 	 [-5.403817176818848, -6.186032772064209]
mixture_logit 	 [-5.060957908630371]
prior_mu 	 [-0.0863063707947731, -0.3824024200439453, -0.6174924373626709, -0.2902792692184448, -0.7823302745819092, -0.4799498915672302, -0.8890901207923889, -0.2692616581916809, -1.079420804977417, -0.5629650354385376, -0.7573684453964233, -0.2872075140476227, -0.9025185108184814, -0.22535721957683563, -0.43909338116645813, -0.10185882449150085, -0.6010835766792297, -0.386512815952301, -8.022178649902344, -0.6409264802932739, -0.38511550426483154]
prior_s 	 [-3.5961694717407227, -3.053664207458496, -2.6281447410583496, -3.210282802581787, -2.4693236351013184, -2.7779600620269775, -2.4390461444854736, -3.1775312423706055, -2.2851788997650146, -2.6377861499786377, -2.507495880126953, -3.0805509090423584, -2.346874237060547, -3.116628408432007, -2.699270248413086, -3.2950103282928467, -2.6249196529388428, -2.82251238822937, -0.46692296862602234, -2.415825366973877, -2.6892051696777344]
volume 	 [0.0]
