132.65452575683594 CrossValid 24786.244140625 CrossValidLossesBy500 24811.828125 24810.47265625 24811.830078125 24789.734375 24789.734375 24787.251953125 24787.251953125 24786.07421875 24786.16015625 24786.16796875 24786.228515625 24786.244140625 24786.228515625 24786.25390625 24786.25 24786.248046875 24786.25 24786.248046875 24786.244140625 24786.244140625 24786.244140625
10500 LossesBy500 132.78456115722656 132.77938842773438 132.78457641601562 132.66571044921875 132.66571044921875 132.65570068359375 132.65570068359375 132.65469360351562 132.65467834472656 132.65467834472656 132.65457153320312 132.65455627441406 132.65457153320312 132.65457153320312 132.65455627441406 132.654541015625 132.65455627441406 132.65455627441406 132.65452575683594 132.654541015625 132.65452575683594
sigma2_stimulus 	 [0.0]
log_motor_var 	 [7.662221431732178]
sigma_logit 	 [-5.513146877288818, -6.399776935577393]
mixture_logit 	 [-5.53181266784668]
prior_mu 	 [3.461237668991089, 3.403198719024658, 3.50199031829834, 3.4138617515563965, 3.4954841136932373, 3.5236246585845947, 3.4616336822509766, 3.4884555339813232, 3.466885805130005, 3.5797030925750732, 3.5073986053466797, 3.531118154525757, 3.5523841381073, 3.5974857807159424, 3.643500566482544, 3.642902135848999, 3.549631118774414, 3.6288626194000244, 3.4999020099639893, 3.704334020614624, 3.71193265914917]
prior_s 	 [-1.5892760753631592]
volume 	 [0.0]
========
log_motor_var	9.585637599229813e-07	sigma_logit	2.339482307434082e-06	mixture_logit	1.4191027730703354e-07	prior_mu	6.068497896194458e-06	prior_s	8.104369044303894e-06
