NA CrossValid 24881.5390625 CrossValidLossesBy500 NA
1000000 LossesBy500 NA
sigma2_stimulus 	 [0.0]
log_motor_var 	 [7.684347629547119]
sigma_logit 	 [-5.505698204040527, -6.425441741943359]
mixture_logit 	 [-5.600168228149414]
prior_mu 	 [2.913158893585205, 2.8539817333221436, 2.9429144859313965, 2.866780996322632, 2.9450156688690186, 2.969120502471924, 2.894108295440674, 2.9248650074005127, 2.9275286197662354, 3.015092611312866, 2.9415085315704346, 2.9713597297668457, 2.994832754135132, 3.0197973251342773, 3.0830280780792236, 3.0542993545532227, 2.983400821685791, 3.0540149211883545, 2.9299936294555664, 3.1156089305877686, 3.1310741901397705]
prior_s 	 [-1.691452980041504]
volume 	 [0.0]
