132.23477172851562 CrossValid 25542.041015625 CrossValidLossesBy500 27008.484375 25542.24609375 25541.880859375 25542.04296875 25542.041015625
2500 LossesBy500 139.37753295898438 132.2363739013672 132.23480224609375 132.2347869873047 132.23477172851562
sigma2_stimulus 	 [0.0]
log_motor_var 	 [7.650972366333008]
sigma_logit 	 [-5.473684787750244, -6.420577526092529]
mixture_logit 	 [-5.504871368408203]
prior_mu 	 [3.2652578353881836, 3.2216901779174805, 3.302053213119507, 3.2298686504364014, 3.302133798599243, 3.332273244857788, 3.271350860595703, 3.2869367599487305, 3.28125, 3.3658595085144043, 3.313380718231201, 3.330174446105957, 3.3465774059295654, 3.3761203289031982, 3.4389395713806152, 3.422733783721924, 3.3492929935455322, 3.4132139682769775, 3.3044075965881348, 3.4804887771606445, 3.488358974456787]
prior_s 	 [-1.6967262029647827]
volume 	 [0.0]
========
log_motor_var	1.7690763343125582e-07	sigma_logit	6.556510925292969e-07	mixture_logit	5.203764885663986e-08	prior_mu	9.462237358093262e-07	prior_s	3.0547380447387695e-07
