NA CrossValid 25179.763671875 CrossValidLossesBy500 NA
1000000 LossesBy500 NA
sigma2_stimulus 	 [0.0]
log_motor_var 	 [10.834017753601074]
sigma_logit 	 [-5.398576259613037, -6.176692008972168]
mixture_logit 	 [-5.024767875671387]
prior_mu 	 [-0.10326927155256271, -0.3495445251464844, -0.645954430103302, -0.3506704866886139, -0.6690918803215027, -0.589370608329773, -1.062552809715271, -0.31299924850463867, -1.0891674757003784, -0.5631241202354431, -0.7070293426513672, -0.3263789415359497, -0.7933464646339417, -0.28310295939445496, -0.5280141234397888, -0.12313941866159439, -0.5706372261047363, -0.3011685311794281, -2.8631997108459473, -0.7996397614479065, -0.4069313406944275]
prior_s 	 [-3.549933433532715, -3.111396074295044, -2.5851521492004395, -3.1095261573791504, -2.5786068439483643, -2.6639416217803955, -2.305875539779663, -3.096060276031494, -2.2868220806121826, -2.6262598037719727, -2.558911085128784, -3.011587619781494, -2.430729866027832, -3.0085692405700684, -2.590101718902588, -3.2428603172302246, -2.6572933197021484, -2.9461429119110107, -1.4460448026657104, -2.25522518157959, -2.641803503036499]
volume 	 [0.0]
