132.48663330078125 CrossValid 25113.1953125 CrossValidLossesBy500 26429.771484375 25115.173828125 25113.1953125
1500 LossesBy500 139.70547485351562 132.4895782470703 132.48663330078125
sigma2_stimulus 	 [0.0]
log_motor_var 	 [7.6996588706970215]
sigma_logit 	 [-5.474026679992676, -6.412259101867676]
mixture_logit 	 [-5.55996561050415]
prior_mu 	 [3.263965368270874, 3.215547561645508, 3.304041624069214, 3.2195780277252197, 3.2990620136260986, 3.321727752685547, 3.264585018157959, 3.288607358932495, 3.278946876525879, 3.3737757205963135, 3.3025572299957275, 3.3299906253814697, 3.341726303100586, 3.374319314956665, 3.4334542751312256, 3.4274399280548096, 3.3440842628479004, 3.4201903343200684, 3.300198554992676, 3.4800379276275635, 3.485492467880249]
prior_s 	 [-1.6859707832336426]
volume 	 [0.0]
========
log_motor_var	8.441484533250332e-05	sigma_logit	0.0025110188871622086	mixture_logit	0.00013590638991445303	prior_mu	0.0034477636218070984	prior_s	0.003254864364862442
