NA CrossValid 25380.796875 CrossValidLossesBy500 NA
1000000 LossesBy500 NA
sigma2_stimulus 	 [0.0]
log_motor_var 	 [11.031753540039062]
sigma_logit 	 [-5.394446849822998, -6.166988849639893]
mixture_logit 	 [-5.03148078918457]
prior_mu 	 [-0.10760856419801712, -0.3465208411216736, -0.6724256873130798, -0.3061959743499756, -0.6636609435081482, -0.4690931737422943, -1.029681921005249, -0.29370352625846863, -1.2685518264770508, -0.6760274767875671, -0.7148287892341614, -0.31558308005332947, -0.9026394486427307, -0.19964607059955597, -0.564886212348938, -0.1279616355895996, -0.5746986269950867, -0.3108981251716614, -2.7444911003112793, -0.767379641532898, -0.4038979709148407]
prior_s 	 [-3.5318500995635986, -3.1108238697052, -2.5654571056365967, -3.1885385513305664, -2.598722219467163, -2.797929286956787, -2.3173160552978516, -3.1229262351989746, -2.1543900966644287, -2.495450019836426, -2.551086902618408, -3.025805711746216, -2.3405046463012695, -3.160161018371582, -2.547762393951416, -3.2263734340667725, -2.641530990600586, -2.931497573852539, -1.4896235466003418, -2.28478741645813, -2.647144079208374]
volume 	 [0.0]
