NA CrossValid 25098.173828125 CrossValidLossesBy500 NA
1000000 LossesBy500 NA
sigma2_stimulus 	 [0.0]
log_motor_var 	 [8.90195369720459]
sigma_logit 	 [-5.410357475280762, -6.169358253479004]
mixture_logit 	 [-4.980915546417236]
prior_mu 	 [-0.35809755325317383, -0.968549370765686, -3.3014438152313232, -1.0169025659561157, -3.2065389156341553, -1.2855234146118164, -4.7803850173950195, -0.824459433555603, -4.890454292297363, -1.895849347114563, -2.7488515377044678, -0.8140807151794434, -4.776103496551514, -0.5724082589149475, -1.2576570510864258, -0.29334408044815063, -1.7536215782165527, -1.043694019317627, -7.470816135406494, -1.2220723628997803, -1.1068921089172363]
prior_s 	 [-3.3227860927581787, -2.7096898555755615, -1.5448665618896484, -2.6645679473876953, -1.5798503160476685, -2.3583579063415527, -1.256095051765442, -2.744680881500244, -1.2189946174621582, -1.9765969514846802, -1.7248748540878296, -2.7010161876678467, -1.1836059093475342, -2.879209280014038, -2.2482855319976807, -3.176250457763672, -2.0702178478240967, -2.419963836669922, -0.7931312322616577, -2.220529794692993, -2.2687911987304688]
volume 	 [0.0]
