NA CrossValid 25098.78515625 CrossValidLossesBy500 NA
1000000 LossesBy500 NA
sigma2_stimulus 	 [0.0]
log_motor_var 	 [8.912443161010742]
sigma_logit 	 [-5.417778491973877, -6.159810543060303]
mixture_logit 	 [-4.962588787078857]
prior_mu 	 [-0.36066749691963196, -0.9654960036277771, -3.305554151535034, -1.0202436447143555, -3.1961724758148193, -1.2886772155761719, -4.8329243659973145, -0.8197247982025146, -4.927102565765381, -1.8980296850204468, -2.755073070526123, -0.8167960047721863, -4.813326835632324, -0.5761451125144958, -1.262524127960205, -0.29455968737602234, -1.7685050964355469, -1.0416189432144165, -7.554174423217773, -1.220431923866272, -1.108899712562561]
prior_s 	 [-3.327760934829712, -2.7207143306732178, -1.5540319681167603, -2.6717467308044434, -1.593471884727478, -2.3667144775390625, -1.2562228441238403, -2.7591099739074707, -1.2221250534057617, -1.9831490516662598, -1.7331063747406006, -2.7088184356689453, -1.1850053071975708, -2.8846547603607178, -2.254168748855591, -3.1860570907592773, -2.0709245204925537, -2.429532527923584, -0.7917520999908447, -2.2290279865264893, -2.2726998329162598]
volume 	 [0.0]
