NA CrossValid 24817.197265625 CrossValidLossesBy500 NA
1000000 LossesBy500 NA
sigma2_stimulus 	 [0.0]
log_motor_var 	 [8.331068992614746]
sigma_logit 	 [-5.4207258224487305, -6.207010746002197]
mixture_logit 	 [-4.880306243896484]
prior_mu 	 [-0.10591861605644226, -0.32174447178840637, -0.5083017349243164, -0.35944440960884094, -0.730281412601471, -0.3294719457626343, -0.8468414545059204, -0.25804564356803894, -1.0348892211914062, -0.5334877967834473, -0.5981507897377014, -0.3418574631214142, -0.6377562284469604, -0.25011634826660156, -0.6127240061759949, -0.09288600087165833, -0.5870169401168823, -0.258827805519104, -9.482535362243652, -0.553131103515625, -0.29466548562049866]
prior_s 	 [-3.765927791595459, -3.371645927429199, -2.965402364730835, -3.3045222759246826, -2.733922243118286, -3.20621919631958, -2.658453941345215, -3.3799774646759033, -2.510406255722046, -2.8509113788604736, -2.845031976699829, -3.185032367706299, -2.773721218109131, -3.230701446533203, -2.7015161514282227, -3.4692678451538086, -2.804021120071411, -3.186206817626953, -0.5040530562400818, -2.6909637451171875, -2.9898743629455566]
volume 	 [0.0]
