132.55621337890625 CrossValid 24995.734375 CrossValidLossesBy500 26278.275390625 24999.046875 24995.87109375 24995.734375
2000 LossesBy500 139.7943115234375 132.55908203125 132.5562744140625 132.55621337890625
sigma2_stimulus 	 [0.0]
log_motor_var 	 [7.7200727462768555]
sigma_logit 	 [-5.481053829193115, -6.40878963470459]
mixture_logit 	 [-5.489716053009033]
prior_mu 	 [3.2619974613189697, 3.2121896743774414, 3.3029096126556396, 3.2181382179260254, 3.3104658126831055, 3.3213512897491455, 3.2651400566101074, 3.289442300796509, 3.2694127559661865, 3.3706307411193848, 3.3040263652801514, 3.3325109481811523, 3.3411319255828857, 3.3776803016662598, 3.43654203414917, 3.424459218978882, 3.3448328971862793, 3.409128427505493, 3.304002285003662, 3.4842989444732666, 3.4837582111358643]
prior_s 	 [-1.6842094659805298]
volume 	 [0.0]
========
log_motor_var	2.9549701139330864e-06	sigma_logit	5.025789141654968e-05	mixture_logit	1.3737007975578308e-07	prior_mu	4.1428953409194946e-05	prior_s	0.00011989474296569824
