132.691162109375 CrossValid 24724.240234375 CrossValidLossesBy500 24745.748046875 24744.85546875 24744.892578125 24745.748046875 24724.14453125 24725.044921875 24725.361328125 24724.71484375 24724.818359375 24724.71875 24724.81640625 24724.27734375 24724.265625 24724.271484375 24724.2734375 24724.234375 24724.236328125 24724.240234375 24724.240234375 24724.240234375
10000 LossesBy500 132.84725952148438 132.8408203125 132.84078979492188 132.84725952148438 132.70089721679688 132.70201110839844 132.69224548339844 132.6923370361328 132.69131469726562 132.69129943847656 132.6913299560547 132.69117736816406 132.69117736816406 132.691162109375 132.69117736816406 132.691162109375 132.691162109375 132.691162109375 132.69117736816406 132.691162109375
sigma2_stimulus 	 [0.0]
log_motor_var 	 [7.653097152709961]
sigma_logit 	 [-5.505269527435303, -6.388339042663574]
mixture_logit 	 [-5.5529632568359375]
prior_mu 	 [3.467933416366577, 3.411588191986084, 3.4986801147460938, 3.4222497940063477, 3.499246835708618, 3.525040626525879, 3.4562900066375732, 3.4947774410247803, 3.4726297855377197, 3.5851917266845703, 3.510267734527588, 3.535372495651245, 3.556802749633789, 3.5853118896484375, 3.6537742614746094, 3.6323912143707275, 3.5526697635650635, 3.627471923828125, 3.498883008956909, 3.700146436691284, 3.714881658554077]
prior_s 	 [-1.59432852268219]
volume 	 [0.0]
========
log_motor_var	9.849900379776955e-07	sigma_logit	3.118067979812622e-06	mixture_logit	2.9103830456733704e-07	prior_mu	7.897615432739258e-06	prior_s	4.624016582965851e-06
