136.1250762939453 CrossValid 26344.681640625 CrossValidLossesBy500 26350.84375 26350.84375 26345.75 26345.75 26344.916015625 26344.916015625 26344.677734375 26344.677734375 26344.66796875 26344.66796875 26344.681640625
5500 LossesBy500 136.14117431640625 136.14117431640625 136.12742614746094 136.12742614746094 136.12513732910156 136.12513732910156 136.1251220703125 136.1251220703125 136.12510681152344 136.12510681152344 136.1250762939453
sigma2_stimulus 	 [0.0]
log_motor_var 	 [6.093850135803223]
sigma_logit 	 [-5.920649528503418, -7.317098140716553]
mixture_logit 	 [-5.223794460296631]
prior_mu 	 [3.0, 3.0, 3.0, 3.0, 3.0, 3.0, 3.0, 3.0, 3.0, 3.0, 3.0, 3.0, 3.0, 3.0, 3.0, 3.0, 3.0, 3.0, 3.0, 3.0, 3.0]
prior_s 	 [0.0]
volume 	 [0.0]
========
log_motor_var	0.0001452416181564331	sigma_logit	3.454089164733887e-05	mixture_logit	4.24371100962162e-05
