132.67503356933594 CrossValid 24793.361328125 CrossValidLossesBy500 26160.6796875 24792.958984375 24793.369140625 24793.361328125 24793.361328125
2500 LossesBy500 139.86456298828125 132.67672729492188 132.67506408691406 132.67503356933594 132.67503356933594
sigma2_stimulus 	 [0.0]
log_motor_var 	 [7.680962085723877]
sigma_logit 	 [-5.479797840118408, -6.415602207183838]
mixture_logit 	 [-5.475762844085693]
prior_mu 	 [3.2640573978424072, 3.2128896713256836, 3.300739288330078, 3.2228870391845703, 3.295186996459961, 3.3206005096435547, 3.2659687995910645, 3.28886342048645, 3.2706384658813477, 3.3710601329803467, 3.306933641433716, 3.3286871910095215, 3.346133232116699, 3.3880770206451416, 3.43021297454834, 3.4291012287139893, 3.3462820053100586, 3.4111669063568115, 3.3027565479278564, 3.4819908142089844, 3.492581367492676]
prior_s 	 [-1.6925886869430542]
volume 	 [0.0]
========
log_motor_var	6.339396350085735e-07	sigma_logit	9.685754776000977e-07	mixture_logit	7.497146725654602e-08	prior_mu	1.3317912817001343e-06	prior_s	2.6207417249679565e-06
