132.56430053710938 CrossValid 24995.640625 CrossValidLossesBy500 26318.234375 24998.17578125 24995.958984375 24995.640625 24995.640625
2500 LossesBy500 140.00218200683594 132.56805419921875 132.5643310546875 132.56430053710938 132.56430053710938
sigma2_stimulus 	 [0.0]
log_motor_var 	 [7.688309669494629]
sigma_logit 	 [-5.489068031311035, -6.419627666473389]
mixture_logit 	 [-5.448724269866943]
prior_mu 	 [3.0774853229522705, 3.0277724266052246, 3.118281364440918, 3.0338613986968994, 3.1261274814605713, 3.1366970539093018, 3.0809507369995117, 3.104405641555786, 3.085195541381836, 3.186065435409546, 3.1198267936706543, 3.1480743885040283, 3.1564486026763916, 3.1930336952209473, 3.252084255218506, 3.2395596504211426, 3.1604387760162354, 3.2208876609802246, 3.118976593017578, 3.2982330322265625, 3.2991514205932617]
prior_s 	 [-1.696508765220642]
volume 	 [0.0]
========
log_motor_var	1.176958903670311e-07	sigma_logit	4.637986421585083e-07	mixture_logit	2.3050233721733093e-08	prior_mu	1.1958181858062744e-06	prior_s	1.6987323760986328e-06
