136.5517120361328 CrossValid 25619.58984375 CrossValidLossesBy500 25623.521484375 25623.521484375 25620.65625 25620.12890625 25619.71875 25619.796875 25619.54296875 25619.62109375 25619.576171875 25619.59765625 25619.587890625 25619.587890625 25619.5859375 25619.58984375 25619.587890625 25619.58984375
8000 LossesBy500 136.569091796875 136.569091796875 136.55296325683594 136.55409240722656 136.55181884765625 136.5518341064453 136.5517120361328 136.5517120361328 136.5517120361328 136.55172729492188 136.5517120361328 136.5517120361328 136.5517120361328 136.55172729492188 136.55172729492188 136.5517120361328
sigma2_stimulus 	 [0.0]
log_motor_var 	 [6.094306468963623]
sigma_logit 	 [-5.935990333557129, -7.321583271026611]
mixture_logit 	 [-5.1927666664123535]
prior_mu 	 [3.0, 3.0, 3.0, 3.0, 3.0, 3.0, 3.0, 3.0, 3.0, 3.0, 3.0, 3.0, 3.0, 3.0, 3.0, 3.0, 3.0, 3.0, 3.0, 3.0, 3.0]
prior_s 	 [0.0]
volume 	 [0.0]
========
log_motor_var	3.591179847717285e-06	sigma_logit	4.4889748096466064e-07	mixture_logit	5.029141902923584e-08
