132.32015991210938 CrossValid 25409.576171875 CrossValidLossesBy500 26944.62109375 25410.939453125 25409.576171875
1500 LossesBy500 140.12051391601562 132.32473754882812 132.32015991210938
sigma2_stimulus 	 [0.0]
log_motor_var 	 [7.679729461669922]
sigma_logit 	 [-5.502530574798584, -6.396827220916748]
mixture_logit 	 [-5.457738876342773]
prior_mu 	 [2.917696952819824, 2.8671038150787354, 2.951862335205078, 2.8711659908294678, 2.940765142440796, 2.9753870964050293, 2.9256997108459473, 2.940222978591919, 2.9264214038848877, 3.0234148502349854, 2.9567949771881104, 2.980482816696167, 2.99682354927063, 3.0285098552703857, 3.0802862644195557, 3.0717761516571045, 3.003253698348999, 3.0594916343688965, 2.946118116378784, 3.133683204650879, 3.1397318840026855]
prior_s 	 [-1.698891520500183]
volume 	 [0.0]
========
log_motor_var	0.00078334950376302	sigma_logit	0.0026364345103502274	mixture_logit	0.00015711691230535507	prior_mu	0.006064306944608688	prior_s	0.013999901711940765
