NA CrossValid 25110.455078125 CrossValidLossesBy500 NA
1000000 LossesBy500 NA
sigma2_stimulus 	 [0.0]
log_motor_var 	 [21.139307022094727]
sigma_logit 	 [-5.436447620391846, -6.1941657066345215]
mixture_logit 	 [-4.944644451141357]
prior_mu 	 [0.08888854086399078, 0.01414334587752819, -0.08172246068716049, 0.002773140324279666, -0.11259450018405914, -0.016797488555312157, -0.1011706069111824, 0.036963943392038345, -0.13142134249210358, -0.02216493897140026, -0.12519226968288422, -0.0017754584550857544, -0.2051049768924713, 0.05297486111521721, 0.00848909467458725, 0.08878418803215027, -0.12155182659626007, 0.01184854842722416, -1.2639527320861816, 0.0018834297079592943, -0.013807765208184719]
prior_s 	 [-3.986513137817383, -3.724163293838501, -3.190167188644409, -3.680928945541382, -3.1917171478271484, -3.4310715198516846, -3.243826389312744, -3.682502269744873, -3.162093162536621, -3.261618137359619, -3.175004720687866, -3.4818973541259766, -2.9390878677368164, -3.5825436115264893, -3.3282289505004883, -3.6127352714538574, -3.105131149291992, -3.3841466903686523, -1.8853034973144531, -3.219572067260742, -3.0939371585845947]
volume 	 [0.0]
