NA CrossValid 24700.544921875 CrossValidLossesBy500 NA
1000000 LossesBy500 NA
sigma2_stimulus 	 [0.0]
log_motor_var 	 [7.620789051055908]
sigma_logit 	 [-5.486071586608887, -6.423599720001221]
mixture_logit 	 [-5.445130825042725]
prior_mu 	 [3.0824191570281982, 3.039766788482666, 3.1189916133880615, 3.036679267883301, 3.123479127883911, 3.147873640060425, 3.0794966220855713, 3.108052968978882, 3.1004061698913574, 3.1985361576080322, 3.1258344650268555, 3.14289927482605, 3.1602683067321777, 3.1958279609680176, 3.2617294788360596, 3.246509313583374, 3.1683433055877686, 3.2282514572143555, 3.122077703475952, 3.304309606552124, 3.3085553646087646]
prior_s 	 [-1.7105512619018555]
volume 	 [0.0]
