NA CrossValid 25406.95703125 CrossValidLossesBy500 NA
1000000 LossesBy500 NA
sigma2_stimulus 	 [0.0]
log_motor_var 	 [7.674615859985352]
sigma_logit 	 [-5.471437931060791, -6.4080047607421875]
mixture_logit 	 [-5.499525547027588]
prior_mu 	 [3.082705497741699, 3.0336802005767822, 3.117001533508301, 3.0378854274749756, 3.1077561378479004, 3.141993284225464, 3.0906805992126465, 3.1081037521362305, 3.093310832977295, 3.189582347869873, 3.1245064735412598, 3.148691415786743, 3.164513349533081, 3.1953186988830566, 3.247804880142212, 3.239668130874634, 3.17059326171875, 3.2280964851379395, 3.116382122039795, 3.300236701965332, 3.306415319442749]
prior_s 	 [-1.698818325996399]
volume 	 [0.0]
