NA CrossValid 25380.83203125 CrossValidLossesBy500 NA
1000000 LossesBy500 NA
sigma2_stimulus 	 [0.0]
log_motor_var 	 [8.961362838745117]
sigma_logit 	 [-5.414468765258789, -6.143900394439697]
mixture_logit 	 [-4.9663872718811035]
prior_mu 	 [-0.45545828342437744, -1.116223692893982, -3.5789005756378174, -0.8965981006622314, -2.551050901412964, -1.4361339807510376, -4.083934307098389, -0.8185954093933105, -5.7742390632629395, -2.6608328819274902, -2.7683444023132324, -0.9021599292755127, -3.514840841293335, -0.5940420627593994, -1.35007643699646, -0.3918982744216919, -1.3822036981582642, -0.988292396068573, -8.509520530700684, -2.126298666000366, -0.9042118787765503]
prior_s 	 [-3.1817986965179443, -2.5989887714385986, -1.4841006994247437, -2.7692689895629883, -1.8062571287155151, -2.276590347290039, -1.401363492012024, -2.757993698120117, -1.0766935348510742, -1.6868438720703125, -1.7245299816131592, -2.6313815116882324, -1.470047950744629, -2.863027811050415, -2.200092077255249, -3.044858694076538, -2.2605140209198, -2.4779052734375, -0.6822940111160278, -1.7679210901260376, -2.4156999588012695]
volume 	 [0.0]
