132.63119506835938 CrossValid 25021.642578125 CrossValidLossesBy500 25148.431640625 25148.95703125 25043.107421875 25043.107421875 25024.95703125 25024.95703125 25023.34765625 25023.34765625 25022.8125 25023.119140625 25022.798828125 25022.384765625 25022.478515625 25021.990234375 25021.884765625 25021.89453125 25021.8671875 25021.857421875 25021.78515625 25021.779296875 25021.779296875 25021.736328125 25021.736328125 25021.6640625 25021.666015625 25021.65625 25021.642578125 25021.642578125 25021.642578125 25021.642578125 25021.642578125 25021.642578125 25021.642578125 25021.642578125 25021.642578125 25021.642578125 25021.642578125 25021.642578125 25021.642578125 25021.642578125 25021.642578125 25021.642578125 25021.642578125 25021.642578125 25021.642578125 25021.642578125 25021.642578125 25021.642578125 25021.642578125 25021.642578125 25021.642578125 25021.642578125 25021.642578125 25021.642578125 25021.642578125 25021.642578125 25021.642578125 25021.642578125 25021.642578125 25021.642578125 25021.642578125 25021.642578125 25021.642578125 25021.642578125 25021.642578125 25021.642578125 25021.642578125 25021.642578125 25021.642578125 25021.642578125 25021.642578125 25021.642578125 25021.642578125 25021.642578125 25021.642578125 25021.642578125 25021.642578125 25021.642578125 25021.642578125 25021.642578125 25021.642578125 25021.642578125 25021.642578125 25021.642578125 25021.642578125 25021.642578125 25021.642578125 25021.642578125 25021.642578125 25021.642578125 25021.642578125 25021.642578125 25021.642578125 25021.642578125 25021.642578125 25021.642578125 25021.642578125 25021.642578125 25021.642578125 25021.642578125 25021.642578125 25021.642578125 25021.642578125 25021.642578125 25021.642578125 25021.642578125 25021.642578125 25021.642578125 25021.642578125 25021.642578125 25021.642578125 25021.642578125 25021.642578125 25021.642578125 25021.642578125 25021.642578125 25021.642578125 25021.642578125 25021.642578125 25021.642578125 25021.642578125 25021.642578125 25021.642578125 25021.642578125 25021.642578125 25021.642578125 25021.642578125
63500 LossesBy500 133.29798889160156 133.3037567138672 132.73838806152344 132.73838806152344 132.64649963378906 132.64649963378906 132.63958740234375 132.63958740234375 132.63796997070312 132.63697814941406 132.63540649414062 132.63401794433594 132.63299560546875 132.63229370117188 132.63192749023438 132.63172912597656 132.631591796875 132.63148498535156 132.63143920898438 132.6314239501953 132.6314239501953 132.6312255859375 132.6312255859375 132.63119506835938 132.63119506835938 132.63119506835938 132.63119506835938 132.63119506835938 132.63119506835938 132.63119506835938 132.63119506835938 132.63119506835938 132.63119506835938 132.63119506835938 132.63119506835938 132.63119506835938 132.63119506835938 132.63119506835938 132.63119506835938 132.63119506835938 132.63119506835938 132.63119506835938 132.63119506835938 132.63119506835938 132.63119506835938 132.63119506835938 132.63119506835938 132.63119506835938 132.63119506835938 132.63119506835938 132.63119506835938 132.63119506835938 132.63119506835938 132.63119506835938 132.63119506835938 132.63119506835938 132.63119506835938 132.63119506835938 132.63119506835938 132.63119506835938 132.63119506835938 132.63119506835938 132.63119506835938 132.63119506835938 132.63119506835938 132.63119506835938 132.63119506835938 132.63119506835938 132.63119506835938 132.63119506835938 132.63119506835938 132.63119506835938 132.63119506835938 132.63119506835938 132.63119506835938 132.63119506835938 132.63119506835938 132.63119506835938 132.63119506835938 132.63119506835938 132.63119506835938 132.63119506835938 132.63119506835938 132.63119506835938 132.63119506835938 132.63119506835938 132.63119506835938 132.63119506835938 132.63119506835938 132.63119506835938 132.63119506835938 132.63119506835938 132.63119506835938 132.63119506835938 132.63119506835938 132.63119506835938 132.63119506835938 132.63119506835938 132.63119506835938 132.63119506835938 132.63119506835938 132.63119506835938 132.63119506835938 132.63119506835938 132.63119506835938 132.63119506835938 132.63119506835938 132.63119506835938 132.63119506835938 132.63119506835938 132.63119506835938 132.63119506835938 132.63119506835938 132.63119506835938 132.63119506835938 132.63119506835938 132.63119506835938 132.63119506835938 132.63119506835938 132.63119506835938 132.63119506835938 132.63119506835938 132.63119506835938 132.63119506835938 132.63119506835938 132.63119506835938 132.63119506835938
sigma2_stimulus 	 [0.0]
log_motor_var 	 [20.028156280517578]
sigma_logit 	 [-5.526340484619141, -6.237236976623535]
mixture_logit 	 [-4.89874792098999]
prior_mu 	 [0.17316076159477234, 0.14534975588321686, 0.1490345001220703, 0.10556478053331375, 0.14573080837726593, 0.14938795566558838, 0.08303088694810867, 0.14183923602104187, 0.06457896530628204, 0.13821852207183838, 0.11720217764377594, 0.1403215527534485, 0.09208531677722931, 0.1576118767261505, 0.1676074117422104, 0.18858246505260468, 0.10637740790843964, 0.1546783149242401, -0.1579631268978119, 0.15680809319019318, 0.1706448495388031]
prior_s 	 [-4.191967010498047, -4.050496578216553, -3.671006917953491, -3.8175621032714844, -3.6508677005767822, -3.696035861968994, -3.502542495727539, -3.916594982147217, -3.4105923175811768, -3.5249063968658447, -3.6651384830474854, -3.781834840774536, -3.3905038833618164, -3.730262279510498, -3.5309414863586426, -3.83697247505188, -3.485156774520874, -3.6794655323028564, -2.7191061973571777, -3.3435072898864746, -3.432598114013672]
volume 	 [0.0]
========
log_motor_var	1.0994374861184042e-05	sigma_logit	2.954155206680298e-06	mixture_logit	1.6135163605213165e-07	prior_mu	2.0623207092285156e-05	prior_s	4.149973392486572e-06
