NA CrossValid 25539.68359375 CrossValidLossesBy500 NA
1000000 LossesBy500 NA
sigma2_stimulus 	 [0.0]
log_motor_var 	 [7.646438121795654]
sigma_logit 	 [-5.476904392242432, -6.421803951263428]
mixture_logit 	 [-5.500063896179199]
prior_mu 	 [3.2658724784851074, 3.2216403484344482, 3.3014376163482666, 3.2304468154907227, 3.302333116531372, 3.3323233127593994, 3.270836591720581, 3.2868106365203857, 3.280759811401367, 3.3661274909973145, 3.3133482933044434, 3.330399990081787, 3.346344470977783, 3.3771557807922363, 3.4393303394317627, 3.422457218170166, 3.3490285873413086, 3.412510633468628, 3.304034948348999, 3.4818949699401855, 3.4879534244537354]
prior_s 	 [-1.6984633207321167]
volume 	 [0.0]
