NA CrossValid 24955.001953125 CrossValidLossesBy500 NA
1000000 LossesBy500 NA
sigma2_stimulus 	 [0.0]
log_motor_var 	 [7.669356346130371]
sigma_logit 	 [-5.483044624328613, -6.4244489669799805]
mixture_logit 	 [-5.426042079925537]
prior_mu 	 [3.0793821811676025, 3.030939817428589, 3.125258207321167, 3.0454766750335693, 3.114370822906494, 3.1399664878845215, 3.073683023452759, 3.0988152027130127, 3.089674234390259, 3.1904137134552, 3.1167829036712646, 3.143144130706787, 3.160022735595703, 3.189919948577881, 3.255283832550049, 3.2349257469177246, 3.159442186355591, 3.227825164794922, 3.118579626083374, 3.287475347518921, 3.297762155532837]
prior_s 	 [-1.7003509998321533]
volume 	 [0.0]
