NA CrossValid 25188.2734375 CrossValidLossesBy500 NA
1000000 LossesBy500 NA
sigma2_stimulus 	 [0.0]
log_motor_var 	 [7.741898536682129]
sigma_logit 	 [-5.501131534576416, -6.395235061645508]
mixture_logit 	 [-5.421402454376221]
prior_mu 	 [2.8279869556427, 2.777623414993286, 2.877469539642334, 2.787529230117798, 2.8653404712677, 2.878150701522827, 2.8206064701080322, 2.8441126346588135, 2.8329782485961914, 2.93664813041687, 2.8707923889160156, 2.890725612640381, 2.906184434890747, 2.934525966644287, 2.998455047607422, 2.9834959506988525, 2.9079179763793945, 2.9695897102355957, 2.860830545425415, 3.051814079284668, 3.0625650882720947]
prior_s 	 [-1.668764352798462]
volume 	 [0.0]
