NA CrossValid 24695.662109375 CrossValidLossesBy500 NA
1000000 LossesBy500 NA
sigma2_stimulus 	 [0.0]
log_motor_var 	 [7.817006587982178]
sigma_logit 	 [-5.489427089691162, -6.357050895690918]
mixture_logit 	 [-5.29867696762085]
prior_mu 	 [2.7898123264312744, 2.7445693016052246, 2.8224411010742188, 2.7400636672973633, 2.828998565673828, 2.847730875015259, 2.779600143432617, 2.8062472343444824, 2.7993202209472656, 2.903430700302124, 2.828141212463379, 2.843885898590088, 2.862048625946045, 2.8976149559020996, 2.9685275554656982, 2.9511959552764893, 2.8699755668640137, 2.9311985969543457, 2.821974992752075, 3.020162343978882, 3.0235297679901123]
prior_s 	 [-1.631678581237793]
volume 	 [0.0]
