NA CrossValid 24951.83984375 CrossValidLossesBy500 NA
1000000 LossesBy500 NA
sigma2_stimulus 	 [0.0]
log_motor_var 	 [7.693030834197998]
sigma_logit 	 [-5.520340919494629, -6.394345760345459]
mixture_logit 	 [-5.266286849975586]
prior_mu 	 [2.8262176513671875, 2.776146650314331, 2.870563268661499, 2.7903058528900146, 2.8592159748077393, 2.885915517807007, 2.8178746700286865, 2.8424746990203857, 2.834728479385376, 2.9398791790008545, 2.8632731437683105, 2.8869147300720215, 2.9066314697265625, 2.9363574981689453, 3.0030436515808105, 2.9823246002197266, 2.9046645164489746, 2.974592924118042, 2.861727237701416, 3.0421805381774902, 3.0508859157562256]
prior_s 	 [-1.6905431747436523]
volume 	 [0.0]
