NA CrossValid 24706.255859375 CrossValidLossesBy500 NA
1000000 LossesBy500 NA
sigma2_stimulus 	 [0.0]
log_motor_var 	 [8.818074226379395]
sigma_logit 	 [-5.422224998474121, -6.16689395904541]
mixture_logit 	 [-4.9813971519470215]
prior_mu 	 [-0.4147227704524994, -1.0060750246047974, -2.831721067428589, -1.114288330078125, -3.6126651763916016, -1.4965386390686035, -5.707180500030518, -0.9282346367835999, -5.3764567375183105, -1.5404525995254517, -1.7075141668319702, -0.7168946862220764, -2.8571765422821045, -0.6602028608322144, -1.1556047201156616, -0.38440829515457153, -1.4103741645812988, -1.1339613199234009, -10.4464693069458, -2.3969016075134277, -0.8801674246788025]
prior_s 	 [-3.2346513271331787, -2.674132823944092, -1.6971099376678467, -2.5832479000091553, -1.4777023792266846, -2.2409236431121826, -1.0972065925598145, -2.659677743911743, -1.1405104398727417, -2.1520493030548096, -2.141867160797119, -2.794625997543335, -1.6523305177688599, -2.794443368911743, -2.3146259784698486, -3.063976287841797, -2.2507152557373047, -2.3694725036621094, -0.4775400757789612, -1.672027587890625, -2.4299097061157227]
volume 	 [0.0]
