NA CrossValid 25543.568359375 CrossValidLossesBy500 NA
1000000 LossesBy500 NA
sigma2_stimulus 	 [0.0]
log_motor_var 	 [7.640724182128906]
sigma_logit 	 [-5.519530773162842, -6.40064811706543]
mixture_logit 	 [-5.295740127563477]
prior_mu 	 [2.834897518157959, 2.7890822887420654, 2.8677024841308594, 2.797006130218506, 2.8689188957214355, 2.899439573287964, 2.8386964797973633, 2.8527438640594482, 2.8490006923675537, 2.9340670108795166, 2.8804280757904053, 2.8960041999816895, 2.914381742477417, 2.944992780685425, 3.0096287727355957, 2.9935896396636963, 2.920100212097168, 2.9786276817321777, 2.869389772415161, 3.053744316101074, 3.0658621788024902]
prior_s 	 [-1.7020593881607056]
volume 	 [0.0]
