green	solid	0	0	-46.58628845214844
green	solid	0	1	18.58697509765625
green	solid	0	2	-64.01530456542969
green	solid	0	3	-77.93209075927734
green	solid	0	4	-3.658172607421875
green	solid	0	5	-68.03004455566406
green	solid	0	6	-44.789878845214844
green	solid	0	7	-167.77166748046875
green	solid	0	8	-32.40167236328125
green	solid	0	9	-24.654067993164062
green	solid	2	0	-57.6641845703125
green	solid	2	1	12.345809936523438
green	solid	2	2	-70.0906753540039
green	solid	2	3	-89.80233764648438
green	solid	2	4	-7.2212677001953125
green	solid	2	5	-72.14846801757812
green	solid	2	6	-48.85261535644531
green	solid	2	7	-174.39662170410156
green	solid	2	8	-41.648590087890625
green	solid	2	9	-29.724853515625
green	solid	4	0	-57.798553466796875
green	solid	4	1	12.49957275390625
green	solid	4	2	-66.8797607421875
green	solid	4	3	-90.83096313476562
green	solid	4	4	-5.393157958984375
green	solid	4	5	-72.69985961914062
green	solid	4	6	-44.473876953125
green	solid	4	7	-174.7709503173828
green	solid	4	8	-40.0634765625
green	solid	4	9	-28.859725952148438
green	solid	6	0	-50.86021423339844
green	solid	6	1	15.580169677734375
green	solid	6	2	-58.963539123535156
green	solid	6	3	-86.96701049804688
green	solid	6	4	-1.1703643798828125
green	solid	6	5	-68.7645263671875
green	solid	6	6	-36.73731231689453
green	solid	6	7	-169.1028289794922
green	solid	6	8	-35.211143493652344
green	solid	6	9	-26.270797729492188
green	solid	8	0	-45.69293212890625
green	solid	8	1	15.470718383789062
green	solid	8	2	-55.02606964111328
green	solid	8	3	-86.80252075195312
green	solid	8	4	0.3537750244140625
green	solid	8	5	-65.37238311767578
green	solid	8	6	-34.62274932861328
green	solid	8	7	-168.4423828125
green	solid	8	8	-32.212860107421875
green	solid	8	9	-25.71148681640625
green	solid	10	0	-42.807159423828125
green	solid	10	1	14.193634033203125
green	solid	10	2	-53.14544677734375
green	solid	10	3	-87.51739501953125
green	solid	10	4	1.7098388671875
green	solid	10	5	-63.840057373046875
green	solid	10	6	-34.96055603027344
green	solid	10	7	-169.55416870117188
green	solid	10	8	-31.000473022460938
green	solid	10	9	-24.178543090820312
green	dotted	0	0	-46.58628845214844
green	dotted	0	1	18.58697509765625
green	dotted	0	2	-64.01530456542969
green	dotted	0	3	-77.93209075927734
green	dotted	0	4	-3.658172607421875
green	dotted	0	5	-68.03004455566406
green	dotted	0	6	-44.789878845214844
green	dotted	0	7	-167.77166748046875
green	dotted	0	8	-32.40167236328125
green	dotted	0	9	-24.654067993164062
green	dotted	2	0	-57.646881103515625
green	dotted	2	1	12.308013916015625
green	dotted	2	2	-70.22267150878906
green	dotted	2	3	-90.11766052246094
green	dotted	2	4	-7.218658447265625
green	dotted	2	5	-72.67984008789062
green	dotted	2	6	-48.71601867675781
green	dotted	2	7	-174.36228942871094
green	dotted	2	8	-41.44300842285156
green	dotted	2	9	-29.580078125
green	dotted	4	0	-58.127281188964844
green	dotted	4	1	12.261764526367188
green	dotted	4	2	-67.18950653076172
green	dotted	4	3	-90.88394165039062
green	dotted	4	4	-5.6815948486328125
green	dotted	4	5	-73.81114959716797
green	dotted	4	6	-45.12019348144531
green	dotted	4	7	-174.97381591796875
green	dotted	4	8	-40.67085266113281
green	dotted	4	9	-28.9207763671875
green	dotted	6	0	-51.66046142578125
green	dotted	6	1	15.289535522460938
green	dotted	6	2	-59.553916931152344
green	dotted	6	3	-87.67577362060547
green	dotted	6	4	-2.328948974609375
green	dotted	6	5	-69.78659057617188
green	dotted	6	6	-38.08500671386719
green	dotted	6	7	-169.75778198242188
green	dotted	6	8	-35.868186950683594
green	dotted	6	9	-26.953231811523438
green	dotted	8	0	-43.68791198730469
green	dotted	8	1	16.965255737304688
green	dotted	8	2	-51.971900939941406
green	dotted	8	3	-80.30583190917969
green	dotted	8	4	2.0099639892578125
green	dotted	8	5	-63.64237976074219
green	dotted	8	6	-32.07505798339844
green	dotted	8	7	-163.0709228515625
green	dotted	8	8	-28.81964111328125
green	dotted	8	9	-21.474899291992188
green	dotted	10	0	-34.97438049316406
green	dotted	10	1	19.71710205078125
green	dotted	10	2	-43.025245666503906
green	dotted	10	3	-70.05451965332031
green	dotted	10	4	4.9095306396484375
green	dotted	10	5	-51.590972900390625
green	dotted	10	6	-25.68024444580078
green	dotted	10	7	-156.538330078125
green	dotted	10	8	-16.61529541015625
green	dotted	10	9	-12.244720458984375
red	solid	0	0	5.509429931640625
red	solid	0	1	90.95623779296875
red	solid	0	2	-13.35516357421875
red	solid	0	3	-14.577606201171875
red	solid	0	4	42.24382019042969
red	solid	0	5	-5.0150909423828125
red	solid	0	6	8.026870727539062
red	solid	0	7	-96.68553161621094
red	solid	0	8	40.54222106933594
red	solid	0	9	37.98858642578125
red	solid	2	0	-18.1900634765625
red	solid	2	1	41.59962463378906
red	solid	2	2	-32.02415466308594
red	solid	2	3	-50.89839172363281
red	solid	2	4	26.598251342773438
red	solid	2	5	-16.441452026367188
red	solid	2	6	-8.267181396484375
red	solid	2	7	-131.2115936279297
red	solid	2	8	7.1738433837890625
red	solid	2	9	3.770477294921875
red	solid	4	0	-20.20953369140625
red	solid	4	1	35.222259521484375
red	solid	4	2	-29.53863525390625
red	solid	4	3	-59.21656799316406
red	solid	4	4	29.932586669921875
red	solid	4	5	-22.961837768554688
red	solid	4	6	-5.3287200927734375
red	solid	4	7	-134.7816162109375
red	solid	4	8	2.43621826171875
red	solid	4	9	-5.669219970703125
red	solid	6	0	-20.497634887695312
red	solid	6	1	33.78843688964844
red	solid	6	2	-26.5985107421875
red	solid	6	3	-61.042510986328125
red	solid	6	4	29.534652709960938
red	solid	6	5	-27.575912475585938
red	solid	6	6	-6.26678466796875
red	solid	6	7	-137.6614227294922
red	solid	6	8	-1.0572967529296875
red	solid	6	9	-7.5020904541015625
red	solid	8	0	-21.89495849609375
red	solid	8	1	32.360809326171875
red	solid	8	2	-26.33172607421875
red	solid	8	3	-61.80888366699219
red	solid	8	4	28.473220825195312
red	solid	8	5	-29.5777587890625
red	solid	8	6	-8.98504638671875
red	solid	8	7	-141.77481079101562
red	solid	8	8	-2.1732330322265625
red	solid	8	9	-6.4015350341796875
red	solid	10	0	-23.120269775390625
red	solid	10	1	30.816635131835938
red	solid	10	2	-27.583633422851562
red	solid	10	3	-62.513519287109375
red	solid	10	4	27.597091674804688
red	solid	10	5	-29.400146484375
red	solid	10	6	-11.840499877929688
red	solid	10	7	-146.154541015625
red	solid	10	8	-1.648773193359375
red	solid	10	9	-4.2132568359375
red	dotted	0	0	5.509429931640625
red	dotted	0	1	90.95623779296875
red	dotted	0	2	-13.35516357421875
red	dotted	0	3	-14.577606201171875
red	dotted	0	4	42.24382019042969
red	dotted	0	5	-5.0150909423828125
red	dotted	0	6	8.026870727539062
red	dotted	0	7	-96.68553161621094
red	dotted	0	8	40.54222106933594
red	dotted	0	9	37.98858642578125
red	dotted	2	0	-18.29852294921875
red	dotted	2	1	41.80743408203125
red	dotted	2	2	-32.238006591796875
red	dotted	2	3	-50.900787353515625
red	dotted	2	4	26.404144287109375
red	dotted	2	5	-16.418121337890625
red	dotted	2	6	-8.534805297851562
red	dotted	2	7	-131.17462158203125
red	dotted	2	8	7.1141204833984375
red	dotted	2	9	4.075408935546875
red	dotted	4	0	-20.227096557617188
red	dotted	4	1	35.428466796875
red	dotted	4	2	-29.759231567382812
red	dotted	4	3	-58.95580291748047
red	dotted	4	4	29.779693603515625
red	dotted	4	5	-22.546340942382812
red	dotted	4	6	-5.3182830810546875
red	dotted	4	7	-134.5272674560547
red	dotted	4	8	2.9245758056640625
red	dotted	4	9	-5.305023193359375
red	dotted	6	0	-20.12835693359375
red	dotted	6	1	34.28291320800781
red	dotted	6	2	-26.300735473632812
red	dotted	6	3	-60.73915100097656
red	dotted	6	4	29.5152587890625
red	dotted	6	5	-27.303054809570312
red	dotted	6	6	-5.5695037841796875
red	dotted	6	7	-136.5748291015625
red	dotted	6	8	-0.7140350341796875
red	dotted	6	9	-7.60247802734375
red	dotted	8	0	-18.036697387695312
red	dotted	8	1	33.558990478515625
red	dotted	8	2	-21.460311889648438
red	dotted	8	3	-55.4073486328125
red	dotted	8	4	28.165069580078125
red	dotted	8	5	-27.10150146484375
red	dotted	8	6	-3.81427001953125
red	dotted	8	7	-134.9405517578125
red	dotted	8	8	2.017242431640625
red	dotted	8	9	-3.7139739990234375
red	dotted	10	0	-13.436492919921875
red	dotted	10	1	34.74446105957031
red	dotted	10	2	-16.55419921875
red	dotted	10	3	-48.958831787109375
red	dotted	10	4	25.337448120117188
red	dotted	10	5	-26.087799072265625
red	dotted	10	6	-0.40570068359375
red	dotted	10	7	-132.99684143066406
red	dotted	10	8	7.85009765625
red	dotted	10	9	1.4127197265625
blue	solid	0	0	11.2176513671875
blue	solid	0	1	90.03572082519531
blue	solid	0	2	-1.9226226806640625
blue	solid	0	3	-12.613189697265625
blue	solid	0	4	41.20404052734375
blue	solid	0	5	-22.826751708984375
blue	solid	0	6	33.07441711425781
blue	solid	0	7	-87.30038452148438
blue	solid	0	8	26.679534912109375
blue	solid	0	9	16.009002685546875
blue	solid	2	0	11.513885498046875
blue	solid	2	1	88.19142150878906
blue	solid	2	2	-1.698089599609375
blue	solid	2	3	-13.44476318359375
blue	solid	2	4	37.726409912109375
blue	solid	2	5	-21.552505493164062
blue	solid	2	6	31.5052490234375
blue	solid	2	7	-87.65746307373047
blue	solid	2	8	28.459152221679688
blue	solid	2	9	18.064804077148438
blue	solid	4	0	12.748138427734375
blue	solid	4	1	88.69212341308594
blue	solid	4	2	-1.045562744140625
blue	solid	4	3	-12.56146240234375
blue	solid	4	4	36.23616027832031
blue	solid	4	5	-19.520355224609375
blue	solid	4	6	29.578262329101562
blue	solid	4	7	-88.7657470703125
blue	solid	4	8	31.8045654296875
blue	solid	4	9	21.543746948242188
blue	solid	6	0	14.916244506835938
blue	solid	6	1	90.78681945800781
blue	solid	6	2	0.1418914794921875
blue	solid	6	3	-11.382659912109375
blue	solid	6	4	36.834747314453125
blue	solid	6	5	-17.197372436523438
blue	solid	6	6	27.406272888183594
blue	solid	6	7	-88.74795532226562
blue	solid	6	8	35.64314270019531
blue	solid	6	9	25.156295776367188
blue	solid	8	0	18.212722778320312
blue	solid	8	1	94.32049560546875
blue	solid	8	2	1.847869873046875
blue	solid	8	3	-8.86083984375
blue	solid	8	4	39.462371826171875
blue	solid	8	5	-13.447555541992188
blue	solid	8	6	27.002288818359375
blue	solid	8	7	-86.3001708984375
blue	solid	8	8	40.18882751464844
blue	solid	8	9	29.676513671875
blue	solid	10	0	22.099151611328125
blue	solid	10	1	108.60360717773438
blue	solid	10	2	9.913818359375
blue	solid	10	3	5.739288330078125
blue	solid	10	4	51.94078063964844
blue	solid	10	5	-2.540374755859375
blue	solid	10	6	36.36028289794922
blue	solid	10	7	-66.99583435058594
blue	solid	10	8	54.45173645019531
blue	solid	10	9	44.71812438964844
blue	dotted	0	0	11.2176513671875
blue	dotted	0	1	90.03572082519531
blue	dotted	0	2	-1.9226226806640625
blue	dotted	0	3	-12.613189697265625
blue	dotted	0	4	41.20404052734375
blue	dotted	0	5	-22.826751708984375
blue	dotted	0	6	33.07441711425781
blue	dotted	0	7	-87.30038452148438
blue	dotted	0	8	26.679534912109375
blue	dotted	0	9	16.009002685546875
blue	dotted	2	0	11.470977783203125
blue	dotted	2	1	88.25752258300781
blue	dotted	2	2	-1.8036651611328125
blue	dotted	2	3	-13.532516479492188
blue	dotted	2	4	37.72947692871094
blue	dotted	2	5	-21.405685424804688
blue	dotted	2	6	31.706680297851562
blue	dotted	2	7	-88.31561279296875
blue	dotted	2	8	28.683990478515625
blue	dotted	2	9	18.230056762695312
blue	dotted	4	0	12.669403076171875
blue	dotted	4	1	88.80146789550781
blue	dotted	4	2	-1.080841064453125
blue	dotted	4	3	-12.877700805664062
blue	dotted	4	4	36.5439453125
blue	dotted	4	5	-19.727020263671875
blue	dotted	4	6	29.866058349609375
blue	dotted	4	7	-88.35218048095703
blue	dotted	4	8	31.347549438476562
blue	dotted	4	9	21.4638671875
blue	dotted	6	0	14.598236083984375
blue	dotted	6	1	90.71015930175781
blue	dotted	6	2	-0.01312255859375
blue	dotted	6	3	-11.288116455078125
blue	dotted	6	4	37.0010986328125
blue	dotted	6	5	-17.409423828125
blue	dotted	6	6	27.78912353515625
blue	dotted	6	7	-88.9223861694336
blue	dotted	6	8	35.12504577636719
blue	dotted	6	9	24.822647094726562
blue	dotted	8	0	18.414077758789062
blue	dotted	8	1	94.59352111816406
blue	dotted	8	2	2.147064208984375
blue	dotted	8	3	-8.44091796875
blue	dotted	8	4	39.61784362792969
blue	dotted	8	5	-13.759506225585938
blue	dotted	8	6	27.178146362304688
blue	dotted	8	7	-86.20487213134766
blue	dotted	8	8	40.202117919921875
blue	dotted	8	9	29.83782958984375
blue	dotted	10	0	27.470077514648438
blue	dotted	10	1	108.0073471069336
blue	dotted	10	2	9.820068359375
blue	dotted	10	3	5.2893524169921875
blue	dotted	10	4	51.91709899902344
blue	dotted	10	5	-2.8578643798828125
blue	dotted	10	6	35.990623474121094
blue	dotted	10	7	-68.0438461303711
blue	dotted	10	8	54.83427429199219
blue	dotted	10	9	44.640777587890625
